{
 "global_section": { "_calls": 1, "_time":      617.016, "_%":   100.00,
   "siesta": { "_calls": 1, "_time":      617.016, "_%":   100.00,
     "Setup": { "_calls": 1, "_time":        1.267, "_%":     0.21,
       "bands": { "_calls": 1, "_time":        0.002, "_%":     0.00},
       "KSV_init": { "_calls": 1, "_time":        0.001, "_%":     0.00}
     },
     "IterGeom": { "_calls": 1, "_time":      513.906, "_%":    83.29,
       "geom_init": { "_calls": 1, "_time":        4.670, "_%":     0.76,
         "state_init": { "_calls": 1, "_time":        1.192, "_%":     0.19,
           "hsparse": { "_calls": 1, "_time":        0.738, "_%":     0.12},
           "overlap": { "_calls": 1, "_time":        0.110, "_%":     0.02}
         },
         "Setup_H0": { "_calls": 1, "_time":        3.477, "_%":     0.56,
           "naefs": { "_calls": 1, "_time":        0.065, "_%":     0.01},
           "MolMec": { "_calls": 1, "_time":        0.000, "_%":     0.00},
           "kinefsm": { "_calls": 1, "_time":        0.110, "_%":     0.02},
           "nlefsm": { "_calls": 1, "_time":        0.452, "_%":     0.07},
           "DHSCF_Init": { "_calls": 1, "_time":        2.819, "_%":     0.46,
             "DHSCF1": { "_calls": 1, "_time":        0.025, "_%":     0.00,
               "INITMESH": { "_calls": 1, "_time":        0.000, "_%":     0.00}
             },
             "DHSCF2": { "_calls": 1, "_time":        2.788, "_%":     0.45,
               "REMESH": { "_calls": 1, "_time":        1.136, "_%":     0.18,
                 "INITMESH": { "_calls": 2, "_time":        1.116, "_%":     0.18,
                   "SPLOAD": { "_calls": 2, "_time":        1.083, "_%":     0.18}
                 }
               },
               "REORD": { "_calls": 2, "_time":        0.001, "_%":     0.00},
               "PHION": { "_calls": 1, "_time":        0.219, "_%":     0.04},
               "COMM_BSC": { "_calls": 1, "_time":        0.014, "_%":     0.00},
               "POISON": { "_calls": 1, "_time":        0.448, "_%":     0.07,
                 "fft": { "_calls": 2, "_time":        0.427, "_%":     0.07}
               }
             }
           }
         }
       },
       "IterSCF": { "_calls": 5, "_time":      509.168, "_%":    82.52,
         "setup_H": { "_calls": 5, "_time":        6.694, "_%":     1.08,
           "DHSCF": { "_calls": 5, "_time":        6.686, "_%":     1.08,
             "DHSCF3": { "_calls": 5, "_time":        6.686, "_%":     1.08,
               "rhoofd": { "_calls": 5, "_time":        0.153, "_%":     0.02},
               "COMM_BSC": { "_calls": 10, "_time":        0.271, "_%":     0.04},
               "POISON": { "_calls": 5, "_time":        2.126, "_%":     0.34,
                 "fft": { "_calls": 10, "_time":        2.033, "_%":     0.33}
               },
               "XC": { "_calls": 5, "_time":        3.789, "_%":     0.61,
                 "COMM_BSC": { "_calls": 10, "_time":        0.125, "_%":     0.02},
                 "GXC-CellXC": { "_calls": 5, "_time":        3.633, "_%":     0.59,
                   "gridxc@cellXC": { "_calls": 5, "_time":        3.632, "_%":     0.59}
                 }
               },
               "vmat": { "_calls": 5, "_time":        0.146, "_%":     0.02}
             }
           }
         },
         "compute_dm": { "_calls": 5, "_time":      502.444, "_%":    81.43,
           "elsi": { "_calls": 5, "_time":      501.024, "_%":    81.20,
             "find nnz_g": { "_calls": 5, "_time":        0.000, "_%":     0.00},
             "elsi-solver": { "_calls": 5, "_time":      501.005, "_%":    81.20}
           }
         },
         "MIXER": { "_calls": 5, "_time":        0.016, "_%":     0.00}
       },
       "state_analysis": { "_calls": 1, "_time":        0.045, "_%":     0.01},
       "siesta_move": { "_calls": 1, "_time":        0.000, "_%":     0.00}
     },
     "Analysis": { "_calls": 1, "_time":      101.830, "_%":    16.50,
       "optical": { "_calls": 1, "_time":        0.001, "_%":     0.00}
     }
   }
 }}
