JobId=9549950 JobName=CovidStrong
   UserId=icn2553284(51005) GroupId=icn2(50004) MCS_label=N/A
   Priority=67423 Nice=0 Account=icn85 QOS=gp_resa
   JobState=RUNNING Reason=None Dependency=(null)
   Requeue=0 Restarts=0 BatchFlag=1 Reboot=0 ExitCode=0:0
   RunTime=00:00:03 TimeLimit=02:00:00 TimeMin=N/A
   SubmitTime=2024-09-30T10:58:01 EligibleTime=2024-09-30T10:58:01
   AccrueTime=2024-09-30T10:58:01
   StartTime=2024-09-30T10:58:21 EndTime=2024-09-30T12:58:21 Deadline=N/A
   SuspendTime=None SecsPreSuspend=0 LastSchedEval=2024-09-30T10:58:21 Scheduler=Backfill
   Partition=gpp AllocNode:Sid=glogin1:2011625
   ReqNodeList=(null) ExcNodeList=(null)
   NodeList=gs05r3b[07,21]
   BatchHost=gs05r3b07
   NumNodes=2 NumCPUs=448 NumTasks=224 CPUs/Task=1 ReqB:S:C:T=0:0:*:1
   ReqTRES=cpu=224,mem=437.50G,node=2,billing=224
   AllocTRES=cpu=448,mem=437.50G,node=2,billing=448
   Socks/Node=* NtasksPerN:B:S:C=112:0:*:* CoreSpec=*
   MinCPUsNode=112 MinMemoryCPU=2000M MinTmpDiskNode=0
   Features=(null) DelayBoot=00:00:00
   OverSubscribe=NO Contiguous=0 Licenses=(null) Network=(null)
   Command=/gpfs/home/icn2/icn2553284/jube4max/max-inputs/interface/siesta/_CovidStrong/000001/000008_submit/work/submit.job
   WorkDir=/gpfs/home/icn2/icn2553284/jube4max/max-inputs/interface/siesta/_CovidStrong/000001/000008_submit/work
   StdErr=/gpfs/home/icn2/icn2553284/jube4max/max-inputs/interface/siesta/_CovidStrong/000001/000008_submit/work/job_9549950.err
   StdIn=/dev/null
   StdOut=/gpfs/home/icn2/icn2553284/jube4max/max-inputs/interface/siesta/_CovidStrong/000001/000008_submit/work/job_9549950.out
   Power=
   

