{
 "global_section": { "_calls": 1, "_time":     8960.180, "_%":   100.00,
   "siesta": { "_calls": 1, "_time":     8960.180, "_%":   100.00,
     "Setup": { "_calls": 1, "_time":        1.709, "_%":     0.02,
       "bands": { "_calls": 1, "_time":        0.002, "_%":     0.00},
       "KSV_init": { "_calls": 1, "_time":        0.001, "_%":     0.00}
     },
     "IterGeom": { "_calls": 1, "_time":     8958.105, "_%":    99.98,
       "geom_init": { "_calls": 1, "_time":       18.163, "_%":     0.20,
         "state_init": { "_calls": 1, "_time":        2.120, "_%":     0.02,
           "hsparse": { "_calls": 1, "_time":        0.136, "_%":     0.00},
           "overlap": { "_calls": 1, "_time":        1.215, "_%":     0.01}
         },
         "Setup_H0": { "_calls": 1, "_time":       16.042, "_%":     0.18,
           "naefs": { "_calls": 1, "_time":        0.022, "_%":     0.00},
           "MolMec": { "_calls": 1, "_time":        0.000, "_%":     0.00},
           "kinefsm": { "_calls": 1, "_time":        1.200, "_%":     0.01},
           "nlefsm": { "_calls": 1, "_time":        2.965, "_%":     0.03},
           "DHSCF_Init": { "_calls": 1, "_time":       11.840, "_%":     0.13,
             "DHSCF1": { "_calls": 1, "_time":        0.075, "_%":     0.00,
               "INITMESH": { "_calls": 1, "_time":        0.000, "_%":     0.00}
             },
             "DHSCF2": { "_calls": 1, "_time":       11.745, "_%":     0.13,
               "REMESH": { "_calls": 1, "_time":        0.653, "_%":     0.01,
                 "INITMESH": { "_calls": 2, "_time":        0.607, "_%":     0.01,
                   "SPLOAD": { "_calls": 2, "_time":        0.597, "_%":     0.01}
                 }
               },
               "REORD": { "_calls": 2, "_time":        0.032, "_%":     0.00},
               "PHION": { "_calls": 1, "_time":        1.023, "_%":     0.01},
               "COMM_BSC": { "_calls": 1, "_time":        0.202, "_%":     0.00},
               "POISON": { "_calls": 1, "_time":        8.957, "_%":     0.10,
                 "fft": { "_calls": 2, "_time":        8.635, "_%":     0.10}
               }
             }
           }
         }
       },
       "IterSCF": { "_calls": 5, "_time":     8939.851, "_%":    99.77,
         "setup_H": { "_calls": 5, "_time":       71.484, "_%":     0.80,
           "DHSCF": { "_calls": 5, "_time":       70.941, "_%":     0.79,
             "DHSCF3": { "_calls": 5, "_time":       70.941, "_%":     0.79,
               "rhoofd": { "_calls": 5, "_time":        0.692, "_%":     0.01},
               "COMM_BSC": { "_calls": 10, "_time":        2.006, "_%":     0.02},
               "POISON": { "_calls": 5, "_time":       44.763, "_%":     0.50,
                 "fft": { "_calls": 10, "_time":       42.907, "_%":     0.48}
               },
               "XC": { "_calls": 5, "_time":       18.537, "_%":     0.21,
                 "COMM_BSC": { "_calls": 10, "_time":        2.092, "_%":     0.02},
                 "GXC-CellXC": { "_calls": 5, "_time":       15.844, "_%":     0.18,
                   "gridxc@cellXC": { "_calls": 5, "_time":       15.842, "_%":     0.18}
                 }
               },
               "vmat": { "_calls": 5, "_time":        0.778, "_%":     0.01}
             }
           }
         },
         "compute_dm": { "_calls": 5, "_time":     8867.977, "_%":    98.97,
           "diagon": { "_calls": 5, "_time":     8859.175, "_%":    98.87,
             "r-eigvec": { "_calls": 5, "_time":     8644.429, "_%":    96.48,
               "r-buildHS": { "_calls": 5, "_time":        1.586, "_%":     0.02},
               "rdiag": { "_calls": 5, "_time":     8642.843, "_%":    96.46,
                 "rdiag1": { "_calls": 5, "_time":      205.121, "_%":     2.29},
                 "rdiag2": { "_calls": 5, "_time":      609.209, "_%":     6.80},
                 "rdiag3": { "_calls": 5, "_time":     6966.864, "_%":    77.75},
                 "rdiag4": { "_calls": 5, "_time":      846.908, "_%":     9.45}
               }
             },
             "r-buildD": { "_calls": 5, "_time":      211.016, "_%":     2.36}
           }
         },
         "MIXER": { "_calls": 5, "_time":        0.204, "_%":     0.00}
       },
       "state_analysis": { "_calls": 1, "_time":        0.052, "_%":     0.00},
       "siesta_move": { "_calls": 1, "_time":        0.000, "_%":     0.00}
     },
     "Analysis": { "_calls": 1, "_time":        0.203, "_%":     0.00,
       "optical": { "_calls": 1, "_time":        0.001, "_%":     0.00}
     }
   }
 }}
