JobID        JobIDRaw        JobName  Partition  MaxVMSize  MaxVMSizeNode  MaxVMSizeTask  AveVMSize     MaxRSS MaxRSSNode MaxRSSTask     AveRSS MaxPages MaxPagesNode   MaxPagesTask   AvePages     MinCPU MinCPUNode MinCPUTask     AveCPU   NTasks  AllocCPUS    Elapsed      State ExitCode AveCPUFreq ReqCPUFreqMin ReqCPUFreqMax ReqCPUFreqGov     ReqMem ConsumedEnergy  MaxDiskRead MaxDiskReadNode MaxDiskReadTask    AveDiskRead MaxDiskWrite MaxDiskWriteNode MaxDiskWriteTask   AveDiskWrite    ReqTRES  AllocTRES TRESUsageInAve TRESUsageInMax TRESUsageInMaxNode TRESUsageInMaxTask TRESUsageInMin TRESUsageInMinNode TRESUsageInMinTask TRESUsageInTot TRESUsageOutMax TRESUsageOutMaxNode TRESUsageOutMaxTask TRESUsageOutAve TRESUsageOutTot 
------------ ------------ ---------- ---------- ---------- -------------- -------------- ---------- ---------- ---------- ---------- ---------- -------- ------------ -------------- ---------- ---------- ---------- ---------- ---------- -------- ---------- ---------- ---------- -------- ---------- ------------- ------------- ------------- ---------- -------------- ------------ --------------- --------------- -------------- ------------ ---------------- ---------------- -------------- ---------- ---------- -------------- -------------- ------------------ ------------------ -------------- ------------------ ------------------ -------------- --------------- ------------------- ------------------- --------------- --------------- 
4905766      4905766      submit.job standard-g                                                                                                                                                                                                             112   00:14:23    RUNNING      0:0                  Unknown       Unknown       Unknown       480G                                                                                                                                          billing=8+ billing=1+                                                                                                                                                                                                                                 
4905766.bat+ 4905766.bat+      batch                                                                                                                                                                                                               1        112   00:14:23    RUNNING      0:0          0             0             0             0                         0                                                                                                                                      cpu=112,g+                                                                                                                                                                                                                                 
4905766.0    4905766.0    select_gpu             48074612K      nid006960              4  45145509K  26465460K  nid006960          4  24490265K    15464    nid006960              3      14694   00:14:28  nid006960          2   00:14:38        8        112   00:14:13  COMPLETED      0:0     17.89M       Unknown       Unknown       Unknown                        76      131.27M       nid006960               0        129.02M        2.90M        nid006960                4          2.89M            cpu=112,g+ cpu=00:14:38,+ cpu=00:14:45,+ cpu=nid006960,ene+ cpu=1,fs/disk=0,m+ cpu=00:14:28,+ cpu=nid006960,ene+ cpu=2,fs/disk=5,m+ cpu=01:57:07,+ energy=1589,fs+ energy=nid006960,f+           fs/disk=4 energy=103,fs/+ energy=825,fs/+ 
