{
 "global_section": { "_calls": 1, "_time":    25182.300, "_%":   100.00,
   "siesta": { "_calls": 1, "_time":    25182.300, "_%":   100.00,
     "Setup": { "_calls": 1, "_time":        7.739, "_%":     0.03,
       "bands": { "_calls": 1, "_time":        0.003, "_%":     0.00},
       "KSV_init": { "_calls": 1, "_time":        0.001, "_%":     0.00}
     },
     "IterGeom": { "_calls": 1, "_time":    25173.030, "_%":    99.96,
       "geom_init": { "_calls": 1, "_time":      211.170, "_%":     0.84,
         "state_init": { "_calls": 1, "_time":       14.867, "_%":     0.06,
           "hsparse": { "_calls": 1, "_time":        0.575, "_%":     0.00},
           "overlap": { "_calls": 1, "_time":        0.216, "_%":     0.00}
         },
         "Setup_H0": { "_calls": 1, "_time":      196.302, "_%":     0.78,
           "naefs": { "_calls": 1, "_time":        0.141, "_%":     0.00},
           "MolMec": { "_calls": 1, "_time":        0.000, "_%":     0.00},
           "kinefsm": { "_calls": 1, "_time":        0.259, "_%":     0.00},
           "nlefsm": { "_calls": 1, "_time":        0.876, "_%":     0.00},
           "DHSCF_Init": { "_calls": 1, "_time":      194.975, "_%":     0.77,
             "DHSCF1": { "_calls": 1, "_time":        0.164, "_%":     0.00,
               "INITMESH": { "_calls": 1, "_time":        0.000, "_%":     0.00}
             },
             "DHSCF2": { "_calls": 1, "_time":      194.751, "_%":     0.77,
               "REMESH": { "_calls": 1, "_time":      117.696, "_%":     0.47,
                 "INITMESH": { "_calls": 2, "_time":      117.466, "_%":     0.47,
                   "SPLOAD": { "_calls": 2, "_time":      116.125, "_%":     0.46}
                 }
               },
               "REORD": { "_calls": 2, "_time":        0.073, "_%":     0.00},
               "PHION": { "_calls": 1, "_time":        0.365, "_%":     0.00},
               "COMM_BSC": { "_calls": 1, "_time":        7.120, "_%":     0.03},
               "POISON": { "_calls": 1, "_time":       62.494, "_%":     0.25,
                 "fft": { "_calls": 2, "_time":       62.399, "_%":     0.25}
               }
             }
           }
         }
       },
       "IterSCF": { "_calls": 5, "_time":    24961.494, "_%":    99.12,
         "setup_H": { "_calls": 5, "_time":      464.620, "_%":     1.85,
           "DHSCF": { "_calls": 5, "_time":      461.876, "_%":     1.83,
             "DHSCF3": { "_calls": 5, "_time":      461.876, "_%":     1.83,
               "rhoofd": { "_calls": 5, "_time":        2.080, "_%":     0.01},
               "COMM_BSC": { "_calls": 10, "_time":       54.009, "_%":     0.21},
               "POISON": { "_calls": 5, "_time":      232.298, "_%":     0.92,
                 "fft": { "_calls": 10, "_time":      232.090, "_%":     0.92}
               },
               "XC": { "_calls": 5, "_time":      129.890, "_%":     0.52,
                 "COMM_BSC": { "_calls": 10, "_time":       53.230, "_%":     0.21},
                 "GXC-CellXC": { "_calls": 5, "_time":       76.435, "_%":     0.30,
                   "gridxc@cellXC": { "_calls": 5, "_time":       76.435, "_%":     0.30}
                 }
               },
               "vmat": { "_calls": 5, "_time":       21.545, "_%":     0.09}
             }
           }
         },
         "compute_dm": { "_calls": 5, "_time":    24488.684, "_%":    97.25,
           "redist_orbs_fwd": { "_calls": 40, "_time":       69.500, "_%":     0.28},
           "elsi-complex-solver": { "_calls": 5, "_time":    24405.160, "_%":    96.91,
             "elsi-solver": { "_calls": 5, "_time":    24403.469, "_%":    96.91}
           },
           "redist_dm-edm_bck": { "_calls": 5, "_time":        4.303, "_%":     0.02}
         },
         "MIXER": { "_calls": 5, "_time":        1.830, "_%":     0.01}
       },
       "state_analysis": { "_calls": 1, "_time":        0.205, "_%":     0.00},
       "siesta_move": { "_calls": 1, "_time":        0.000, "_%":     0.00}
     },
     "Analysis": { "_calls": 1, "_time":        0.717, "_%":     0.00,
       "optical": { "_calls": 1, "_time":        0.001, "_%":     0.00}
     }
   }
 }}
