Unloading profile/base
  ERROR: Module evaluation aborted
[0] MPI startup(): Intel(R) MPI Library, Version 2021.10  Build 20230619 (id: c2e19c2f3e)
[0] MPI startup(): Copyright (C) 2003-2023 Intel Corporation.  All rights reserved.
[0] MPI startup(): library kind: release
[0] MPI startup(): libfabric version: 1.18.0-impi
[0] MPI startup(): libfabric provider: mlx
[0] MPI startup(): File "/leonardo/prod/spack/05/install/0.21/linux-rhel8-icelake/gcc-8.5.0/intel-oneapi-mpi-2021.10.0-6ff7efudnkj4xa7o4j67mxatygwzfwqc/mpi/2021.10.0/etc/tuning_spr_shm-ofi_mlx_100.dat" not found
[0] MPI startup(): Load tuning file: "/leonardo/prod/spack/05/install/0.21/linux-rhel8-icelake/gcc-8.5.0/intel-oneapi-mpi-2021.10.0-6ff7efudnkj4xa7o4j67mxatygwzfwqc/mpi/2021.10.0/etc/tuning_spr_shm-ofi.dat"
[0] MPI startup(): Rank    Pid      Node name                Pin cpu
[0] MPI startup(): 0       770504   lrdn4690.leonardo.local  {0,1,2,3}
[0] MPI startup(): 1       770505   lrdn4690.leonardo.local  {4,5,6,7}
[0] MPI startup(): 2       770506   lrdn4690.leonardo.local  {8,9,10,11}
[0] MPI startup(): 3       770507   lrdn4690.leonardo.local  {12,13,14,15}
[0] MPI startup(): 4       770508   lrdn4690.leonardo.local  {16,17,18,19}
[0] MPI startup(): 5       770509   lrdn4690.leonardo.local  {20,21,22,23}
[0] MPI startup(): 6       770510   lrdn4690.leonardo.local  {24,25,26,27}
[0] MPI startup(): 7       770511   lrdn4690.leonardo.local  {28,29,30,31}
[0] MPI startup(): 8       770512   lrdn4690.leonardo.local  {32,33,34,35}
[0] MPI startup(): 9       770513   lrdn4690.leonardo.local  {36,37,38,39}
[0] MPI startup(): 10      770514   lrdn4690.leonardo.local  {40,41,42,43}
[0] MPI startup(): 11      770515   lrdn4690.leonardo.local  {44,45,46,47}
[0] MPI startup(): 12      770516   lrdn4690.leonardo.local  {48,49,50,51}
[0] MPI startup(): 13      770517   lrdn4690.leonardo.local  {52,53,54,55}
[0] MPI startup(): 14      770518   lrdn4690.leonardo.local  {56,57,58,59}
[0] MPI startup(): 15      770519   lrdn4690.leonardo.local  {60,61,62,63}
[0] MPI startup(): 16      770520   lrdn4690.leonardo.local  {64,65,66,67}
[0] MPI startup(): 17      770521   lrdn4690.leonardo.local  {68,69,70,71}
[0] MPI startup(): 18      770522   lrdn4690.leonardo.local  {72,73,74,75}
[0] MPI startup(): 19      770523   lrdn4690.leonardo.local  {76,77,78,79}
[0] MPI startup(): 20      770524   lrdn4690.leonardo.local  {80,81,82,83}
[0] MPI startup(): 21      770525   lrdn4690.leonardo.local  {84,85,86,87}
[0] MPI startup(): 22      770526   lrdn4690.leonardo.local  {88,89,90,91}
[0] MPI startup(): 23      770527   lrdn4690.leonardo.local  {92,93,94,95}
[0] MPI startup(): 24      770528   lrdn4690.leonardo.local  {96,97,98,99}
[0] MPI startup(): 25      770529   lrdn4690.leonardo.local  {100,101,102,103}
[0] MPI startup(): 26      770530   lrdn4690.leonardo.local  {104,105,106,107}
[0] MPI startup(): 27      770531   lrdn4690.leonardo.local  {108,109,110,111}
[0] MPI startup(): 28      470388   lrdn4694.leonardo.local  {0,1,2,3}
[0] MPI startup(): 29      470389   lrdn4694.leonardo.local  {4,5,6,7}
[0] MPI startup(): 30      470390   lrdn4694.leonardo.local  {8,9,10,11}
[0] MPI startup(): 31      470391   lrdn4694.leonardo.local  {12,13,14,15}
[0] MPI startup(): 32      470392   lrdn4694.leonardo.local  {16,17,18,19}
[0] MPI startup(): 33      470393   lrdn4694.leonardo.local  {20,21,22,23}
[0] MPI startup(): 34      470394   lrdn4694.leonardo.local  {24,25,26,27}
[0] MPI startup(): 35      470395   lrdn4694.leonardo.local  {28,29,30,31}
[0] MPI startup(): 36      470396   lrdn4694.leonardo.local  {32,33,34,35}
[0] MPI startup(): 37      470397   lrdn4694.leonardo.local  {36,37,38,39}
[0] MPI startup(): 38      470398   lrdn4694.leonardo.local  {40,41,42,43}
[0] MPI startup(): 39      470399   lrdn4694.leonardo.local  {44,45,46,47}
[0] MPI startup(): 40      470400   lrdn4694.leonardo.local  {48,49,50,51}
[0] MPI startup(): 41      470401   lrdn4694.leonardo.local  {52,53,54,55}
[0] MPI startup(): 42      470402   lrdn4694.leonardo.local  {56,57,58,59}
[0] MPI startup(): 43      470403   lrdn4694.leonardo.local  {60,61,62,63}
[0] MPI startup(): 44      470404   lrdn4694.leonardo.local  {64,65,66,67}
[0] MPI startup(): 45      470405   lrdn4694.leonardo.local  {68,69,70,71}
[0] MPI startup(): 46      470406   lrdn4694.leonardo.local  {72,73,74,75}
[0] MPI startup(): 47      470407   lrdn4694.leonardo.local  {76,77,78,79}
[0] MPI startup(): 48      470408   lrdn4694.leonardo.local  {80,81,82,83}
[0] MPI startup(): 49      470409   lrdn4694.leonardo.local  {84,85,86,87}
[0] MPI startup(): 50      470410   lrdn4694.leonardo.local  {88,89,90,91}
[0] MPI startup(): 51      470411   lrdn4694.leonardo.local  {92,93,94,95}
[0] MPI startup(): 52      470412   lrdn4694.leonardo.local  {96,97,98,99}
[0] MPI startup(): 53      470413   lrdn4694.leonardo.local  {100,101,102,103}
[0] MPI startup(): 54      470414   lrdn4694.leonardo.local  {104,105,106,107}
[0] MPI startup(): 55      470415   lrdn4694.leonardo.local  {108,109,110,111}
[0] MPI startup(): 56      436869   lrdn4695.leonardo.local  {0,1,2,3}
[0] MPI startup(): 57      436870   lrdn4695.leonardo.local  {4,5,6,7}
[0] MPI startup(): 58      436871   lrdn4695.leonardo.local  {8,9,10,11}
[0] MPI startup(): 59      436872   lrdn4695.leonardo.local  {12,13,14,15}
[0] MPI startup(): 60      436873   lrdn4695.leonardo.local  {16,17,18,19}
[0] MPI startup(): 61      436874   lrdn4695.leonardo.local  {20,21,22,23}
[0] MPI startup(): 62      436875   lrdn4695.leonardo.local  {24,25,26,27}
[0] MPI startup(): 63      436876   lrdn4695.leonardo.local  {28,29,30,31}
[0] MPI startup(): 64      436877   lrdn4695.leonardo.local  {32,33,34,35}
[0] MPI startup(): 65      436878   lrdn4695.leonardo.local  {36,37,38,39}
[0] MPI startup(): 66      436879   lrdn4695.leonardo.local  {40,41,42,43}
[0] MPI startup(): 67      436880   lrdn4695.leonardo.local  {44,45,46,47}
[0] MPI startup(): 68      436881   lrdn4695.leonardo.local  {48,49,50,51}
[0] MPI startup(): 69      436882   lrdn4695.leonardo.local  {52,53,54,55}
[0] MPI startup(): 70      436883   lrdn4695.leonardo.local  {56,57,58,59}
[0] MPI startup(): 71      436884   lrdn4695.leonardo.local  {60,61,62,63}
[0] MPI startup(): 72      436885   lrdn4695.leonardo.local  {64,65,66,67}
[0] MPI startup(): 73      436886   lrdn4695.leonardo.local  {68,69,70,71}
[0] MPI startup(): 74      436887   lrdn4695.leonardo.local  {72,73,74,75}
[0] MPI startup(): 75      436888   lrdn4695.leonardo.local  {76,77,78,79}
[0] MPI startup(): 76      436889   lrdn4695.leonardo.local  {80,81,82,83}
[0] MPI startup(): 77      436890   lrdn4695.leonardo.local  {84,85,86,87}
[0] MPI startup(): 78      436891   lrdn4695.leonardo.local  {88,89,90,91}
[0] MPI startup(): 79      436892   lrdn4695.leonardo.local  {92,93,94,95}
[0] MPI startup(): 80      436893   lrdn4695.leonardo.local  {96,97,98,99}
[0] MPI startup(): 81      436894   lrdn4695.leonardo.local  {100,101,102,103}
[0] MPI startup(): 82      436895   lrdn4695.leonardo.local  {104,105,106,107}
[0] MPI startup(): 83      436896   lrdn4695.leonardo.local  {108,109,110,111}
[0] MPI startup(): 84      458280   lrdn4696.leonardo.local  {0,1,2,3}
[0] MPI startup(): 85      458281   lrdn4696.leonardo.local  {4,5,6,7}
[0] MPI startup(): 86      458282   lrdn4696.leonardo.local  {8,9,10,11}
[0] MPI startup(): 87      458283   lrdn4696.leonardo.local  {12,13,14,15}
[0] MPI startup(): 88      458284   lrdn4696.leonardo.local  {16,17,18,19}
[0] MPI startup(): 89      458285   lrdn4696.leonardo.local  {20,21,22,23}
[0] MPI startup(): 90      458286   lrdn4696.leonardo.local  {24,25,26,27}
[0] MPI startup(): 91      458287   lrdn4696.leonardo.local  {28,29,30,31}
[0] MPI startup(): 92      458288   lrdn4696.leonardo.local  {32,33,34,35}
[0] MPI startup(): 93      458289   lrdn4696.leonardo.local  {36,37,38,39}
[0] MPI startup(): 94      458290   lrdn4696.leonardo.local  {40,41,42,43}
[0] MPI startup(): 95      458291   lrdn4696.leonardo.local  {44,45,46,47}
[0] MPI startup(): 96      458292   lrdn4696.leonardo.local  {48,49,50,51}
[0] MPI startup(): 97      458293   lrdn4696.leonardo.local  {52,53,54,55}
[0] MPI startup(): 98      458294   lrdn4696.leonardo.local  {56,57,58,59}
[0] MPI startup(): 99      458295   lrdn4696.leonardo.local  {60,61,62,63}
[0] MPI startup(): 100     458296   lrdn4696.leonardo.local  {64,65,66,67}
[0] MPI startup(): 101     458297   lrdn4696.leonardo.local  {68,69,70,71}
[0] MPI startup(): 102     458298   lrdn4696.leonardo.local  {72,73,74,75}
[0] MPI startup(): 103     458299   lrdn4696.leonardo.local  {76,77,78,79}
[0] MPI startup(): 104     458300   lrdn4696.leonardo.local  {80,81,82,83}
[0] MPI startup(): 105     458301   lrdn4696.leonardo.local  {84,85,86,87}
[0] MPI startup(): 106     458302   lrdn4696.leonardo.local  {88,89,90,91}
[0] MPI startup(): 107     458303   lrdn4696.leonardo.local  {92,93,94,95}
[0] MPI startup(): 108     458304   lrdn4696.leonardo.local  {96,97,98,99}
[0] MPI startup(): 109     458305   lrdn4696.leonardo.local  {100,101,102,103}
[0] MPI startup(): 110     458306   lrdn4696.leonardo.local  {104,105,106,107}
[0] MPI startup(): 111     458307   lrdn4696.leonardo.local  {108,109,110,111}
[0] MPI startup(): I_MPI_ROOT=/leonardo/prod/spack/05/install/0.21/linux-rhel8-icelake/gcc-8.5.0/intel-oneapi-mpi-2021.10.0-6ff7efudnkj4xa7o4j67mxatygwzfwqc/mpi/2021.10.0
[0] MPI startup(): I_MPI_MPIRUN=mpirun
[0] MPI startup(): I_MPI_BIND_WIN_ALLOCATE=localalloc
[0] MPI startup(): I_MPI_HYDRA_TOPOLIB=hwloc
[0] MPI startup(): I_MPI_JOB_RESPECT_PROCESS_PLACEMENT=0
[0] MPI startup(): I_MPI_HYDRA_BOOTSTRAP=slurm
[0] MPI startup(): I_MPI_RETURN_WIN_MEM_NUMA=0
[0] MPI startup(): I_MPI_PIN_CELL=core
[0] MPI startup(): I_MPI_PIN_DOMAIN=4
[0] MPI startup(): I_MPI_PIN_ORDER=range
[0] MPI startup(): I_MPI_INTERNAL_MEM_POLICY=default
[0] MPI startup(): I_MPI_DEBUG=5
      Welcome to FLEUR        (www.flapw.de)   
      MaX-Release 7.0          (www.max-centre.eu)
 Running on          112  PE
           1  jobs are distributed on          112  unassigned PE
 Now copying inp_dump.xml
 
 ========== k-point set info ==========
 Selected k-point list: default
 k-point list type: unspecified
 Number of k points: 1
 
 --------------------------------------------------------
 Number of MPI-tasks:           112
 Number of PE/node  :            28
 Number of OMP-threads:           4
 k-points in parallel:            1
 pe's per k-point:              112
 # of k-point loops:              1
 --------------------------------------------------------
 Signal           11  detected on PE:           0
 This might be due to either:
  - A bug
  - Your job running out of memory
  - Your job got killed externally (e.g. no cpu-time left)
  - ....
 Please check and report if you believe you found a bug
 Signal           11  detected on PE:          61
 Signal           11  detected on PE:           9
 This might be due to either:
  - A bug
  - Your job running out of memory
  - Your job got killed externally (e.g. no cpu-time left)
  - ....
 Please check and report if you believe you found a bug
 Signal           11  detected on PE:          59
 Signal           11  detected on PE:          11
 This might be due to either:
  - A bug
  - Your job running out of memory
  - Your job got killed externally (e.g. no cpu-time left)
  - ....
 Please check and report if you believe you found a bug
 This might be due to either:
  - A bug
  - Your job running out of memory
  - Your job got killed externally (e.g. no cpu-time left)
  - ....
 Please check and report if you believe you found a bug
 Signal           11  detected on PE:          18
 This might be due to either:
  - A bug
  - Your job running out of memory
  - Your job got killed externally (e.g. no cpu-time left)
  - ....
 Please check and report if you believe you found a bug
 Signal           11  detected on PE:          71
 Signal           11  detected on PE:          21
 This might be due to either:
  - A bug
  - Your job running out of memory
  - Your job got killed externally (e.g. no cpu-time left)
  - ....
 Please check and report if you believe you found a bug
 Signal           11  detected on PE:          75
 Signal           11  detected on PE:          80
 This might be due to either:
  - A bug
  - Your job running out of memory
  - Your job got killed externally (e.g. no cpu-time left)
  - ....
 Please check and report if you believe you found a bug
 Signal           11  detected on PE:          81
 This might be due to either:
  - A bug
  - Your job running out of memory
  - Your job got killed externally (e.g. no cpu-time left)
  - ....
 Please check and report if you believe you found a bug
 This might be due to either:
  - A bug
  - Your job running out of memory
  - Your job got killed externally (e.g. no cpu-time left)
  - ....
 Please check and report if you believe you found a bug
 This might be due to either:
  - A bug
  - Your job running out of memory
  - Your job got killed externally (e.g. no cpu-time left)
  - ....
 Please check and report if you believe you found a bug
 Signal           11  detected on PE:          76
 Signal           11  detected on PE:          67
 This might be due to either:
  - A bug
  - Your job running out of memory
  - Your job got killed externally (e.g. no cpu-time left)
  - ....
 Please check and report if you believe you found a bug
 Signal           11  detected on PE:           1
 This might be due to either:
  - A bug
  - Your job running out of memory
  - Your job got killed externally (e.g. no cpu-time left)
  - ....
 Please check and report if you believe you found a bug
 This might be due to either:
  - A bug
  - Your job running out of memory
  - Your job got killed externally (e.g. no cpu-time left)
  - ....
 Please check and report if you believe you found a bug
 Signal           11  detected on PE:           2
 This might be due to either:
  - A bug
  - Your job running out of memory
  - Your job got killed externally (e.g. no cpu-time left)
  - ....
 Please check and report if you believe you found a bug
 Signal           11  detected on PE:          79
 Signal           11  detected on PE:          14
 This might be due to either:
  - A bug
  - Your job running out of memory
  - Your job got killed externally (e.g. no cpu-time left)
  - ....
 Please check and report if you believe you found a bug
 This might be due to either:
  - A bug
  - Your job running out of memory
  - Your job got killed externally (e.g. no cpu-time left)
  - ....
 Please check and report if you believe you found a bug
 Signal           11  detected on PE:          15
 This might be due to either:
  - A bug
  - Your job running out of memory
  - Your job got killed externally (e.g. no cpu-time left)
  - ....
 Please check and report if you believe you found a bug
 Signal           11  detected on PE:          69
 Signal           11  detected on PE:          85
 This might be due to either:
  - A bug
  - Your job running out of memory
  - Your job got killed externally (e.g. no cpu-time left)
  - ....
 Please check and report if you believe you found a bug
 Signal           11  detected on PE:          20
 Signal           11  detected on PE:          77
 This might be due to either:
  - A bug
  - Your job running out of memory
  - Your job got killed externally (e.g. no cpu-time left)
  - ....
 Please check and report if you believe you found a bug
 Signal           11  detected on PE:          86
 This might be due to either:
  - A bug
  - Your job running out of memory
  - Your job got killed externally (e.g. no cpu-time left)
  - ....
 Please check and report if you believe you found a bug
 Signal           11  detected on PE:          25
 This might be due to either:
  - A bug
  - Your job running out of memory
  - Your job got killed externally (e.g. no cpu-time left)
  - ....
 Please check and report if you believe you found a bug
 This might be due to either:
  - A bug
  - Your job running out of memory
  - Your job got killed externally (e.g. no cpu-time left)
  - ....
 Please check and report if you believe you found a bug
 Signal           11  detected on PE:          87
 This might be due to either:
  - A bug
  - Your job running out of memory
  - Your job got killed externally (e.g. no cpu-time left)
  - ....
 Please check and report if you believe you found a bug
 Signal           11  detected on PE:          17
 This might be due to either:
  - A bug
  - Your job running out of memory
  - Your job got killed externally (e.g. no cpu-time left)
  - ....
 Signal           11  detected on PE:          56
 Signal           11  detected on PE:          91
 This might be due to either:
  - A bug
  - Your job running out of memory
  - Your job got killed externally (e.g. no cpu-time left)
  - ....
 Please check and report if you believe you found a bug
 This might be due to either:
  - A bug
  - Your job running out of memory
  - Your job got killed externally (e.g. no cpu-time left)
  - ....
 Please check and report if you believe you found a bug
 Signal           11  detected on PE:          65
 Signal           11  detected on PE:          92
 This might be due to either:
  - A bug
  - Your job running out of memory
  - Your job got killed externally (e.g. no cpu-time left)
  - ....
 Please check and report if you believe you found a bug
 Signal           11  detected on PE:           6
 This might be due to either:
  - A bug
  - Your job running out of memory
  - Your job got killed externally (e.g. no cpu-time left)
  - ....
 Please check and report if you believe you found a bug
 Signal           11  detected on PE:          95
 This might be due to either:
  - A bug
  - Your job running out of memory
  - Your job got killed externally (e.g. no cpu-time left)
  - ....
 Please check and report if you believe you found a bug
 Please check and report if you believe you found a bug
 Signal           11  detected on PE:          66
 Signal           11  detected on PE:          96
 This might be due to either:
  - A bug
  - Your job running out of memory
  - Your job got killed externally (e.g. no cpu-time left)
  - ....
 Please check and report if you believe you found a bug
 This might be due to either:
  - A bug
  - Your job running out of memory
  - Your job got killed externally (e.g. no cpu-time left)
  - ....
 Please check and report if you believe you found a bug
 This might be due to either:
  - A bug
  - Your job running out of memory
  - Your job got killed externally (e.g. no cpu-time left)
  - ....
 Please check and report if you believe you found a bug
 Signal           11  detected on PE:          97
 This might be due to either:
  - A bug
  - Your job running out of memory
  - Your job got killed externally (e.g. no cpu-time left)
  - ....
 Please check and report if you believe you found a bug
 Signal           11  detected on PE:          23
 This might be due to either:
  - A bug
  - Your job running out of memory
  - Your job got killed externally (e.g. no cpu-time left)
  - ....
 Please check and report if you believe you found a bug
 This might be due to either:
  - A bug
  - Your job running out of memory
  - Your job got killed externally (e.g. no cpu-time left)
  - ....
 Please check and report if you believe you found a bug
 Signal           11  detected on PE:          98
 This might be due to either:
  - A bug
  - Your job running out of memory
  - Your job got killed externally (e.g. no cpu-time left)
  - ....
 Please check and report if you believe you found a bug
 Signal           11  detected on PE:           4
 This might be due to either:
  - A bug
  - Your job running out of memory
  - Your job got killed externally (e.g. no cpu-time left)
  - ....
 Please check and report if you believe you found a bug
 This might be due to either:
  - A bug
  - Your job running out of memory
  - Your job got killed externally (e.g. no cpu-time left)
  - ....
 Please check and report if you believe you found a bug
 Signal           11  detected on PE:         101
 This might be due to either:
  - A bug
  - Your job running out of memory
  - Your job got killed externally (e.g. no cpu-time left)
  - ....
 Please check and report if you believe you found a bug
 Signal           11  detected on PE:          12
 This might be due to either:
  - A bug
  - Your job running out of memory
  - Your job got killed externally (e.g. no cpu-time left)
  - ....
 Please check and report if you believe you found a bug
 Signal           11  detected on PE:          72
 Signal           11  detected on PE:          93
 This might be due to either:
  - A bug
  - Your job running out of memory
  - Your job got killed externally (e.g. no cpu-time left)
  - ....
 Please check and report if you believe you found a bug
 Signal           11  detected on PE:          13
 This might be due to either:
  - A bug
  - Your job running out of memory
  - Your job got killed externally (e.g. no cpu-time left)
  - ....
 Please check and report if you believe you found a bug
 Signal           11  detected on PE:          64
 Signal           11  detected on PE:          94
 Signal           11  detected on PE:          16
 This might be due to either:
  - A bug
  - Your job running out of memory
  - Your job got killed externally (e.g. no cpu-time left)
  - ....
 Please check and report if you believe you found a bug
 Signal           11  detected on PE:          82
 Signal           11  detected on PE:         100
 This might be due to either:
  - A bug
  - Your job running out of memory
  - Your job got killed externally (e.g. no cpu-time left)
  - ....
 Please check and report if you believe you found a bug
 Signal           11  detected on PE:          19
 This might be due to either:
  - A bug
  - Your job running out of memory
  - Your job got killed externally (e.g. no cpu-time left)
  - ....
 Please check and report if you believe you found a bug
 This might be due to either:
  - A bug
  - Your job running out of memory
  - Your job got killed externally (e.g. no cpu-time left)
  - ....
 Please check and report if you believe you found a bug
 Signal           11  detected on PE:         106
 This might be due to either:
  - A bug
  - Your job running out of memory
  - Your job got killed externally (e.g. no cpu-time left)
  - ....
 Please check and report if you believe you found a bug
 Signal           11  detected on PE:          26
 This might be due to either:
  - A bug
  - Your job running out of memory
  - Your job got killed externally (e.g. no cpu-time left)
  - ....
 Please check and report if you believe you found a bug
 This might be due to either:
  - A bug
  - Your job running out of memory
  - Your job got killed externally (e.g. no cpu-time left)
  - ....
 Please check and report if you believe you found a bug
 Signal           11  detected on PE:         107
 This might be due to either:
  - A bug
  - Your job running out of memory
  - Your job got killed externally (e.g. no cpu-time left)
  - ....
 Please check and report if you believe you found a bug
 Signal           11  detected on PE:          31
 This might be due to either:
  - A bug
  - Your job running out of memory
  - Your job got killed externally (e.g. no cpu-time left)
  - ....
 Please check and report if you believe you found a bug
 Signal           11  detected on PE:          27
 This might be due to either:
  - A bug
  - Your job running out of memory
  - Your job got killed externally (e.g. no cpu-time left)
  - ....
 Please check and report if you believe you found a bug
 Signal           11  detected on PE:          73
 Signal           11  detected on PE:         110
 This might be due to either:
  - A bug
  - Your job running out of memory
  - Your job got killed externally (e.g. no cpu-time left)
  - ....
 Please check and report if you believe you found a bug
 Signal           11  detected on PE:          32
 This might be due to either:
  - A bug
  - Your job running out of memory
  - Your job got killed externally (e.g. no cpu-time left)
  - ....
 Please check and report if you believe you found a bug
 Signal           11  detected on PE:           5
 This might be due to either:
  - A bug
  - Your job running out of memory
  - Your job got killed externally (e.g. no cpu-time left)
  - ....
 Please check and report if you believe you found a bug
 This might be due to either:
  - A bug
  - Your job running out of memory
  - Your job got killed externally (e.g. no cpu-time left)
  - ....
 Please check and report if you believe you found a bug
 This might be due to either:
  - A bug
  - Your job running out of memory
  - Your job got killed externally (e.g. no cpu-time left)
  - ....
 Please check and report if you believe you found a bug
 Signal           11  detected on PE:          33
 This might be due to either:
  - A bug
  - Your job running out of memory
  - Your job got killed externally (e.g. no cpu-time left)
  - ....
 Please check and report if you believe you found a bug
 Signal           11  detected on PE:           7
 This might be due to either:
  - A bug
  - Your job running out of memory
  - Your job got killed externally (e.g. no cpu-time left)
  - ....
 Please check and report if you believe you found a bug
 Signal           11  detected on PE:          63
 Signal           11  detected on PE:         105
 Signal           11  detected on PE:          36
 This might be due to either:
  - A bug
  - Your job running out of memory
  - Your job got killed externally (e.g. no cpu-time left)
  - ....
 Please check and report if you believe you found a bug
 Signal           11  detected on PE:           8
 This might be due to either:
  - A bug
  - Your job running out of memory
  - Your job got killed externally (e.g. no cpu-time left)
  - ....
 Please check and report if you believe you found a bug
 This might be due to either:
  - A bug
  - Your job running out of memory
  - Your job got killed externally (e.g. no cpu-time left)
  - ....
 Please check and report if you believe you found a bug
 This might be due to either:
  - A bug
  - Your job running out of memory
  - Your job got killed externally (e.g. no cpu-time left)
  - ....
 Please check and report if you believe you found a bug
 Signal           11  detected on PE:          39
 This might be due to either:
  - A bug
  - Your job running out of memory
  - Your job got killed externally (e.g. no cpu-time left)
  - ....
 Please check and report if you believe you found a bug
 Signal           11  detected on PE:          22
 This might be due to either:
  - A bug
  - Your job running out of memory
  - Your job got killed externally (e.g. no cpu-time left)
  - ....
 Please check and report if you believe you found a bug
 This might be due to either:
  - A bug
  - Your job running out of memory
  - Your job got killed externally (e.g. no cpu-time left)
  - ....
 Please check and report if you believe you found a bug
 Signal           11  detected on PE:         109
 This might be due to either:
  - A bug
 Signal           11  detected on PE:          40
 This might be due to either:
  - A bug
  - Your job running out of memory
  - Your job got killed externally (e.g. no cpu-time left)
  - ....
 Please check and report if you believe you found a bug
 Signal           11  detected on PE:          10
 This might be due to either:
  - A bug
  - Your job running out of memory
  - Your job got killed externally (e.g. no cpu-time left)
  - ....
 Please check and report if you believe you found a bug
 Signal           11  detected on PE:          62
 Signal           11  detected on PE:          89
 Signal           11  detected on PE:          41
 This might be due to either:
  - A bug
  - Your job running out of memory
  - Your job got killed externally (e.g. no cpu-time left)
  - ....
 Please check and report if you believe you found a bug
 Signal           11  detected on PE:          24
 This might be due to either:
  - A bug
  - Your job running out of memory
  - Your job got killed externally (e.g. no cpu-time left)
  - ....
 Please check and report if you believe you found a bug
 This might be due to either:
  - A bug
  - Your job running out of memory
  - Your job got killed externally (e.g. no cpu-time left)
  - ....
 Please check and report if you believe you found a bug
  - Your job running out of memory
  - Your job got killed externally (e.g. no cpu-time left)
  - ....
 Please check and report if you believe you found a bug
 Signal           11  detected on PE:          42
 This might be due to either:
  - A bug
  - Your job running out of memory
  - Your job got killed externally (e.g. no cpu-time left)
  - ....
 Please check and report if you believe you found a bug
 Signal           11  detected on PE:          70
 This might be due to either:
  - A bug
  - Your job running out of memory
  - Your job got killed externally (e.g. no cpu-time left)
  - ....
 Please check and report if you believe you found a bug
 This might be due to either:
  - A bug
  - Your job running out of memory
  - Your job got killed externally (e.g. no cpu-time left)
  - ....
 Please check and report if you believe you found a bug
 Signal           11  detected on PE:          43
 This might be due to either:
  - A bug
  - Your job running out of memory
  - Your job got killed externally (e.g. no cpu-time left)
  - ....
 Please check and report if you believe you found a bug
 Signal           11  detected on PE:          83
 This might be due to either:
  - A bug
 Signal           11  detected on PE:         104
 Signal           11  detected on PE:          45
 This might be due to either:
  - A bug
  - Your job running out of memory
  - Your job got killed externally (e.g. no cpu-time left)
  - ....
 Please check and report if you believe you found a bug
 Signal           11  detected on PE:          57
 Signal           11  detected on PE:          84
 Signal           11  detected on PE:          46
 This might be due to either:
  - A bug
  - Your job running out of memory
  - Your job got killed externally (e.g. no cpu-time left)
  - ....
 Please check and report if you believe you found a bug
 Signal           11  detected on PE:          74
 This might be due to either:
  - A bug
  - Your job running out of memory
  - Your job got killed externally (e.g. no cpu-time left)
  - ....
 This might be due to either:
  - A bug
  - Your job running out of memory
  - Your job got killed externally (e.g. no cpu-time left)
 Signal           11  detected on PE:          48
 This might be due to either:
  - A bug
  - Your job running out of memory
  - Your job got killed externally (e.g. no cpu-time left)
  - ....
 Please check and report if you believe you found a bug
  - Your job running out of memory
  - Your job got killed externally (e.g. no cpu-time left)
  - ....
 Please check and report if you believe you found a bug
 Signal           11  detected on PE:          88
 Signal           11  detected on PE:          49
 This might be due to either:
  - A bug
  - Your job running out of memory
  - Your job got killed externally (e.g. no cpu-time left)
  - ....
 Please check and report if you believe you found a bug
 This might be due to either:
  - A bug
  - Your job running out of memory
  - Your job got killed externally (e.g. no cpu-time left)
  - ....
 Please check and report if you believe you found a bug
  - ....
 Please check and report if you believe you found a bug
 Signal           11  detected on PE:          50
 This might be due to either:
  - A bug
  - Your job running out of memory
  - Your job got killed externally (e.g. no cpu-time left)
  - ....
 Please check and report if you believe you found a bug
 Signal           11  detected on PE:          58
 This might be due to either:
  - A bug
  - Your job running out of memory
  - Your job got killed externally (e.g. no cpu-time left)
  - ....
 Please check and report if you believe you found a bug
 This might be due to either:
  - A bug
  - Your job running out of memory
  - Your job got killed externally (e.g. no cpu-time left)
  - ....
 Signal           11  detected on PE:          51
 This might be due to either:
  - A bug
  - Your job running out of memory
  - Your job got killed externally (e.g. no cpu-time left)
  - ....
 Please check and report if you believe you found a bug
 Signal           11  detected on PE:          68
 This might be due to either:
 Please check and report if you believe you found a bug
 Signal           11  detected on PE:          52
 This might be due to either:
  - A bug
  - Your job running out of memory
  - Your job got killed externally (e.g. no cpu-time left)
  - ....
 Please check and report if you believe you found a bug
 Please check and report if you believe you found a bug
 Signal           11  detected on PE:         108
 Signal           11  detected on PE:          53
 This might be due to either:
  - A bug
  - Your job running out of memory
  - Your job got killed externally (e.g. no cpu-time left)
  - ....
 Please check and report if you believe you found a bug
 Signal           11  detected on PE:          78
 This might be due to either:
  - A bug
  - Your job running out of memory
  - Your job got killed externally (e.g. no cpu-time left)
  - ....
 Please check and report if you believe you found a bug
 This might be due to either:
  - A bug
  - Your job running out of memory
  - Your job got killed externally (e.g. no cpu-time left)
  - ....
 Please check and report if you believe you found a bug
 Signal           11  detected on PE:          54
 This might be due to either:
  - A bug
  - Your job running out of memory
  - Your job got killed externally (e.g. no cpu-time left)
  - ....
 Please check and report if you believe you found a bug
 Signal           11  detected on PE:          60
 This might be due to either:
  - A bug
  - Your job running out of memory
  - Your job got killed externally (e.g. no cpu-time left)
  - ....
 Signal           11  detected on PE:          90
 Signal           11  detected on PE:          55
 This might be due to either:
  - A bug
  - Your job running out of memory
  - Your job got killed externally (e.g. no cpu-time left)
  - ....
 Please check and report if you believe you found a bug
  - A bug
  - Your job running out of memory
  - Your job got killed externally (e.g. no cpu-time left)
  - ....
 Please check and report if you believe you found a bug
 Signal           11  detected on PE:          99
 Signal           11  detected on PE:          28
 This might be due to either:
  - A bug
  - Your job running out of memory
  - Your job got killed externally (e.g. no cpu-time left)
  - ....
 Please check and report if you believe you found a bug
 Please check and report if you believe you found a bug
 This might be due to either:
  - A bug
  - Your job running out of memory
  - Your job got killed externally (e.g. no cpu-time left)
  - ....
 Please check and report if you believe you found a bug
 Signal           11  detected on PE:          29
 This might be due to either:
  - A bug
  - Your job running out of memory
  - Your job got killed externally (e.g. no cpu-time left)
  - ....
 Please check and report if you believe you found a bug
 This might be due to either:
  - A bug
  - Your job running out of memory
  - Your job got killed externally (e.g. no cpu-time left)
  - ....
 Please check and report if you believe you found a bug
 Signal           11  detected on PE:          30
 This might be due to either:
  - A bug
  - Your job running out of memory
  - Your job got killed externally (e.g. no cpu-time left)
  - ....
 Please check and report if you believe you found a bug
 This might be due to either:
  - A bug
  - Your job running out of memory
  - Your job got killed externally (e.g. no cpu-time left)
  - ....
 Please check and report if you believe you found a bug
 Signal           11  detected on PE:          34
 This might be due to either:
  - A bug
  - Your job running out of memory
  - Your job got killed externally (e.g. no cpu-time left)
  - ....
 Please check and report if you believe you found a bug
 Signal           11  detected on PE:         102
 This might be due to either:
  - A bug
  - Your job running out of memory
  - Your job got killed externally (e.g. no cpu-time left)
  - ....
 Please check and report if you believe you found a bug
 Signal           11  detected on PE:          35
 This might be due to either:
  - A bug
  - Your job running out of memory
  - Your job got killed externally (e.g. no cpu-time left)
  - ....
 Please check and report if you believe you found a bug
 Signal           11  detected on PE:         103
 This might be due to either:
  - A bug
  - Your job running out of memory
  - Your job got killed externally (e.g. no cpu-time left)
  - ....
 Please check and report if you believe you found a bug
 Signal           11  detected on PE:          37
 This might be due to either:
  - A bug
  - Your job running out of memory
  - Your job got killed externally (e.g. no cpu-time left)
  - ....
 Please check and report if you believe you found a bug
 Signal           11  detected on PE:         111
 This might be due to either:
  - A bug
  - Your job running out of memory
  - Your job got killed externally (e.g. no cpu-time left)
  - ....
 Please check and report if you believe you found a bug
 Signal           11  detected on PE:          38
 This might be due to either:
  - A bug
  - Your job running out of memory
  - Your job got killed externally (e.g. no cpu-time left)
  - ....
 Please check and report if you believe you found a bug
 Signal           11  detected on PE:          44
 This might be due to either:
  - A bug
  - Your job running out of memory
  - Your job got killed externally (e.g. no cpu-time left)
  - ....
 Please check and report if you believe you found a bug
 Signal           11  detected on PE:          47
 This might be due to either:
  - A bug
  - Your job running out of memory
  - Your job got killed externally (e.g. no cpu-time left)
  - ....
 Please check and report if you believe you found a bug
 Signal           11  detected on PE:           3
 This might be due to either:
  - A bug
  - Your job running out of memory
  - Your job got killed externally (e.g. no cpu-time left)
  - ....
 Please check and report if you believe you found a bug
Abort(0) on node 61 (rank 61 in comm 0): application called MPI_Abort(MPI_COMM_WORLD, 0) - process 61
Abort(0) on node 81 (rank 81 in comm 0): application called MPI_Abort(MPI_COMM_WORLD, 0) - process 81
Abort(0) on node 87 (rank 87 in comm 0): application called MPI_Abort(MPI_COMM_WORLD, 0) - process 87
Abort(0) on node 95 (rank 95 in comm 0): application called MPI_Abort(MPI_COMM_WORLD, 0) - process 95
Abort(0) on node 100 (rank 100 in comm 0): application called MPI_Abort(MPI_COMM_WORLD, 0) - process 100
Abort(0) on node 110 (rank 110 in comm 0): application called MPI_Abort(MPI_COMM_WORLD, 0) - process 110
Abort(0) on node 85 (rank 85 in comm 0): application called MPI_Abort(MPI_COMM_WORLD, 0) - process 85
Abort(0) on node 86 (rank 86 in comm 0): application called MPI_Abort(MPI_COMM_WORLD, 0) - process 86
Abort(0) on node 60 (rank 60 in comm 0): application called MPI_Abort(MPI_COMM_WORLD, 0) - process 60
Abort(0) on node 65 (rank 65 in comm 0): application called MPI_Abort(MPI_COMM_WORLD, 0) - process 65
Abort(0) on node 88 (rank 88 in comm 0): application called MPI_Abort(MPI_COMM_WORLD, 0) - process 88
Abort(0) on node 67 (rank 67 in comm 0): application called MPI_Abort(MPI_COMM_WORLD, 0) - process 67
Abort(0) on node 89 (rank 89 in comm 0): application called MPI_Abort(MPI_COMM_WORLD, 0) - process 89
Abort(0) on node 71 (rank 71 in comm 0): application called MPI_Abort(MPI_COMM_WORLD, 0) - process 71
Abort(0) on node 90 (rank 90 in comm 0): application called MPI_Abort(MPI_COMM_WORLD, 0) - process 90
Abort(0) on node 73 (rank 73 in comm 0): application called MPI_Abort(MPI_COMM_WORLD, 0) - process 73
Abort(0) on node 91 (rank 91 in comm 0): application called MPI_Abort(MPI_COMM_WORLD, 0) - process 91
Abort(0) on node 74 (rank 74 in comm 0): application called MPI_Abort(MPI_COMM_WORLD, 0) - process 74
Abort(0) on node 92 (rank 92 in comm 0): application called MPI_Abort(MPI_COMM_WORLD, 0) - process 92
Abort(0) on node 75 (rank 75 in comm 0): application called MPI_Abort(MPI_COMM_WORLD, 0) - process 75
Abort(0) on node 93 (rank 93 in comm 0): application called MPI_Abort(MPI_COMM_WORLD, 0) - process 93
Abort(0) on node 77 (rank 77 in comm 0): application called MPI_Abort(MPI_COMM_WORLD, 0) - process 77
Abort(0) on node 94 (rank 94 in comm 0): application called MPI_Abort(MPI_COMM_WORLD, 0) - process 94
Abort(0) on node 79 (rank 79 in comm 0): application called MPI_Abort(MPI_COMM_WORLD, 0) - process 79
Abort(0) on node 80 (rank 80 in comm 0): application called MPI_Abort(MPI_COMM_WORLD, 0) - process 80
Abort(0) on node 96 (rank 96 in comm 0): application called MPI_Abort(MPI_COMM_WORLD, 0) - process 96
Abort(0) on node 82 (rank 82 in comm 0): application called MPI_Abort(MPI_COMM_WORLD, 0) - process 82
Abort(0) on node 97 (rank 97 in comm 0): application called MPI_Abort(MPI_COMM_WORLD, 0) - process 97
Abort(0) on node 83 (rank 83 in comm 0): application called MPI_Abort(MPI_COMM_WORLD, 0) - process 83
Abort(0) on node 98 (rank 98 in comm 0): application called MPI_Abort(MPI_COMM_WORLD, 0) - process 98
Abort(0) on node 99 (rank 99 in comm 0): application called MPI_Abort(MPI_COMM_WORLD, 0) - process 99
Abort(0) on node 56 (rank 56 in comm 0): application called MPI_Abort(MPI_COMM_WORLD, 0) - process 56
Abort(0) on node 57 (rank 57 in comm 0): application called MPI_Abort(MPI_COMM_WORLD, 0) - process 57
Abort(0) on node 101 (rank 101 in comm 0): application called MPI_Abort(MPI_COMM_WORLD, 0) - process 101
Abort(0) on node 58 (rank 58 in comm 0): application called MPI_Abort(MPI_COMM_WORLD, 0) - process 58
Abort(0) on node 102 (rank 102 in comm 0): application called MPI_Abort(MPI_COMM_WORLD, 0) - process 102
Abort(0) on node 63 (rank 63 in comm 0): application called MPI_Abort(MPI_COMM_WORLD, 0) - process 63
Abort(0) on node 103 (rank 103 in comm 0): application called MPI_Abort(MPI_COMM_WORLD, 0) - process 103
Abort(0) on node 64 (rank 64 in comm 0): application called MPI_Abort(MPI_COMM_WORLD, 0) - process 64
Abort(0) on node 104 (rank 104 in comm 0): application called MPI_Abort(MPI_COMM_WORLD, 0) - process 104
Abort(0) on node 66 (rank 66 in comm 0): application called MPI_Abort(MPI_COMM_WORLD, 0) - process 66
Abort(0) on node 105 (rank 105 in comm 0): application called MPI_Abort(MPI_COMM_WORLD, 0) - process 105
Abort(0) on node 68 (rank 68 in comm 0): application called MPI_Abort(MPI_COMM_WORLD, 0) - process 68
Abort(0) on node 106 (rank 106 in comm 0): application called MPI_Abort(MPI_COMM_WORLD, 0) - process 106
Abort(0) on node 69 (rank 69 in comm 0): application called MPI_Abort(MPI_COMM_WORLD, 0) - process 69
Abort(0) on node 107 (rank 107 in comm 0): application called MPI_Abort(MPI_COMM_WORLD, 0) - process 107
Abort(0) on node 70 (rank 70 in comm 0): application called MPI_Abort(MPI_COMM_WORLD, 0) - process 70
Abort(0) on node 108 (rank 108 in comm 0): application called MPI_Abort(MPI_COMM_WORLD, 0) - process 108
Abort(0) on node 72 (rank 72 in comm 0): application called MPI_Abort(MPI_COMM_WORLD, 0) - process 72
Abort(0) on node 109 (rank 109 in comm 0): application called MPI_Abort(MPI_COMM_WORLD, 0) - process 109
Abort(0) on node 76 (rank 76 in comm 0): application called MPI_Abort(MPI_COMM_WORLD, 0) - process 76
Abort(0) on node 111 (rank 111 in comm 0): application called MPI_Abort(MPI_COMM_WORLD, 0) - process 111
Abort(0) on node 78 (rank 78 in comm 0): application called MPI_Abort(MPI_COMM_WORLD, 0) - process 78
Abort(0) on node 36 (rank 36 in comm 0): application called MPI_Abort(MPI_COMM_WORLD, 0) - process 36
Abort(0) on node 42 (rank 42 in comm 0): application called MPI_Abort(MPI_COMM_WORLD, 0) - process 42
Abort(0) on node 49 (rank 49 in comm 0): application called MPI_Abort(MPI_COMM_WORLD, 0) - process 49
Abort(0) on node 7 (rank 7 in comm 0): application called MPI_Abort(MPI_COMM_WORLD, 0) - process 7
Abort(0) on node 50 (rank 50 in comm 0): application called MPI_Abort(MPI_COMM_WORLD, 0) - process 50
Abort(0) on node 28 (rank 28 in comm 0): application called MPI_Abort(MPI_COMM_WORLD, 0) - process 28
Abort(0) on node 8 (rank 8 in comm 0): application called MPI_Abort(MPI_COMM_WORLD, 0) - process 8
Abort(0) on node 29 (rank 29 in comm 0): application called MPI_Abort(MPI_COMM_WORLD, 0) - process 29
Abort(0) on node 9 (rank 9 in comm 0): application called MPI_Abort(MPI_COMM_WORLD, 0) - process 9
Abort(0) on node 33 (rank 33 in comm 0): application called MPI_Abort(MPI_COMM_WORLD, 0) - process 33
Abort(0) on node 10 (rank 10 in comm 0): application called MPI_Abort(MPI_COMM_WORLD, 0) - process 10
Abort(0) on node 34 (rank 34 in comm 0): application called MPI_Abort(MPI_COMM_WORLD, 0) - process 34
Abort(0) on node 11 (rank 11 in comm 0): application called MPI_Abort(MPI_COMM_WORLD, 0) - process 11
Abort(0) on node 35 (rank 35 in comm 0): application called MPI_Abort(MPI_COMM_WORLD, 0) - process 35
Abort(0) on node 12 (rank 12 in comm 0): application called MPI_Abort(MPI_COMM_WORLD, 0) - process 12
Abort(0) on node 13 (rank 13 in comm 0): application called MPI_Abort(MPI_COMM_WORLD, 0) - process 13
Abort(0) on node 38 (rank 38 in comm 0): application called MPI_Abort(MPI_COMM_WORLD, 0) - process 38
Abort(0) on node 14 (rank 14 in comm 0): application called MPI_Abort(MPI_COMM_WORLD, 0) - process 14
Abort(0) on node 39 (rank 39 in comm 0): application called MPI_Abort(MPI_COMM_WORLD, 0) - process 39
Abort(0) on node 15 (rank 15 in comm 0): application called MPI_Abort(MPI_COMM_WORLD, 0) - process 15
Abort(0) on node 40 (rank 40 in comm 0): application called MPI_Abort(MPI_COMM_WORLD, 0) - process 40
Abort(0) on node 16 (rank 16 in comm 0): application called MPI_Abort(MPI_COMM_WORLD, 0) - process 16
Abort(0) on node 41 (rank 41 in comm 0): application called MPI_Abort(MPI_COMM_WORLD, 0) - process 41
Abort(0) on node 17 (rank 17 in comm 0): application called MPI_Abort(MPI_COMM_WORLD, 0) - process 17
Abort(0) on node 43 (rank 43 in comm 0): application called MPI_Abort(MPI_COMM_WORLD, 0) - process 43
Abort(0) on node 18 (rank 18 in comm 0): application called MPI_Abort(MPI_COMM_WORLD, 0) - process 18
Abort(0) on node 44 (rank 44 in comm 0): application called MPI_Abort(MPI_COMM_WORLD, 0) - process 44
Abort(0) on node 19 (rank 19 in comm 0): application called MPI_Abort(MPI_COMM_WORLD, 0) - process 19
Abort(0) on node 45 (rank 45 in comm 0): application called MPI_Abort(MPI_COMM_WORLD, 0) - process 45
Abort(0) on node 20 (rank 20 in comm 0): application called MPI_Abort(MPI_COMM_WORLD, 0) - process 20
Abort(0) on node 46 (rank 46 in comm 0): application called MPI_Abort(MPI_COMM_WORLD, 0) - process 46
Abort(0) on node 21 (rank 21 in comm 0): application called MPI_Abort(MPI_COMM_WORLD, 0) - process 21
Abort(0) on node 47 (rank 47 in comm 0): application called MPI_Abort(MPI_COMM_WORLD, 0) - process 47
Abort(0) on node 22 (rank 22 in comm 0): application called MPI_Abort(MPI_COMM_WORLD, 0) - process 22
Abort(0) on node 48 (rank 48 in comm 0): application called MPI_Abort(MPI_COMM_WORLD, 0) - process 48
Abort(0) on node 23 (rank 23 in comm 0): application called MPI_Abort(MPI_COMM_WORLD, 0) - process 23
Abort(0) on node 24 (rank 24 in comm 0): application called MPI_Abort(MPI_COMM_WORLD, 0) - process 24
Abort(0) on node 51 (rank 51 in comm 0): application called MPI_Abort(MPI_COMM_WORLD, 0) - process 51
Abort(0) on node 25 (rank 25 in comm 0): application called MPI_Abort(MPI_COMM_WORLD, 0) - process 25
Abort(0) on node 52 (rank 52 in comm 0): application called MPI_Abort(MPI_COMM_WORLD, 0) - process 52
Abort(0) on node 26 (rank 26 in comm 0): application called MPI_Abort(MPI_COMM_WORLD, 0) - process 26
Abort(0) on node 53 (rank 53 in comm 0): application called MPI_Abort(MPI_COMM_WORLD, 0) - process 53
Abort(0) on node 27 (rank 27 in comm 0): application called MPI_Abort(MPI_COMM_WORLD, 0) - process 27
Abort(0) on node 54 (rank 54 in comm 0): application called MPI_Abort(MPI_COMM_WORLD, 0) - process 54
Abort(0) on node 55 (rank 55 in comm 0): application called MPI_Abort(MPI_COMM_WORLD, 0) - process 55
