JobId=1589805 JobName=CovidStrong
   UserId=it4i-fpedron(9897) GroupId=it4i-fpedron(11979) MCS_label=N/A
   Priority=302342161 Nice=0 Account=dd-24-70 QOS=2820_4664
   JobState=RUNNING Reason=None Dependency=(null)
   Requeue=1 Restarts=0 BatchFlag=1 Reboot=0 ExitCode=0:0
   DerivedExitCode=0:0
   RunTime=00:00:03 TimeLimit=00:59:00 TimeMin=N/A
   SubmitTime=2024-09-06T11:25:37 EligibleTime=2024-09-06T11:25:37
   AccrueTime=2024-09-06T11:25:37
   StartTime=2024-09-06T20:12:14 EndTime=2024-09-06T21:11:14 Deadline=N/A
   PreemptEligibleTime=2024-09-06T20:12:14 PreemptTime=None
   SuspendTime=None SecsPreSuspend=0 LastSchedEval=2024-09-06T20:12:14 Scheduler=Main
   Partition=qgpu AllocNode:Sid=login4.karolina.it4i.cz:2332276
   ReqNodeList=(null) ExcNodeList=(null)
   NodeList=acn[11-16,22,29,41-42,51,56,58,60,65,72]
   BatchHost=acn11
   NumNodes=16 NumCPUs=2048 NumTasks=1024 CPUs/Task=1 ReqB:S:C:T=0:0:*:*
   ReqTRES=cpu=1024,mem=7760G,node=16,billing=128,gres/gpu=128
   AllocTRES=cpu=2048,mem=15520G,node=16,billing=128,gres/gpu=128
   Socks/Node=* NtasksPerN:B:S:C=64:0:*:* CoreSpec=*
   JOB_GRES=gpu:a100:128
     Nodes=acn[11-16,22,29,41-42,51,56,58,60,65,72] CPU_IDs=0-127 Mem=993280 GRES=gpu:a100:8(IDX:0-7)
   MinCPUsNode=64 MinMemoryCPU=7760M MinTmpDiskNode=0
   Features=(null) DelayBoot=00:00:00
   OverSubscribe=NO Contiguous=0 Licenses=(null) Network=(null)
   Command=/home/it4i-fpedron/JUBE4MaX-GPU/max-inputs/interface/siesta/_CovidStrong/000000/000004_submit/work/submit.job
   WorkDir=/home/it4i-fpedron/JUBE4MaX-GPU/max-inputs/interface/siesta/_CovidStrong/000000/000004_submit/work
   StdErr=/home/it4i-fpedron/JUBE4MaX-GPU/max-inputs/interface/siesta/_CovidStrong/000000/000004_submit/work/slurm-1589805.out
   StdIn=/dev/null
   StdOut=/home/it4i-fpedron/JUBE4MaX-GPU/max-inputs/interface/siesta/_CovidStrong/000000/000004_submit/work/slurm-1589805.out
   Power=
   CpusPerTres=gres/gpu:16
   TresPerNode=gres/gpu:8
   

