{
 "global_section": { "_calls": 1, "_time":      636.779, "_%":   100.00,
   "siesta": { "_calls": 1, "_time":      636.779, "_%":   100.00,
     "Setup": { "_calls": 1, "_time":        1.617, "_%":     0.25,
       "bands": { "_calls": 1, "_time":        0.002, "_%":     0.00},
       "KSV_init": { "_calls": 1, "_time":        0.000, "_%":     0.00}
     },
     "IterGeom": { "_calls": 1, "_time":      634.723, "_%":    99.68,
       "geom_init": { "_calls": 1, "_time":        6.410, "_%":     1.01,
         "state_init": { "_calls": 1, "_time":        1.369, "_%":     0.21,
           "hsparse": { "_calls": 1, "_time":        0.117, "_%":     0.02},
           "overlap": { "_calls": 1, "_time":        0.584, "_%":     0.09}
         },
         "Setup_H0": { "_calls": 1, "_time":        5.040, "_%":     0.79,
           "naefs": { "_calls": 1, "_time":        0.018, "_%":     0.00},
           "MolMec": { "_calls": 1, "_time":        0.000, "_%":     0.00},
           "kinefsm": { "_calls": 1, "_time":        0.578, "_%":     0.09},
           "nlefsm": { "_calls": 1, "_time":        1.315, "_%":     0.21},
           "DHSCF_Init": { "_calls": 1, "_time":        3.120, "_%":     0.49,
             "DHSCF1": { "_calls": 1, "_time":        0.026, "_%":     0.00,
               "INITMESH": { "_calls": 1, "_time":        0.000, "_%":     0.00}
             },
             "DHSCF2": { "_calls": 1, "_time":        3.080, "_%":     0.48,
               "REMESH": { "_calls": 1, "_time":        1.843, "_%":     0.29,
                 "INITMESH": { "_calls": 2, "_time":        1.746, "_%":     0.27,
                   "SPLOAD": { "_calls": 2, "_time":        1.176, "_%":     0.18}
                 }
               },
               "REORD": { "_calls": 2, "_time":        0.004, "_%":     0.00},
               "PHION": { "_calls": 1, "_time":        0.110, "_%":     0.02},
               "COMM_BSC": { "_calls": 1, "_time":        0.033, "_%":     0.01},
               "POISON": { "_calls": 1, "_time":        0.777, "_%":     0.12,
                 "fft": { "_calls": 2, "_time":        0.735, "_%":     0.12}
               }
             }
           }
         }
       },
       "IterSCF": { "_calls": 5, "_time":      628.167, "_%":    98.65,
         "setup_H": { "_calls": 5, "_time":        6.439, "_%":     1.01,
           "DHSCF": { "_calls": 5, "_time":        6.430, "_%":     1.01,
             "DHSCF3": { "_calls": 5, "_time":        6.430, "_%":     1.01,
               "rhoofd": { "_calls": 5, "_time":        0.112, "_%":     0.02},
               "COMM_BSC": { "_calls": 10, "_time":        0.255, "_%":     0.04},
               "POISON": { "_calls": 5, "_time":        3.565, "_%":     0.56,
                 "fft": { "_calls": 10, "_time":        3.342, "_%":     0.52}
               },
               "XC": { "_calls": 5, "_time":        1.986, "_%":     0.31,
                 "COMM_BSC": { "_calls": 10, "_time":        0.196, "_%":     0.03},
                 "GXC-CellXC": { "_calls": 5, "_time":        1.723, "_%":     0.27,
                   "gridxc@cellXC": { "_calls": 5, "_time":        1.723, "_%":     0.27}
                 }
               },
               "vmat": { "_calls": 5, "_time":        0.105, "_%":     0.02}
             }
           }
         },
         "compute_dm": { "_calls": 5, "_time":      621.706, "_%":    97.63,
           "elsi": { "_calls": 5, "_time":      621.376, "_%":    97.58,
             "find nnz_g": { "_calls": 5, "_time":        0.000, "_%":     0.00},
             "elsi-solver": { "_calls": 5, "_time":      621.362, "_%":    97.58}
           }
         },
         "MIXER": { "_calls": 5, "_time":        0.008, "_%":     0.00}
       },
       "state_analysis": { "_calls": 1, "_time":        0.068, "_%":     0.01},
       "siesta_move": { "_calls": 1, "_time":        0.000, "_%":     0.00}
     },
     "Analysis": { "_calls": 1, "_time":        0.252, "_%":     0.04,
       "optical": { "_calls": 1, "_time":        0.000, "_%":     0.00}
     }
   }
 }}
