Unloading profile/base
  ERROR: Module evaluation aborted
Loading quantum-espresso/7.3.1--openmpi--4.1.4--nvhpc--23.1-openblas
  Loading requirement: zlib/1.2.13--gcc--11.3.0
    openmpi/4.1.4--nvhpc--23.1-cuda-11.8
    fftw/3.3.10--openmpi--4.1.4--nvhpc--23.1 libxc/5.2.3--nvhpc--23.1
    openblas/0.3.21--nvhpc--23.1
Currently Loaded Modulefiles:
 1) profile/base(default)                                         
 2) profile/chem-phys                                             
 3) zlib/1.2.13--gcc--11.3.0 <aL>                                 
 4) openmpi/4.1.4--nvhpc--23.1-cuda-11.8 <aL>                     
 5) fftw/3.3.10--openmpi--4.1.4--nvhpc--23.1 <aL>                 
 6) libxc/5.2.3--nvhpc--23.1 <aL>                                 
 7) openblas/0.3.21--nvhpc--23.1 <aL>                             
 8) quantum-espresso/7.3.1--openmpi--4.1.4--nvhpc--23.1-openblas  

Key:
(symbolic-version)  <module-tag>  <aL>=auto-loaded  
Warning: ieee_divide_by_zero is signaling
Warning: ieee_inexact is signaling
FORTRAN STOP
[lrdn0405:1064798:0:1064798] Caught signal 4 (Illegal instruction: illegal operand)
==== backtrace (tid:1064798) ====
 0  /usr/lib/gcc/x86_64-redhat-linux/8/../../../../lib64/libucs.so.0(ucs_handle_error+0x2dc) [0x1497f9646edc]
 1  /usr/lib/gcc/x86_64-redhat-linux/8/../../../../lib64/libucs.so.0(+0x2b0bc) [0x1497f96470bc]
 2  /usr/lib/gcc/x86_64-redhat-linux/8/../../../../lib64/libucs.so.0(+0x2b143) [0x1497f9647143]
 3  pw.x() [0x55b5bb8]
=================================
--------------------------------------------------------------------------
Primary job  terminated normally, but 1 process returned
a non-zero exit code. Per user-direction, the job has been aborted.
--------------------------------------------------------------------------
--------------------------------------------------------------------------
mpirun noticed that process rank 0 with PID 1064798 on node lrdn0405 exited on signal 4 (Illegal instruction).
--------------------------------------------------------------------------
