       JobID     JobIDRaw    JobName  Partition  MaxVMSize  MaxVMSizeNode  MaxVMSizeTask  AveVMSize     MaxRSS MaxRSSNode MaxRSSTask     AveRSS MaxPages MaxPagesNode   MaxPagesTask   AvePages     MinCPU MinCPUNode MinCPUTask     AveCPU   NTasks  AllocCPUS    Elapsed      State ExitCode AveCPUFreq ReqCPUFreqMin ReqCPUFreqMax ReqCPUFreqGov     ReqMem ConsumedEnergy  MaxDiskRead MaxDiskReadNode MaxDiskReadTask    AveDiskRead MaxDiskWrite MaxDiskWriteNode MaxDiskWriteTask   AveDiskWrite    AllocGRES      ReqGRES    ReqTRES  AllocTRES TRESUsageInAve TRESUsageInMax TRESUsageInMaxNode TRESUsageInMaxTask TRESUsageInMin TRESUsageInMinNode TRESUsageInMinTask TRESUsageInTot TRESUsageOutMax TRESUsageOutMaxNode TRESUsageOutMaxTask TRESUsageOutAve TRESUsageOutTot 
------------ ------------ ---------- ---------- ---------- -------------- -------------- ---------- ---------- ---------- ---------- ---------- -------- ------------ -------------- ---------- ---------- ---------- ---------- ---------- -------- ---------- ---------- ---------- -------- ---------- ------------- ------------- ------------- ---------- -------------- ------------ --------------- --------------- -------------- ------------ ---------------- ---------------- -------------- ------------ ------------ ---------- ---------- -------------- -------------- ------------------ ------------------ -------------- ------------------ ------------------ -------------- --------------- ------------------- ------------------- --------------- --------------- 
244507       244507       CovidWeak+         cn                                                                                                                                                                                                            1024   01:57:08    RUNNING      0:0                  Unknown       Unknown       Unknown        1Gc                                                                                                                                                                    billing=1+ billing=1+                                                                                                                                                                                                                                 
244507.batch 244507.batch      batch                                                                                                                                                                                                               1        128   01:57:08    RUNNING      0:0          0             0             0             0        1Gc              0                                                                                                                                                                cpu=128,m+                                                                                                                                                                                                                                 
244507.0     244507.0         siesta              1542432K         cn1069              0 1162396284    355540K     cn1069          0  299651948      116       cn1069              0         28   01:54:52     cn1069          0   01:55:54     1024       1024   01:57:06  COMPLETED      0:0       306K       Unknown       Unknown       Unknown        1Gc         25.08M       10.99M          cn1069               0          8.25M       19.31M           cn1069                0          7.34M                                      cpu=1024,+ cpu=01:55:54,+ cpu=01:56:02,+ cpu=cn1072,energy+ cpu=390,fs/disk=0+ cpu=01:54:52,+ cpu=cn1069,energy+ cpu=0,fs/disk=254+ cpu=82-10:15:+ energy=500,fs/+ energy=cn1072,fs/d+           fs/disk=0 energy=14,fs/d+ energy=14650,f+ 
