mpi: 8
thrs: 14
thr_tot: 112
nodes: 1
nodes_io: 1
Time-Profile: 13500.0000
HF(REDUX): 1.6504
io_ATMPROJ_pwscf: 0.0001
io_KB_abinit: 0.0004
IO_and_Messaging_switch: 0.0003
MATRIX transfer (X_G_finite_q_X_redux_1_2): 0.0915
MATRIX transfer (X_G_finite_q_X_redux_2_2): 0.1044
io_Double_Grid: 0.0030
MATRIX transfer (X_G_finite_q_X_redux_2_1): 0.0880
MATRIX transfer (X_G_finite_q_X_redux_1_1): 0.0905
GW(REDUX): 710.0000
io_QINDX: 0.0297
io_HF: 0.1072
io_GROT: 0.0257
scatter_Gamp: 0.0436
io_COL_CUT: 0.1573
PP_uspp_init: 0.3390
io_QP_and_GF: 0.1244
io_DIPOLES: 0.6687
io_X: 4.5275
X (REDUX): 0.3497
io_KB_pwscf: 0.5487
Coulomb Cutoff: 0.3287
Xo (REDUX): 3840.0000
XC_potential_driver: 0.3671
XCo_local: 0.3745
FFT_setup: 0.4747
io_fragment: 1.3190
PARALLEL_lin_system: 1.0348
LINEAR ALGEBRA: 1.0349
X (procedure): 1.3084
RIM: 1.5431
io_WF: 2.8401
HF: 5.1992
WF_load_FFT: 12.8189
DIPOLE_transverse: 24.1009
Dipoles: 26.0906
GW(ppa): 3660.0000
Xo (procedure): 9780.0000
Xo: 9780.0000
X: 1.3084
Self energy: 3665.1992
Other: 27.4018
