JobID        JobIDRaw        JobName  Partition  MaxVMSize  MaxVMSizeNode  MaxVMSizeTask  AveVMSize     MaxRSS MaxRSSNode MaxRSSTask     AveRSS MaxPages MaxPagesNode   MaxPagesTask   AvePages     MinCPU MinCPUNode MinCPUTask     AveCPU   NTasks  AllocCPUS    Elapsed      State ExitCode AveCPUFreq ReqCPUFreqMin ReqCPUFreqMax ReqCPUFreqGov     ReqMem ConsumedEnergy  MaxDiskRead MaxDiskReadNode MaxDiskReadTask    AveDiskRead MaxDiskWrite MaxDiskWriteNode MaxDiskWriteTask   AveDiskWrite    ReqTRES  AllocTRES TRESUsageInAve TRESUsageInMax TRESUsageInMaxNode TRESUsageInMaxTask TRESUsageInMin TRESUsageInMinNode TRESUsageInMinTask TRESUsageInTot TRESUsageOutMax TRESUsageOutMaxNode TRESUsageOutMaxTask TRESUsageOutAve TRESUsageOutTot 
------------ ------------ ---------- ---------- ---------- -------------- -------------- ---------- ---------- ---------- ---------- ---------- -------- ------------ -------------- ---------- ---------- ---------- ---------- ---------- -------- ---------- ---------- ---------- -------- ---------- ------------- ------------- ------------- ---------- -------------- ------------ --------------- --------------- -------------- ------------ ---------------- ---------------- -------------- ---------- ---------- -------------- -------------- ------------------ ------------------ -------------- ------------------ ------------------ -------------- --------------- ------------------- ------------------- --------------- --------------- 
7209606      7209606      submit.job dcgp_usr_+                                                                                                                                                                                                             112   03:45:29    RUNNING      0:0                  Unknown       Unknown       Unknown    492800M                                                                                                                                          billing=1+ billing=1+                                                                                                                                                                                                                                 
7209606.bat+ 7209606.bat+      batch                                                                                                                                                                                                               1        112   03:45:29    RUNNING      0:0          0             0             0             0                         0                                                                                                                                      cpu=112,g+                                                                                                                                                                                                                                 
7209606.ext+ 7209606.ext+     extern                                                                                                                                                                                                               1        112   03:45:29    RUNNING      0:0          0             0             0             0                         0                                                                                                                                      billing=1+                                                                                                                                                                                                                                 
7209606.0    7209606.0    hydra_bst+             41678564K       lrdn4898              0  41678564K  38245416K   lrdn4898          0  38245416K     4174     lrdn4898              0       4174 14-15:18:+   lrdn4898          0 14-15:18:+        1        112   03:45:24  COMPLETED      0:0         1K       Unknown       Unknown       Unknown                         0        0.39M        lrdn4898               0          0.39M        0.01M         lrdn4898                0          0.01M            cpu=112,g+ cpu=14-15:18:+ cpu=14-15:18:+ cpu=lrdn4898,ener+ cpu=0,fs/disk=0,m+ cpu=14-15:18:+ cpu=lrdn4898,ener+ cpu=0,fs/disk=0,m+ cpu=14-15:18:+ energy=0,fs/di+ energy=lrdn4898,fs+           fs/disk=0 energy=0,fs/di+ energy=0,fs/di+ 
