{
 "global_section": { "_calls": 1, "_time":     8735.099, "_%":   100.00,
   "siesta": { "_calls": 1, "_time":     8735.099, "_%":   100.00,
     "Setup": { "_calls": 1, "_time":        2.666, "_%":     0.03,
       "bands": { "_calls": 1, "_time":        0.004, "_%":     0.00},
       "KSV_init": { "_calls": 1, "_time":        0.001, "_%":     0.00}
     },
     "IterGeom": { "_calls": 1, "_time":     8731.548, "_%":    99.96,
       "geom_init": { "_calls": 1, "_time":       15.061, "_%":     0.17,
         "state_init": { "_calls": 1, "_time":        2.982, "_%":     0.03,
           "hsparse": { "_calls": 1, "_time":        0.199, "_%":     0.00},
           "overlap": { "_calls": 1, "_time":        1.863, "_%":     0.02}
         },
         "Setup_H0": { "_calls": 1, "_time":       12.079, "_%":     0.14,
           "naefs": { "_calls": 1, "_time":        0.031, "_%":     0.00},
           "MolMec": { "_calls": 1, "_time":        0.000, "_%":     0.00},
           "kinefsm": { "_calls": 1, "_time":        1.843, "_%":     0.02},
           "nlefsm": { "_calls": 1, "_time":        4.571, "_%":     0.05},
           "DHSCF_Init": { "_calls": 1, "_time":        5.613, "_%":     0.06,
             "DHSCF1": { "_calls": 1, "_time":        0.060, "_%":     0.00,
               "INITMESH": { "_calls": 1, "_time":        0.000, "_%":     0.00}
             },
             "DHSCF2": { "_calls": 1, "_time":        5.527, "_%":     0.06,
               "REMESH": { "_calls": 1, "_time":        0.412, "_%":     0.00,
                 "INITMESH": { "_calls": 2, "_time":        0.377, "_%":     0.00,
                   "SPLOAD": { "_calls": 2, "_time":        0.363, "_%":     0.00}
                 }
               },
               "REORD": { "_calls": 2, "_time":        0.023, "_%":     0.00},
               "PHION": { "_calls": 1, "_time":        0.703, "_%":     0.01},
               "COMM_BSC": { "_calls": 1, "_time":        0.084, "_%":     0.00},
               "POISON": { "_calls": 1, "_time":        3.850, "_%":     0.04,
                 "fft": { "_calls": 2, "_time":        3.660, "_%":     0.04}
               }
             }
           }
         }
       },
       "IterSCF": { "_calls": 5, "_time":     8716.316, "_%":    99.78,
         "setup_H": { "_calls": 5, "_time":       34.223, "_%":     0.39,
           "DHSCF": { "_calls": 5, "_time":       34.165, "_%":     0.39,
             "DHSCF3": { "_calls": 5, "_time":       34.165, "_%":     0.39,
               "rhoofd": { "_calls": 5, "_time":        0.459, "_%":     0.01},
               "COMM_BSC": { "_calls": 10, "_time":        1.829, "_%":     0.02},
               "POISON": { "_calls": 5, "_time":       19.186, "_%":     0.22,
                 "fft": { "_calls": 10, "_time":       18.224, "_%":     0.21}
               },
               "XC": { "_calls": 5, "_time":       10.807, "_%":     0.12,
                 "COMM_BSC": { "_calls": 10, "_time":        1.267, "_%":     0.01},
                 "GXC-CellXC": { "_calls": 5, "_time":        9.290, "_%":     0.11,
                   "gridxc@cellXC": { "_calls": 5, "_time":        9.290, "_%":     0.11}
                 }
               },
               "vmat": { "_calls": 5, "_time":        0.375, "_%":     0.00}
             }
           }
         },
         "compute_dm": { "_calls": 5, "_time":     8682.071, "_%":    99.39,
           "diagon": { "_calls": 5, "_time":     8674.036, "_%":    99.30,
             "r-eigvec": { "_calls": 5, "_time":     8505.749, "_%":    97.37,
               "r-buildHS": { "_calls": 5, "_time":        1.942, "_%":     0.02},
               "rdiag": { "_calls": 5, "_time":     8503.808, "_%":    97.35,
                 "rdiag1": { "_calls": 5, "_time":      196.922, "_%":     2.25},
                 "rdiag2": { "_calls": 5, "_time":      586.293, "_%":     6.71},
                 "rdiag3": { "_calls": 5, "_time":     6838.924, "_%":    78.29},
                 "rdiag4": { "_calls": 5, "_time":      864.196, "_%":     9.89}
               }
             },
             "r-buildD": { "_calls": 5, "_time":      164.727, "_%":     1.89}
           }
         },
         "MIXER": { "_calls": 5, "_time":        0.008, "_%":     0.00}
       },
       "state_analysis": { "_calls": 1, "_time":        0.119, "_%":     0.00},
       "siesta_move": { "_calls": 1, "_time":        0.000, "_%":     0.00}
     },
     "Analysis": { "_calls": 1, "_time":        0.851, "_%":     0.01,
       "optical": { "_calls": 1, "_time":        0.001, "_%":     0.00}
     }
   }
 }}
