JobID        JobIDRaw        JobName  Partition  MaxVMSize  MaxVMSizeNode  MaxVMSizeTask  AveVMSize     MaxRSS MaxRSSNode MaxRSSTask     AveRSS MaxPages MaxPagesNode   MaxPagesTask   AvePages     MinCPU MinCPUNode MinCPUTask     AveCPU   NTasks  AllocCPUS    Elapsed      State ExitCode AveCPUFreq ReqCPUFreqMin ReqCPUFreqMax ReqCPUFreqGov     ReqMem ConsumedEnergy  MaxDiskRead MaxDiskReadNode MaxDiskReadTask    AveDiskRead MaxDiskWrite MaxDiskWriteNode MaxDiskWriteTask   AveDiskWrite    ReqTRES  AllocTRES TRESUsageInAve TRESUsageInMax TRESUsageInMaxNode TRESUsageInMaxTask TRESUsageInMin TRESUsageInMinNode TRESUsageInMinTask TRESUsageInTot TRESUsageOutMax TRESUsageOutMaxNode TRESUsageOutMaxTask TRESUsageOutAve TRESUsageOutTot 
------------ ------------ ---------- ---------- ---------- -------------- -------------- ---------- ---------- ---------- ---------- ---------- -------- ------------ -------------- ---------- ---------- ---------- ---------- ---------- -------- ---------- ---------- ---------- -------- ---------- ------------- ------------- ------------- ---------- -------------- ------------ --------------- --------------- -------------- ------------ ---------------- ---------------- -------------- ---------- ---------- -------------- -------------- ------------------ ------------------ -------------- ------------------ ------------------ -------------- --------------- ------------------- ------------------- --------------- --------------- 
7209605      7209605      submit.job dcgp_usr_+                                                                                                                                                                                                             224   02:02:11    RUNNING      0:0                  Unknown       Unknown       Unknown    962.50G                                                                                                                                          billing=2+ billing=2+                                                                                                                                                                                                                                 
7209605.bat+ 7209605.bat+      batch                                                                                                                                                                                                               1        112   02:02:11    RUNNING      0:0          0             0             0             0                         0                                                                                                                                      cpu=112,g+                                                                                                                                                                                                                                 
7209605.ext+ 7209605.ext+     extern                                                                                                                                                                                                               2        224   02:02:11    RUNNING      0:0          0             0             0             0                         0                                                                                                                                      billing=2+                                                                                                                                                                                                                                 
7209605.0    7209605.0    hydra_bst+             26124992K       lrdn4804              0  13062496K  22479172K   lrdn4804          0  11239586K     4090     lrdn4804              0       2045 7-15:32:50   lrdn4820          1 7-15:54:52        2        224   02:02:06  COMPLETED      0:0         4K       Unknown       Unknown       Unknown                         0        0.39M        lrdn4820               1          0.39M        0.01M         lrdn4820                1          0.01M            cpu=224,g+ cpu=7-15:54:5+ cpu=7-16:16:5+ cpu=lrdn4804,ener+ cpu=0,fs/disk=1,m+ cpu=7-15:32:5+ cpu=lrdn4820,ener+ cpu=1,fs/disk=0,m+ cpu=15-07:49:+ energy=0,fs/di+ energy=lrdn4820,fs+           fs/disk=1 energy=0,fs/di+ energy=0,fs/di+ 
