{
 "global_section": { "_calls": 1, "_time":     1434.266, "_%":   100.00,
   "siesta": { "_calls": 1, "_time":     1434.266, "_%":   100.00,
     "Setup": { "_calls": 1, "_time":        2.649, "_%":     0.18,
       "bands": { "_calls": 1, "_time":        0.003, "_%":     0.00},
       "KSV_init": { "_calls": 1, "_time":        0.001, "_%":     0.00}
     },
     "IterGeom": { "_calls": 1, "_time":     1430.934, "_%":    99.77,
       "geom_init": { "_calls": 1, "_time":       11.356, "_%":     0.79,
         "state_init": { "_calls": 1, "_time":        2.433, "_%":     0.17,
           "hsparse": { "_calls": 1, "_time":        0.191, "_%":     0.01},
           "overlap": { "_calls": 1, "_time":        1.135, "_%":     0.08}
         },
         "Setup_H0": { "_calls": 1, "_time":        8.922, "_%":     0.62,
           "naefs": { "_calls": 1, "_time":        0.032, "_%":     0.00},
           "MolMec": { "_calls": 1, "_time":        0.000, "_%":     0.00},
           "kinefsm": { "_calls": 1, "_time":        1.140, "_%":     0.08},
           "nlefsm": { "_calls": 1, "_time":        2.662, "_%":     0.19},
           "DHSCF_Init": { "_calls": 1, "_time":        5.066, "_%":     0.35,
             "DHSCF1": { "_calls": 1, "_time":        0.064, "_%":     0.00,
               "INITMESH": { "_calls": 1, "_time":        0.000, "_%":     0.00}
             },
             "DHSCF2": { "_calls": 1, "_time":        4.976, "_%":     0.35,
               "REMESH": { "_calls": 1, "_time":        3.116, "_%":     0.22,
                 "INITMESH": { "_calls": 2, "_time":        2.933, "_%":     0.20,
                   "SPLOAD": { "_calls": 2, "_time":        1.728, "_%":     0.12}
                 }
               },
               "REORD": { "_calls": 2, "_time":        0.002, "_%":     0.00},
               "PHION": { "_calls": 1, "_time":        0.188, "_%":     0.01},
               "COMM_BSC": { "_calls": 1, "_time":        0.080, "_%":     0.01},
               "POISON": { "_calls": 1, "_time":        1.106, "_%":     0.08,
                 "fft": { "_calls": 2, "_time":        1.072, "_%":     0.07}
               }
             }
           }
         }
       },
       "IterSCF": { "_calls": 5, "_time":     1419.430, "_%":    98.97,
         "setup_H": { "_calls": 5, "_time":       14.175, "_%":     0.99,
           "DHSCF": { "_calls": 5, "_time":       14.165, "_%":     0.99,
             "DHSCF3": { "_calls": 5, "_time":       14.165, "_%":     0.99,
               "rhoofd": { "_calls": 5, "_time":        0.128, "_%":     0.01},
               "COMM_BSC": { "_calls": 10, "_time":        1.674, "_%":     0.12},
               "POISON": { "_calls": 5, "_time":        5.534, "_%":     0.39,
                 "fft": { "_calls": 10, "_time":        5.279, "_%":     0.37}
               },
               "XC": { "_calls": 5, "_time":        5.224, "_%":     0.36,
                 "COMM_BSC": { "_calls": 10, "_time":        1.316, "_%":     0.09},
                 "GXC-CellXC": { "_calls": 5, "_time":        3.846, "_%":     0.27,
                   "gridxc@cellXC": { "_calls": 5, "_time":        3.845, "_%":     0.27}
                 }
               },
               "vmat": { "_calls": 5, "_time":        0.538, "_%":     0.04}
             }
           }
         },
         "compute_dm": { "_calls": 5, "_time":     1405.229, "_%":    97.98,
           "elsi": { "_calls": 5, "_time":     1404.233, "_%":    97.91,
             "find nnz_g": { "_calls": 5, "_time":        0.000, "_%":     0.00},
             "elsi-solver": { "_calls": 5, "_time":     1404.198, "_%":    97.90}
           }
         },
         "MIXER": { "_calls": 5, "_time":        0.005, "_%":     0.00}
       },
       "state_analysis": { "_calls": 1, "_time":        0.086, "_%":     0.01},
       "siesta_move": { "_calls": 1, "_time":        0.000, "_%":     0.00}
     },
     "Analysis": { "_calls": 1, "_time":        0.564, "_%":     0.04,
       "optical": { "_calls": 1, "_time":        0.001, "_%":     0.00}
     }
   }
 }}
