JobID        JobIDRaw        JobName  Partition  MaxVMSize  MaxVMSizeNode  MaxVMSizeTask  AveVMSize     MaxRSS MaxRSSNode MaxRSSTask     AveRSS MaxPages MaxPagesNode   MaxPagesTask   AvePages     MinCPU MinCPUNode MinCPUTask     AveCPU   NTasks  AllocCPUS    Elapsed      State ExitCode AveCPUFreq ReqCPUFreqMin ReqCPUFreqMax ReqCPUFreqGov     ReqMem ConsumedEnergy  MaxDiskRead MaxDiskReadNode MaxDiskReadTask    AveDiskRead MaxDiskWrite MaxDiskWriteNode MaxDiskWriteTask   AveDiskWrite    ReqTRES  AllocTRES TRESUsageInAve TRESUsageInMax TRESUsageInMaxNode TRESUsageInMaxTask TRESUsageInMin TRESUsageInMinNode TRESUsageInMinTask TRESUsageInTot TRESUsageOutMax TRESUsageOutMaxNode TRESUsageOutMaxTask TRESUsageOutAve TRESUsageOutTot 
------------ ------------ ---------- ---------- ---------- -------------- -------------- ---------- ---------- ---------- ---------- ---------- -------- ------------ -------------- ---------- ---------- ---------- ---------- ---------- -------- ---------- ---------- ---------- -------- ---------- ------------- ------------- ------------- ---------- -------------- ------------ --------------- --------------- -------------- ------------ ---------------- ---------------- -------------- ---------- ---------- -------------- -------------- ------------------ ------------------ -------------- ------------------ ------------------ -------------- --------------- ------------------- ------------------- --------------- --------------- 
1589186      1589186      CovidWeak+       qcpu                                                                                                                                                                                                             128   00:01:54    RUNNING      0:0                  Unknown       Unknown       Unknown       230G                                                                                                                                          billing=1+ billing=1+                                                                                                                                                                                                                                 
1589186.bat+ 1589186.bat+      batch                                                                                                                                                                                                               1        128   00:01:54    RUNNING      0:0          0             0             0             0                         0                                                                                                                                      cpu=128,m+                                                                                                                                                                                                                                 
1589186.ext+ 1589186.ext+     extern                                                                                                                                                                                                               1        128   00:01:54    RUNNING      0:0          0             0             0             0                         0                                                                                                                                      billing=1+                                                                                                                                                                                                                                 
1589186.0    1589186.0        siesta               730448K          cn717              0  694883200    693808K      cn717         36  687468608       66        cn717              0         16   00:01:38      cn717          0   00:01:40      128        128   00:01:49  COMPLETED      0:0      3.30G       Unknown       Unknown       Unknown                         0       14.93M           cn717               0         13.75M       16.82M            cn717                0          4.22M            cpu=128,m+ cpu=00:01:40,+ cpu=00:01:40,+ cpu=cn717,energy=+ cpu=114,fs/disk=0+ cpu=00:01:38,+ cpu=cn717,energy=+ cpu=0,fs/disk=17,+ cpu=03:34:35,+ energy=0,fs/di+ energy=cn717,fs/di+           fs/disk=0 energy=0,fs/di+ energy=0,fs/di+ 
