JobId=7355884 JobName=submit.job
   UserId=nspallan(25378) GroupId=interactive(25200) MCS_label=N/A
   Priority=195406 Nice=0 Account=euhpc_e01_022 QOS=boost_qos_bprod
   JobState=RUNNING Reason=None Dependency=(null)
   Requeue=0 Restarts=0 BatchFlag=1 Reboot=0 ExitCode=0:0
   DerivedExitCode=0:0
   RunTime=00:00:06 TimeLimit=03:00:00 TimeMin=N/A
   SubmitTime=2024-09-02T11:40:15 EligibleTime=2024-09-02T11:40:15
   AccrueTime=2024-09-02T11:40:15
   StartTime=2024-09-02T12:11:55 EndTime=2024-09-02T15:11:57 Deadline=N/A
   SuspendTime=None SecsPreSuspend=0 LastSchedEval=2024-09-02T12:11:55 Scheduler=Main
   Partition=boost_usr_prod AllocNode:Sid=slurm-controller:573659
   ReqNodeList=(null) ExcNodeList=(null)
   NodeList=lrdn[1934,1948,1950,1964,2007-2008,2010,2040,2060,2067-2069,2084,2097-2098,2130,2160,2173-2174,2189,2220,2234,2247-2250,2264,2279-2280,2293,2323-2324,2338-2339,2354,2367-2368,2384,2396-2400,2408,2413-2414,2430,2438,2443-2444,2456-2460,2467-2468,2473,2479-2480,2486-2489,2498,2503-2504,2509-2510,2515-2517,2519,2528,2530,2533-2534,2545-2547,2554,2563-2564,2569,2575-2577,2579-2580,2586-2588,2599-2600,2603-2604,2606,2609,2617-2618,2621,2623,2627,2635-2637,2659-2660,2665-2667,2669,2677-2678,2683,2689-2690,2695-2697,2699,2714,2725-2727,2729-2730,2737-2738,2743,2755-2757,2774,2780,2785-2787,2789-2790,2798,2803,2809-2810,2818,2827-2828,2840,2846-2847,2849,2863-2864,2869-2870,2875-2876,2887-2888,2898-2899,2901,2906,2918,2923,2929-2930,2935-2936,2947-2948,2959-2960,2965-2966,2978,2983,2989-2990,2995-2996,3007-3008,3025-3026,3029-3030,3037-3038,3049-3050,3057-3058,3074,3079-3080,3085-3086,3110,3115-3116,3119,3134,3146-3147,3149,3158,3163,3168-3169,3178,3194,3208,3236-3237,3254,3262,3277-3278,3288-3289,3295-3296,3314,3320,3329,3349-3350,3367-3368,3379-3380,3384,3386,3404,3410,3415-3416,3419,3430]
   BatchHost=lrdn1934
   NumNodes=240 NumCPUs=7680 NumTasks=960 CPUs/Task=8 ReqB:S:C:T=0:0:*:*
   TRES=cpu=7680,mem=115500G,node=240,billing=7680,gres/gpu=960
   Socks/Node=* NtasksPerN:B:S:C=4:0:*:* CoreSpec=*
   JOB_GRES=gpu:a100:960
     Nodes=lrdn[1934,1948,1950,1964,2007-2008,2010,2040,2060,2067-2069,2084,2097-2098,2130,2160,2173-2174,2189,2220,2234,2247-2250,2264,2279-2280,2293,2323-2324,2338-2339,2354,2367-2368,2384,2396-2400,2408,2413-2414,2430,2438,2443-2444,2456-2460,2467-2468,2473,2479-2480,2486-2489,2498,2503-2504,2509-2510,2515-2517,2519,2528,2530,2533-2534,2545-2547,2554,2563-2564,2569,2575-2577,2579-2580,2586-2588,2599-2600,2603-2604,2606,2609,2617-2618,2621,2623,2627,2635-2637,2659-2660,2665-2667,2669,2677-2678,2683,2689-2690,2695-2697,2699,2714,2725-2727,2729-2730,2737-2738,2743,2755-2757,2774,2780,2785-2787,2789-2790,2798,2803,2809-2810,2818,2827-2828,2840,2846-2847,2849,2863-2864,2869-2870,2875-2876,2887-2888,2898-2899,2901,2906,2918,2923,2929-2930,2935-2936,2947-2948,2959-2960,2965-2966,2978,2983,2989-2990,2995-2996,3007-3008,3025-3026,3029-3030,3037-3038,3049-3050,3057-3058,3074,3079-3080,3085-3086,3110,3115-3116,3119,3134,3146-3147,3149,3158,3163,3168-3169,3178,3194,3208,3236-3237,3254,3262,3277-3278,3288-3289,3295-3296,3314,3320,3329,3349-3350,3367-3368,3379-3380,3384,3386,3404,3410,3415-3416,3419,3430] CPU_IDs=0-31 Mem=492800 GRES=gpu:a100:4(IDX:0-3)
   MinCPUsNode=32 MinMemoryCPU=15400M MinTmpDiskNode=0
   Features=(null) DelayBoot=00:00:00
   OverSubscribe=NO Contiguous=0 Licenses=(null) Network=(null)
   Command=/leonardo_work/EUHPC_E01_022/nspallan/benchmarks/strongscaling_gpu_523_61k/000000/000005_submit/work/submit.job
   WorkDir=/leonardo_work/EUHPC_E01_022/nspallan/benchmarks/strongscaling_gpu_523_61k/000000/000005_submit/work
   StdErr=/leonardo_work/EUHPC_E01_022/nspallan/benchmarks/strongscaling_gpu_523_61k/000000/000005_submit/work/slurm-7355884.out
   StdIn=/dev/null
   StdOut=/leonardo_work/EUHPC_E01_022/nspallan/benchmarks/strongscaling_gpu_523_61k/000000/000005_submit/work/slurm-7355884.out
   Power=
   TresPerNode=gres:gpu:4
   

