{
 "global_section": { "_calls": 1, "_time":      622.776, "_%":   100.00,
   "siesta": { "_calls": 1, "_time":      622.776, "_%":   100.00,
     "Setup": { "_calls": 1, "_time":        2.474, "_%":     0.40,
       "bands": { "_calls": 1, "_time":        0.003, "_%":     0.00},
       "KSV_init": { "_calls": 1, "_time":        0.001, "_%":     0.00}
     },
     "IterGeom": { "_calls": 1, "_time":      619.502, "_%":    99.47,
       "geom_init": { "_calls": 1, "_time":       11.702, "_%":     1.88,
         "state_init": { "_calls": 1, "_time":        0.577, "_%":     0.09,
           "hsparse": { "_calls": 1, "_time":        0.187, "_%":     0.03},
           "overlap": { "_calls": 1, "_time":        0.094, "_%":     0.02}
         },
         "Setup_H0": { "_calls": 1, "_time":       11.124, "_%":     1.79,
           "naefs": { "_calls": 1, "_time":        0.031, "_%":     0.00},
           "MolMec": { "_calls": 1, "_time":        0.000, "_%":     0.00},
           "kinefsm": { "_calls": 1, "_time":        0.089, "_%":     0.01},
           "nlefsm": { "_calls": 1, "_time":        0.392, "_%":     0.06},
           "DHSCF_Init": { "_calls": 1, "_time":       10.592, "_%":     1.70,
             "DHSCF1": { "_calls": 1, "_time":        0.104, "_%":     0.02,
               "INITMESH": { "_calls": 1, "_time":        0.000, "_%":     0.00}
             },
             "DHSCF2": { "_calls": 1, "_time":       10.461, "_%":     1.68,
               "REMESH": { "_calls": 1, "_time":        0.101, "_%":     0.02,
                 "INITMESH": { "_calls": 2, "_time":        0.071, "_%":     0.01,
                   "SPLOAD": { "_calls": 2, "_time":        0.058, "_%":     0.01}
                 }
               },
               "REORD": { "_calls": 2, "_time":        0.048, "_%":     0.01},
               "PHION": { "_calls": 1, "_time":        0.450, "_%":     0.07},
               "COMM_BSC": { "_calls": 1, "_time":        0.229, "_%":     0.04},
               "POISON": { "_calls": 1, "_time":        8.815, "_%":     1.42,
                 "fft": { "_calls": 2, "_time":        8.405, "_%":     1.35}
               }
             }
           }
         }
       },
       "IterSCF": { "_calls": 5, "_time":      607.642, "_%":    97.57,
         "setup_H": { "_calls": 5, "_time":       72.989, "_%":    11.72,
           "DHSCF": { "_calls": 5, "_time":       72.937, "_%":    11.71,
             "DHSCF3": { "_calls": 5, "_time":       72.937, "_%":    11.71,
               "rhoofd": { "_calls": 5, "_time":        0.383, "_%":     0.06},
               "COMM_BSC": { "_calls": 10, "_time":        2.168, "_%":     0.35},
               "POISON": { "_calls": 5, "_time":       43.985, "_%":     7.06,
                 "fft": { "_calls": 10, "_time":       42.003, "_%":     6.74}
               },
               "XC": { "_calls": 5, "_time":       22.639, "_%":     3.64,
                 "COMM_BSC": { "_calls": 10, "_time":        2.251, "_%":     0.36},
                 "GXC-CellXC": { "_calls": 5, "_time":       19.851, "_%":     3.19,
                   "gridxc@cellXC": { "_calls": 5, "_time":       19.851, "_%":     3.19}
                 }
               },
               "vmat": { "_calls": 5, "_time":        0.329, "_%":     0.05}
             }
           }
         },
         "compute_dm": { "_calls": 5, "_time":      534.634, "_%":    85.85,
           "diagon": { "_calls": 5, "_time":      533.384, "_%":    85.65,
             "r-eigvec": { "_calls": 5, "_time":      507.286, "_%":    81.46,
               "r-buildHS": { "_calls": 5, "_time":        0.288, "_%":     0.05},
               "rdiag": { "_calls": 5, "_time":      506.998, "_%":    81.41,
                 "rdiag1": { "_calls": 5, "_time":       12.288, "_%":     1.97},
                 "rdiag2": { "_calls": 5, "_time":       34.142, "_%":     5.48},
                 "rdiag3": { "_calls": 5, "_time":      411.073, "_%":    66.01},
                 "rdiag4": { "_calls": 5, "_time":       47.091, "_%":     7.56}
               }
             },
             "r-buildD": { "_calls": 5, "_time":       25.502, "_%":     4.09}
           }
         },
         "MIXER": { "_calls": 5, "_time":        0.003, "_%":     0.00}
       },
       "state_analysis": { "_calls": 1, "_time":        0.104, "_%":     0.02},
       "siesta_move": { "_calls": 1, "_time":        0.000, "_%":     0.00}
     },
     "Analysis": { "_calls": 1, "_time":        0.756, "_%":     0.12,
       "optical": { "_calls": 1, "_time":        0.001, "_%":     0.00}
     }
   }
 }}
