Unloading profile/base
  ERROR: Module evaluation aborted
Loading quantum-espresso/7.3.1--openmpi--4.1.4--nvhpc--23.1-openblas
  Loading requirement: zlib/1.2.13--gcc--11.3.0
    openmpi/4.1.4--nvhpc--23.1-cuda-11.8
    fftw/3.3.10--openmpi--4.1.4--nvhpc--23.1 libxc/5.2.3--nvhpc--23.1
    openblas/0.3.21--nvhpc--23.1
Warning: ieee_invalid is signaling
Warning: ieee_divide_by_zero is signaling
Warning: ieee_inexact is signaling
FORTRAN STOP
Warning: ieee_divide_by_zero is signaling
Warning: ieee_inexact is signaling
FORTRAN STOP
