{
 "global_section": { "_calls": 1, "_time":     1063.076, "_%":   100.00,
   "siesta": { "_calls": 1, "_time":     1063.076, "_%":   100.00,
     "Setup": { "_calls": 1, "_time":        2.042, "_%":     0.19,
       "bands": { "_calls": 1, "_time":        0.002, "_%":     0.00},
       "KSV_init": { "_calls": 1, "_time":        0.001, "_%":     0.00}
     },
     "IterGeom": { "_calls": 1, "_time":     1060.867, "_%":    99.79,
       "geom_init": { "_calls": 1, "_time":        7.534, "_%":     0.71,
         "state_init": { "_calls": 1, "_time":        1.436, "_%":     0.14,
           "hsparse": { "_calls": 1, "_time":        0.103, "_%":     0.01},
           "overlap": { "_calls": 1, "_time":        0.548, "_%":     0.05}
         },
         "Setup_H0": { "_calls": 1, "_time":        6.097, "_%":     0.57,
           "naefs": { "_calls": 1, "_time":        0.015, "_%":     0.00},
           "MolMec": { "_calls": 1, "_time":        0.000, "_%":     0.00},
           "kinefsm": { "_calls": 1, "_time":        0.554, "_%":     0.05},
           "nlefsm": { "_calls": 1, "_time":        1.198, "_%":     0.11},
           "DHSCF_Init": { "_calls": 1, "_time":        4.322, "_%":     0.41,
             "DHSCF1": { "_calls": 1, "_time":        0.032, "_%":     0.00,
               "INITMESH": { "_calls": 1, "_time":        0.000, "_%":     0.00}
             },
             "DHSCF2": { "_calls": 1, "_time":        4.276, "_%":     0.40,
               "REMESH": { "_calls": 1, "_time":        1.708, "_%":     0.16,
                 "INITMESH": { "_calls": 2, "_time":        1.688, "_%":     0.16,
                   "SPLOAD": { "_calls": 2, "_time":        1.602, "_%":     0.15}
                 }
               },
               "REORD": { "_calls": 2, "_time":        0.010, "_%":     0.00},
               "PHION": { "_calls": 1, "_time":        0.241, "_%":     0.02},
               "COMM_BSC": { "_calls": 1, "_time":        0.057, "_%":     0.01},
               "POISON": { "_calls": 1, "_time":        1.838, "_%":     0.17,
                 "fft": { "_calls": 2, "_time":        1.769, "_%":     0.17}
               }
             }
           }
         }
       },
       "IterSCF": { "_calls": 5, "_time":     1053.270, "_%":    99.08,
         "setup_H": { "_calls": 5, "_time":       14.830, "_%":     1.40,
           "DHSCF": { "_calls": 5, "_time":       14.824, "_%":     1.39,
             "DHSCF3": { "_calls": 5, "_time":       14.824, "_%":     1.39,
               "rhoofd": { "_calls": 5, "_time":        0.161, "_%":     0.02},
               "COMM_BSC": { "_calls": 10, "_time":        0.640, "_%":     0.06},
               "POISON": { "_calls": 5, "_time":        9.098, "_%":     0.86,
                 "fft": { "_calls": 10, "_time":        8.704, "_%":     0.82}
               },
               "XC": { "_calls": 5, "_time":        4.130, "_%":     0.39,
                 "COMM_BSC": { "_calls": 10, "_time":        0.615, "_%":     0.06},
                 "GXC-CellXC": { "_calls": 5, "_time":        3.458, "_%":     0.33,
                   "gridxc@cellXC": { "_calls": 5, "_time":        3.458, "_%":     0.33}
                 }
               },
               "vmat": { "_calls": 5, "_time":        0.179, "_%":     0.02}
             }
           }
         },
         "compute_dm": { "_calls": 5, "_time":     1038.406, "_%":    97.68,
           "elsi": { "_calls": 5, "_time":     1038.320, "_%":    97.67,
             "find nnz_g": { "_calls": 5, "_time":        0.000, "_%":     0.00},
             "elsi-solver": { "_calls": 5, "_time":     1038.280, "_%":    97.67}
           }
         },
         "MIXER": { "_calls": 5, "_time":        0.007, "_%":     0.00}
       },
       "state_analysis": { "_calls": 1, "_time":        0.054, "_%":     0.01},
       "siesta_move": { "_calls": 1, "_time":        0.000, "_%":     0.00}
     },
     "Analysis": { "_calls": 1, "_time":        0.156, "_%":     0.01,
       "optical": { "_calls": 1, "_time":        0.001, "_%":     0.00}
     }
   }
 }}
