{
 "global_section": { "_calls": 1, "_time":      331.316, "_%":   100.00,
   "siesta": { "_calls": 1, "_time":      331.316, "_%":   100.00,
     "Setup": { "_calls": 1, "_time":        0.721, "_%":     0.22,
       "bands": { "_calls": 1, "_time":        0.001, "_%":     0.00},
       "KSV_init": { "_calls": 1, "_time":        0.000, "_%":     0.00}
     },
     "IterGeom": { "_calls": 1, "_time":      321.648, "_%":    97.08,
       "geom_init": { "_calls": 1, "_time":        3.601, "_%":     1.09,
         "state_init": { "_calls": 1, "_time":        0.827, "_%":     0.25,
           "hsparse": { "_calls": 1, "_time":        0.089, "_%":     0.03},
           "overlap": { "_calls": 1, "_time":        0.341, "_%":     0.10}
         },
         "Setup_H0": { "_calls": 1, "_time":        2.774, "_%":     0.84,
           "naefs": { "_calls": 1, "_time":        0.018, "_%":     0.01},
           "MolMec": { "_calls": 1, "_time":        0.000, "_%":     0.00},
           "kinefsm": { "_calls": 1, "_time":        0.335, "_%":     0.10},
           "nlefsm": { "_calls": 1, "_time":        0.438, "_%":     0.13},
           "DHSCF_Init": { "_calls": 1, "_time":        1.973, "_%":     0.60,
             "DHSCF1": { "_calls": 1, "_time":        0.018, "_%":     0.01,
               "INITMESH": { "_calls": 1, "_time":        0.000, "_%":     0.00}
             },
             "DHSCF2": { "_calls": 1, "_time":        1.942, "_%":     0.59,
               "REMESH": { "_calls": 1, "_time":        1.178, "_%":     0.36,
                 "INITMESH": { "_calls": 2, "_time":        1.110, "_%":     0.34,
                   "SPLOAD": { "_calls": 2, "_time":        0.552, "_%":     0.17}
                 }
               },
               "REORD": { "_calls": 2, "_time":        0.002, "_%":     0.00},
               "PHION": { "_calls": 1, "_time":        0.109, "_%":     0.03},
               "COMM_BSC": { "_calls": 1, "_time":        0.020, "_%":     0.01},
               "POISON": { "_calls": 1, "_time":        0.386, "_%":     0.12,
                 "fft": { "_calls": 2, "_time":        0.364, "_%":     0.11}
               }
             }
           }
         }
       },
       "IterSCF": { "_calls": 5, "_time":      318.014, "_%":    95.99,
         "setup_H": { "_calls": 5, "_time":        5.979, "_%":     1.80,
           "DHSCF": { "_calls": 5, "_time":        5.959, "_%":     1.80,
             "DHSCF3": { "_calls": 5, "_time":        5.959, "_%":     1.80,
               "rhoofd": { "_calls": 5, "_time":        0.074, "_%":     0.02},
               "COMM_BSC": { "_calls": 10, "_time":        0.268, "_%":     0.08},
               "POISON": { "_calls": 5, "_time":        1.760, "_%":     0.53,
                 "fft": { "_calls": 10, "_time":        1.639, "_%":     0.49}
               },
               "XC": { "_calls": 5, "_time":        3.457, "_%":     1.04,
                 "COMM_BSC": { "_calls": 10, "_time":        0.139, "_%":     0.04},
                 "GXC-CellXC": { "_calls": 5, "_time":        3.289, "_%":     0.99,
                   "gridxc@cellXC": { "_calls": 5, "_time":        3.289, "_%":     0.99}
                 }
               },
               "vmat": { "_calls": 5, "_time":        0.169, "_%":     0.05}
             }
           }
         },
         "compute_dm": { "_calls": 5, "_time":      311.983, "_%":    94.16,
           "elsi": { "_calls": 5, "_time":      311.965, "_%":    94.16,
             "find nnz_g": { "_calls": 5, "_time":        0.000, "_%":     0.00},
             "elsi-solver": { "_calls": 5, "_time":      311.896, "_%":    94.14}
           }
         },
         "MIXER": { "_calls": 5, "_time":        0.042, "_%":     0.01}
       },
       "state_analysis": { "_calls": 1, "_time":        0.023, "_%":     0.01},
       "siesta_move": { "_calls": 1, "_time":        0.000, "_%":     0.00}
     },
     "Analysis": { "_calls": 1, "_time":        8.895, "_%":     2.68,
       "optical": { "_calls": 1, "_time":        0.000, "_%":     0.00}
     }
   }
 }}
