JobID        JobIDRaw        JobName  Partition  MaxVMSize  MaxVMSizeNode  MaxVMSizeTask  AveVMSize     MaxRSS MaxRSSNode MaxRSSTask     AveRSS MaxPages MaxPagesNode   MaxPagesTask   AvePages     MinCPU MinCPUNode MinCPUTask     AveCPU   NTasks  AllocCPUS    Elapsed      State ExitCode AveCPUFreq ReqCPUFreqMin ReqCPUFreqMax ReqCPUFreqGov     ReqMem ConsumedEnergy  MaxDiskRead MaxDiskReadNode MaxDiskReadTask    AveDiskRead MaxDiskWrite MaxDiskWriteNode MaxDiskWriteTask   AveDiskWrite    ReqTRES  AllocTRES TRESUsageInAve TRESUsageInMax TRESUsageInMaxNode TRESUsageInMaxTask TRESUsageInMin TRESUsageInMinNode TRESUsageInMinTask TRESUsageInTot TRESUsageOutMax TRESUsageOutMaxNode TRESUsageOutMaxTask TRESUsageOutAve TRESUsageOutTot 
------------ ------------ ---------- ---------- ---------- -------------- -------------- ---------- ---------- ---------- ---------- ---------- -------- ------------ -------------- ---------- ---------- ---------- ---------- ---------- -------- ---------- ---------- ---------- -------- ---------- ------------- ------------- ------------- ---------- -------------- ------------ --------------- --------------- -------------- ------------ ---------------- ---------------- -------------- ---------- ---------- -------------- -------------- ------------------ ------------------ -------------- ------------------ ------------------ -------------- --------------- ------------------- ------------------- --------------- --------------- 
34389352     34389352     CovidWeak+        cpu                                                                                                                                                                                                            1024   00:16:27    RUNNING      0:0                  Unknown       Unknown       Unknown       500G                                                                                                                                          billing=5+ billing=1+                                                                                                                                                                                                                                 
34389352.ba+ 34389352.ba+      batch                                                                                                                                                                                                               1        256   00:16:27    RUNNING      0:0          0             0             0             0                         0                                                                                                                                      cpu=256,m+                                                                                                                                                                                                                                 
34389352.ex+ 34389352.ex+     extern                                                                                                                                                                                                               4       1024   00:16:27    RUNNING      0:0          0             0             0             0                         0                                                                                                                                      billing=1+                                                                                                                                                                                                                                 
34389352.0   34389352.0       siesta               589256K         cn0335             64  562069840    543160K     cn0355        416  522264240       58       cn0335              0          0   00:16:02     cn0349        142   00:16:07      512       1024   00:16:23  COMPLETED      0:0    274.25M       Unknown       Unknown       Unknown                         0       28.21M          cn0335               0         27.05M       16.08M           cn0335                0          4.14M            cpu=1024,+ cpu=00:16:07,+ cpu=00:16:16,+ cpu=cn0355,energy+ cpu=424,fs/disk=0+ cpu=00:16:02,+ cpu=cn0349,energy+ cpu=142,fs/disk=1+ cpu=5-17:36:5+ energy=0,fs/di+ energy=cn0349,fs/d+           fs/disk=0 energy=0,fs/di+ energy=0,fs/di+ 
