JobId=6873450 JobName=submit.job
   UserId=bellenta(327000822) GroupId=pepr_bellenta(327000822) MCS_label=N/A
   Priority=600 Nice=0 Account=project_465000857 QOS=normal
   JobState=RUNNING Reason=None Dependency=(null)
   Requeue=1 Restarts=0 BatchFlag=1 Reboot=0 ExitCode=0:0
   DerivedExitCode=0:0
   RunTime=00:00:02 TimeLimit=00:40:00 TimeMin=N/A
   SubmitTime=2024-04-11T16:34:05 EligibleTime=2024-04-11T16:34:05
   AccrueTime=2024-04-11T16:34:05
   StartTime=2024-04-11T16:34:25 EndTime=2024-04-11T17:14:25 Deadline=N/A
   SuspendTime=None SecsPreSuspend=0 LastSchedEval=2024-04-11T16:34:25 Scheduler=Backfill
   Partition=ju-standard-g AllocNode:Sid=ln02-nmn:157992
   ReqNodeList=(null) ExcNodeList=(null)
   NodeList=nid[005332-005333]
   BatchHost=nid005332
   NumNodes=2 NumCPUs=224 NumTasks=16 CPUs/Task=1 ReqB:S:C:T=0:0:*:1
   TRES=cpu=224,node=2,billing=224,gres/gpu:mi250=16
   Socks/Node=* NtasksPerN:B:S:C=8:0:*:1 CoreSpec=*
   JOB_GRES=gpu:mi250:16
     Nodes=nid[005332-005333] CPU_IDs=2-15,18-31,34-47,50-63,66-79,82-95,98-111,114-127 Mem=0 GRES=gpu:mi250:8(IDX:0-7)
   MinCPUsNode=8 MinMemoryCPU=0 MinTmpDiskNode=0
   Features=(null) DelayBoot=00:00:00
   OverSubscribe=NO Contiguous=0 Licenses=(null) Network=(null)
   Command=/pfs/lustrep2/scratch/project_465000641/bellenta/quantumespresso/article-April24/cri3-small-April/lumi-N2np16-manyfft1-gpu/submit.job
   WorkDir=/pfs/lustrep2/scratch/project_465000641/bellenta/quantumespresso/article-April24/cri3-small-April/lumi-N2np16-manyfft1-gpu
   StdErr=/pfs/lustrep2/scratch/project_465000641/bellenta/quantumespresso/article-April24/cri3-small-April/lumi-N2np16-manyfft1-gpu/slurm-6873450.out
   StdIn=/dev/null
   StdOut=/pfs/lustrep2/scratch/project_465000641/bellenta/quantumespresso/article-April24/cri3-small-April/lumi-N2np16-manyfft1-gpu/slurm-6873450.out
   Power=
   TresPerNode=gres:gpu:8
   

