JobID        JobIDRaw        JobName  Partition  MaxVMSize  MaxVMSizeNode  MaxVMSizeTask  AveVMSize     MaxRSS MaxRSSNode MaxRSSTask     AveRSS MaxPages MaxPagesNode   MaxPagesTask   AvePages     MinCPU MinCPUNode MinCPUTask     AveCPU   NTasks  AllocCPUS    Elapsed      State ExitCode AveCPUFreq ReqCPUFreqMin ReqCPUFreqMax ReqCPUFreqGov     ReqMem ConsumedEnergy  MaxDiskRead MaxDiskReadNode MaxDiskReadTask    AveDiskRead MaxDiskWrite MaxDiskWriteNode MaxDiskWriteTask   AveDiskWrite    ReqTRES  AllocTRES TRESUsageInAve TRESUsageInMax TRESUsageInMaxNode TRESUsageInMaxTask TRESUsageInMin TRESUsageInMinNode TRESUsageInMinTask TRESUsageInTot TRESUsageOutMax TRESUsageOutMaxNode TRESUsageOutMaxTask TRESUsageOutAve TRESUsageOutTot 
------------ ------------ ---------- ---------- ---------- -------------- -------------- ---------- ---------- ---------- ---------- ---------- -------- ------------ -------------- ---------- ---------- ---------- ---------- ---------- -------- ---------- ---------- ---------- -------- ---------- ------------- ------------- ------------- ---------- -------------- ------------ --------------- --------------- -------------- ------------ ---------------- ---------------- -------------- ---------- ---------- -------------- -------------- ------------------ ------------------ -------------- ------------------ ------------------ -------------- --------------- ------------------- ------------------- --------------- --------------- 
7777019      7777019      submit.job dcgp_usr_+                                                                                                                                                                                                             224   00:05:55    RUNNING      0:0                  Unknown       Unknown       Unknown    962.50G                                                                                                                                          billing=2+ billing=2+                                                                                                                                                                                                                                 
7777019.bat+ 7777019.bat+      batch                                                                                                                                                                                                               1        112   00:05:55    RUNNING      0:0          0             0             0             0                         0                                                                                                                                      cpu=112,g+                                                                                                                                                                                                                                 
7777019.ext+ 7777019.ext+     extern                                                                                                                                                                                                               2        224   00:05:55    RUNNING      0:0          0             0             0             0                         0                                                                                                                                      billing=2+                                                                                                                                                                                                                                 
7777019.0    7777019.0        siesta              3443004K       lrdn4742             99 1704200594   3426964K   lrdn4742         99 1690690230      412     lrdn4742              0         13   00:05:29   lrdn4746        215   00:05:35      224        224   00:05:51  COMPLETED      0:0    702.89M       Unknown       Unknown       Unknown                         0        2.35M        lrdn4742               0          1.39M       12.98M         lrdn4742                0          0.57M            cpu=224,g+ cpu=00:05:35,+ cpu=00:05:42,+ cpu=lrdn4742,ener+ cpu=30,fs/disk=0,+ cpu=00:05:29,+ cpu=lrdn4746,ener+ cpu=215,fs/disk=3+ cpu=20:53:51,+ energy=0,fs/di+ energy=lrdn4742,fs+           fs/disk=0 energy=0,fs/di+ energy=0,fs/di+ 
