JobId=9566278 JobName=CovidWeakKPoints
   UserId=icn2553284(51005) GroupId=icn2(50004) MCS_label=N/A
   Priority=67337 Nice=0 Account=icn85 QOS=gp_resa
   JobState=RUNNING Reason=None Dependency=(null)
   Requeue=0 Restarts=0 BatchFlag=1 Reboot=0 ExitCode=0:0
   RunTime=00:00:05 TimeLimit=02:00:00 TimeMin=N/A
   SubmitTime=2024-09-30T15:30:43 EligibleTime=2024-09-30T15:30:43
   AccrueTime=2024-09-30T15:30:43
   StartTime=2024-09-30T15:32:08 EndTime=2024-09-30T17:32:08 Deadline=N/A
   SuspendTime=None SecsPreSuspend=0 LastSchedEval=2024-09-30T15:32:08 Scheduler=Backfill
   Partition=gpp AllocNode:Sid=glogin1:2011625
   ReqNodeList=(null) ExcNodeList=(null)
   NodeList=gs19r1b[43,46,48,51-52,55,57,59]
   BatchHost=gs19r1b43
   NumNodes=8 NumCPUs=1792 NumTasks=896 CPUs/Task=1 ReqB:S:C:T=0:0:*:1
   ReqTRES=cpu=896,mem=1750G,node=8,billing=896
   AllocTRES=cpu=1792,mem=1750G,node=8,billing=1792
   Socks/Node=* NtasksPerN:B:S:C=112:0:*:* CoreSpec=*
   MinCPUsNode=112 MinMemoryCPU=2000M MinTmpDiskNode=0
   Features=(null) DelayBoot=00:00:00
   OverSubscribe=NO Contiguous=0 Licenses=(null) Network=(null)
   Command=/gpfs/home/icn2/icn2553284/jube4max/max-inputs/interface/siesta/_CovidWeakKPoints/000000/000011_submit/work/submit.job
   WorkDir=/gpfs/home/icn2/icn2553284/jube4max/max-inputs/interface/siesta/_CovidWeakKPoints/000000/000011_submit/work
   StdErr=/gpfs/home/icn2/icn2553284/jube4max/max-inputs/interface/siesta/_CovidWeakKPoints/000000/000011_submit/work/job_9566278.err
   StdIn=/dev/null
   StdOut=/gpfs/home/icn2/icn2553284/jube4max/max-inputs/interface/siesta/_CovidWeakKPoints/000000/000011_submit/work/job_9566278.out
   Power=
   

