{
 "global_section": { "_calls": 1, "_time":      115.650, "_%":   100.00,
   "siesta": { "_calls": 1, "_time":      115.650, "_%":   100.00,
     "Setup": { "_calls": 1, "_time":        2.041, "_%":     1.77,
       "bands": { "_calls": 1, "_time":        0.003, "_%":     0.00},
       "KSV_init": { "_calls": 1, "_time":        0.001, "_%":     0.00}
     },
     "IterGeom": { "_calls": 1, "_time":      113.469, "_%":    98.11,
       "geom_init": { "_calls": 1, "_time":        3.450, "_%":     2.98,
         "state_init": { "_calls": 1, "_time":        0.847, "_%":     0.73,
           "hsparse": { "_calls": 1, "_time":        0.100, "_%":     0.09},
           "overlap": { "_calls": 1, "_time":        0.033, "_%":     0.03}
         },
         "Setup_H0": { "_calls": 1, "_time":        2.602, "_%":     2.25,
           "naefs": { "_calls": 1, "_time":        0.014, "_%":     0.01},
           "MolMec": { "_calls": 1, "_time":        0.000, "_%":     0.00},
           "kinefsm": { "_calls": 1, "_time":        0.031, "_%":     0.03},
           "nlefsm": { "_calls": 1, "_time":        0.111, "_%":     0.10},
           "DHSCF_Init": { "_calls": 1, "_time":        2.437, "_%":     2.11,
             "DHSCF1": { "_calls": 1, "_time":        0.027, "_%":     0.02,
               "INITMESH": { "_calls": 1, "_time":        0.000, "_%":     0.00}
             },
             "DHSCF2": { "_calls": 1, "_time":        2.397, "_%":     2.07,
               "REMESH": { "_calls": 1, "_time":        1.017, "_%":     0.88,
                 "INITMESH": { "_calls": 2, "_time":        0.992, "_%":     0.86,
                   "SPLOAD": { "_calls": 2, "_time":        0.673, "_%":     0.58}
                 }
               },
               "REORD": { "_calls": 2, "_time":        0.004, "_%":     0.00},
               "PHION": { "_calls": 1, "_time":        0.033, "_%":     0.03},
               "COMM_BSC": { "_calls": 1, "_time":        0.032, "_%":     0.03},
               "POISON": { "_calls": 1, "_time":        0.935, "_%":     0.81,
                 "fft": { "_calls": 2, "_time":        0.898, "_%":     0.78}
               }
             }
           }
         }
       },
       "IterSCF": { "_calls": 5, "_time":      109.953, "_%":    95.07,
         "setup_H": { "_calls": 5, "_time":        7.390, "_%":     6.39,
           "DHSCF": { "_calls": 5, "_time":        7.381, "_%":     6.38,
             "DHSCF3": { "_calls": 5, "_time":        7.381, "_%":     6.38,
               "rhoofd": { "_calls": 5, "_time":        0.053, "_%":     0.05},
               "COMM_BSC": { "_calls": 10, "_time":        0.208, "_%":     0.18},
               "POISON": { "_calls": 5, "_time":        4.574, "_%":     3.96,
                 "fft": { "_calls": 10, "_time":        4.388, "_%":     3.79}
               },
               "XC": { "_calls": 5, "_time":        2.125, "_%":     1.84,
                 "COMM_BSC": { "_calls": 10, "_time":        0.260, "_%":     0.22},
                 "GXC-CellXC": { "_calls": 5, "_time":        1.833, "_%":     1.58,
                   "gridxc@cellXC": { "_calls": 5, "_time":        1.833, "_%":     1.58}
                 }
               },
               "vmat": { "_calls": 5, "_time":        0.041, "_%":     0.04}
             }
           }
         },
         "compute_dm": { "_calls": 5, "_time":      102.535, "_%":    88.66,
           "redist_orbs_fwd": { "_calls": 40, "_time":        2.417, "_%":     2.09},
           "elsi-complex-solver": { "_calls": 5, "_time":       99.986, "_%":    86.46,
             "elsi-solver": { "_calls": 5, "_time":       10.393, "_%":     8.99}
           },
           "redist_dm-edm_bck": { "_calls": 5, "_time":        0.110, "_%":     0.10}
         },
         "MIXER": { "_calls": 5, "_time":        0.012, "_%":     0.01}
       },
       "state_analysis": { "_calls": 1, "_time":        0.052, "_%":     0.05},
       "siesta_move": { "_calls": 1, "_time":        0.000, "_%":     0.00}
     },
     "Analysis": { "_calls": 1, "_time":        0.128, "_%":     0.11,
       "optical": { "_calls": 1, "_time":        0.001, "_%":     0.00}
     }
   }
 }}
