JobID        JobIDRaw        JobName  Partition  MaxVMSize  MaxVMSizeNode  MaxVMSizeTask  AveVMSize     MaxRSS MaxRSSNode MaxRSSTask     AveRSS MaxPages MaxPagesNode   MaxPagesTask   AvePages     MinCPU MinCPUNode MinCPUTask     AveCPU   NTasks  AllocCPUS    Elapsed      State ExitCode AveCPUFreq ReqCPUFreqMin ReqCPUFreqMax ReqCPUFreqGov     ReqMem ConsumedEnergy  MaxDiskRead MaxDiskReadNode MaxDiskReadTask    AveDiskRead MaxDiskWrite MaxDiskWriteNode MaxDiskWriteTask   AveDiskWrite    ReqTRES  AllocTRES TRESUsageInAve TRESUsageInMax TRESUsageInMaxNode TRESUsageInMaxTask TRESUsageInMin TRESUsageInMinNode TRESUsageInMinTask TRESUsageInTot TRESUsageOutMax TRESUsageOutMaxNode TRESUsageOutMaxTask TRESUsageOutAve TRESUsageOutTot 
------------ ------------ ---------- ---------- ---------- -------------- -------------- ---------- ---------- ---------- ---------- ---------- -------- ------------ -------------- ---------- ---------- ---------- ---------- ---------- -------- ---------- ---------- ---------- -------- ---------- ------------- ------------- ------------- ---------- -------------- ------------ --------------- --------------- -------------- ------------ ---------------- ---------------- -------------- ---------- ---------- -------------- -------------- ------------------ ------------------ -------------- ------------------ ------------------ -------------- --------------- ------------------- ------------------- --------------- --------------- 
4905755      4905755      submit.job standard-g                                                                                                                                                                                                             112   00:18:42    RUNNING      0:0                  Unknown       Unknown       Unknown       480G                                                                                                                                          billing=4+ billing=1+                                                                                                                                                                                                                                 
4905755.bat+ 4905755.bat+      batch                                                                                                                                                                                                               1        112   00:18:42    RUNNING      0:0          0             0             0             0                         0                                                                                                                                      cpu=112,g+                                                                                                                                                                                                                                 
4905755.0    4905755.0    select_gpu             82420188K      nid006293              3  79194184K  55017504K  nid006293          3  53306871K     6119    nid006293              0       5682   00:19:25  nid006293          0   00:19:30        4        112   00:18:33  COMPLETED      0:0      7.76M       Unknown       Unknown       Unknown                   905.43K      131.27M       nid006293               0        129.34M        2.90M        nid006293                3          2.90M            cpu=112,g+ cpu=00:19:30,+ cpu=00:19:35,+ cpu=nid006293,ene+ cpu=2,fs/disk=0,m+ cpu=00:19:25,+ cpu=nid006293,ene+ cpu=0,fs/disk=1,m+ cpu=01:18:01,+ energy=1419,fs+ energy=nid006293,f+           fs/disk=3 energy=195,fs/+ energy=780,fs/+ 
