JobID        JobIDRaw        JobName  Partition  MaxVMSize  MaxVMSizeNode  MaxVMSizeTask  AveVMSize     MaxRSS MaxRSSNode MaxRSSTask     AveRSS MaxPages MaxPagesNode   MaxPagesTask   AvePages     MinCPU MinCPUNode MinCPUTask     AveCPU   NTasks  AllocCPUS    Elapsed      State ExitCode AveCPUFreq ReqCPUFreqMin ReqCPUFreqMax ReqCPUFreqGov     ReqMem ConsumedEnergy  MaxDiskRead MaxDiskReadNode MaxDiskReadTask    AveDiskRead MaxDiskWrite MaxDiskWriteNode MaxDiskWriteTask   AveDiskWrite    ReqTRES  AllocTRES TRESUsageInAve TRESUsageInMax TRESUsageInMaxNode TRESUsageInMaxTask TRESUsageInMin TRESUsageInMinNode TRESUsageInMinTask TRESUsageInTot TRESUsageOutMax TRESUsageOutMaxNode TRESUsageOutMaxTask TRESUsageOutAve TRESUsageOutTot 
------------ ------------ ---------- ---------- ---------- -------------- -------------- ---------- ---------- ---------- ---------- ---------- -------- ------------ -------------- ---------- ---------- ---------- ---------- ---------- -------- ---------- ---------- ---------- -------- ---------- ------------- ------------- ------------- ---------- -------------- ------------ --------------- --------------- -------------- ------------ ---------------- ---------------- -------------- ---------- ---------- -------------- -------------- ------------------ ------------------ -------------- ------------------ ------------------ -------------- --------------- ------------------- ------------------- --------------- --------------- 
34389345     34389345     CovidWeak+        cpu                                                                                                                                                                                                             256   00:01:42    RUNNING      0:0                  Unknown       Unknown       Unknown       125G                                                                                                                                          billing=1+ billing=2+                                                                                                                                                                                                                                 
34389345.ba+ 34389345.ba+      batch                                                                                                                                                                                                               1        256   00:01:42    RUNNING      0:0          0             0             0             0                         0                                                                                                                                      cpu=256,m+                                                                                                                                                                                                                                 
34389345.ex+ 34389345.ex+     extern                                                                                                                                                                                                               1        256   00:01:42    RUNNING      0:0          0             0             0             0                         0                                                                                                                                      billing=2+                                                                                                                                                                                                                                 
34389345.0   34389345.0       siesta               968656K         cn0471              0  697815776    777444K     cn0471          6  689111904       55       cn0471              0          0   00:01:31     cn0471         79   00:01:32      128        256   00:01:40  COMPLETED      0:0      1.83G       Unknown       Unknown       Unknown                         0       28.05M          cn0471               0         26.90M       16.81M           cn0471                0          4.22M            cpu=256,m+ cpu=00:01:32,+ cpu=00:01:32,+ cpu=cn0471,energy+ cpu=36,fs/disk=0,+ cpu=00:01:31,+ cpu=cn0471,energy+ cpu=79,fs/disk=79+ cpu=03:17:22,+ energy=0,fs/di+ energy=cn0471,fs/d+           fs/disk=0 energy=0,fs/di+ energy=0,fs/di+ 
