{
 "global_section": { "_calls": 1, "_time":       91.121, "_%":   100.00,
   "siesta": { "_calls": 1, "_time":       91.121, "_%":   100.00,
     "Setup": { "_calls": 1, "_time":        1.357, "_%":     1.49,
       "bands": { "_calls": 1, "_time":        0.002, "_%":     0.00},
       "KSV_init": { "_calls": 1, "_time":        0.001, "_%":     0.00}
     },
     "IterGeom": { "_calls": 1, "_time":       89.599, "_%":    98.33,
       "geom_init": { "_calls": 1, "_time":       10.843, "_%":    11.90,
         "state_init": { "_calls": 1, "_time":        0.392, "_%":     0.43,
           "hsparse": { "_calls": 1, "_time":        0.132, "_%":     0.14},
           "overlap": { "_calls": 1, "_time":        0.067, "_%":     0.07}
         },
         "Setup_H0": { "_calls": 1, "_time":       10.450, "_%":    11.47,
           "naefs": { "_calls": 1, "_time":        0.024, "_%":     0.03},
           "MolMec": { "_calls": 1, "_time":        0.000, "_%":     0.00},
           "kinefsm": { "_calls": 1, "_time":        0.063, "_%":     0.07},
           "nlefsm": { "_calls": 1, "_time":        0.256, "_%":     0.28},
           "DHSCF_Init": { "_calls": 1, "_time":       10.092, "_%":    11.07,
             "DHSCF1": { "_calls": 1, "_time":        0.081, "_%":     0.09,
               "INITMESH": { "_calls": 1, "_time":        0.000, "_%":     0.00}
             },
             "DHSCF2": { "_calls": 1, "_time":        9.993, "_%":    10.97,
               "REMESH": { "_calls": 1, "_time":        0.077, "_%":     0.08,
                 "INITMESH": { "_calls": 2, "_time":        0.054, "_%":     0.06,
                   "SPLOAD": { "_calls": 2, "_time":        0.044, "_%":     0.05}
                 }
               },
               "REORD": { "_calls": 2, "_time":        0.051, "_%":     0.06},
               "PHION": { "_calls": 1, "_time":        0.328, "_%":     0.36},
               "COMM_BSC": { "_calls": 1, "_time":        0.219, "_%":     0.24},
               "POISON": { "_calls": 1, "_time":        8.578, "_%":     9.41,
                 "fft": { "_calls": 2, "_time":        8.177, "_%":     8.97}
               }
             }
           }
         }
       },
       "IterSCF": { "_calls": 5, "_time":       78.678, "_%":    86.34,
         "setup_H": { "_calls": 5, "_time":       67.327, "_%":    73.89,
           "DHSCF": { "_calls": 5, "_time":       67.157, "_%":    73.70,
             "DHSCF3": { "_calls": 5, "_time":       67.157, "_%":    73.70,
               "rhoofd": { "_calls": 5, "_time":        0.396, "_%":     0.43},
               "COMM_BSC": { "_calls": 10, "_time":        2.048, "_%":     2.25},
               "POISON": { "_calls": 5, "_time":       42.945, "_%":    47.13,
                 "fft": { "_calls": 10, "_time":       41.057, "_%":    45.06}
               },
               "XC": { "_calls": 5, "_time":       17.345, "_%":    19.03,
                 "COMM_BSC": { "_calls": 10, "_time":        2.133, "_%":     2.34},
                 "GXC-CellXC": { "_calls": 5, "_time":       14.656, "_%":    16.08,
                   "gridxc@cellXC": { "_calls": 5, "_time":       14.656, "_%":    16.08}
                 }
               },
               "vmat": { "_calls": 5, "_time":        0.286, "_%":     0.31}
             }
           }
         },
         "compute_dm": { "_calls": 5, "_time":       11.310, "_%":    12.41,
           "redist_orbs_fwd": { "_calls": 5, "_time":        0.013, "_%":     0.01},
           "elsi-complex-solver": { "_calls": 5, "_time":       11.272, "_%":    12.37,
             "elsi-solver": { "_calls": 5, "_time":       11.250, "_%":    12.35}
           },
           "redist_dm-edm_bck": { "_calls": 5, "_time":        0.012, "_%":     0.01}
         },
         "MIXER": { "_calls": 5, "_time":        0.004, "_%":     0.00}
       },
       "state_analysis": { "_calls": 1, "_time":        0.048, "_%":     0.05},
       "siesta_move": { "_calls": 1, "_time":        0.000, "_%":     0.00}
     },
     "Analysis": { "_calls": 1, "_time":        0.160, "_%":     0.18,
       "optical": { "_calls": 1, "_time":        0.001, "_%":     0.00}
     }
   }
 }}
