JobID        JobIDRaw        JobName  Partition  MaxVMSize  MaxVMSizeNode  MaxVMSizeTask  AveVMSize     MaxRSS MaxRSSNode MaxRSSTask     AveRSS MaxPages MaxPagesNode   MaxPagesTask   AvePages     MinCPU MinCPUNode MinCPUTask     AveCPU   NTasks  AllocCPUS    Elapsed      State ExitCode AveCPUFreq ReqCPUFreqMin ReqCPUFreqMax ReqCPUFreqGov     ReqMem ConsumedEnergy  MaxDiskRead MaxDiskReadNode MaxDiskReadTask    AveDiskRead MaxDiskWrite MaxDiskWriteNode MaxDiskWriteTask   AveDiskWrite    ReqTRES  AllocTRES TRESUsageInAve TRESUsageInMax TRESUsageInMaxNode TRESUsageInMaxTask TRESUsageInMin TRESUsageInMinNode TRESUsageInMinTask TRESUsageInTot TRESUsageOutMax TRESUsageOutMaxNode TRESUsageOutMaxTask TRESUsageOutAve TRESUsageOutTot 
------------ ------------ ---------- ---------- ---------- -------------- -------------- ---------- ---------- ---------- ---------- ---------- -------- ------------ -------------- ---------- ---------- ---------- ---------- ---------- -------- ---------- ---------- ---------- -------- ---------- ------------- ------------- ------------- ---------- -------------- ------------ --------------- --------------- -------------- ------------ ---------------- ---------------- -------------- ---------- ---------- -------------- -------------- ------------------ ------------------ -------------- ------------------ ------------------ -------------- --------------- ------------------- ------------------- --------------- --------------- 
155320       155320        CovidWeak normal-a1+                                                                                                                                                                                                             256   00:13:01    RUNNING      0:0                  Unknown       Unknown       Unknown       968G                                                                                                                                          billing=6+ billing=2+                                                                                                                                                                                                                                 
155320.batch 155320.batch      batch                                                                                                                                                                                                               1        128   00:13:01    RUNNING      0:0          0             0             0             0                         0                                                                                                                                      cpu=128,m+                                                                                                                                                                                                                                 
155320.exte+ 155320.exte+     extern                                                                                                                                                                                                               2        256   00:13:01    RUNNING      0:0          0             0             0             0                         0                                                                                                                                      billing=2+                                                                                                                                                                                                                                 
155320.0     155320.0          orted             57122552K         gnx511              0  57122552K  55680716K     gnx511          0  55680716K     6600       gnx511              0       6600   06:43:19     gnx511          0   06:43:19        1        256   00:13:01  COMPLETED      0:0        18K             0             0             0                                958.44M          gnx511               0        958.44M      131.71M           gnx511                0        131.71M            billing=2+ cpu=06:43:19,+ cpu=06:43:19,+ cpu=gnx511,energy+ cpu=0,fs/disk=0,m+ cpu=06:43:19,+ cpu=gnx511,energy+ cpu=0,fs/disk=0,m+ cpu=06:43:19,+ energy=0,fs/di+ energy=gnx511,fs/d+           fs/disk=0 energy=0,fs/di+ energy=0,fs/di+ 
