{
 "global_section": { "_calls": 1, "_time":      764.752, "_%":   100.00,
   "siesta": { "_calls": 1, "_time":      764.752, "_%":   100.00,
     "Setup": { "_calls": 1, "_time":        1.161, "_%":     0.15,
       "bands": { "_calls": 1, "_time":        0.002, "_%":     0.00},
       "KSV_init": { "_calls": 1, "_time":        0.001, "_%":     0.00}
     },
     "IterGeom": { "_calls": 1, "_time":      763.418, "_%":    99.83,
       "geom_init": { "_calls": 1, "_time":       21.623, "_%":     2.83,
         "state_init": { "_calls": 1, "_time":        0.416, "_%":     0.05,
           "hsparse": { "_calls": 1, "_time":        0.119, "_%":     0.02},
           "overlap": { "_calls": 1, "_time":        0.116, "_%":     0.02}
         },
         "Setup_H0": { "_calls": 1, "_time":       21.206, "_%":     2.77,
           "naefs": { "_calls": 1, "_time":        0.021, "_%":     0.00},
           "MolMec": { "_calls": 1, "_time":        0.000, "_%":     0.00},
           "kinefsm": { "_calls": 1, "_time":        0.112, "_%":     0.01},
           "nlefsm": { "_calls": 1, "_time":        0.411, "_%":     0.05},
           "DHSCF_Init": { "_calls": 1, "_time":       20.648, "_%":     2.70,
             "DHSCF1": { "_calls": 1, "_time":        0.086, "_%":     0.01,
               "INITMESH": { "_calls": 1, "_time":        0.000, "_%":     0.00}
             },
             "DHSCF2": { "_calls": 1, "_time":       20.544, "_%":     2.69,
               "REMESH": { "_calls": 1, "_time":        0.156, "_%":     0.02,
                 "INITMESH": { "_calls": 2, "_time":        0.115, "_%":     0.01,
                   "SPLOAD": { "_calls": 2, "_time":        0.110, "_%":     0.01}
                 }
               },
               "REORD": { "_calls": 2, "_time":        0.095, "_%":     0.01},
               "PHION": { "_calls": 1, "_time":        0.817, "_%":     0.11},
               "COMM_BSC": { "_calls": 1, "_time":        0.522, "_%":     0.07},
               "POISON": { "_calls": 1, "_time":       17.733, "_%":     2.32,
                 "fft": { "_calls": 2, "_time":       16.979, "_%":     2.22}
               }
             }
           }
         }
       },
       "IterSCF": { "_calls": 5, "_time":      741.698, "_%":    96.99,
         "setup_H": { "_calls": 5, "_time":      131.522, "_%":    17.20,
           "DHSCF": { "_calls": 5, "_time":      131.446, "_%":    17.19,
             "DHSCF3": { "_calls": 5, "_time":      131.446, "_%":    17.19,
               "rhoofd": { "_calls": 5, "_time":        0.799, "_%":     0.10},
               "COMM_BSC": { "_calls": 10, "_time":        4.239, "_%":     0.55},
               "POISON": { "_calls": 5, "_time":       89.425, "_%":    11.69,
                 "fft": { "_calls": 10, "_time":       85.729, "_%":    11.21}
               },
               "XC": { "_calls": 5, "_time":       30.403, "_%":     3.98,
                 "COMM_BSC": { "_calls": 10, "_time":        4.567, "_%":     0.60},
                 "GXC-CellXC": { "_calls": 5, "_time":       24.847, "_%":     3.25,
                   "gridxc@cellXC": { "_calls": 5, "_time":       24.846, "_%":     3.25}
                 }
               },
               "vmat": { "_calls": 5, "_time":        0.308, "_%":     0.04}
             }
           }
         },
         "compute_dm": { "_calls": 5, "_time":      610.149, "_%":    79.78,
           "elsi": { "_calls": 5, "_time":      609.898, "_%":    79.75,
             "find nnz_g": { "_calls": 5, "_time":        0.000, "_%":     0.00},
             "elsi-solver": { "_calls": 5, "_time":      609.879, "_%":    79.75}
           }
         },
         "MIXER": { "_calls": 5, "_time":        0.008, "_%":     0.00}
       },
       "state_analysis": { "_calls": 1, "_time":        0.050, "_%":     0.01},
       "siesta_move": { "_calls": 1, "_time":        0.000, "_%":     0.00}
     },
     "Analysis": { "_calls": 1, "_time":        0.163, "_%":     0.02,
       "optical": { "_calls": 1, "_time":        0.001, "_%":     0.00}
     }
   }
 }}
