JobID        JobIDRaw        JobName  Partition  MaxVMSize  MaxVMSizeNode  MaxVMSizeTask  AveVMSize     MaxRSS MaxRSSNode MaxRSSTask     AveRSS MaxPages MaxPagesNode   MaxPagesTask   AvePages     MinCPU MinCPUNode MinCPUTask     AveCPU   NTasks  AllocCPUS    Elapsed      State ExitCode AveCPUFreq ReqCPUFreqMin ReqCPUFreqMax ReqCPUFreqGov     ReqMem ConsumedEnergy  MaxDiskRead MaxDiskReadNode MaxDiskReadTask    AveDiskRead MaxDiskWrite MaxDiskWriteNode MaxDiskWriteTask   AveDiskWrite    ReqTRES  AllocTRES TRESUsageInAve TRESUsageInMax TRESUsageInMaxNode TRESUsageInMaxTask TRESUsageInMin TRESUsageInMinNode TRESUsageInMinTask TRESUsageInTot TRESUsageOutMax TRESUsageOutMaxNode TRESUsageOutMaxTask TRESUsageOutAve TRESUsageOutTot 
------------ ------------ ---------- ---------- ---------- -------------- -------------- ---------- ---------- ---------- ---------- ---------- -------- ------------ -------------- ---------- ---------- ---------- ---------- ---------- -------- ---------- ---------- ---------- -------- ---------- ------------- ------------- ------------- ---------- -------------- ------------ --------------- --------------- -------------- ------------ ---------------- ---------------- -------------- ---------- ---------- -------------- -------------- ------------------ ------------------ -------------- ------------------ ------------------ -------------- --------------- ------------------- ------------------- --------------- --------------- 
35111128     35111128      CovidWeak        cpu                                                                                                                                                                                                             256   00:08:11    RUNNING      0:0                  Unknown       Unknown       Unknown       125G                                                                                                                                          billing=1+ billing=2+                                                                                                                                                                                                                                 
35111128.ba+ 35111128.ba+      batch                                                                                                                                                                                                               1        256   00:08:11    RUNNING      0:0          0             0             0             0                         0                                                                                                                                      cpu=256,m+                                                                                                                                                                                                                                 
35111128.ex+ 35111128.ex+     extern                                                                                                                                                                                                               1        256   00:08:11    RUNNING      0:0          0             0             0             0                         0                                                                                                                                      billing=2+                                                                                                                                                                                                                                 
35111128.0   35111128.0       siesta               422840K         cn0672            104  351911968    383552K     cn0672        104  322119456       89       cn0672              0          5   00:07:55     cn0672          1   00:07:57      128        256   00:08:06  COMPLETED      0:0    755.95M       Unknown       Unknown       Unknown                         0       28.04M          cn0672               0         26.90M       22.57M           cn0672                0          4.66M            cpu=256,m+ cpu=00:07:57,+ cpu=00:07:57,+ cpu=cn0672,energy+ cpu=92,fs/disk=0,+ cpu=00:07:55,+ cpu=cn0672,energy+ cpu=1,fs/disk=125+ cpu=16:57:52,+ energy=0,fs/di+ energy=cn0672,fs/d+           fs/disk=0 energy=0,fs/di+ energy=0,fs/di+ 
