slurmstepd: error: _get_joules_task: can't get info from slurmd

The following have been reloaded with a version change:
  1) GCC/11.2.0 => GCC/12.3.0
  2) OpenMPI/4.1.1-GCC-11.2.0 => OpenMPI/4.1.5-GCC-12.3.0
  3) PMIx/4.1.0-GCCcore-11.2.0 => PMIx/4.2.4-GCCcore-12.3.0
  4) UCX/1.11.2-GCCcore-11.2.0 => UCX/1.14.1-GCCcore-12.3.0
  5) XZ/5.2.5-GCCcore-11.2.0 => XZ/5.4.2-GCCcore-12.3.0
  6) binutils/2.37-GCCcore-11.2.0 => binutils/2.40-GCCcore-12.3.0
  7) gompi/2021b => gompi/2023a
  8) hwloc/2.5.0-GCCcore-11.2.0 => hwloc/2.9.1-GCCcore-12.3.0
  9) libevent/2.1.12-GCCcore-11.2.0 => libevent/2.1.12-GCCcore-12.3.0
 10) libfabric/1.13.2-GCCcore-11.2.0 => libfabric/1.18.0-GCCcore-12.3.0
 11) libpciaccess/0.16-GCCcore-11.2.0 => libpciaccess/0.17-GCCcore-12.3.0
 12) libxml2/2.9.10-GCCcore-11.2.0 => libxml2/2.11.4-GCCcore-12.3.0
 13) numactl/2.0.14-GCCcore-11.2.0 => numactl/2.0.16-GCCcore-12.3.0
 14) zlib/1.2.11-GCCcore-11.2.0 => zlib/1.2.13-GCCcore-12.3.0

Current loaded modules
----------------------

Currently Loaded Modules:
  1) OpenSSL/1.1                       18) GCC/12.3.0
  2) UCC/1.2.0-GCCcore-12.3.0          19) OpenBLAS/0.3.23-GCC-12.3.0
  3) Szip/2.1.1-GCCcore-12.3.0         20) numactl/2.0.16-GCCcore-12.3.0
  4) HDF5/1.14.0-gompi-2023a           21) XZ/5.4.2-GCCcore-12.3.0
  5) cURL/8.0.1-GCCcore-12.3.0         22) libxml2/2.11.4-GCCcore-12.3.0
  6) gzip/1.12-GCCcore-12.3.0          23) libpciaccess/0.17-GCCcore-12.3.0
  7) lz4/1.9.4-GCCcore-12.3.0          24) hwloc/2.9.1-GCCcore-12.3.0
  8) zstd/1.5.5-GCCcore-12.3.0         25) libevent/2.1.12-GCCcore-12.3.0
  9) bzip2/1.0.8-GCCcore-12.3.0        26) UCX/1.14.1-GCCcore-12.3.0
 10) netCDF/4.9.2-gompi-2023a          27) libfabric/1.18.0-GCCcore-12.3.0
 11) netCDF-Fortran/4.6.1-gompi-2023a  28) PMIx/4.2.4-GCCcore-12.3.0
 12) PnetCDF/1.12.3-gompi-2021b        29) OpenMPI/4.1.5-GCC-12.3.0
 13) GCCcore/12.3.0                    30) gompi/2023a
 14) ncurses/6.4-GCCcore-12.3.0        31) FlexiBLAS/3.3.1-GCC-12.3.0
 15) libreadline/8.2-GCCcore-12.3.0    32) ScaLAPACK/2.2.0-gompi-2023a-fb
 16) zlib/1.2.13-GCCcore-12.3.0        33) FFTW/3.3.10-GCC-12.3.0
 17) binutils/2.40-GCCcore-12.3.0

 


Current environment variables
-----------------------------
HYDRA_LAUNCHER_EXTRA_ARGS=--external-launcher
SLURM_MEM_PER_CPU=1000
LD_LIBRARY_PATH=/cvmfs/sling.si/modules/el7/software/FFTW/3.3.10-GCC-12.3.0/lib:/cvmfs/sling.si/modules/el7/software/ScaLAPACK/2.2.0-gompi-2023a-fb/lib:/cvmfs/sling.si/modules/el7/software/FlexiBLAS/3.3.1-GCC-12.3.0/lib:/cvmfs/sling.si/modules/el7/software/OpenMPI/4.1.5-GCC-12.3.0/lib:/cvmfs/sling.si/modules/el7/software/PMIx/4.2.4-GCCcore-12.3.0/lib:/cvmfs/sling.si/modules/el7/software/libfabric/1.18.0-GCCcore-12.3.0/lib:/cvmfs/sling.si/modules/el7/software/UCX/1.14.1-GCCcore-12.3.0/lib:/cvmfs/sling.si/modules/el7/software/libevent/2.1.12-GCCcore-12.3.0/lib:/cvmfs/sling.si/modules/el7/software/hwloc/2.9.1-GCCcore-12.3.0/lib:/cvmfs/sling.si/modules/el7/software/libpciaccess/0.17-GCCcore-12.3.0/lib:/cvmfs/sling.si/modules/el7/software/libxml2/2.11.4-GCCcore-12.3.0/lib:/cvmfs/sling.si/modules/el7/software/XZ/5.4.2-GCCcore-12.3.0/lib:/cvmfs/sling.si/modules/el7/software/numactl/2.0.16-GCCcore-12.3.0/lib:/cvmfs/sling.si/modules/el7/software/OpenBLAS/0.3.23-GCC-12.3.0/lib:/cvmfs/sling.si/modules/el7/software/binutils/2.40-GCCcore-12.3.0/lib:/cvmfs/sling.si/modules/el7/software/zlib/1.2.13-GCCcore-12.3.0/lib:/cvmfs/sling.si/modules/el7/software/libreadline/8.2-GCCcore-12.3.0/lib:/cvmfs/sling.si/modules/el7/software/ncurses/6.4-GCCcore-12.3.0/lib:/cvmfs/sling.si/modules/el7/software/GCCcore/12.3.0/lib64:/cvmfs/sling.si/modules/el7/software/PnetCDF/1.12.3-gompi-2021b/lib:/cvmfs/sling.si/modules/el7/software/netCDF-Fortran/4.6.1-gompi-2023a/lib:/cvmfs/sling.si/modules/el7/software/netCDF/4.9.2-gompi-2023a/lib:/cvmfs/sling.si/modules/el7/software/bzip2/1.0.8-GCCcore-12.3.0/lib:/cvmfs/sling.si/modules/el7/software/zstd/1.5.5-GCCcore-12.3.0/lib:/cvmfs/sling.si/modules/el7/software/lz4/1.9.4-GCCcore-12.3.0/lib:/cvmfs/sling.si/modules/el7/software/cURL/8.0.1-GCCcore-12.3.0/lib:/cvmfs/sling.si/modules/el7/software/HDF5/1.14.0-gompi-2023a/lib:/cvmfs/sling.si/modules/el7/software/Szip/2.1.1-GCCcore-12.3.0/lib:/cvmfs/sling.si/modules/el7/software/UCC/1.2.0-GCCcore-12.3.0/lib:/cvmfs/sling.si/modules/el7/software/OpenSSL/1.1/lib:/ceph/hpc/home/eufedericop/Siesta/elpa-gpu/lib/
LS_COLORS=rs=0:di=38;5;33:ln=38;5;51:mh=00:pi=40;38;5;11:so=38;5;13:do=38;5;5:bd=48;5;232;38;5;11:cd=48;5;232;38;5;3:or=48;5;232;38;5;9:mi=01;05;37;41:su=48;5;196;38;5;15:sg=48;5;11;38;5;16:ca=48;5;196;38;5;226:tw=48;5;10;38;5;16:ow=48;5;10;38;5;21:st=48;5;21;38;5;15:ex=38;5;40:*.tar=38;5;9:*.tgz=38;5;9:*.arc=38;5;9:*.arj=38;5;9:*.taz=38;5;9:*.lha=38;5;9:*.lz4=38;5;9:*.lzh=38;5;9:*.lzma=38;5;9:*.tlz=38;5;9:*.txz=38;5;9:*.tzo=38;5;9:*.t7z=38;5;9:*.zip=38;5;9:*.z=38;5;9:*.dz=38;5;9:*.gz=38;5;9:*.lrz=38;5;9:*.lz=38;5;9:*.lzo=38;5;9:*.xz=38;5;9:*.zst=38;5;9:*.tzst=38;5;9:*.bz2=38;5;9:*.bz=38;5;9:*.tbz=38;5;9:*.tbz2=38;5;9:*.tz=38;5;9:*.deb=38;5;9:*.rpm=38;5;9:*.jar=38;5;9:*.war=38;5;9:*.ear=38;5;9:*.sar=38;5;9:*.rar=38;5;9:*.alz=38;5;9:*.ace=38;5;9:*.zoo=38;5;9:*.cpio=38;5;9:*.7z=38;5;9:*.rz=38;5;9:*.cab=38;5;9:*.wim=38;5;9:*.swm=38;5;9:*.dwm=38;5;9:*.esd=38;5;9:*.jpg=38;5;13:*.jpeg=38;5;13:*.mjpg=38;5;13:*.mjpeg=38;5;13:*.gif=38;5;13:*.bmp=38;5;13:*.pbm=38;5;13:*.pgm=38;5;13:*.ppm=38;5;13:*.tga=38;5;13:*.xbm=38;5;13:*.xpm=38;5;13:*.tif=38;5;13:*.tiff=38;5;13:*.png=38;5;13:*.svg=38;5;13:*.svgz=38;5;13:*.mng=38;5;13:*.pcx=38;5;13:*.mov=38;5;13:*.mpg=38;5;13:*.mpeg=38;5;13:*.m2v=38;5;13:*.mkv=38;5;13:*.webm=38;5;13:*.ogm=38;5;13:*.mp4=38;5;13:*.m4v=38;5;13:*.mp4v=38;5;13:*.vob=38;5;13:*.qt=38;5;13:*.nuv=38;5;13:*.wmv=38;5;13:*.asf=38;5;13:*.rm=38;5;13:*.rmvb=38;5;13:*.flc=38;5;13:*.avi=38;5;13:*.fli=38;5;13:*.flv=38;5;13:*.gl=38;5;13:*.dl=38;5;13:*.xcf=38;5;13:*.xwd=38;5;13:*.yuv=38;5;13:*.cgm=38;5;13:*.emf=38;5;13:*.ogv=38;5;13:*.ogx=38;5;13:*.aac=38;5;45:*.au=38;5;45:*.flac=38;5;45:*.m4a=38;5;45:*.mid=38;5;45:*.midi=38;5;45:*.mka=38;5;45:*.mp3=38;5;45:*.mpc=38;5;45:*.ogg=38;5;45:*.ra=38;5;45:*.wav=38;5;45:*.oga=38;5;45:*.opus=38;5;45:*.spx=38;5;45:*.xspf=38;5;45:
EBVERSIONXZ=5.4.2
J4M_ACCOUNT=b2024b06-053-users
_ModuleTable017_=CnN0YWNrRGVwdGggPSAzLApzdGF0dXMgPSAiYWN0aXZlIiwKdXNlck5hbWUgPSAiaHdsb2MvMi45LjEtR0NDY29yZS0xMi4zLjAiLAp3ViA9ICIwMDAwMDAwMDIuMDAwMDAwMDA5LjAwMDAwMDAwMS4qZ2NjY29yZS4qemZpbmFsLS4wMDAwMDAwMTIuMDAwMDAwMDAzLip6ZmluYWwiLAp9LApsaWJldmVudCA9IHsKZm4gPSAiL2N2bWZzL3NsaW5nLnNpL21vZHVsZXMvZWw3L21vZHVsZXMvYWxsL2xpYmV2ZW50LzIuMS4xMi1HQ0Njb3JlLTEyLjMuMC5sdWEiLApmdWxsTmFtZSA9ICJsaWJldmVudC8yLjEuMTItR0NDY29yZS0xMi4zLjAiLApsb2FkT3JkZXIgPSAyNSwKcHJvcFQgPSB7fSwKc3RhY2tEZXB0aCA9IDMsCnN0YXR1cyA9ICJhY3RpdmUiLAp1c2VyTmFtZSA9ICJsaWJl
EBROOTBINUTILS=/cvmfs/sling.si/modules/el7/software/binutils/2.40-GCCcore-12.3.0
SLURM_NODEID=0
EBVERSIONPMIX=4.2.4
EBDEVELSZIP=/cvmfs/sling.si/modules/el7/software/Szip/2.1.1-GCCcore-12.3.0/easybuild/Szip-2.1.1-GCCcore-12.3.0-easybuild-devel
SLURM_TASK_PID=4080650
__LMOD_REF_COUNT_PATH=/cvmfs/sling.si/modules/el7/software/FFTW/3.3.10-GCC-12.3.0/bin:1;/cvmfs/sling.si/modules/el7/software/FlexiBLAS/3.3.1-GCC-12.3.0/bin:1;/cvmfs/sling.si/modules/el7/software/OpenMPI/4.1.5-GCC-12.3.0/bin:1;/cvmfs/sling.si/modules/el7/software/PMIx/4.2.4-GCCcore-12.3.0/bin:1;/cvmfs/sling.si/modules/el7/software/libfabric/1.18.0-GCCcore-12.3.0/bin:1;/cvmfs/sling.si/modules/el7/software/UCX/1.14.1-GCCcore-12.3.0/bin:1;/cvmfs/sling.si/modules/el7/software/libevent/2.1.12-GCCcore-12.3.0/bin:1;/cvmfs/sling.si/modules/el7/software/hwloc/2.9.1-GCCcore-12.3.0/sbin:1;/cvmfs/sling.si/modules/el7/software/hwloc/2.9.1-GCCcore-12.3.0/bin:1;/cvmfs/sling.si/modules/el7/software/libxml2/2.11.4-GCCcore-12.3.0/bin:1;/cvmfs/sling.si/modules/el7/software/XZ/5.4.2-GCCcore-12.3.0/bin:1;/cvmfs/sling.si/modules/el7/software/numactl/2.0.16-GCCcore-12.3.0/bin:1;/cvmfs/sling.si/modules/el7/software/binutils/2.40-GCCcore-12.3.0/bin:1;/cvmfs/sling.si/modules/el7/software/ncurses/6.4-GCCcore-12.3.0/bin:1;/cvmfs/sling.si/modules/el7/software/GCCcore/12.3.0/bin:1;/cvmfs/sling.si/modules/el7/software/PnetCDF/1.12.3-gompi-2021b/bin:1;/cvmfs/sling.si/modules/el7/software/netCDF-Fortran/4.6.1-gompi-2023a/bin:1;/cvmfs/sling.si/modules/el7/software/netCDF/4.9.2-gompi-2023a/bin:1;/cvmfs/sling.si/modules/el7/software/bzip2/1.0.8-GCCcore-12.3.0/bin:1;/cvmfs/sling.si/modules/el7/software/zstd/1.5.5-GCCcore-12.3.0/bin:1;/cvmfs/sling.si/modules/el7/software/lz4/1.9.4-GCCcore-12.3.0/bin:1;/cvmfs/sling.si/modules/el7/software/gzip/1.12-GCCcore-12.3.0/bin:1;/cvmfs/sling.si/modules/el7/software/cURL/8.0.1-GCCcore-12.3.0/bin:1;/cvmfs/sling.si/modules/el7/software/HDF5/1.14.0-gompi-2023a/bin:1;/cvmfs/sling.si/modules/el7/software/UCC/1.2.0-GCCcore-12.3.0/bin:1;/cvmfs/sling.si/modules/el7/software/OpenSSL/1.1/bin:1;/ceph/hpc/home/eufedericop/.local/bin:1;/ceph/hpc/home/eufedericop/bin:1;/usr/local/bin:1;/usr/bin:1;/usr/local/sbin:1;/usr/sbin:1
_ModuleTable002_=MDAwMDEyLjAwMDAwMDAwMy4qemZpbmFsIiwKfSwKRmxleGlCTEFTID0gewpmbiA9ICIvY3ZtZnMvc2xpbmcuc2kvbW9kdWxlcy9lbDcvbW9kdWxlcy9hbGwvRmxleGlCTEFTLzMuMy4xLUdDQy0xMi4zLjAubHVhIiwKZnVsbE5hbWUgPSAiRmxleGlCTEFTLzMuMy4xLUdDQy0xMi4zLjAiLApsb2FkT3JkZXIgPSAzMSwKcHJvcFQgPSB7fSwKc3RhY2tEZXB0aCA9IDEsCnN0YXR1cyA9ICJhY3RpdmUiLAp1c2VyTmFtZSA9ICJGbGV4aUJMQVMvMy4zLjEtR0NDLTEyLjMuMCIsCndWID0gIjAwMDAwMDAwMy4wMDAwMDAwMDMuMDAwMDAwMDAxLipnY2MuKnpmaW5hbC0uMDAwMDAwMDEyLjAwMDAwMDAwMy4qemZpbmFsIiwKfSwKR0NDID0gewpmbiA9ICIvY3ZtZnMvc2xpbmcuc2kvbW9k
SSH_CONNECTION=83.46.85.124 58072 153.5.68.41 22
SLURM_PRIO_PROCESS=0
EBVERSIONCURL=8.0.1
GOTO_NUM_THREADS=1
EBVERSIONNUMACTL=2.0.16
EBROOTOPENBLAS=/cvmfs/sling.si/modules/el7/software/OpenBLAS/0.3.23-GCC-12.3.0
I_MPI_HYDRA_BOOTSTRAP_EXEC_EXTRA_ARGS=--external-launcher
EBVERSIONSCALAPACK=2.2.0
LANG=en_US.UTF-8
EBROOTGCC=/cvmfs/sling.si/modules/el7/software/GCCcore/12.3.0
_ModuleTable019_=LjAwMDAwMDAxOC4qZ2NjY29yZS4qemZpbmFsLS4wMDAwMDAwMTIuMDAwMDAwMDAzLip6ZmluYWwiLAp9LApsaWJwY2lhY2Nlc3MgPSB7CmZuID0gIi9jdm1mcy9zbGluZy5zaS9tb2R1bGVzL2VsNy9tb2R1bGVzL2FsbC9saWJwY2lhY2Nlc3MvMC4xNy1HQ0Njb3JlLTEyLjMuMC5sdWEiLApmdWxsTmFtZSA9ICJsaWJwY2lhY2Nlc3MvMC4xNy1HQ0Njb3JlLTEyLjMuMCIsCmxvYWRPcmRlciA9IDIzLApwcm9wVCA9IHt9LApzdGFja0RlcHRoID0gNCwKc3RhdHVzID0gImFjdGl2ZSIsCnVzZXJOYW1lID0gImxpYnBjaWFjY2Vzcy8wLjE3LUdDQ2NvcmUtMTIuMy4wIiwKd1YgPSAiMDAwMDAwMDAwLjAwMDAwMDAxNy4qZ2NjY29yZS4qemZpbmFsLS4wMDAwMDAwMTIuMDAwMDAwMDAz
SLURM_SUBMIT_DIR=/ceph/hpc/home/eufedericop/JUBE4MaX/max-inputs/interface/siesta/_CovidWeak/000000/000002_submit/work
HISTCONTROL=ignoredups
_ModuleTable008_=ZXMvZWw3L21vZHVsZXMvYWxsL1BuZXRDREYvMS4xMi4zLWdvbXBpLTIwMjFiLmx1YSIsCmZ1bGxOYW1lID0gIlBuZXRDREYvMS4xMi4zLWdvbXBpLTIwMjFiIiwKbG9hZE9yZGVyID0gMTIsCnByb3BUID0ge30sCnN0YWNrRGVwdGggPSAwLApzdGF0dXMgPSAiYWN0aXZlIiwKdXNlck5hbWUgPSAiUG5ldENERi8xLjEyLjMtZ29tcGktMjAyMWIiLAp3ViA9ICIwMDAwMDAwMDEuMDAwMDAwMDEyLjAwMDAwMDAwMy4qZ29tcGkuKnpmaW5hbC0uMDAwMDAyMDIxLipiLip6ZmluYWwiLAp9LApTY2FMQVBBQ0sgPSB7CmZuID0gIi9jdm1mcy9zbGluZy5zaS9tb2R1bGVzL2VsNy9tb2R1bGVzL2FsbC9TY2FMQVBBQ0svMi4yLjAtZ29tcGktMjAyM2EtZmIubHVhIiwKZnVsbE5hbWUgPSAi
EBROOTFLEXIBLAS=/cvmfs/sling.si/modules/el7/software/FlexiBLAS/3.3.1-GCC-12.3.0
OMPI_MCA_plm_slurm_args=--external-launcher
EBVERSIONGOMPI=2023a
HOSTNAME=cn0672
OPENBLAS_NUM_THREADS=1
OLDPWD=/ceph/hpc/home/eufedericop
EBDEVELNUMACTL=/cvmfs/sling.si/modules/el7/software/numactl/2.0.16-GCCcore-12.3.0/easybuild/numactl-2.0.16-GCCcore-12.3.0-easybuild-devel
J4M_BIN_PATH=/ceph/hpc/home/eufedericop/Siesta/siesta-gnu/bin/
SLURM_CPUS_PER_TASK=1
EBVERSIONZSTD=1.5.5
OMP_PROC_BIND=true
ENVIRONMENT=BATCH
EBDEVELBZIP2=/cvmfs/sling.si/modules/el7/software/bzip2/1.0.8-GCCcore-12.3.0/easybuild/bzip2-1.0.8-GCCcore-12.3.0-easybuild-devel
EBDEVELNETCDF=/cvmfs/sling.si/modules/el7/software/netCDF/4.9.2-gompi-2023a/easybuild/netCDF-4.9.2-gompi-2023a-easybuild-devel
__LMOD_REF_COUNT_XDG_DATA_DIRS=/cvmfs/sling.si/modules/el7/software/FFTW/3.3.10-GCC-12.3.0/share:1;/cvmfs/sling.si/modules/el7/software/FlexiBLAS/3.3.1-GCC-12.3.0/share:1;/cvmfs/sling.si/modules/el7/software/OpenMPI/4.1.5-GCC-12.3.0/share:1;/cvmfs/sling.si/modules/el7/software/PMIx/4.2.4-GCCcore-12.3.0/share:1;/cvmfs/sling.si/modules/el7/software/libfabric/1.18.0-GCCcore-12.3.0/share:1;/cvmfs/sling.si/modules/el7/software/UCX/1.14.1-GCCcore-12.3.0/share:1;/cvmfs/sling.si/modules/el7/software/hwloc/2.9.1-GCCcore-12.3.0/share:1;/cvmfs/sling.si/modules/el7/software/libxml2/2.11.4-GCCcore-12.3.0/share:1;/cvmfs/sling.si/modules/el7/software/XZ/5.4.2-GCCcore-12.3.0/share:1;/cvmfs/sling.si/modules/el7/software/numactl/2.0.16-GCCcore-12.3.0/share:1;/cvmfs/sling.si/modules/el7/software/binutils/2.40-GCCcore-12.3.0/share:1;/cvmfs/sling.si/modules/el7/software/zlib/1.2.13-GCCcore-12.3.0/share:1;/cvmfs/sling.si/modules/el7/software/libreadline/8.2-GCCcore-12.3.0/share:1;/cvmfs/sling.si/modules/el7/software/ncurses/6.4-GCCcore-12.3.0/share:1;/cvmfs/sling.si/modules/el7/software/GCCcore/12.3.0/share:1;/cvmfs/sling.si/modules/el7/software/PnetCDF/1.12.3-gompi-2021b/share:1;/cvmfs/sling.si/modules/el7/software/netCDF-Fortran/4.6.1-gompi-2023a/share:1;/cvmfs/sling.si/modules/el7/software/netCDF/4.9.2-gompi-2023a/share:1;/cvmfs/sling.si/modules/el7/software/zstd/1.5.5-GCCcore-12.3.0/share:1;/cvmfs/sling.si/modules/el7/software/lz4/1.9.4-GCCcore-12.3.0/share:1;/cvmfs/sling.si/modules/el7/software/gzip/1.12-GCCcore-12.3.0/share:1;/cvmfs/sling.si/modules/el7/software/cURL/8.0.1-GCCcore-12.3.0/share:1;/cvmfs/sling.si/modules/el7/software/HDF5/1.14.0-gompi-2023a/share:1;/cvmfs/sling.si/modules/el7/software/OpenSSL/1.1/share:1
EBVERSIONOPENMPI=4.1.5
EBROOTNCURSES=/cvmfs/sling.si/modules/el7/software/ncurses/6.4-GCCcore-12.3.0
_ModuleTable007_=MDAwMS4wMDAwMDAwMDEuKnpmaW5hbCIsCn0sClBNSXggPSB7CmZuID0gIi9jdm1mcy9zbGluZy5zaS9tb2R1bGVzL2VsNy9tb2R1bGVzL2FsbC9QTUl4LzQuMi40LUdDQ2NvcmUtMTIuMy4wLmx1YSIsCmZ1bGxOYW1lID0gIlBNSXgvNC4yLjQtR0NDY29yZS0xMi4zLjAiLApsb2FkT3JkZXIgPSAyOCwKcHJvcFQgPSB7fSwKc3RhY2tEZXB0aCA9IDMsCnN0YXR1cyA9ICJhY3RpdmUiLAp1c2VyTmFtZSA9ICJQTUl4LzQuMi40LUdDQ2NvcmUtMTIuMy4wIiwKd1YgPSAiMDAwMDAwMDA0LjAwMDAwMDAwMi4wMDAwMDAwMDQuKmdjY2NvcmUuKnpmaW5hbC0uMDAwMDAwMDEyLjAwMDAwMDAwMy4qemZpbmFsIiwKfSwKUG5ldENERiA9IHsKZm4gPSAiL2N2bWZzL3NsaW5nLnNpL21vZHVs
EBDEVELLIBEVENT=/cvmfs/sling.si/modules/el7/software/libevent/2.1.12-GCCcore-12.3.0/easybuild/libevent-2.1.12-GCCcore-12.3.0-easybuild-devel
EBVERSIONOPENBLAS=0.3.23
_ModuleTable026_=LzEuMi4xMy1HQ0Njb3JlLTEyLjMuMC5sdWEiLApmdWxsTmFtZSA9ICJ6bGliLzEuMi4xMy1HQ0Njb3JlLTEyLjMuMCIsCmxvYWRPcmRlciA9IDE2LApwcm9wVCA9IHt9LApzdGFja0RlcHRoID0gMywKc3RhdHVzID0gImFjdGl2ZSIsCnVzZXJOYW1lID0gInpsaWIvMS4yLjEzLUdDQ2NvcmUtMTIuMy4wIiwKd1YgPSAiMDAwMDAwMDAxLjAwMDAwMDAwMi4wMDAwMDAwMTMuKmdjY2NvcmUuKnpmaW5hbC0uMDAwMDAwMDEyLjAwMDAwMDAwMy4qemZpbmFsIiwKfSwKenN0ZCA9IHsKZm4gPSAiL2N2bWZzL3NsaW5nLnNpL21vZHVsZXMvZWw3L21vZHVsZXMvYWxsL3pzdGQvMS41LjUtR0NDY29yZS0xMi4zLjAubHVhIiwKZnVsbE5hbWUgPSAienN0ZC8xLjUuNS1HQ0Njb3JlLTEyLjMu
EBROOTGOMPI=/cvmfs/sling.si/modules/el7/software/gompi/2023a
SLURM_PROCID=0
SLURM_JOB_GID=1977552410
EBROOTOPENMPI=/cvmfs/sling.si/modules/el7/software/OpenMPI/4.1.5-GCC-12.3.0
__LMOD_REF_COUNT_LD_LIBRARY_PATH=/cvmfs/sling.si/modules/el7/software/FFTW/3.3.10-GCC-12.3.0/lib:1;/cvmfs/sling.si/modules/el7/software/ScaLAPACK/2.2.0-gompi-2023a-fb/lib:1;/cvmfs/sling.si/modules/el7/software/FlexiBLAS/3.3.1-GCC-12.3.0/lib:1;/cvmfs/sling.si/modules/el7/software/OpenMPI/4.1.5-GCC-12.3.0/lib:1;/cvmfs/sling.si/modules/el7/software/PMIx/4.2.4-GCCcore-12.3.0/lib:1;/cvmfs/sling.si/modules/el7/software/libfabric/1.18.0-GCCcore-12.3.0/lib:1;/cvmfs/sling.si/modules/el7/software/UCX/1.14.1-GCCcore-12.3.0/lib:1;/cvmfs/sling.si/modules/el7/software/libevent/2.1.12-GCCcore-12.3.0/lib:1;/cvmfs/sling.si/modules/el7/software/hwloc/2.9.1-GCCcore-12.3.0/lib:1;/cvmfs/sling.si/modules/el7/software/libpciaccess/0.17-GCCcore-12.3.0/lib:1;/cvmfs/sling.si/modules/el7/software/libxml2/2.11.4-GCCcore-12.3.0/lib:1;/cvmfs/sling.si/modules/el7/software/XZ/5.4.2-GCCcore-12.3.0/lib:1;/cvmfs/sling.si/modules/el7/software/numactl/2.0.16-GCCcore-12.3.0/lib:1;/cvmfs/sling.si/modules/el7/software/OpenBLAS/0.3.23-GCC-12.3.0/lib:1;/cvmfs/sling.si/modules/el7/software/binutils/2.40-GCCcore-12.3.0/lib:1;/cvmfs/sling.si/modules/el7/software/zlib/1.2.13-GCCcore-12.3.0/lib:1;/cvmfs/sling.si/modules/el7/software/libreadline/8.2-GCCcore-12.3.0/lib:1;/cvmfs/sling.si/modules/el7/software/ncurses/6.4-GCCcore-12.3.0/lib:1;/cvmfs/sling.si/modules/el7/software/GCCcore/12.3.0/lib64:1;/cvmfs/sling.si/modules/el7/software/PnetCDF/1.12.3-gompi-2021b/lib:1;/cvmfs/sling.si/modules/el7/software/netCDF-Fortran/4.6.1-gompi-2023a/lib:1;/cvmfs/sling.si/modules/el7/software/netCDF/4.9.2-gompi-2023a/lib:1;/cvmfs/sling.si/modules/el7/software/bzip2/1.0.8-GCCcore-12.3.0/lib:1;/cvmfs/sling.si/modules/el7/software/zstd/1.5.5-GCCcore-12.3.0/lib:1;/cvmfs/sling.si/modules/el7/software/lz4/1.9.4-GCCcore-12.3.0/lib:1;/cvmfs/sling.si/modules/el7/software/cURL/8.0.1-GCCcore-12.3.0/lib:1;/cvmfs/sling.si/modules/el7/software/HDF5/1.14.0-gompi-2023a/lib:1;/cvmfs/sling.si/modules/el7/software/Szip/2.1.1-GCCcore-12.3.0/lib:1;/cvmfs/sling.si/modules/el7/software/UCC/1.2.0-GCCcore-12.3.0/lib:1;/cvmfs/sling.si/modules/el7/software/OpenSSL/1.1/lib:1
__LMOD_REF_COUNT_PKG_CONFIG_PATH=/cvmfs/sling.si/modules/el7/software/FFTW/3.3.10-GCC-12.3.0/lib/pkgconfig:1;/cvmfs/sling.si/modules/el7/software/ScaLAPACK/2.2.0-gompi-2023a-fb/lib/pkgconfig:1;/cvmfs/sling.si/modules/el7/software/FlexiBLAS/3.3.1-GCC-12.3.0/lib/pkgconfig:1;/cvmfs/sling.si/modules/el7/software/OpenMPI/4.1.5-GCC-12.3.0/lib/pkgconfig:1;/cvmfs/sling.si/modules/el7/software/PMIx/4.2.4-GCCcore-12.3.0/lib/pkgconfig:1;/cvmfs/sling.si/modules/el7/software/libfabric/1.18.0-GCCcore-12.3.0/lib/pkgconfig:1;/cvmfs/sling.si/modules/el7/software/UCX/1.14.1-GCCcore-12.3.0/lib/pkgconfig:1;/cvmfs/sling.si/modules/el7/software/libevent/2.1.12-GCCcore-12.3.0/lib/pkgconfig:1;/cvmfs/sling.si/modules/el7/software/hwloc/2.9.1-GCCcore-12.3.0/lib/pkgconfig:1;/cvmfs/sling.si/modules/el7/software/libpciaccess/0.17-GCCcore-12.3.0/lib/pkgconfig:1;/cvmfs/sling.si/modules/el7/software/libxml2/2.11.4-GCCcore-12.3.0/lib/pkgconfig:1;/cvmfs/sling.si/modules/el7/software/XZ/5.4.2-GCCcore-12.3.0/lib/pkgconfig:1;/cvmfs/sling.si/modules/el7/software/numactl/2.0.16-GCCcore-12.3.0/lib/pkgconfig:1;/cvmfs/sling.si/modules/el7/software/OpenBLAS/0.3.23-GCC-12.3.0/lib/pkgconfig:1;/cvmfs/sling.si/modules/el7/software/zlib/1.2.13-GCCcore-12.3.0/lib/pkgconfig:1;/cvmfs/sling.si/modules/el7/software/libreadline/8.2-GCCcore-12.3.0/lib/pkgconfig:1;/cvmfs/sling.si/modules/el7/software/PnetCDF/1.12.3-gompi-2021b/lib/pkgconfig:1;/cvmfs/sling.si/modules/el7/software/netCDF-Fortran/4.6.1-gompi-2023a/lib/pkgconfig:1;/cvmfs/sling.si/modules/el7/software/netCDF/4.9.2-gompi-2023a/lib/pkgconfig:1;/cvmfs/sling.si/modules/el7/software/bzip2/1.0.8-GCCcore-12.3.0/lib/pkgconfig:1;/cvmfs/sling.si/modules/el7/software/zstd/1.5.5-GCCcore-12.3.0/lib/pkgconfig:1;/cvmfs/sling.si/modules/el7/software/lz4/1.9.4-GCCcore-12.3.0/lib/pkgconfig:1;/cvmfs/sling.si/modules/el7/software/cURL/8.0.1-GCCcore-12.3.0/lib/pkgconfig:1;/cvmfs/sling.si/modules/el7/software/HDF5/1.14.0-gompi-2023a/lib/pkgconfig:1;/cvmfs/sling.si/modules/el7/software/OpenSSL/1.1/lib/pkgconfig:1
EBVERSIONHDF5=1.14.0
SLURMD_NODENAME=cn0672
_ModuleTable024_=MDAwMDAwMDAyLipnb21waS4qemZpbmFsLS4wMDAwMDIwMjMuKmEuKnpmaW5hbCIsCn0sClsibmV0Q0RGLUZvcnRyYW4iXSA9IHsKZm4gPSAiL2N2bWZzL3NsaW5nLnNpL21vZHVsZXMvZWw3L21vZHVsZXMvYWxsL25ldENERi1Gb3J0cmFuLzQuNi4xLWdvbXBpLTIwMjNhLmx1YSIsCmZ1bGxOYW1lID0gIm5ldENERi1Gb3J0cmFuLzQuNi4xLWdvbXBpLTIwMjNhIiwKbG9hZE9yZGVyID0gMTEsCnByb3BUID0ge30sCnN0YWNrRGVwdGggPSAwLApzdGF0dXMgPSAiYWN0aXZlIiwKdXNlck5hbWUgPSAibmV0Q0RGLUZvcnRyYW4iLAp3ViA9ICIwMDAwMDAwMDQuMDAwMDAwMDA2LjAwMDAwMDAwMS4qZ29tcGkuKnpmaW5hbC0uMDAwMDAyMDIzLiphLip6ZmluYWwiLAp9LApudW1hY3Rs
EBROOTGCCCORE=/cvmfs/sling.si/modules/el7/software/GCCcore/12.3.0
_ModuleTable015_=d1YgPSAiMDAwMDAwMDA4LjAwMDAwMDAwMC4wMDAwMDAwMDEuKmdjY2NvcmUuKnpmaW5hbC0uMDAwMDAwMDEyLjAwMDAwMDAwMy4qemZpbmFsIiwKfSwKZ29tcGkgPSB7CmZuID0gIi9jdm1mcy9zbGluZy5zaS9tb2R1bGVzL2VsNy9tb2R1bGVzL2FsbC9nb21waS8yMDIzYS5sdWEiLApmdWxsTmFtZSA9ICJnb21waS8yMDIzYSIsCmxvYWRPcmRlciA9IDMwLApwcm9wVCA9IHt9LApzdGFja0RlcHRoID0gMSwKc3RhdHVzID0gImFjdGl2ZSIsCnVzZXJOYW1lID0gImdvbXBpLzIwMjNhIiwKd1YgPSAiMDAwMDAyMDIzLiphLip6ZmluYWwiLAp9LApnemlwID0gewpmbiA9ICIvY3ZtZnMvc2xpbmcuc2kvbW9kdWxlcy9lbDcvbW9kdWxlcy9hbGwvZ3ppcC8xLjEyLUdDQ2NvcmUtMTIu
SLURM_JOB_END_TIME=1726740045
EASYBUILD_PREFIX=/cvmfs/sling.si/modules/el7
EBROOTSCALAPACK=/cvmfs/sling.si/modules/el7/software/ScaLAPACK/2.2.0-gompi-2023a-fb
_ModuleTable004_=My4wIiwKd1YgPSAiMDAwMDAwMDEyLjAwMDAwMDAwMy4qemZpbmFsIiwKfSwKSERGNSA9IHsKZm4gPSAiL2N2bWZzL3NsaW5nLnNpL21vZHVsZXMvZWw3L21vZHVsZXMvYWxsL0hERjUvMS4xNC4wLWdvbXBpLTIwMjNhLmx1YSIsCmZ1bGxOYW1lID0gIkhERjUvMS4xNC4wLWdvbXBpLTIwMjNhIiwKbG9hZE9yZGVyID0gNCwKcHJvcFQgPSB7fSwKc3RhY2tEZXB0aCA9IDIsCnN0YXR1cyA9ICJhY3RpdmUiLAp1c2VyTmFtZSA9ICJIREY1LzEuMTQuMC1nb21waS0yMDIzYSIsCndWID0gIjAwMDAwMDAwMS4wMDAwMDAwMTQuKmdvbXBpLip6ZmluYWwtLjAwMDAwMjAyMy4qYS4qemZpbmFsIiwKfSwKT3BlbkJMQVMgPSB7CmZuID0gIi9jdm1mcy9zbGluZy5zaS9tb2R1bGVzL2VsNy9t
EBVERSIONLIBEVENT=2.1.12
SLURM_TASKS_PER_NODE=128
S_COLORS=auto
EBVERSIONGCC=12.3.0
PRTE_MCA_plm_slurm_args=--external-launcher
which_declare=declare -f
EBVERSIONUCX=1.14.1
EBDEVELXZ=/cvmfs/sling.si/modules/el7/software/XZ/5.4.2-GCCcore-12.3.0/easybuild/XZ-5.4.2-GCCcore-12.3.0-easybuild-devel
EBDEVELHWLOC=/cvmfs/sling.si/modules/el7/software/hwloc/2.9.1-GCCcore-12.3.0/easybuild/hwloc-2.9.1-GCCcore-12.3.0-easybuild-devel
EBVERSIONLIBFABRIC=1.18.0
EBVERSIONUCC=1.2.0
EBROOTZLIB=/cvmfs/sling.si/modules/el7/software/zlib/1.2.13-GCCcore-12.3.0
XDG_SESSION_ID=8259
SLURM_NNODES=1
USER=eufedericop
EBDEVELLIBXML2=/cvmfs/sling.si/modules/el7/software/libxml2/2.11.4-GCCcore-12.3.0/easybuild/libxml2-2.11.4-GCCcore-12.3.0-easybuild-devel
EBVERSIONHWLOC=2.9.1
__LMOD_REF_COUNT_CMAKE_LIBRARY_PATH=/cvmfs/sling.si/modules/el7/software/GCCcore/12.3.0/lib64:1
_ModuleTable023_=ICJhY3RpdmUiLAp1c2VyTmFtZSA9ICJuY3Vyc2VzLzYuNC1HQ0Njb3JlLTEyLjMuMCIsCndWID0gIjAwMDAwMDAwNi4wMDAwMDAwMDQuKmdjY2NvcmUuKnpmaW5hbC0uMDAwMDAwMDEyLjAwMDAwMDAwMy4qemZpbmFsIiwKfSwKbmV0Q0RGID0gewpmbiA9ICIvY3ZtZnMvc2xpbmcuc2kvbW9kdWxlcy9lbDcvbW9kdWxlcy9hbGwvbmV0Q0RGLzQuOS4yLWdvbXBpLTIwMjNhLmx1YSIsCmZ1bGxOYW1lID0gIm5ldENERi80LjkuMi1nb21waS0yMDIzYSIsCmxvYWRPcmRlciA9IDEwLApwcm9wVCA9IHt9LApzdGFja0RlcHRoID0gMSwKc3RhdHVzID0gImFjdGl2ZSIsCnVzZXJOYW1lID0gIm5ldENERi80LjkuMi1nb21waS0yMDIzYSIsCndWID0gIjAwMDAwMDAwNC4wMDAwMDAwMDku
_ModuleTable012_=c2kvbW9kdWxlcy9lbDcvbW9kdWxlcy9hbGwvWFovNS40LjItR0NDY29yZS0xMi4zLjAubHVhIiwKZnVsbE5hbWUgPSAiWFovNS40LjItR0NDY29yZS0xMi4zLjAiLApsb2FkT3JkZXIgPSAyMSwKcHJvcFQgPSB7fSwKc3RhY2tEZXB0aCA9IDUsCnN0YXR1cyA9ICJhY3RpdmUiLAp1c2VyTmFtZSA9ICJYWi81LjQuMi1HQ0Njb3JlLTEyLjMuMCIsCndWID0gIjAwMDAwMDAwNS4wMDAwMDAwMDQuMDAwMDAwMDAyLipnY2Njb3JlLip6ZmluYWwtLjAwMDAwMDAxMi4wMDAwMDAwMDMuKnpmaW5hbCIsCn0sCmJpbnV0aWxzID0gewpmbiA9ICIvY3ZtZnMvc2xpbmcuc2kvbW9kdWxlcy9lbDcvbW9kdWxlcy9hbGwvYmludXRpbHMvMi40MC1HQ0Njb3JlLTEyLjMuMC5sdWEiLApmdWxsTmFt
EBVERSIONGCCCORE=12.3.0
EBDEVELGZIP=/cvmfs/sling.si/modules/el7/software/gzip/1.12-GCCcore-12.3.0/easybuild/gzip-1.12-GCCcore-12.3.0-easybuild-devel
EBROOTXZ=/cvmfs/sling.si/modules/el7/software/XZ/5.4.2-GCCcore-12.3.0
EBVERSIONOPENSSL=1.1
SLURM_JOB_START_TIME=1726653645
SLURM_NTASKS_PER_NODE=128
EBROOTNETCDFMINFORTRAN=/cvmfs/sling.si/modules/el7/software/netCDF-Fortran/4.6.1-gompi-2023a
__LMOD_REF_COUNT_MODULEPATH=/usr/share/Modules/modulefiles:2;/ceph/hpc/software/modulefiles:1;/cvmfs/sling.si/modules/el7/modules/all:1;/etc/modulefiles:1;/usr/share/modulefiles:1;/usr/share/modulefiles/Linux:1;/usr/share/modulefiles/Core:1;/usr/share/lmod/lmod/modulefiles/Core:1
__LMOD_REF_COUNT_PNETCDF=/cvmfs/sling.si/modules/el7/software/PnetCDF/1.12.3-gompi-2021b:1
EBROOTOPENSSL=/cvmfs/sling.si/modules/el7/software/OpenSSL/1.1
PWD=/ceph/hpc/home/eufedericop/JUBE4MaX/max-inputs/interface/siesta/_CovidWeak/000000/000002_submit/work
EBROOTPNETCDF=/cvmfs/sling.si/modules/el7/software/PnetCDF/1.12.3-gompi-2021b
EBDEVELOPENBLAS=/cvmfs/sling.si/modules/el7/software/OpenBLAS/0.3.23-GCC-12.3.0/easybuild/OpenBLAS-0.3.23-GCC-12.3.0-easybuild-devel
EBDEVELFLEXIBLAS=/cvmfs/sling.si/modules/el7/software/FlexiBLAS/3.3.1-GCC-12.3.0/easybuild/FlexiBLAS-3.3.1-GCC-12.3.0-easybuild-devel
EBROOTLIBREADLINE=/cvmfs/sling.si/modules/el7/software/libreadline/8.2-GCCcore-12.3.0
SLURM_JOB_NODELIST=cn0672
HOME=/ceph/hpc/home/eufedericop
SLURM_CLUSTER_NAME=vega
EBROOTBZIP2=/cvmfs/sling.si/modules/el7/software/bzip2/1.0.8-GCCcore-12.3.0
EBROOTGZIP=/cvmfs/sling.si/modules/el7/software/gzip/1.12-GCCcore-12.3.0
CMAKE_PREFIX_PATH=/cvmfs/sling.si/modules/el7/software/FFTW/3.3.10-GCC-12.3.0:/cvmfs/sling.si/modules/el7/software/ScaLAPACK/2.2.0-gompi-2023a-fb:/cvmfs/sling.si/modules/el7/software/FlexiBLAS/3.3.1-GCC-12.3.0:/cvmfs/sling.si/modules/el7/software/OpenMPI/4.1.5-GCC-12.3.0:/cvmfs/sling.si/modules/el7/software/PMIx/4.2.4-GCCcore-12.3.0:/cvmfs/sling.si/modules/el7/software/libfabric/1.18.0-GCCcore-12.3.0:/cvmfs/sling.si/modules/el7/software/UCX/1.14.1-GCCcore-12.3.0:/cvmfs/sling.si/modules/el7/software/libevent/2.1.12-GCCcore-12.3.0:/cvmfs/sling.si/modules/el7/software/hwloc/2.9.1-GCCcore-12.3.0:/cvmfs/sling.si/modules/el7/software/libpciaccess/0.17-GCCcore-12.3.0:/cvmfs/sling.si/modules/el7/software/libxml2/2.11.4-GCCcore-12.3.0:/cvmfs/sling.si/modules/el7/software/XZ/5.4.2-GCCcore-12.3.0:/cvmfs/sling.si/modules/el7/software/numactl/2.0.16-GCCcore-12.3.0:/cvmfs/sling.si/modules/el7/software/OpenBLAS/0.3.23-GCC-12.3.0:/cvmfs/sling.si/modules/el7/software/binutils/2.40-GCCcore-12.3.0:/cvmfs/sling.si/modules/el7/software/zlib/1.2.13-GCCcore-12.3.0:/cvmfs/sling.si/modules/el7/software/libreadline/8.2-GCCcore-12.3.0:/cvmfs/sling.si/modules/el7/software/ncurses/6.4-GCCcore-12.3.0:/cvmfs/sling.si/modules/el7/software/GCCcore/12.3.0:/cvmfs/sling.si/modules/el7/software/PnetCDF/1.12.3-gompi-2021b:/cvmfs/sling.si/modules/el7/software/netCDF-Fortran/4.6.1-gompi-2023a:/cvmfs/sling.si/modules/el7/software/netCDF/4.9.2-gompi-2023a:/cvmfs/sling.si/modules/el7/software/bzip2/1.0.8-GCCcore-12.3.0:/cvmfs/sling.si/modules/el7/software/zstd/1.5.5-GCCcore-12.3.0:/cvmfs/sling.si/modules/el7/software/lz4/1.9.4-GCCcore-12.3.0:/cvmfs/sling.si/modules/el7/software/gzip/1.12-GCCcore-12.3.0:/cvmfs/sling.si/modules/el7/software/cURL/8.0.1-GCCcore-12.3.0:/cvmfs/sling.si/modules/el7/software/HDF5/1.14.0-gompi-2023a:/cvmfs/sling.si/modules/el7/software/Szip/2.1.1-GCCcore-12.3.0:/cvmfs/sling.si/modules/el7/software/UCC/1.2.0-GCCcore-12.3.0:/cvmfs/sling.si/modules/el7/software/OpenSSL/1.1
SLURM_NODELIST=cn0672
SSH_CLIENT=83.46.85.124 58072 22
EBDEVELSCALAPACK=/cvmfs/sling.si/modules/el7/software/ScaLAPACK/2.2.0-gompi-2023a-fb/easybuild/ScaLAPACK-2.2.0-gompi-2023a-fb-easybuild-devel
EBDEVELLIBFABRIC=/cvmfs/sling.si/modules/el7/software/libfabric/1.18.0-GCCcore-12.3.0/easybuild/libfabric-1.18.0-GCCcore-12.3.0-easybuild-devel
LMOD_VERSION=8.7.7
EBDEVELUCX=/cvmfs/sling.si/modules/el7/software/UCX/1.14.1-GCCcore-12.3.0/easybuild/UCX-1.14.1-GCCcore-12.3.0-easybuild-devel
EBDEVELUCC=/cvmfs/sling.si/modules/el7/software/UCC/1.2.0-GCCcore-12.3.0/easybuild/UCC-1.2.0-GCCcore-12.3.0-easybuild-devel
CPATH=/cvmfs/sling.si/modules/el7/software/FFTW/3.3.10-GCC-12.3.0/include:/cvmfs/sling.si/modules/el7/software/FlexiBLAS/3.3.1-GCC-12.3.0/include:/cvmfs/sling.si/modules/el7/software/OpenMPI/4.1.5-GCC-12.3.0/include:/cvmfs/sling.si/modules/el7/software/PMIx/4.2.4-GCCcore-12.3.0/include:/cvmfs/sling.si/modules/el7/software/libfabric/1.18.0-GCCcore-12.3.0/include:/cvmfs/sling.si/modules/el7/software/UCX/1.14.1-GCCcore-12.3.0/include:/cvmfs/sling.si/modules/el7/software/libevent/2.1.12-GCCcore-12.3.0/include:/cvmfs/sling.si/modules/el7/software/hwloc/2.9.1-GCCcore-12.3.0/include:/cvmfs/sling.si/modules/el7/software/libpciaccess/0.17-GCCcore-12.3.0/include:/cvmfs/sling.si/modules/el7/software/libxml2/2.11.4-GCCcore-12.3.0/include/libxml2:/cvmfs/sling.si/modules/el7/software/libxml2/2.11.4-GCCcore-12.3.0/include:/cvmfs/sling.si/modules/el7/software/XZ/5.4.2-GCCcore-12.3.0/include:/cvmfs/sling.si/modules/el7/software/numactl/2.0.16-GCCcore-12.3.0/include:/cvmfs/sling.si/modules/el7/software/OpenBLAS/0.3.23-GCC-12.3.0/include:/cvmfs/sling.si/modules/el7/software/binutils/2.40-GCCcore-12.3.0/include:/cvmfs/sling.si/modules/el7/software/zlib/1.2.13-GCCcore-12.3.0/include:/cvmfs/sling.si/modules/el7/software/libreadline/8.2-GCCcore-12.3.0/include:/cvmfs/sling.si/modules/el7/software/ncurses/6.4-GCCcore-12.3.0/include:/cvmfs/sling.si/modules/el7/software/PnetCDF/1.12.3-gompi-2021b/include:/cvmfs/sling.si/modules/el7/software/netCDF-Fortran/4.6.1-gompi-2023a/include:/cvmfs/sling.si/modules/el7/software/netCDF/4.9.2-gompi-2023a/include:/cvmfs/sling.si/modules/el7/software/bzip2/1.0.8-GCCcore-12.3.0/include:/cvmfs/sling.si/modules/el7/software/zstd/1.5.5-GCCcore-12.3.0/include:/cvmfs/sling.si/modules/el7/software/lz4/1.9.4-GCCcore-12.3.0/include:/cvmfs/sling.si/modules/el7/software/cURL/8.0.1-GCCcore-12.3.0/include:/cvmfs/sling.si/modules/el7/software/HDF5/1.14.0-gompi-2023a/include:/cvmfs/sling.si/modules/el7/software/Szip/2.1.1-GCCcore-12.3.0/include:/cvmfs/sling.si/modules/el7/software/UCC/1.2.0-GCCcore-12.3.0/include:/cvmfs/sling.si/modules/el7/software/OpenSSL/1.1/include
SLURM_NTASKS=128
EBROOTSZIP=/cvmfs/sling.si/modules/el7/software/Szip/2.1.1-GCCcore-12.3.0
EBVERSIONPNETCDF=1.12.3
PNETCDF=/cvmfs/sling.si/modules/el7/software/PnetCDF/1.12.3-gompi-2021b
EBROOTHDF5=/cvmfs/sling.si/modules/el7/software/HDF5/1.14.0-gompi-2023a
EBVERSIONGZIP=1.12
EBDEVELCURL=/cvmfs/sling.si/modules/el7/software/cURL/8.0.1-GCCcore-12.3.0/easybuild/cURL-8.0.1-GCCcore-12.3.0-easybuild-devel
SLURM_JOB_CPUS_PER_NODE=128
BASH_ENV=/usr/share/lmod/lmod/init/bash
EBROOTCURL=/cvmfs/sling.si/modules/el7/software/cURL/8.0.1-GCCcore-12.3.0
EBDEVELPMIX=/cvmfs/sling.si/modules/el7/software/PMIx/4.2.4-GCCcore-12.3.0/easybuild/PMIx-4.2.4-GCCcore-12.3.0-easybuild-devel
XDG_DATA_DIRS=/cvmfs/sling.si/modules/el7/software/FFTW/3.3.10-GCC-12.3.0/share:/cvmfs/sling.si/modules/el7/software/FlexiBLAS/3.3.1-GCC-12.3.0/share:/cvmfs/sling.si/modules/el7/software/OpenMPI/4.1.5-GCC-12.3.0/share:/cvmfs/sling.si/modules/el7/software/PMIx/4.2.4-GCCcore-12.3.0/share:/cvmfs/sling.si/modules/el7/software/libfabric/1.18.0-GCCcore-12.3.0/share:/cvmfs/sling.si/modules/el7/software/UCX/1.14.1-GCCcore-12.3.0/share:/cvmfs/sling.si/modules/el7/software/hwloc/2.9.1-GCCcore-12.3.0/share:/cvmfs/sling.si/modules/el7/software/libxml2/2.11.4-GCCcore-12.3.0/share:/cvmfs/sling.si/modules/el7/software/XZ/5.4.2-GCCcore-12.3.0/share:/cvmfs/sling.si/modules/el7/software/numactl/2.0.16-GCCcore-12.3.0/share:/cvmfs/sling.si/modules/el7/software/binutils/2.40-GCCcore-12.3.0/share:/cvmfs/sling.si/modules/el7/software/zlib/1.2.13-GCCcore-12.3.0/share:/cvmfs/sling.si/modules/el7/software/libreadline/8.2-GCCcore-12.3.0/share:/cvmfs/sling.si/modules/el7/software/ncurses/6.4-GCCcore-12.3.0/share:/cvmfs/sling.si/modules/el7/software/GCCcore/12.3.0/share:/cvmfs/sling.si/modules/el7/software/PnetCDF/1.12.3-gompi-2021b/share:/cvmfs/sling.si/modules/el7/software/netCDF-Fortran/4.6.1-gompi-2023a/share:/cvmfs/sling.si/modules/el7/software/netCDF/4.9.2-gompi-2023a/share:/cvmfs/sling.si/modules/el7/software/zstd/1.5.5-GCCcore-12.3.0/share:/cvmfs/sling.si/modules/el7/software/lz4/1.9.4-GCCcore-12.3.0/share:/cvmfs/sling.si/modules/el7/software/gzip/1.12-GCCcore-12.3.0/share:/cvmfs/sling.si/modules/el7/software/cURL/8.0.1-GCCcore-12.3.0/share:/cvmfs/sling.si/modules/el7/software/HDF5/1.14.0-gompi-2023a/share:/cvmfs/sling.si/modules/el7/software/OpenSSL/1.1/share
I_MPI_SHM_CMA=0
SLURM_TOPOLOGY_ADDR=root_switch.ibsw-cell3_L2.pm9-wpe2-L1.cn0672
SLURM_THREADS_PER_CORE=1
EBDEVELPNETCDF=/cvmfs/sling.si/modules/el7/software/PnetCDF/1.12.3-gompi-2021b/easybuild/PnetCDF-1.12.3-gompi-2021b-easybuild-devel
EBVERSIONLIBPCIACCESS=0.17
EBROOTLIBXML2=/cvmfs/sling.si/modules/el7/software/libxml2/2.11.4-GCCcore-12.3.0
CURL_INCLUDES=/cvmfs/sling.si/modules/el7/software/cURL/8.0.1-GCCcore-12.3.0/include
LMOD_SHELL_PRGM=bash
__LMOD_REF_COUNT_LIBRARY_PATH=/cvmfs/sling.si/modules/el7/software/FFTW/3.3.10-GCC-12.3.0/lib:1;/cvmfs/sling.si/modules/el7/software/ScaLAPACK/2.2.0-gompi-2023a-fb/lib:1;/cvmfs/sling.si/modules/el7/software/FlexiBLAS/3.3.1-GCC-12.3.0/lib:1;/cvmfs/sling.si/modules/el7/software/OpenMPI/4.1.5-GCC-12.3.0/lib:1;/cvmfs/sling.si/modules/el7/software/PMIx/4.2.4-GCCcore-12.3.0/lib:1;/cvmfs/sling.si/modules/el7/software/libfabric/1.18.0-GCCcore-12.3.0/lib:1;/cvmfs/sling.si/modules/el7/software/UCX/1.14.1-GCCcore-12.3.0/lib:1;/cvmfs/sling.si/modules/el7/software/libevent/2.1.12-GCCcore-12.3.0/lib:1;/cvmfs/sling.si/modules/el7/software/hwloc/2.9.1-GCCcore-12.3.0/lib:1;/cvmfs/sling.si/modules/el7/software/libpciaccess/0.17-GCCcore-12.3.0/lib:1;/cvmfs/sling.si/modules/el7/software/libxml2/2.11.4-GCCcore-12.3.0/lib:1;/cvmfs/sling.si/modules/el7/software/XZ/5.4.2-GCCcore-12.3.0/lib:1;/cvmfs/sling.si/modules/el7/software/numactl/2.0.16-GCCcore-12.3.0/lib:1;/cvmfs/sling.si/modules/el7/software/OpenBLAS/0.3.23-GCC-12.3.0/lib:1;/cvmfs/sling.si/modules/el7/software/binutils/2.40-GCCcore-12.3.0/lib:1;/cvmfs/sling.si/modules/el7/software/zlib/1.2.13-GCCcore-12.3.0/lib:1;/cvmfs/sling.si/modules/el7/software/libreadline/8.2-GCCcore-12.3.0/lib:1;/cvmfs/sling.si/modules/el7/software/ncurses/6.4-GCCcore-12.3.0/lib:1;/cvmfs/sling.si/modules/el7/software/PnetCDF/1.12.3-gompi-2021b/lib:1;/cvmfs/sling.si/modules/el7/software/netCDF-Fortran/4.6.1-gompi-2023a/lib:1;/cvmfs/sling.si/modules/el7/software/netCDF/4.9.2-gompi-2023a/lib:1;/cvmfs/sling.si/modules/el7/software/bzip2/1.0.8-GCCcore-12.3.0/lib:1;/cvmfs/sling.si/modules/el7/software/zstd/1.5.5-GCCcore-12.3.0/lib:1;/cvmfs/sling.si/modules/el7/software/lz4/1.9.4-GCCcore-12.3.0/lib:1;/cvmfs/sling.si/modules/el7/software/cURL/8.0.1-GCCcore-12.3.0/lib:1;/cvmfs/sling.si/modules/el7/software/HDF5/1.14.0-gompi-2023a/lib:1;/cvmfs/sling.si/modules/el7/software/Szip/2.1.1-GCCcore-12.3.0/lib:1;/cvmfs/sling.si/modules/el7/software/UCC/1.2.0-GCCcore-12.3.0/lib:1;/cvmfs/sling.si/modules/el7/software/OpenSSL/1.1/lib:1
EBVERSIONLIBXML2=2.11.4
SLURM_JOB_NAME=CovidWeak
EBVERSIONNCURSES=6.4
TMPDIR=/tmp
LIBRARY_PATH=/cvmfs/sling.si/modules/el7/software/FFTW/3.3.10-GCC-12.3.0/lib:/cvmfs/sling.si/modules/el7/software/ScaLAPACK/2.2.0-gompi-2023a-fb/lib:/cvmfs/sling.si/modules/el7/software/FlexiBLAS/3.3.1-GCC-12.3.0/lib:/cvmfs/sling.si/modules/el7/software/OpenMPI/4.1.5-GCC-12.3.0/lib:/cvmfs/sling.si/modules/el7/software/PMIx/4.2.4-GCCcore-12.3.0/lib:/cvmfs/sling.si/modules/el7/software/libfabric/1.18.0-GCCcore-12.3.0/lib:/cvmfs/sling.si/modules/el7/software/UCX/1.14.1-GCCcore-12.3.0/lib:/cvmfs/sling.si/modules/el7/software/libevent/2.1.12-GCCcore-12.3.0/lib:/cvmfs/sling.si/modules/el7/software/hwloc/2.9.1-GCCcore-12.3.0/lib:/cvmfs/sling.si/modules/el7/software/libpciaccess/0.17-GCCcore-12.3.0/lib:/cvmfs/sling.si/modules/el7/software/libxml2/2.11.4-GCCcore-12.3.0/lib:/cvmfs/sling.si/modules/el7/software/XZ/5.4.2-GCCcore-12.3.0/lib:/cvmfs/sling.si/modules/el7/software/numactl/2.0.16-GCCcore-12.3.0/lib:/cvmfs/sling.si/modules/el7/software/OpenBLAS/0.3.23-GCC-12.3.0/lib:/cvmfs/sling.si/modules/el7/software/binutils/2.40-GCCcore-12.3.0/lib:/cvmfs/sling.si/modules/el7/software/zlib/1.2.13-GCCcore-12.3.0/lib:/cvmfs/sling.si/modules/el7/software/libreadline/8.2-GCCcore-12.3.0/lib:/cvmfs/sling.si/modules/el7/software/ncurses/6.4-GCCcore-12.3.0/lib:/cvmfs/sling.si/modules/el7/software/PnetCDF/1.12.3-gompi-2021b/lib:/cvmfs/sling.si/modules/el7/software/netCDF-Fortran/4.6.1-gompi-2023a/lib:/cvmfs/sling.si/modules/el7/software/netCDF/4.9.2-gompi-2023a/lib:/cvmfs/sling.si/modules/el7/software/bzip2/1.0.8-GCCcore-12.3.0/lib:/cvmfs/sling.si/modules/el7/software/zstd/1.5.5-GCCcore-12.3.0/lib:/cvmfs/sling.si/modules/el7/software/lz4/1.9.4-GCCcore-12.3.0/lib:/cvmfs/sling.si/modules/el7/software/cURL/8.0.1-GCCcore-12.3.0/lib:/cvmfs/sling.si/modules/el7/software/HDF5/1.14.0-gompi-2023a/lib:/cvmfs/sling.si/modules/el7/software/Szip/2.1.1-GCCcore-12.3.0/lib:/cvmfs/sling.si/modules/el7/software/UCC/1.2.0-GCCcore-12.3.0/lib:/cvmfs/sling.si/modules/el7/software/OpenSSL/1.1/lib:/ceph/hpc/home/eufedericop/Siesta/elpa-gpu/lib/
_ModuleTable021_=YnhtbDIvMi4xMS40LUdDQ2NvcmUtMTIuMy4wLmx1YSIsCmZ1bGxOYW1lID0gImxpYnhtbDIvMi4xMS40LUdDQ2NvcmUtMTIuMy4wIiwKbG9hZE9yZGVyID0gMjIsCnByb3BUID0ge30sCnN0YWNrRGVwdGggPSA0LApzdGF0dXMgPSAiYWN0aXZlIiwKdXNlck5hbWUgPSAibGlieG1sMi8yLjExLjQtR0NDY29yZS0xMi4zLjAiLAp3ViA9ICIwMDAwMDAwMDIuMDAwMDAwMDExLjAwMDAwMDAwNC4qZ2NjY29yZS4qemZpbmFsLS4wMDAwMDAwMTIuMDAwMDAwMDAzLip6ZmluYWwiLAp9LApsejQgPSB7CmZuID0gIi9jdm1mcy9zbGluZy5zaS9tb2R1bGVzL2VsNy9tb2R1bGVzL2FsbC9sejQvMS45LjQtR0NDY29yZS0xMi4zLjAubHVhIiwKZnVsbE5hbWUgPSAibHo0LzEuOS40LUdDQ2Nv
__LMOD_REF_COUNT_CMAKE_PREFIX_PATH=/cvmfs/sling.si/modules/el7/software/FFTW/3.3.10-GCC-12.3.0:1;/cvmfs/sling.si/modules/el7/software/ScaLAPACK/2.2.0-gompi-2023a-fb:1;/cvmfs/sling.si/modules/el7/software/FlexiBLAS/3.3.1-GCC-12.3.0:1;/cvmfs/sling.si/modules/el7/software/OpenMPI/4.1.5-GCC-12.3.0:1;/cvmfs/sling.si/modules/el7/software/PMIx/4.2.4-GCCcore-12.3.0:1;/cvmfs/sling.si/modules/el7/software/libfabric/1.18.0-GCCcore-12.3.0:1;/cvmfs/sling.si/modules/el7/software/UCX/1.14.1-GCCcore-12.3.0:1;/cvmfs/sling.si/modules/el7/software/libevent/2.1.12-GCCcore-12.3.0:1;/cvmfs/sling.si/modules/el7/software/hwloc/2.9.1-GCCcore-12.3.0:1;/cvmfs/sling.si/modules/el7/software/libpciaccess/0.17-GCCcore-12.3.0:1;/cvmfs/sling.si/modules/el7/software/libxml2/2.11.4-GCCcore-12.3.0:1;/cvmfs/sling.si/modules/el7/software/XZ/5.4.2-GCCcore-12.3.0:1;/cvmfs/sling.si/modules/el7/software/numactl/2.0.16-GCCcore-12.3.0:1;/cvmfs/sling.si/modules/el7/software/OpenBLAS/0.3.23-GCC-12.3.0:1;/cvmfs/sling.si/modules/el7/software/binutils/2.40-GCCcore-12.3.0:1;/cvmfs/sling.si/modules/el7/software/zlib/1.2.13-GCCcore-12.3.0:1;/cvmfs/sling.si/modules/el7/software/libreadline/8.2-GCCcore-12.3.0:1;/cvmfs/sling.si/modules/el7/software/ncurses/6.4-GCCcore-12.3.0:1;/cvmfs/sling.si/modules/el7/software/GCCcore/12.3.0:1;/cvmfs/sling.si/modules/el7/software/PnetCDF/1.12.3-gompi-2021b:1;/cvmfs/sling.si/modules/el7/software/netCDF-Fortran/4.6.1-gompi-2023a:1;/cvmfs/sling.si/modules/el7/software/netCDF/4.9.2-gompi-2023a:1;/cvmfs/sling.si/modules/el7/software/bzip2/1.0.8-GCCcore-12.3.0:1;/cvmfs/sling.si/modules/el7/software/zstd/1.5.5-GCCcore-12.3.0:1;/cvmfs/sling.si/modules/el7/software/lz4/1.9.4-GCCcore-12.3.0:1;/cvmfs/sling.si/modules/el7/software/gzip/1.12-GCCcore-12.3.0:1;/cvmfs/sling.si/modules/el7/software/cURL/8.0.1-GCCcore-12.3.0:1;/cvmfs/sling.si/modules/el7/software/HDF5/1.14.0-gompi-2023a:1;/cvmfs/sling.si/modules/el7/software/Szip/2.1.1-GCCcore-12.3.0:1;/cvmfs/sling.si/modules/el7/software/UCC/1.2.0-GCCcore-12.3.0:1;/cvmfs/sling.si/modules/el7/software/OpenSSL/1.1:1
LMOD_sys=Linux
_ModuleTable010_=ck5hbWUgPSAiU3ppcC8yLjEuMS1HQ0Njb3JlLTEyLjMuMCIsCndWID0gIjAwMDAwMDAwMi4wMDAwMDAwMDEuMDAwMDAwMDAxLipnY2Njb3JlLip6ZmluYWwtLjAwMDAwMDAxMi4wMDAwMDAwMDMuKnpmaW5hbCIsCn0sClVDQyA9IHsKZm4gPSAiL2N2bWZzL3NsaW5nLnNpL21vZHVsZXMvZWw3L21vZHVsZXMvYWxsL1VDQy8xLjIuMC1HQ0Njb3JlLTEyLjMuMC5sdWEiLApmdWxsTmFtZSA9ICJVQ0MvMS4yLjAtR0NDY29yZS0xMi4zLjAiLApsb2FkT3JkZXIgPSAyLApwcm9wVCA9IHt9LApzdGFja0RlcHRoID0gMywKc3RhdHVzID0gImFjdGl2ZSIsCnVzZXJOYW1lID0gIlVDQy8xLjIuMC1HQ0Njb3JlLTEyLjMuMCIsCndWID0gIjAwMDAwMDAwMS4wMDAwMDAwMDIuKmdjY2NvcmUu
SLURM_JOBID=35111128
_ModuleTable001_=X01vZHVsZVRhYmxlXyA9IHsKTVR2ZXJzaW9uID0gMywKY19yZWJ1aWxkVGltZSA9IGZhbHNlLApjX3Nob3J0VGltZSA9IGZhbHNlLApkZXB0aFQgPSB7fSwKZmFtaWx5ID0ge30sCm1UID0gewpGRlRXID0gewpmbiA9ICIvY3ZtZnMvc2xpbmcuc2kvbW9kdWxlcy9lbDcvbW9kdWxlcy9hbGwvRkZUVy8zLjMuMTAtR0NDLTEyLjMuMC5sdWEiLApmdWxsTmFtZSA9ICJGRlRXLzMuMy4xMC1HQ0MtMTIuMy4wIiwKbG9hZE9yZGVyID0gMzMsCnByb3BUID0ge30sCnN0YWNrRGVwdGggPSAwLApzdGF0dXMgPSAiYWN0aXZlIiwKdXNlck5hbWUgPSAiRkZUVy8zLjMuMTAtR0NDLTEyLjMuMCIsCndWID0gIjAwMDAwMDAwMy4wMDAwMDAwMDMuMDAwMDAwMDEwLipnY2MuKnpmaW5hbC0uMDAw
SLURM_CONF=/etc/slurm/slurm.conf
EBDEVELGOMPI=/cvmfs/sling.si/modules/el7/software/gompi/2023a/easybuild/gompi-2023a-easybuild-devel
LOADEDMODULES=OpenSSL/1.1:UCC/1.2.0-GCCcore-12.3.0:Szip/2.1.1-GCCcore-12.3.0:HDF5/1.14.0-gompi-2023a:cURL/8.0.1-GCCcore-12.3.0:gzip/1.12-GCCcore-12.3.0:lz4/1.9.4-GCCcore-12.3.0:zstd/1.5.5-GCCcore-12.3.0:bzip2/1.0.8-GCCcore-12.3.0:netCDF/4.9.2-gompi-2023a:netCDF-Fortran/4.6.1-gompi-2023a:PnetCDF/1.12.3-gompi-2021b:GCCcore/12.3.0:ncurses/6.4-GCCcore-12.3.0:libreadline/8.2-GCCcore-12.3.0:zlib/1.2.13-GCCcore-12.3.0:binutils/2.40-GCCcore-12.3.0:GCC/12.3.0:OpenBLAS/0.3.23-GCC-12.3.0:numactl/2.0.16-GCCcore-12.3.0:XZ/5.4.2-GCCcore-12.3.0:libxml2/2.11.4-GCCcore-12.3.0:libpciaccess/0.17-GCCcore-12.3.0:hwloc/2.9.1-GCCcore-12.3.0:libevent/2.1.12-GCCcore-12.3.0:UCX/1.14.1-GCCcore-12.3.0:libfabric/1.18.0-GCCcore-12.3.0:PMIx/4.2.4-GCCcore-12.3.0:OpenMPI/4.1.5-GCC-12.3.0:gompi/2023a:FlexiBLAS/3.3.1-GCC-12.3.0:ScaLAPACK/2.2.0-gompi-2023a-fb:FFTW/3.3.10-GCC-12.3.0
__LMOD_REF_COUNT_ACLOCAL_PATH=/cvmfs/sling.si/modules/el7/software/libxml2/2.11.4-GCCcore-12.3.0/share/aclocal:1;/cvmfs/sling.si/modules/el7/software/cURL/8.0.1-GCCcore-12.3.0/share/aclocal:1
EBDEVELOPENMPI=/cvmfs/sling.si/modules/el7/software/OpenMPI/4.1.5-GCC-12.3.0/easybuild/OpenMPI-4.1.5-GCC-12.3.0-easybuild-devel
EBROOTLIBEVENT=/cvmfs/sling.si/modules/el7/software/libevent/2.1.12-GCCcore-12.3.0
EBDEVELHDF5=/cvmfs/sling.si/modules/el7/software/HDF5/1.14.0-gompi-2023a/easybuild/HDF5-1.14.0-gompi-2023a-easybuild-devel
EBVERSIONNETCDFMINFORTRAN=4.6.1
_ModuleTable006_=YWRPcmRlciA9IDI5LApwcm9wVCA9IHt9LApzdGFja0RlcHRoID0gMiwKc3RhdHVzID0gImFjdGl2ZSIsCnVzZXJOYW1lID0gIk9wZW5NUEkvNC4xLjUtR0NDLTEyLjMuMCIsCndWID0gIjAwMDAwMDAwNC4wMDAwMDAwMDEuMDAwMDAwMDA1LipnY2MuKnpmaW5hbC0uMDAwMDAwMDEyLjAwMDAwMDAwMy4qemZpbmFsIiwKfSwKT3BlblNTTCA9IHsKZm4gPSAiL2N2bWZzL3NsaW5nLnNpL21vZHVsZXMvZWw3L21vZHVsZXMvYWxsL09wZW5TU0wvMS4xLmx1YSIsCmZ1bGxOYW1lID0gIk9wZW5TU0wvMS4xIiwKbG9hZE9yZGVyID0gMSwKcHJvcFQgPSB7fSwKc3RhY2tEZXB0aCA9IDQsCnN0YXR1cyA9ICJhY3RpdmUiLAp1c2VyTmFtZSA9ICJPcGVuU1NMLzEuMSIsCndWID0gIjAwMDAw
__LMOD_REF_COUNT_MANPATH=/cvmfs/sling.si/modules/el7/software/FFTW/3.3.10-GCC-12.3.0/share/man:1;/cvmfs/sling.si/modules/el7/software/FlexiBLAS/3.3.1-GCC-12.3.0/share/man:1;/cvmfs/sling.si/modules/el7/software/OpenMPI/4.1.5-GCC-12.3.0/share/man:1;/cvmfs/sling.si/modules/el7/software/PMIx/4.2.4-GCCcore-12.3.0/share/man:1;/cvmfs/sling.si/modules/el7/software/libfabric/1.18.0-GCCcore-12.3.0/share/man:1;/cvmfs/sling.si/modules/el7/software/hwloc/2.9.1-GCCcore-12.3.0/share/man:1;/cvmfs/sling.si/modules/el7/software/libxml2/2.11.4-GCCcore-12.3.0/share/man:1;/cvmfs/sling.si/modules/el7/software/XZ/5.4.2-GCCcore-12.3.0/share/man:1;/cvmfs/sling.si/modules/el7/software/numactl/2.0.16-GCCcore-12.3.0/share/man:1;/cvmfs/sling.si/modules/el7/software/binutils/2.40-GCCcore-12.3.0/share/man:1;/cvmfs/sling.si/modules/el7/software/zlib/1.2.13-GCCcore-12.3.0/share/man:1;/cvmfs/sling.si/modules/el7/software/libreadline/8.2-GCCcore-12.3.0/share/man:1;/cvmfs/sling.si/modules/el7/software/ncurses/6.4-GCCcore-12.3.0/share/man:1;/cvmfs/sling.si/modules/el7/software/GCCcore/12.3.0/share/man:1;/cvmfs/sling.si/modules/el7/software/PnetCDF/1.12.3-gompi-2021b/share/man:1;/cvmfs/sling.si/modules/el7/software/netCDF-Fortran/4.6.1-gompi-2023a/share/man:1;/cvmfs/sling.si/modules/el7/software/netCDF/4.9.2-gompi-2023a/share/man:1;/cvmfs/sling.si/modules/el7/software/bzip2/1.0.8-GCCcore-12.3.0/man:1;/cvmfs/sling.si/modules/el7/software/zstd/1.5.5-GCCcore-12.3.0/share/man:1;/cvmfs/sling.si/modules/el7/software/lz4/1.9.4-GCCcore-12.3.0/share/man:1;/cvmfs/sling.si/modules/el7/software/gzip/1.12-GCCcore-12.3.0/share/man:1;/cvmfs/sling.si/modules/el7/software/cURL/8.0.1-GCCcore-12.3.0/share/man:1;/cvmfs/sling.si/modules/el7/software/OpenSSL/1.1/share/man:1;/usr/share/lmod/lmod/share/man:1
EBVERSIONZLIB=1.2.13
SHMEM=/dev/shm/slurm/35111128
HDF5_DIR=/cvmfs/sling.si/modules/el7/software/HDF5/1.14.0-gompi-2023a
_ModuleTable003_=dWxlcy9lbDcvbW9kdWxlcy9hbGwvR0NDLzEyLjMuMC5sdWEiLApmdWxsTmFtZSA9ICJHQ0MvMTIuMy4wIiwKbG9hZE9yZGVyID0gMTgsCnByb3BUID0ge30sCnN0YWNrRGVwdGggPSAxLApzdGF0dXMgPSAiYWN0aXZlIiwKdXNlck5hbWUgPSAiR0NDLzEyLjMuMCIsCndWID0gIjAwMDAwMDAxMi4wMDAwMDAwMDMuKnpmaW5hbCIsCn0sCkdDQ2NvcmUgPSB7CmZuID0gIi9jdm1mcy9zbGluZy5zaS9tb2R1bGVzL2VsNy9tb2R1bGVzL2FsbC9HQ0Njb3JlLzEyLjMuMC5sdWEiLApmdWxsTmFtZSA9ICJHQ0Njb3JlLzEyLjMuMCIsCmxvYWRPcmRlciA9IDEzLApwcm9wVCA9IHt9LApzdGFja0RlcHRoID0gMSwKc3RhdHVzID0gImFjdGl2ZSIsCnVzZXJOYW1lID0gIkdDQ2NvcmUvMTIu
EBDEVELZSTD=/cvmfs/sling.si/modules/el7/software/zstd/1.5.5-GCCcore-12.3.0/easybuild/zstd-1.5.5-GCCcore-12.3.0-easybuild-devel
SLURM_JOB_QOS=normal
LMOD_ROOT=/usr/share/lmod
SLURM_TOPOLOGY_ADDR_PATTERN=switch.switch.switch.node
SSH_TTY=/dev/pts/4
_ModuleTable022_=cmUtMTIuMy4wIiwKbG9hZE9yZGVyID0gNywKcHJvcFQgPSB7fSwKc3RhY2tEZXB0aCA9IDMsCnN0YXR1cyA9ICJhY3RpdmUiLAp1c2VyTmFtZSA9ICJsejQvMS45LjQtR0NDY29yZS0xMi4zLjAiLAp3ViA9ICIwMDAwMDAwMDEuMDAwMDAwMDA5LjAwMDAwMDAwNC4qZ2NjY29yZS4qemZpbmFsLS4wMDAwMDAwMTIuMDAwMDAwMDAzLip6ZmluYWwiLAp9LApuY3Vyc2VzID0gewpmbiA9ICIvY3ZtZnMvc2xpbmcuc2kvbW9kdWxlcy9lbDcvbW9kdWxlcy9hbGwvbmN1cnNlcy82LjQtR0NDY29yZS0xMi4zLjAubHVhIiwKZnVsbE5hbWUgPSAibmN1cnNlcy82LjQtR0NDY29yZS0xMi4zLjAiLApsb2FkT3JkZXIgPSAxNCwKcHJvcFQgPSB7fSwKc3RhY2tEZXB0aCA9IDEsCnN0YXR1cyA9
_ModuleTable013_=ZSA9ICJiaW51dGlscy8yLjQwLUdDQ2NvcmUtMTIuMy4wIiwKbG9hZE9yZGVyID0gMTcsCnByb3BUID0ge30sCnN0YWNrRGVwdGggPSAyLApzdGF0dXMgPSAiYWN0aXZlIiwKdXNlck5hbWUgPSAiYmludXRpbHMvMi40MC1HQ0Njb3JlLTEyLjMuMCIsCndWID0gIjAwMDAwMDAwMi4wMDAwMDAwNDAuKmdjY2NvcmUuKnpmaW5hbC0uMDAwMDAwMDEyLjAwMDAwMDAwMy4qemZpbmFsIiwKfSwKYnppcDIgPSB7CmZuID0gIi9jdm1mcy9zbGluZy5zaS9tb2R1bGVzL2VsNy9tb2R1bGVzL2FsbC9iemlwMi8xLjAuOC1HQ0Njb3JlLTEyLjMuMC5sdWEiLApmdWxsTmFtZSA9ICJiemlwMi8xLjAuOC1HQ0Njb3JlLTEyLjMuMCIsCmxvYWRPcmRlciA9IDksCnByb3BUID0ge30sCnN0YWNrRGVw
MAIL=/var/spool/mail/eufedericop
EBDEVELLIBPCIACCESS=/cvmfs/sling.si/modules/el7/software/libpciaccess/0.17-GCCcore-12.3.0/easybuild/libpciaccess-0.17-GCCcore-12.3.0-easybuild-devel
SLURM_CPUS_ON_NODE=128
_ModuleTable027_=MCIsCmxvYWRPcmRlciA9IDgsCnByb3BUID0ge30sCnN0YWNrRGVwdGggPSAyLApzdGF0dXMgPSAiYWN0aXZlIiwKdXNlck5hbWUgPSAienN0ZC8xLjUuNS1HQ0Njb3JlLTEyLjMuMCIsCndWID0gIjAwMDAwMDAwMS4wMDAwMDAwMDUuMDAwMDAwMDA1LipnY2Njb3JlLip6ZmluYWwtLjAwMDAwMDAxMi4wMDAwMDAwMDMuKnpmaW5hbCIsCn0sCn0sCm1wYXRoQSA9IHsKIi91c3Ivc2hhcmUvTW9kdWxlcy9tb2R1bGVmaWxlcyIsICIvY2VwaC9ocGMvc29mdHdhcmUvbW9kdWxlZmlsZXMiCiwgIi9jdm1mcy9zbGluZy5zaS9tb2R1bGVzL2VsNy9tb2R1bGVzL2FsbCIsICIvZXRjL21vZHVsZWZpbGVzIgosICIvdXNyL3NoYXJlL21vZHVsZWZpbGVzIiwgIi91c3Ivc2hhcmUvbW9kdWxl
SLURM_JOB_NUM_NODES=1
OMP_PLACES=cores
__Init_Default_Modules=1
_ModuleTable016_=My4wLmx1YSIsCmZ1bGxOYW1lID0gImd6aXAvMS4xMi1HQ0Njb3JlLTEyLjMuMCIsCmxvYWRPcmRlciA9IDYsCnByb3BUID0ge30sCnN0YWNrRGVwdGggPSAzLApzdGF0dXMgPSAiYWN0aXZlIiwKdXNlck5hbWUgPSAiZ3ppcC8xLjEyLUdDQ2NvcmUtMTIuMy4wIiwKd1YgPSAiMDAwMDAwMDAxLjAwMDAwMDAxMi4qZ2NjY29yZS4qemZpbmFsLS4wMDAwMDAwMTIuMDAwMDAwMDAzLip6ZmluYWwiLAp9LApod2xvYyA9IHsKZm4gPSAiL2N2bWZzL3NsaW5nLnNpL21vZHVsZXMvZWw3L21vZHVsZXMvYWxsL2h3bG9jLzIuOS4xLUdDQ2NvcmUtMTIuMy4wLmx1YSIsCmZ1bGxOYW1lID0gImh3bG9jLzIuOS4xLUdDQ2NvcmUtMTIuMy4wIiwKbG9hZE9yZGVyID0gMjQsCnByb3BUID0ge30s
EBROOTFFTW=/cvmfs/sling.si/modules/el7/software/FFTW/3.3.10-GCC-12.3.0
_ModuleTable009_=U2NhTEFQQUNLLzIuMi4wLWdvbXBpLTIwMjNhLWZiIiwKbG9hZE9yZGVyID0gMzIsCnByb3BUID0ge30sCnN0YWNrRGVwdGggPSAwLApzdGF0dXMgPSAiYWN0aXZlIiwKdXNlck5hbWUgPSAiU2NhTEFQQUNLIiwKd1YgPSAiMDAwMDAwMDAyLjAwMDAwMDAwMi4qZ29tcGkuKnpmaW5hbC0uMDAwMDAyMDIzLiphLipmYi4qemZpbmFsIiwKfSwKU3ppcCA9IHsKZm4gPSAiL2N2bWZzL3NsaW5nLnNpL21vZHVsZXMvZWw3L21vZHVsZXMvYWxsL1N6aXAvMi4xLjEtR0NDY29yZS0xMi4zLjAubHVhIiwKZnVsbE5hbWUgPSAiU3ppcC8yLjEuMS1HQ0Njb3JlLTEyLjMuMCIsCmxvYWRPcmRlciA9IDMsCnByb3BUID0ge30sCnN0YWNrRGVwdGggPSAzLApzdGF0dXMgPSAiYWN0aXZlIiwKdXNl
EBDEVELOPENSSL=/cvmfs/sling.si/modules/el7/software/OpenSSL/1.1/easybuild/OpenSSL-1.1-easybuild-devel
SHELL=/bin/bash
TERM=xterm-256color
J4M_LIB_PATH=/ceph/hpc/home/eufedericop/Siesta/elpa-gpu/lib/
EBDEVELGCCCORE=/cvmfs/sling.si/modules/el7/software/GCCcore/12.3.0/easybuild/GCCcore-12.3.0-easybuild-devel
EBROOTHWLOC=/cvmfs/sling.si/modules/el7/software/hwloc/2.9.1-GCCcore-12.3.0
SLURM_JOB_UID=1977552410
_ModuleTable_Sz_=28
EBVERSIONLZ4=1.9.4
__LMOD_REF_COUNT_CPATH=/cvmfs/sling.si/modules/el7/software/FFTW/3.3.10-GCC-12.3.0/include:1;/cvmfs/sling.si/modules/el7/software/FlexiBLAS/3.3.1-GCC-12.3.0/include:1;/cvmfs/sling.si/modules/el7/software/OpenMPI/4.1.5-GCC-12.3.0/include:1;/cvmfs/sling.si/modules/el7/software/PMIx/4.2.4-GCCcore-12.3.0/include:1;/cvmfs/sling.si/modules/el7/software/libfabric/1.18.0-GCCcore-12.3.0/include:1;/cvmfs/sling.si/modules/el7/software/UCX/1.14.1-GCCcore-12.3.0/include:1;/cvmfs/sling.si/modules/el7/software/libevent/2.1.12-GCCcore-12.3.0/include:1;/cvmfs/sling.si/modules/el7/software/hwloc/2.9.1-GCCcore-12.3.0/include:1;/cvmfs/sling.si/modules/el7/software/libpciaccess/0.17-GCCcore-12.3.0/include:1;/cvmfs/sling.si/modules/el7/software/libxml2/2.11.4-GCCcore-12.3.0/include/libxml2:1;/cvmfs/sling.si/modules/el7/software/libxml2/2.11.4-GCCcore-12.3.0/include:1;/cvmfs/sling.si/modules/el7/software/XZ/5.4.2-GCCcore-12.3.0/include:1;/cvmfs/sling.si/modules/el7/software/numactl/2.0.16-GCCcore-12.3.0/include:1;/cvmfs/sling.si/modules/el7/software/OpenBLAS/0.3.23-GCC-12.3.0/include:1;/cvmfs/sling.si/modules/el7/software/binutils/2.40-GCCcore-12.3.0/include:1;/cvmfs/sling.si/modules/el7/software/zlib/1.2.13-GCCcore-12.3.0/include:1;/cvmfs/sling.si/modules/el7/software/libreadline/8.2-GCCcore-12.3.0/include:1;/cvmfs/sling.si/modules/el7/software/ncurses/6.4-GCCcore-12.3.0/include:1;/cvmfs/sling.si/modules/el7/software/PnetCDF/1.12.3-gompi-2021b/include:1;/cvmfs/sling.si/modules/el7/software/netCDF-Fortran/4.6.1-gompi-2023a/include:1;/cvmfs/sling.si/modules/el7/software/netCDF/4.9.2-gompi-2023a/include:1;/cvmfs/sling.si/modules/el7/software/bzip2/1.0.8-GCCcore-12.3.0/include:1;/cvmfs/sling.si/modules/el7/software/zstd/1.5.5-GCCcore-12.3.0/include:1;/cvmfs/sling.si/modules/el7/software/lz4/1.9.4-GCCcore-12.3.0/include:1;/cvmfs/sling.si/modules/el7/software/cURL/8.0.1-GCCcore-12.3.0/include:1;/cvmfs/sling.si/modules/el7/software/HDF5/1.14.0-gompi-2023a/include:1;/cvmfs/sling.si/modules/el7/software/Szip/2.1.1-GCCcore-12.3.0/include:1;/cvmfs/sling.si/modules/el7/software/UCC/1.2.0-GCCcore-12.3.0/include:1;/cvmfs/sling.si/modules/el7/software/OpenSSL/1.1/include:1
SLURM_JOB_PARTITION=cpu
EBDEVELNCURSES=/cvmfs/sling.si/modules/el7/software/ncurses/6.4-GCCcore-12.3.0/easybuild/ncurses-6.4-GCCcore-12.3.0-easybuild-devel
EBROOTLZ4=/cvmfs/sling.si/modules/el7/software/lz4/1.9.4-GCCcore-12.3.0
SLURM_SCRIPT_CONTEXT=prolog_task
EBVERSIONBZIP2=1.0.8
_ModuleTable018_=dmVudC8yLjEuMTItR0NDY29yZS0xMi4zLjAiLAp3ViA9ICIwMDAwMDAwMDIuMDAwMDAwMDAxLjAwMDAwMDAxMi4qZ2NjY29yZS4qemZpbmFsLS4wMDAwMDAwMTIuMDAwMDAwMDAzLip6ZmluYWwiLAp9LApsaWJmYWJyaWMgPSB7CmZuID0gIi9jdm1mcy9zbGluZy5zaS9tb2R1bGVzL2VsNy9tb2R1bGVzL2FsbC9saWJmYWJyaWMvMS4xOC4wLUdDQ2NvcmUtMTIuMy4wLmx1YSIsCmZ1bGxOYW1lID0gImxpYmZhYnJpYy8xLjE4LjAtR0NDY29yZS0xMi4zLjAiLApsb2FkT3JkZXIgPSAyNywKcHJvcFQgPSB7fSwKc3RhY2tEZXB0aCA9IDMsCnN0YXR1cyA9ICJhY3RpdmUiLAp1c2VyTmFtZSA9ICJsaWJmYWJyaWMvMS4xOC4wLUdDQ2NvcmUtMTIuMy4wIiwKd1YgPSAiMDAwMDAwMDAx
SLURM_HINT=nomultithread
EBVERSIONNETCDF=4.9.2
EBDEVELBINUTILS=/cvmfs/sling.si/modules/el7/software/binutils/2.40-GCCcore-12.3.0/easybuild/binutils-2.40-GCCcore-12.3.0-easybuild-devel
SLURM_JOB_USER=eufedericop
SLURM_NPROCS=128
SHLVL=4
SLURM_SUBMIT_HOST=vglogin0001.vega.izum.si
SLURM_JOB_ACCOUNT=b2024b06-053-users
EBDEVELNETCDFMINFORTRAN=/cvmfs/sling.si/modules/el7/software/netCDF-Fortran/4.6.1-gompi-2023a/easybuild/netCDF-Fortran-4.6.1-gompi-2023a-easybuild-devel
ACLOCAL_PATH=/cvmfs/sling.si/modules/el7/software/libxml2/2.11.4-GCCcore-12.3.0/share/aclocal:/cvmfs/sling.si/modules/el7/software/cURL/8.0.1-GCCcore-12.3.0/share/aclocal
MANPATH=/cvmfs/sling.si/modules/el7/software/FFTW/3.3.10-GCC-12.3.0/share/man:/cvmfs/sling.si/modules/el7/software/FlexiBLAS/3.3.1-GCC-12.3.0/share/man:/cvmfs/sling.si/modules/el7/software/OpenMPI/4.1.5-GCC-12.3.0/share/man:/cvmfs/sling.si/modules/el7/software/PMIx/4.2.4-GCCcore-12.3.0/share/man:/cvmfs/sling.si/modules/el7/software/libfabric/1.18.0-GCCcore-12.3.0/share/man:/cvmfs/sling.si/modules/el7/software/hwloc/2.9.1-GCCcore-12.3.0/share/man:/cvmfs/sling.si/modules/el7/software/libxml2/2.11.4-GCCcore-12.3.0/share/man:/cvmfs/sling.si/modules/el7/software/XZ/5.4.2-GCCcore-12.3.0/share/man:/cvmfs/sling.si/modules/el7/software/numactl/2.0.16-GCCcore-12.3.0/share/man:/cvmfs/sling.si/modules/el7/software/binutils/2.40-GCCcore-12.3.0/share/man:/cvmfs/sling.si/modules/el7/software/zlib/1.2.13-GCCcore-12.3.0/share/man:/cvmfs/sling.si/modules/el7/software/libreadline/8.2-GCCcore-12.3.0/share/man:/cvmfs/sling.si/modules/el7/software/ncurses/6.4-GCCcore-12.3.0/share/man:/cvmfs/sling.si/modules/el7/software/GCCcore/12.3.0/share/man:/cvmfs/sling.si/modules/el7/software/PnetCDF/1.12.3-gompi-2021b/share/man:/cvmfs/sling.si/modules/el7/software/netCDF-Fortran/4.6.1-gompi-2023a/share/man:/cvmfs/sling.si/modules/el7/software/netCDF/4.9.2-gompi-2023a/share/man:/cvmfs/sling.si/modules/el7/software/bzip2/1.0.8-GCCcore-12.3.0/man:/cvmfs/sling.si/modules/el7/software/zstd/1.5.5-GCCcore-12.3.0/share/man:/cvmfs/sling.si/modules/el7/software/lz4/1.9.4-GCCcore-12.3.0/share/man:/cvmfs/sling.si/modules/el7/software/gzip/1.12-GCCcore-12.3.0/share/man:/cvmfs/sling.si/modules/el7/software/cURL/8.0.1-GCCcore-12.3.0/share/man:/cvmfs/sling.si/modules/el7/software/OpenSSL/1.1/share/man:/usr/share/lmod/lmod/share/man::
EBDEVELGCC=/cvmfs/sling.si/modules/el7/software/GCC/12.3.0/easybuild/GCC-12.3.0-easybuild-devel
_ModuleTable028_=ZmlsZXMvTGludXgiCiwgIi91c3Ivc2hhcmUvbW9kdWxlZmlsZXMvQ29yZSIsICIvdXNyL3NoYXJlL2xtb2QvbG1vZC9tb2R1bGVmaWxlcy9Db3JlIiwKfSwKc3lzdGVtQmFzZU1QQVRIID0gIi9ldGMvbW9kdWxlZmlsZXM6L3Vzci9zaGFyZS9tb2R1bGVmaWxlczovdXNyL3NoYXJlL21vZHVsZWZpbGVzL0xpbnV4Oi91c3Ivc2hhcmUvbW9kdWxlZmlsZXMvQ29yZTovdXNyL3NoYXJlL2xtb2QvbG1vZC9tb2R1bGVmaWxlcy9Db3JlIiwKfQo=
SLURM_TRES_PER_TASK=cpu:1
WORKDIR=/scratch/slurm/35111128
EBVERSIONFFTW=3.3.10
MODULEPATH=/usr/share/Modules/modulefiles:/ceph/hpc/software/modulefiles:/cvmfs/sling.si/modules/el7/modules/all:/etc/modulefiles:/usr/share/modulefiles:/usr/share/modulefiles/Linux:/usr/share/modulefiles/Core:/usr/share/lmod/lmod/modulefiles/Core
EBROOTZSTD=/cvmfs/sling.si/modules/el7/software/zstd/1.5.5-GCCcore-12.3.0
EBDEVELLIBREADLINE=/cvmfs/sling.si/modules/el7/software/libreadline/8.2-GCCcore-12.3.0/easybuild/libreadline-8.2-GCCcore-12.3.0-easybuild-devel
EBDEVELFFTW=/cvmfs/sling.si/modules/el7/software/FFTW/3.3.10-GCC-12.3.0/easybuild/FFTW-3.3.10-GCC-12.3.0-easybuild-devel
SLURM_GTIDS=0
LOGNAME=eufedericop
DBUS_SESSION_BUS_ADDRESS=unix:path=/run/user/1977552410/bus
XDG_RUNTIME_DIR=/run/user/1977552410
EASYBUILD_MODULES_TOOL=Lmod
EBVERSIONBINUTILS=2.40
MODULEPATH_ROOT=/usr/share/modulefiles
EBROOTPMIX=/cvmfs/sling.si/modules/el7/software/PMIx/4.2.4-GCCcore-12.3.0
EBDEVELZLIB=/cvmfs/sling.si/modules/el7/software/zlib/1.2.13-GCCcore-12.3.0/easybuild/zlib-1.2.13-GCCcore-12.3.0-easybuild-devel
_ModuleTable025_=ID0gewpmbiA9ICIvY3ZtZnMvc2xpbmcuc2kvbW9kdWxlcy9lbDcvbW9kdWxlcy9hbGwvbnVtYWN0bC8yLjAuMTYtR0NDY29yZS0xMi4zLjAubHVhIiwKZnVsbE5hbWUgPSAibnVtYWN0bC8yLjAuMTYtR0NDY29yZS0xMi4zLjAiLApsb2FkT3JkZXIgPSAyMCwKcHJvcFQgPSB7fSwKc3RhY2tEZXB0aCA9IDQsCnN0YXR1cyA9ICJhY3RpdmUiLAp1c2VyTmFtZSA9ICJudW1hY3RsLzIuMC4xNi1HQ0Njb3JlLTEyLjMuMCIsCndWID0gIjAwMDAwMDAwMi4wMDAwMDAwMDAuMDAwMDAwMDE2LipnY2Njb3JlLip6ZmluYWwtLjAwMDAwMDAxMi4wMDAwMDAwMDMuKnpmaW5hbCIsCn0sCnpsaWIgPSB7CmZuID0gIi9jdm1mcy9zbGluZy5zaS9tb2R1bGVzL2VsNy9tb2R1bGVzL2FsbC96bGli
EBROOTLIBFABRIC=/cvmfs/sling.si/modules/el7/software/libfabric/1.18.0-GCCcore-12.3.0
PATH=/cvmfs/sling.si/modules/el7/software/FFTW/3.3.10-GCC-12.3.0/bin:/cvmfs/sling.si/modules/el7/software/FlexiBLAS/3.3.1-GCC-12.3.0/bin:/cvmfs/sling.si/modules/el7/software/OpenMPI/4.1.5-GCC-12.3.0/bin:/cvmfs/sling.si/modules/el7/software/PMIx/4.2.4-GCCcore-12.3.0/bin:/cvmfs/sling.si/modules/el7/software/libfabric/1.18.0-GCCcore-12.3.0/bin:/cvmfs/sling.si/modules/el7/software/UCX/1.14.1-GCCcore-12.3.0/bin:/cvmfs/sling.si/modules/el7/software/libevent/2.1.12-GCCcore-12.3.0/bin:/cvmfs/sling.si/modules/el7/software/hwloc/2.9.1-GCCcore-12.3.0/sbin:/cvmfs/sling.si/modules/el7/software/hwloc/2.9.1-GCCcore-12.3.0/bin:/cvmfs/sling.si/modules/el7/software/libxml2/2.11.4-GCCcore-12.3.0/bin:/cvmfs/sling.si/modules/el7/software/XZ/5.4.2-GCCcore-12.3.0/bin:/cvmfs/sling.si/modules/el7/software/numactl/2.0.16-GCCcore-12.3.0/bin:/cvmfs/sling.si/modules/el7/software/binutils/2.40-GCCcore-12.3.0/bin:/cvmfs/sling.si/modules/el7/software/ncurses/6.4-GCCcore-12.3.0/bin:/cvmfs/sling.si/modules/el7/software/GCCcore/12.3.0/bin:/cvmfs/sling.si/modules/el7/software/PnetCDF/1.12.3-gompi-2021b/bin:/cvmfs/sling.si/modules/el7/software/netCDF-Fortran/4.6.1-gompi-2023a/bin:/cvmfs/sling.si/modules/el7/software/netCDF/4.9.2-gompi-2023a/bin:/cvmfs/sling.si/modules/el7/software/bzip2/1.0.8-GCCcore-12.3.0/bin:/cvmfs/sling.si/modules/el7/software/zstd/1.5.5-GCCcore-12.3.0/bin:/cvmfs/sling.si/modules/el7/software/lz4/1.9.4-GCCcore-12.3.0/bin:/cvmfs/sling.si/modules/el7/software/gzip/1.12-GCCcore-12.3.0/bin:/cvmfs/sling.si/modules/el7/software/cURL/8.0.1-GCCcore-12.3.0/bin:/cvmfs/sling.si/modules/el7/software/HDF5/1.14.0-gompi-2023a/bin:/cvmfs/sling.si/modules/el7/software/UCC/1.2.0-GCCcore-12.3.0/bin:/cvmfs/sling.si/modules/el7/software/OpenSSL/1.1/bin:/ceph/hpc/home/eufedericop/.local/bin:/ceph/hpc/home/eufedericop/bin:/usr/local/bin:/usr/bin:/usr/local/sbin:/usr/sbin:/ceph/hpc/home/eufedericop/Siesta/siesta-gnu/bin/
_ModuleTable014_=dGggPSAyLApzdGF0dXMgPSAiYWN0aXZlIiwKdXNlck5hbWUgPSAiYnppcDIvMS4wLjgtR0NDY29yZS0xMi4zLjAiLAp3ViA9ICIwMDAwMDAwMDEuMDAwMDAwMDAwLjAwMDAwMDAwOC4qZ2NjY29yZS4qemZpbmFsLS4wMDAwMDAwMTIuMDAwMDAwMDAzLip6ZmluYWwiLAp9LApjVVJMID0gewpmbiA9ICIvY3ZtZnMvc2xpbmcuc2kvbW9kdWxlcy9lbDcvbW9kdWxlcy9hbGwvY1VSTC84LjAuMS1HQ0Njb3JlLTEyLjMuMC5sdWEiLApmdWxsTmFtZSA9ICJjVVJMLzguMC4xLUdDQ2NvcmUtMTIuMy4wIiwKbG9hZE9yZGVyID0gNSwKcHJvcFQgPSB7fSwKc3RhY2tEZXB0aCA9IDIsCnN0YXR1cyA9ICJhY3RpdmUiLAp1c2VyTmFtZSA9ICJjVVJMLzguMC4xLUdDQ2NvcmUtMTIuMy4wIiwK
SLURM_JOB_ID=35111128
_LMFILES_=/cvmfs/sling.si/modules/el7/modules/all/OpenSSL/1.1.lua:/cvmfs/sling.si/modules/el7/modules/all/UCC/1.2.0-GCCcore-12.3.0.lua:/cvmfs/sling.si/modules/el7/modules/all/Szip/2.1.1-GCCcore-12.3.0.lua:/cvmfs/sling.si/modules/el7/modules/all/HDF5/1.14.0-gompi-2023a.lua:/cvmfs/sling.si/modules/el7/modules/all/cURL/8.0.1-GCCcore-12.3.0.lua:/cvmfs/sling.si/modules/el7/modules/all/gzip/1.12-GCCcore-12.3.0.lua:/cvmfs/sling.si/modules/el7/modules/all/lz4/1.9.4-GCCcore-12.3.0.lua:/cvmfs/sling.si/modules/el7/modules/all/zstd/1.5.5-GCCcore-12.3.0.lua:/cvmfs/sling.si/modules/el7/modules/all/bzip2/1.0.8-GCCcore-12.3.0.lua:/cvmfs/sling.si/modules/el7/modules/all/netCDF/4.9.2-gompi-2023a.lua:/cvmfs/sling.si/modules/el7/modules/all/netCDF-Fortran/4.6.1-gompi-2023a.lua:/cvmfs/sling.si/modules/el7/modules/all/PnetCDF/1.12.3-gompi-2021b.lua:/cvmfs/sling.si/modules/el7/modules/all/GCCcore/12.3.0.lua:/cvmfs/sling.si/modules/el7/modules/all/ncurses/6.4-GCCcore-12.3.0.lua:/cvmfs/sling.si/modules/el7/modules/all/libreadline/8.2-GCCcore-12.3.0.lua:/cvmfs/sling.si/modules/el7/modules/all/zlib/1.2.13-GCCcore-12.3.0.lua:/cvmfs/sling.si/modules/el7/modules/all/binutils/2.40-GCCcore-12.3.0.lua:/cvmfs/sling.si/modules/el7/modules/all/GCC/12.3.0.lua:/cvmfs/sling.si/modules/el7/modules/all/OpenBLAS/0.3.23-GCC-12.3.0.lua:/cvmfs/sling.si/modules/el7/modules/all/numactl/2.0.16-GCCcore-12.3.0.lua:/cvmfs/sling.si/modules/el7/modules/all/XZ/5.4.2-GCCcore-12.3.0.lua:/cvmfs/sling.si/modules/el7/modules/all/libxml2/2.11.4-GCCcore-12.3.0.lua:/cvmfs/sling.si/modules/el7/modules/all/libpciaccess/0.17-GCCcore-12.3.0.lua:/cvmfs/sling.si/modules/el7/modules/all/hwloc/2.9.1-GCCcore-12.3.0.lua:/cvmfs/sling.si/modules/el7/modules/all/libevent/2.1.12-GCCcore-12.3.0.lua:/cvmfs/sling.si/modules/el7/modules/all/UCX/1.14.1-GCCcore-12.3.0.lua:/cvmfs/sling.si/modules/el7/modules/all/libfabric/1.18.0-GCCcore-12.3.0.lua:/cvmfs/sling.si/modules/el7/modules/all/PMIx/4.2.4-GCCcore-12.3.0.lua:/cvmfs/sling.si/modules/el7/modules/all/OpenMPI/4.1.5-GCC-12.3.0.lua:/cvmfs/sling.si/modules/el7/modules/all/gompi/2023a.lua:/cvmfs/sling.si/modules/el7/modules/all/FlexiBLAS/3.3.1-GCC-12.3.0.lua:/cvmfs/sling.si/modules/el7/modules/all/ScaLAPACK/2.2.0-gompi-2023a-fb.lua:/cvmfs/sling.si/modules/el7/modules/all/FFTW/3.3.10-GCC-12.3.0.lua
EBVERSIONLIBREADLINE=8.2
EBROOTLIBPCIACCESS=/cvmfs/sling.si/modules/el7/software/libpciaccess/0.17-GCCcore-12.3.0
EBDEVELLZ4=/cvmfs/sling.si/modules/el7/software/lz4/1.9.4-GCCcore-12.3.0/easybuild/lz4-1.9.4-GCCcore-12.3.0-easybuild-devel
MODULESHOME=/usr/share/lmod/lmod
PKG_CONFIG_PATH=/cvmfs/sling.si/modules/el7/software/FFTW/3.3.10-GCC-12.3.0/lib/pkgconfig:/cvmfs/sling.si/modules/el7/software/ScaLAPACK/2.2.0-gompi-2023a-fb/lib/pkgconfig:/cvmfs/sling.si/modules/el7/software/FlexiBLAS/3.3.1-GCC-12.3.0/lib/pkgconfig:/cvmfs/sling.si/modules/el7/software/OpenMPI/4.1.5-GCC-12.3.0/lib/pkgconfig:/cvmfs/sling.si/modules/el7/software/PMIx/4.2.4-GCCcore-12.3.0/lib/pkgconfig:/cvmfs/sling.si/modules/el7/software/libfabric/1.18.0-GCCcore-12.3.0/lib/pkgconfig:/cvmfs/sling.si/modules/el7/software/UCX/1.14.1-GCCcore-12.3.0/lib/pkgconfig:/cvmfs/sling.si/modules/el7/software/libevent/2.1.12-GCCcore-12.3.0/lib/pkgconfig:/cvmfs/sling.si/modules/el7/software/hwloc/2.9.1-GCCcore-12.3.0/lib/pkgconfig:/cvmfs/sling.si/modules/el7/software/libpciaccess/0.17-GCCcore-12.3.0/lib/pkgconfig:/cvmfs/sling.si/modules/el7/software/libxml2/2.11.4-GCCcore-12.3.0/lib/pkgconfig:/cvmfs/sling.si/modules/el7/software/XZ/5.4.2-GCCcore-12.3.0/lib/pkgconfig:/cvmfs/sling.si/modules/el7/software/numactl/2.0.16-GCCcore-12.3.0/lib/pkgconfig:/cvmfs/sling.si/modules/el7/software/OpenBLAS/0.3.23-GCC-12.3.0/lib/pkgconfig:/cvmfs/sling.si/modules/el7/software/zlib/1.2.13-GCCcore-12.3.0/lib/pkgconfig:/cvmfs/sling.si/modules/el7/software/libreadline/8.2-GCCcore-12.3.0/lib/pkgconfig:/cvmfs/sling.si/modules/el7/software/PnetCDF/1.12.3-gompi-2021b/lib/pkgconfig:/cvmfs/sling.si/modules/el7/software/netCDF-Fortran/4.6.1-gompi-2023a/lib/pkgconfig:/cvmfs/sling.si/modules/el7/software/netCDF/4.9.2-gompi-2023a/lib/pkgconfig:/cvmfs/sling.si/modules/el7/software/bzip2/1.0.8-GCCcore-12.3.0/lib/pkgconfig:/cvmfs/sling.si/modules/el7/software/zstd/1.5.5-GCCcore-12.3.0/lib/pkgconfig:/cvmfs/sling.si/modules/el7/software/lz4/1.9.4-GCCcore-12.3.0/lib/pkgconfig:/cvmfs/sling.si/modules/el7/software/cURL/8.0.1-GCCcore-12.3.0/lib/pkgconfig:/cvmfs/sling.si/modules/el7/software/HDF5/1.14.0-gompi-2023a/lib/pkgconfig:/cvmfs/sling.si/modules/el7/software/OpenSSL/1.1/lib/pkgconfig
LMOD_SETTARG_FULL_SUPPORT=no
EBVERSIONFLEXIBLAS=3.3.1
_ModuleTable011_=KnpmaW5hbC0uMDAwMDAwMDEyLjAwMDAwMDAwMy4qemZpbmFsIiwKfSwKVUNYID0gewpmbiA9ICIvY3ZtZnMvc2xpbmcuc2kvbW9kdWxlcy9lbDcvbW9kdWxlcy9hbGwvVUNYLzEuMTQuMS1HQ0Njb3JlLTEyLjMuMC5sdWEiLApmdWxsTmFtZSA9ICJVQ1gvMS4xNC4xLUdDQ2NvcmUtMTIuMy4wIiwKbG9hZE9yZGVyID0gMjYsCnByb3BUID0ge30sCnN0YWNrRGVwdGggPSAzLApzdGF0dXMgPSAiYWN0aXZlIiwKdXNlck5hbWUgPSAiVUNYLzEuMTQuMS1HQ0Njb3JlLTEyLjMuMCIsCndWID0gIjAwMDAwMDAwMS4wMDAwMDAwMTQuMDAwMDAwMDAxLipnY2Njb3JlLip6ZmluYWwtLjAwMDAwMDAxMi4wMDAwMDAwMDMuKnpmaW5hbCIsCn0sClhaID0gewpmbiA9ICIvY3ZtZnMvc2xpbmcu
EBROOTNUMACTL=/cvmfs/sling.si/modules/el7/software/numactl/2.0.16-GCCcore-12.3.0
HISTSIZE=1000
LMOD_PKG=/usr/share/lmod/lmod
CMAKE_LIBRARY_PATH=/cvmfs/sling.si/modules/el7/software/GCCcore/12.3.0/lib64
EBROOTNETCDF=/cvmfs/sling.si/modules/el7/software/netCDF/4.9.2-gompi-2023a
J4M_HOME=/ceph/hpc/home/eufedericop/JUBE4MaX/max-inputs/
EBVERSIONSZIP=2.1.1
EBROOTUCX=/cvmfs/sling.si/modules/el7/software/UCX/1.14.1-GCCcore-12.3.0
_ModuleTable005_=b2R1bGVzL2FsbC9PcGVuQkxBUy8wLjMuMjMtR0NDLTEyLjMuMC5sdWEiLApmdWxsTmFtZSA9ICJPcGVuQkxBUy8wLjMuMjMtR0NDLTEyLjMuMCIsCmxvYWRPcmRlciA9IDE5LApwcm9wVCA9IHt9LApzdGFja0RlcHRoID0gMCwKc3RhdHVzID0gImFjdGl2ZSIsCnVzZXJOYW1lID0gIk9wZW5CTEFTIiwKd1YgPSAiMDAwMDAwMDAwLjAwMDAwMDAwMy4wMDAwMDAwMjMuKmdjYy4qemZpbmFsLS4wMDAwMDAwMTIuMDAwMDAwMDAzLip6ZmluYWwiLAp9LApPcGVuTVBJID0gewpmbiA9ICIvY3ZtZnMvc2xpbmcuc2kvbW9kdWxlcy9lbDcvbW9kdWxlcy9hbGwvT3Blbk1QSS80LjEuNS1HQ0MtMTIuMy4wLmx1YSIsCmZ1bGxOYW1lID0gIk9wZW5NUEkvNC4xLjUtR0NDLTEyLjMuMCIsCmxv
LMOD_CMD=/usr/share/lmod/lmod/libexec/lmod
SLURM_LOCALID=0
OMP_NUM_THREADS=1
LESSOPEN=||/usr/bin/lesspipe.sh %s
_ModuleTable020_=Lip6ZmluYWwiLAp9LApsaWJyZWFkbGluZSA9IHsKZm4gPSAiL2N2bWZzL3NsaW5nLnNpL21vZHVsZXMvZWw3L21vZHVsZXMvYWxsL2xpYnJlYWRsaW5lLzguMi1HQ0Njb3JlLTEyLjMuMC5sdWEiLApmdWxsTmFtZSA9ICJsaWJyZWFkbGluZS84LjItR0NDY29yZS0xMi4zLjAiLApsb2FkT3JkZXIgPSAxNSwKcHJvcFQgPSB7fSwKc3RhY2tEZXB0aCA9IDAsCnN0YXR1cyA9ICJhY3RpdmUiLAp1c2VyTmFtZSA9ICJsaWJyZWFkbGluZSIsCndWID0gIjAwMDAwMDAwOC4wMDAwMDAwMDIuKmdjY2NvcmUuKnpmaW5hbC0uMDAwMDAwMDEyLjAwMDAwMDAwMy4qemZpbmFsIiwKfSwKbGlieG1sMiA9IHsKZm4gPSAiL2N2bWZzL3NsaW5nLnNpL21vZHVsZXMvZWw3L21vZHVsZXMvYWxsL2xp
EBROOTUCC=/cvmfs/sling.si/modules/el7/software/UCC/1.2.0-GCCcore-12.3.0
LMOD_DIR=/usr/share/lmod/lmod/libexec
BASH_FUNC_which%%=() {  ( alias;
 eval ${which_declare} ) | /usr/bin/which --tty-only --read-alias --read-functions --show-tilde --show-dot $@
}
BASH_FUNC_module%%=() {  if [ -z "${LMOD_SH_DBG_ON+x}" ]; then
 case "$-" in 
 *v*x*)
 __lmod_sh_dbg='vx'
 ;;
 *v*)
 __lmod_sh_dbg='v'
 ;;
 *x*)
 __lmod_sh_dbg='x'
 ;;
 esac;
 fi;
 if [ -n "${__lmod_sh_dbg:-}" ]; then
 set +$__lmod_sh_dbg;
 echo "Shell debugging temporarily silenced: export LMOD_SH_DBG_ON=1 for Lmod's output" 1>&2;
 fi;
 eval "$($LMOD_CMD $LMOD_SHELL_PRGM "$@")" && eval "$(${LMOD_SETTARG_CMD:-:} -s sh)";
 __lmod_my_status=$?;
 if [ -n "${__lmod_sh_dbg:-}" ]; then
 echo "Shell debugging restarted" 1>&2;
 set -$__lmod_sh_dbg;
 fi;
 unset __lmod_sh_dbg;
 return $__lmod_my_status
}
BASH_FUNC_ml%%=() {  eval "$($LMOD_DIR/ml_cmd "$@")"
}
_=/usr/bin/env

Current SIESTA linked libraries
-------------------------------
	linux-vdso.so.1 (0x00007f275b673000)
	libnetcdff.so.7 => /cvmfs/sling.si/modules/el7/software/netCDF-Fortran/4.6.1-gompi-2023a/lib/libnetcdff.so.7 (0x00007f275b5bc000)
	libnetcdf.so.19 => /cvmfs/sling.si/modules/el7/software/netCDF/4.9.2-gompi-2023a/lib/libnetcdf.so.19 (0x00007f275b1f2000)
	libdl.so.2 => /lib64/libdl.so.2 (0x00007f275afee000)
	libgfortran.so.5 => /cvmfs/sling.si/modules/el7/software/GCCcore/12.3.0/lib64/libgfortran.so.5 (0x00007f275ad22000)
	libm.so.6 => /lib64/libm.so.6 (0x00007f275a9a0000)
	libmvec.so.1 => /lib64/libmvec.so.1 (0x00007f275a775000)
	libpthread.so.0 => /lib64/libpthread.so.0 (0x00007f275a555000)
	libreadline.so.8 => /cvmfs/sling.si/modules/el7/software/libreadline/8.2-GCCcore-12.3.0/lib/libreadline.so.8 (0x00007f275b558000)
	libmpi_usempif08.so.40 => /cvmfs/sling.si/modules/el7/software/OpenMPI/4.1.5-GCC-12.3.0/lib/libmpi_usempif08.so.40 (0x00007f275b51f000)
	libmpi_usempi_ignore_tkr.so.40 => /cvmfs/sling.si/modules/el7/software/OpenMPI/4.1.5-GCC-12.3.0/lib/libmpi_usempi_ignore_tkr.so.40 (0x00007f275b512000)
	libmpi_mpifh.so.40 => /cvmfs/sling.si/modules/el7/software/OpenMPI/4.1.5-GCC-12.3.0/lib/libmpi_mpifh.so.40 (0x00007f275b4a6000)
	libmpi.so.40 => /cvmfs/sling.si/modules/el7/software/OpenMPI/4.1.5-GCC-12.3.0/lib/libmpi.so.40 (0x00007f275a42c000)
	libscalapack.so => /cvmfs/sling.si/modules/el7/software/ScaLAPACK/2.2.0-gompi-2023a-fb/lib/libscalapack.so (0x00007f2759e49000)
	libopenblas.so.0 => /cvmfs/sling.si/modules/el7/software/OpenBLAS/0.3.23-GCC-12.3.0/lib/libopenblas.so.0 (0x00007f27590ae000)
	libgomp.so.1 => /cvmfs/sling.si/modules/el7/software/GCCcore/12.3.0/lib64/libgomp.so.1 (0x00007f2759065000)
	libstdc++.so.6 => /cvmfs/sling.si/modules/el7/software/GCCcore/12.3.0/lib64/libstdc++.so.6 (0x00007f2758e40000)
	libgcc_s.so.1 => /cvmfs/sling.si/modules/el7/software/GCCcore/12.3.0/lib64/libgcc_s.so.1 (0x00007f275b483000)
	libquadmath.so.0 => /cvmfs/sling.si/modules/el7/software/GCCcore/12.3.0/lib64/libquadmath.so.0 (0x00007f2758df9000)
	libc.so.6 => /lib64/libc.so.6 (0x00007f2758a34000)
	libhdf5_hl.so.310 => /cvmfs/sling.si/modules/el7/software/HDF5/1.14.0-gompi-2023a/lib/libhdf5_hl.so.310 (0x00007f2758a0f000)
	libhdf5.so.310 => /cvmfs/sling.si/modules/el7/software/HDF5/1.14.0-gompi-2023a/lib/libhdf5.so.310 (0x00007f27585ca000)
	libz.so.1 => /cvmfs/sling.si/modules/el7/software/zlib/1.2.13-GCCcore-12.3.0/lib/libz.so.1 (0x00007f27585af000)
	libzstd.so.1 => /cvmfs/sling.si/modules/el7/software/zstd/1.5.5-GCCcore-12.3.0/lib/libzstd.so.1 (0x00007f27584f6000)
	libbz2.so.1.0 => /cvmfs/sling.si/modules/el7/software/bzip2/1.0.8-GCCcore-12.3.0/lib/libbz2.so.1.0 (0x00007f27584e1000)
	libsz.so.2 => /cvmfs/sling.si/modules/el7/software/Szip/2.1.1-GCCcore-12.3.0/lib/libsz.so.2 (0x00007f27584c8000)
	libcurl.so.4 => /cvmfs/sling.si/modules/el7/software/cURL/8.0.1-GCCcore-12.3.0/lib/libcurl.so.4 (0x00007f2758434000)
	libxml2.so.2 => /cvmfs/sling.si/modules/el7/software/libxml2/2.11.4-GCCcore-12.3.0/lib/libxml2.so.2 (0x00007f27582d3000)
	/lib64/ld-linux-x86-64.so.2 (0x00007f275b447000)
	libncurses.so.6 => /cvmfs/sling.si/modules/el7/software/ncurses/6.4-GCCcore-12.3.0/lib/libncurses.so.6 (0x00007f275826e000)
	libopen-rte.so.40 => /cvmfs/sling.si/modules/el7/software/OpenMPI/4.1.5-GCC-12.3.0/lib/libopen-rte.so.40 (0x00007f27581b5000)
	libopen-pal.so.40 => /cvmfs/sling.si/modules/el7/software/OpenMPI/4.1.5-GCC-12.3.0/lib/libopen-pal.so.40 (0x00007f2758106000)
	librt.so.1 => /lib64/librt.so.1 (0x00007f2757efe000)
	libutil.so.1 => /lib64/libutil.so.1 (0x00007f2757cfa000)
	libhwloc.so.15 => /cvmfs/sling.si/modules/el7/software/hwloc/2.9.1-GCCcore-12.3.0/lib/libhwloc.so.15 (0x00007f2757c9a000)
	libpciaccess.so.0 => /cvmfs/sling.si/modules/el7/software/libpciaccess/0.17-GCCcore-12.3.0/lib/libpciaccess.so.0 (0x00007f2757c8e000)
	liblzma.so.5 => /cvmfs/sling.si/modules/el7/software/XZ/5.4.2-GCCcore-12.3.0/lib/liblzma.so.5 (0x00007f2757c5d000)
	libevent_core-2.1.so.7 => /cvmfs/sling.si/modules/el7/software/libevent/2.1.12-GCCcore-12.3.0/lib/libevent_core-2.1.so.7 (0x00007f2757c27000)
	libevent_pthreads-2.1.so.7 => /cvmfs/sling.si/modules/el7/software/libevent/2.1.12-GCCcore-12.3.0/lib/libevent_pthreads-2.1.so.7 (0x00007f275b476000)
	libflexiblas.so.3 => /cvmfs/sling.si/modules/el7/software/FlexiBLAS/3.3.1-GCC-12.3.0/lib/libflexiblas.so.3 (0x00007f2757841000)
	libssl.so.1.1 => /cvmfs/sling.si/modules/el7/software/OpenSSL/1.1/lib/libssl.so.1.1 (0x00007f27575ac000)
	libcrypto.so.1.1 => /cvmfs/sling.si/modules/el7/software/OpenSSL/1.1/lib/libcrypto.so.1.1 (0x00007f27570c1000)

slurmstepd: error: _get_joules_task: can't get info from slurmd
slurmstepd: error: _get_joules_task: can't get info from slurmd
slurmstepd: error: _get_joules_task: can't get info from slurmd
slurmstepd: error: _get_joules_task: can't get info from slurmd
slurmstepd: error: _get_joules_task: can't get info from slurmd
slurmstepd: error: _get_joules_task: can't get info from slurmd
slurmstepd: error: _get_joules_task: can't get info from slurmd
slurmstepd: error: _get_joules_task: can't get info from slurmd
slurmstepd: error: _get_joules_task: can't get info from slurmd
slurmstepd: error: _get_joules_task: can't get info from slurmd
slurmstepd: error: _get_joules_task: can't get info from slurmd
slurmstepd: error: _get_joules_task: can't get info from slurmd
slurmstepd: error: _get_joules_task: can't get info from slurmd
slurmstepd: error: _get_joules_task: can't get info from slurmd
slurmstepd: error: _get_joules_task: can't get info from slurmd
slurmstepd: error: _get_joules_task: can't get info from slurmd
slurmstepd: error: _get_joules_task: can't get info from slurmd
SCF_NOT_CONV: SCF did not converge  in maximum number of steps.
Geom step, scf iteration, dDmax, dHmax:    0     5   1530.472378     2.518716
Job completed
slurmstepd: error: _get_joules_task: can't get info from slurmd
slurmstepd: error: _get_joules_task: can't get info from slurmd
slurmstepd: error: _get_joules_task: can't get info from slurmd
slurmstepd: error: _get_joules_task: can't get info from slurmd
slurmstepd: error: _get_joules_task: can't get info from slurmd
slurmstepd: error: _get_joules_task: can't get info from slurmd
slurmstepd: error: _get_joules_task: can't get info from slurmd
slurmstepd: error: _get_joules_task: can't get info from slurmd
slurmstepd: error: _get_joules_task: can't get info from slurmd
slurmstepd: error: _get_joules_task: can't get info from slurmd
slurmstepd: error: _get_joules_task: can't get info from slurmd
slurmstepd: error: _get_joules_task: can't get info from slurmd
slurmstepd: error: _get_joules_task: can't get info from slurmd
slurmstepd: error: _get_joules_task: can't get info from slurmd
slurmstepd: error: _get_joules_task: can't get info from slurmd
slurmstepd: error: _get_joules_task: can't get info from slurmd
slurmstepd: error: _get_joules_task: can't get info from slurmd
slurmstepd: error: _get_joules_task: can't get info from slurmd
slurmstepd: error: _get_joules_task: can't get info from slurmd
slurmstepd: error: _get_joules_task: can't get info from slurmd
slurmstepd: error: _get_joules_task: can't get info from slurmd
slurmstepd: error: _get_joules_task: can't get info from slurmd
slurmstepd: error: _get_joules_task: can't get info from slurmd
slurmstepd: error: _get_joules_task: can't get info from slurmd
slurmstepd: error: _get_joules_task: can't get info from slurmd
slurmstepd: error: _get_joules_task: can't get info from slurmd
slurmstepd: error: _get_joules_task: can't get info from slurmd
slurmstepd: error: _get_joules_task: can't get info from slurmd
slurmstepd: error: _get_joules_task: can't get info from slurmd
slurmstepd: error: _get_joules_task: can't get info from slurmd
slurmstepd: error: _get_joules_task: can't get info from slurmd
slurmstepd: error: _get_joules_task: can't get info from slurmd
slurmstepd: error: _get_joules_task: can't get info from slurmd
slurmstepd: error: _get_joules_task: can't get info from slurmd
slurmstepd: error: _get_joules_task: can't get info from slurmd
slurmstepd: error: _get_joules_task: can't get info from slurmd
slurmstepd: error: _get_joules_task: can't get info from slurmd
slurmstepd: error: _get_joules_task: can't get info from slurmd
slurmstepd: error: _get_joules_task: can't get info from slurmd
slurmstepd: error: _get_joules_task: can't get info from slurmd
slurmstepd: error: _get_joules_task: can't get info from slurmd
slurmstepd: error: _get_joules_task: can't get info from slurmd
slurmstepd: error: _get_joules_task: can't get info from slurmd
slurmstepd: error: _get_joules_task: can't get info from slurmd
slurmstepd: error: _get_joules_task: can't get info from slurmd
slurmstepd: error: _get_joules_task: can't get info from slurmd
slurmstepd: error: _get_joules_task: can't get info from slurmd
slurmstepd: error: _get_joules_task: can't get info from slurmd
slurmstepd: error: _get_joules_task: can't get info from slurmd
slurmstepd: error: _get_joules_task: can't get info from slurmd
slurmstepd: error: _get_joules_task: can't get info from slurmd
slurmstepd: error: _get_joules_task: can't get info from slurmd
slurmstepd: error: _get_joules_task: can't get info from slurmd
slurmstepd: error: _get_joules_task: can't get info from slurmd
slurmstepd: error: _get_joules_task: can't get info from slurmd
slurmstepd: error: _get_joules_task: can't get info from slurmd
slurmstepd: error: _get_joules_task: can't get info from slurmd
slurmstepd: error: _get_joules_task: can't get info from slurmd
slurmstepd: error: _get_joules_task: can't get info from slurmd
slurmstepd: error: _get_joules_task: can't get info from slurmd
slurmstepd: error: _get_joules_task: can't get info from slurmd
slurmstepd: error: _get_joules_task: can't get info from slurmd
slurmstepd: error: _get_joules_task: can't get info from slurmd
slurmstepd: error: _get_joules_task: can't get info from slurmd
slurmstepd: error: _get_joules_task: can't get info from slurmd
slurmstepd: error: _get_joules_task: can't get info from slurmd
slurmstepd: error: _get_joules_task: can't get info from slurmd
slurmstepd: error: _get_joules_task: can't get info from slurmd
slurmstepd: error: _get_joules_task: can't get info from slurmd
slurmstepd: error: _get_joules_task: can't get info from slurmd
slurmstepd: error: _get_joules_task: can't get info from slurmd
slurmstepd: error: _get_joules_task: can't get info from slurmd
slurmstepd: error: _get_joules_task: can't get info from slurmd
slurmstepd: error: _get_joules_task: can't get info from slurmd
slurmstepd: error: _get_joules_task: can't get info from slurmd
slurmstepd: error: _get_joules_task: can't get info from slurmd
slurmstepd: error: _get_joules_task: can't get info from slurmd
slurmstepd: error: _get_joules_task: can't get info from slurmd
slurmstepd: error: _get_joules_task: can't get info from slurmd
slurmstepd: error: _get_joules_task: can't get info from slurmd
slurmstepd: error: _get_joules_task: can't get info from slurmd
slurmstepd: error: _get_joules_task: can't get info from slurmd
slurmstepd: error: _get_joules_task: can't get info from slurmd
slurmstepd: error: _get_joules_task: can't get info from slurmd
slurmstepd: error: _get_joules_task: can't get info from slurmd
slurmstepd: error: _get_joules_task: can't get info from slurmd
slurmstepd: error: _get_joules_task: can't get info from slurmd
slurmstepd: error: _get_joules_task: can't get info from slurmd
slurmstepd: error: _get_joules_task: can't get info from slurmd
slurmstepd: error: _get_joules_task: can't get info from slurmd
slurmstepd: error: _get_joules_task: can't get info from slurmd
slurmstepd: error: _get_joules_task: can't get info from slurmd
slurmstepd: error: _get_joules_task: can't get info from slurmd
slurmstepd: error: _get_joules_task: can't get info from slurmd
slurmstepd: error: _get_joules_task: can't get info from slurmd
slurmstepd: error: _get_joules_task: can't get info from slurmd
slurmstepd: error: _get_joules_task: can't get info from slurmd
slurmstepd: error: _get_joules_task: can't get info from slurmd
slurmstepd: error: _get_joules_task: can't get info from slurmd
slurmstepd: error: _get_joules_task: can't get info from slurmd
slurmstepd: error: _get_joules_task: can't get info from slurmd
slurmstepd: error: _get_joules_task: can't get info from slurmd
slurmstepd: error: _get_joules_task: can't get info from slurmd
slurmstepd: error: _get_joules_task: can't get info from slurmd
slurmstepd: error: _get_joules_task: can't get info from slurmd
slurmstepd: error: _get_joules_task: can't get info from slurmd
slurmstepd: error: _get_joules_task: can't get info from slurmd
slurmstepd: error: _get_joules_task: can't get info from slurmd
slurmstepd: error: _get_joules_task: can't get info from slurmd
slurmstepd: error: _get_joules_task: can't get info from slurmd
slurmstepd: error: _get_joules_task: can't get info from slurmd
slurmstepd: error: _get_joules_task: can't get info from slurmd
slurmstepd: error: _get_joules_task: can't get info from slurmd
slurmstepd: error: _get_joules_task: can't get info from slurmd
slurmstepd: error: _get_joules_task: can't get info from slurmd
slurmstepd: error: _get_joules_task: can't get info from slurmd
slurmstepd: error: _get_joules_task: can't get info from slurmd
slurmstepd: error: _get_joules_task: can't get info from slurmd
slurmstepd: error: _get_joules_task: can't get info from slurmd
slurmstepd: error: _get_joules_task: can't get info from slurmd
slurmstepd: error: _get_joules_task: can't get info from slurmd
slurmstepd: error: _get_joules_task: can't get info from slurmd
slurmstepd: error: _get_joules_task: can't get info from slurmd
slurmstepd: error: _get_joules_task: can't get info from slurmd
slurmstepd: error: _get_joules_task: can't get info from slurmd
slurmstepd: error: _get_joules_task: can't get info from slurmd
slurmstepd: error: _get_joules_task: can't get info from slurmd
slurmstepd: error: _get_joules_task: can't get info from slurmd
slurmstepd: error: _get_joules_task: can't get info from slurmd
slurmstepd: error: _get_joules_task: can't get info from slurmd
slurmstepd: error: _get_joules_task: can't get info from slurmd
slurmstepd: error: _get_joules_task: can't get info from slurmd
slurmstepd: error: _get_joules_task: can't get info from slurmd
slurmstepd: error: _get_joules_task: can't get info from slurmd
slurmstepd: error: _get_joules_task: can't get info from slurmd
slurmstepd: error: _get_joules_task: can't get info from slurmd
slurmstepd: error: _get_joules_task: can't get info from slurmd
slurmstepd: error: _get_joules_task: can't get info from slurmd
slurmstepd: error: _get_joules_task: can't get info from slurmd
slurmstepd: error: _get_joules_task: can't get info from slurmd
slurmstepd: error: _get_joules_task: can't get info from slurmd
slurmstepd: error: _get_joules_task: can't get info from slurmd
slurmstepd: error: _get_joules_task: can't get info from slurmd
slurmstepd: error: _get_joules_task: can't get info from slurmd
slurmstepd: error: _get_joules_task: can't get info from slurmd
slurmstepd: error: _get_joules_task: can't get info from slurmd
slurmstepd: error: _get_joules_task: can't get info from slurmd
slurmstepd: error: _get_joules_task: can't get info from slurmd
slurmstepd: error: _get_joules_task: can't get info from slurmd
slurmstepd: error: _get_joules_task: can't get info from slurmd
slurmstepd: error: _get_joules_task: can't get info from slurmd
slurmstepd: error: _get_joules_task: can't get info from slurmd
slurmstepd: error: _get_joules_task: can't get info from slurmd
slurmstepd: error: _get_joules_task: can't get info from slurmd
slurmstepd: error: _get_joules_task: can't get info from slurmd
slurmstepd: error: _get_joules_task: can't get info from slurmd
slurmstepd: error: _get_joules_task: can't get info from slurmd
slurmstepd: error: _get_joules_task: can't get info from slurmd
slurmstepd: error: _get_joules_task: can't get info from slurmd
slurmstepd: error: _get_joules_task: can't get info from slurmd
slurmstepd: error: _get_joules_task: can't get info from slurmd
slurmstepd: error: _get_joules_task: can't get info from slurmd
slurmstepd: error: _get_joules_task: can't get info from slurmd
slurmstepd: error: _get_joules_task: can't get info from slurmd
slurmstepd: error: _get_joules_task: can't get info from slurmd
slurmstepd: error: _get_joules_task: can't get info from slurmd
slurmstepd: error: _get_joules_task: can't get info from slurmd
slurmstepd: error: _get_joules_task: can't get info from slurmd
slurmstepd: error: _get_joules_task: can't get info from slurmd
slurmstepd: error: _get_joules_task: can't get info from slurmd
slurmstepd: error: _get_joules_task: can't get info from slurmd
slurmstepd: error: _get_joules_task: can't get info from slurmd
slurmstepd: error: _get_joules_task: can't get info from slurmd
slurmstepd: error: _get_joules_task: can't get info from slurmd
slurmstepd: error: _get_joules_task: can't get info from slurmd
slurmstepd: error: _get_joules_task: can't get info from slurmd
slurmstepd: error: _get_joules_task: can't get info from slurmd
slurmstepd: error: _get_joules_task: can't get info from slurmd
slurmstepd: error: _get_joules_task: can't get info from slurmd
slurmstepd: error: _get_joules_task: can't get info from slurmd
slurmstepd: error: _get_joules_task: can't get info from slurmd
slurmstepd: error: _get_joules_task: can't get info from slurmd
slurmstepd: error: _get_joules_task: can't get info from slurmd
slurmstepd: error: _get_joules_task: can't get info from slurmd
slurmstepd: error: _get_joules_task: can't get info from slurmd
slurmstepd: error: _get_joules_task: can't get info from slurmd
slurmstepd: error: _get_joules_task: can't get info from slurmd
slurmstepd: error: _get_joules_task: can't get info from slurmd
slurmstepd: error: _get_joules_task: can't get info from slurmd
slurmstepd: error: _get_joules_task: can't get info from slurmd
slurmstepd: error: _get_joules_task: can't get info from slurmd
slurmstepd: error: _get_joules_task: can't get info from slurmd
slurmstepd: error: _get_joules_task: can't get info from slurmd
slurmstepd: error: _get_joules_task: can't get info from slurmd
slurmstepd: error: _get_joules_task: can't get info from slurmd
slurmstepd: error: _get_joules_task: can't get info from slurmd
slurmstepd: error: _get_joules_task: can't get info from slurmd
slurmstepd: error: _get_joules_task: can't get info from slurmd
slurmstepd: error: _get_joules_task: can't get info from slurmd
slurmstepd: error: _get_joules_task: can't get info from slurmd
slurmstepd: error: _get_joules_task: can't get info from slurmd
slurmstepd: error: _get_joules_task: can't get info from slurmd
slurmstepd: error: _get_joules_task: can't get info from slurmd
slurmstepd: error: _get_joules_task: can't get info from slurmd
slurmstepd: error: _get_joules_task: can't get info from slurmd
slurmstepd: error: _get_joules_task: can't get info from slurmd
slurmstepd: error: _get_joules_task: can't get info from slurmd
slurmstepd: error: _get_joules_task: can't get info from slurmd
slurmstepd: error: _get_joules_task: can't get info from slurmd
slurmstepd: error: _get_joules_task: can't get info from slurmd
slurmstepd: error: _get_joules_task: can't get info from slurmd
slurmstepd: error: _get_joules_task: can't get info from slurmd
slurmstepd: error: _get_joules_task: can't get info from slurmd
slurmstepd: error: _get_joules_task: can't get info from slurmd
slurmstepd: error: _get_joules_task: can't get info from slurmd
slurmstepd: error: _get_joules_task: can't get info from slurmd
slurmstepd: error: _get_joules_task: can't get info from slurmd
slurmstepd: error: _get_joules_task: can't get info from slurmd
slurmstepd: error: _get_joules_task: can't get info from slurmd
slurmstepd: error: _get_joules_task: can't get info from slurmd
slurmstepd: error: _get_joules_task: can't get info from slurmd
slurmstepd: error: _get_joules_task: can't get info from slurmd
slurmstepd: error: _get_joules_task: can't get info from slurmd
slurmstepd: error: _get_joules_task: can't get info from slurmd
slurmstepd: error: _get_joules_task: can't get info from slurmd
slurmstepd: error: _get_joules_task: can't get info from slurmd
slurmstepd: error: _get_joules_task: can't get info from slurmd
slurmstepd: error: _get_joules_task: can't get info from slurmd
slurmstepd: error: _get_joules_task: can't get info from slurmd
slurmstepd: error: _get_joules_task: can't get info from slurmd
slurmstepd: error: _get_joules_task: can't get info from slurmd
slurmstepd: error: _get_joules_task: can't get info from slurmd
slurmstepd: error: _get_joules_task: can't get info from slurmd
slurmstepd: error: _get_joules_task: can't get info from slurmd
slurmstepd: error: _get_joules_task: can't get info from slurmd
slurmstepd: error: _get_joules_task: can't get info from slurmd
slurmstepd: error: _get_joules_task: can't get info from slurmd
slurmstepd: error: _get_joules_task: can't get info from slurmd
slurmstepd: error: _get_joules_task: can't get info from slurmd
slurmstepd: error: _get_joules_task: can't get info from slurmd
slurmstepd: error: _get_joules_task: can't get info from slurmd
slurmstepd: error: _get_joules_task: can't get info from slurmd
slurmstepd: error: _get_joules_task: can't get info from slurmd
slurmstepd: error: _get_joules_task: can't get info from slurmd
slurmstepd: error: _get_joules_task: can't get info from slurmd
slurmstepd: error: _get_joules_task: can't get info from slurmd
slurmstepd: error: _get_joules_task: can't get info from slurmd
slurmstepd: error: _get_joules_task: can't get info from slurmd
slurmstepd: error: _get_joules_task: can't get info from slurmd
slurmstepd: error: _get_joules_task: can't get info from slurmd
slurmstepd: error: _get_joules_task: can't get info from slurmd
slurmstepd: error: _get_joules_task: can't get info from slurmd
slurmstepd: error: _get_joules_task: can't get info from slurmd
slurmstepd: error: _get_joules_task: can't get info from slurmd
slurmstepd: error: _get_joules_task: can't get info from slurmd
slurmstepd: error: _get_joules_task: can't get info from slurmd
slurmstepd: error: _get_joules_task: can't get info from slurmd
