JobId=1425784 JobName=CovidWeakKPoints
   UserId=u102010(102010) GroupId=hpcusers(555) MCS_label=N/A
   Priority=269028 Nice=0 Account=p200585 QOS=default
   JobState=RUNNING Reason=None Dependency=(null)
   Requeue=0 Restarts=0 BatchFlag=1 Reboot=0 ExitCode=0:0
   DerivedExitCode=0:0
   RunTime=00:00:10 TimeLimit=00:59:00 TimeMin=N/A
   SubmitTime=2024-10-02T09:59:53 EligibleTime=2024-10-02T09:59:53
   AccrueTime=2024-10-02T09:59:53
   StartTime=2024-10-02T10:34:51 EndTime=2024-10-02T11:33:58 Deadline=N/A
   PreemptEligibleTime=2024-10-02T10:34:51 PreemptTime=None
   SuspendTime=None SecsPreSuspend=0 LastSchedEval=2024-10-02T10:34:51 Scheduler=Backfill
   Partition=gpu AllocNode:Sid=login03.meluxina.lxp.lu:617120
   ReqNodeList=(null) ExcNodeList=(null)
   NodeList=mel[2019,2039,2085,2105,2112,2140,2174,2183]
   BatchHost=mel2019
   NumNodes=8 NumCPUs=1024 NumTasks=256 CPUs/Task=4 ReqB:S:C:T=0:0:*:*
   ReqTRES=cpu=256,mem=3840G,node=8,billing=256,gres/gpu=32
   AllocTRES=cpu=1024,mem=3840G,node=8,billing=1024,gres/gpu=32,gres/gpun=8
   Socks/Node=* NtasksPerN:B:S:C=32:0:*:* CoreSpec=*
   JOB_GRES=gpuN:8,gpu:32
     Nodes=mel[2019,2039,2085,2105,2112,2140,2174,2183] CPU_IDs=0-127 Mem=491520 GRES=gpuN(CNT:1),gpu:4(IDX:0-3)
   MinCPUsNode=128 MinMemoryNode=0 MinTmpDiskNode=0
   Features=(null) DelayBoot=00:00:00
   OverSubscribe=NO Contiguous=0 Licenses=(null) Network=(null)
   Command=/mnt/tier2/users/u102010/JUBE4MaX-GPU/max-inputs/interface/siesta/_CovidWeakKPoints/000000/000003_submit/work/submit.job
   WorkDir=/mnt/tier2/users/u102010/JUBE4MaX-GPU/max-inputs/interface/siesta/_CovidWeakKPoints/000000/000003_submit/work
   StdErr=/mnt/tier2/users/u102010/JUBE4MaX-GPU/max-inputs/interface/siesta/_CovidWeakKPoints/000000/000003_submit/work/slurm-1425784.out
   StdIn=/dev/null
   StdOut=/mnt/tier2/users/u102010/JUBE4MaX-GPU/max-inputs/interface/siesta/_CovidWeakKPoints/000000/000003_submit/work/slurm-1425784.out
   Power=
   TresPerNode=gres/gpu:4
   

