       JobID     JobIDRaw    JobName  Partition  MaxVMSize  MaxVMSizeNode  MaxVMSizeTask  AveVMSize     MaxRSS MaxRSSNode MaxRSSTask     AveRSS MaxPages MaxPagesNode   MaxPagesTask   AvePages     MinCPU MinCPUNode MinCPUTask     AveCPU   NTasks  AllocCPUS    Elapsed      State ExitCode AveCPUFreq ReqCPUFreqMin ReqCPUFreqMax ReqCPUFreqGov     ReqMem ConsumedEnergy  MaxDiskRead MaxDiskReadNode MaxDiskReadTask    AveDiskRead MaxDiskWrite MaxDiskWriteNode MaxDiskWriteTask   AveDiskWrite    AllocGRES      ReqGRES    ReqTRES  AllocTRES TRESUsageInAve TRESUsageInMax TRESUsageInMaxNode TRESUsageInMaxTask TRESUsageInMin TRESUsageInMinNode TRESUsageInMinTask TRESUsageInTot TRESUsageOutMax TRESUsageOutMaxNode TRESUsageOutMaxTask TRESUsageOutAve TRESUsageOutTot 
------------ ------------ ---------- ---------- ---------- -------------- -------------- ---------- ---------- ---------- ---------- ---------- -------- ------------ -------------- ---------- ---------- ---------- ---------- ---------- -------- ---------- ---------- ---------- -------- ---------- ------------- ------------- ------------- ---------- -------------- ------------ --------------- --------------- -------------- ------------ ---------------- ---------------- -------------- ------------ ------------ ---------- ---------- -------------- -------------- ------------------ ------------------ -------------- ------------------ ------------------ -------------- --------------- ------------------- ------------------- --------------- --------------- 
244994       244994       CovidWeak+         cn                                                                                                                                                                                                            4096   06:29:15    RUNNING      0:0                  Unknown       Unknown       Unknown        1Gc                                                                                                                                                                    billing=4+ billing=4+                                                                                                                                                                                                                                 
244994.batch 244994.batch      batch                                                                                                                                                                                                               1        128   06:29:15    RUNNING      0:0          0             0             0             0        1Gc              0                                                                                                                                                                cpu=128,m+                                                                                                                                                                                                                                 
244994.0     244994.0         siesta              1480944K         cn0349              0 1146076356    393956K     cn0349          1  279851180      116       cn0349              0         27   06:24:02     cn0374       2176   06:26:31     4096       4096   06:29:13  COMPLETED      0:0        92K       Unknown       Unknown       Unknown        1Gc              0       10.28M          cn0349               0          8.46M       29.22M           cn0349                0         17.01M                                      cpu=4096,+ cpu=06:26:31,+ cpu=06:26:58,+ cpu=cn0446,energy+ cpu=3246,fs/disk=+ cpu=06:24:02,+ cpu=cn0374,energy+ cpu=2176,fs/disk=+ cpu=1099-10:4+ energy=0,fs/di+ energy=cn0370,fs/d+           fs/disk=0 energy=0,fs/di+ energy=0,fs/di+ 
