{
 "global_section": { "_calls": 1, "_time":    23346.528, "_%":   100.00,
   "siesta": { "_calls": 1, "_time":    23346.528, "_%":   100.00,
     "Setup": { "_calls": 1, "_time":        2.173, "_%":     0.01,
       "bands": { "_calls": 1, "_time":        0.004, "_%":     0.00},
       "KSV_init": { "_calls": 1, "_time":        0.001, "_%":     0.00}
     },
     "IterGeom": { "_calls": 1, "_time":    23341.559, "_%":    99.98,
       "geom_init": { "_calls": 1, "_time":       61.562, "_%":     0.26,
         "state_init": { "_calls": 1, "_time":        0.963, "_%":     0.00,
           "hsparse": { "_calls": 1, "_time":        0.172, "_%":     0.00},
           "overlap": { "_calls": 1, "_time":        0.055, "_%":     0.00}
         },
         "Setup_H0": { "_calls": 1, "_time":       60.598, "_%":     0.26,
           "naefs": { "_calls": 1, "_time":        0.035, "_%":     0.00},
           "MolMec": { "_calls": 1, "_time":        0.000, "_%":     0.00},
           "kinefsm": { "_calls": 1, "_time":        0.040, "_%":     0.00},
           "nlefsm": { "_calls": 1, "_time":        0.174, "_%":     0.00},
           "DHSCF_Init": { "_calls": 1, "_time":       60.329, "_%":     0.26,
             "DHSCF1": { "_calls": 1, "_time":        0.051, "_%":     0.00,
               "INITMESH": { "_calls": 1, "_time":        0.000, "_%":     0.00}
             },
             "DHSCF2": { "_calls": 1, "_time":       60.244, "_%":     0.26,
               "REMESH": { "_calls": 1, "_time":       55.566, "_%":     0.24,
                 "INITMESH": { "_calls": 2, "_time":       52.162, "_%":     0.22,
                   "SPLOAD": { "_calls": 2, "_time":        1.504, "_%":     0.01}
                 }
               },
               "REORD": { "_calls": 2, "_time":        0.001, "_%":     0.00},
               "PHION": { "_calls": 1, "_time":        0.020, "_%":     0.00},
               "COMM_BSC": { "_calls": 1, "_time":        0.024, "_%":     0.00},
               "POISON": { "_calls": 1, "_time":        0.394, "_%":     0.00,
                 "fft": { "_calls": 2, "_time":        0.378, "_%":     0.00}
               }
             }
           }
         }
       },
       "IterSCF": { "_calls": 5, "_time":    23279.896, "_%":    99.71,
         "setup_H": { "_calls": 5, "_time":        3.488, "_%":     0.01,
           "DHSCF": { "_calls": 5, "_time":        3.482, "_%":     0.01,
             "DHSCF3": { "_calls": 5, "_time":        3.482, "_%":     0.01,
               "rhoofd": { "_calls": 5, "_time":        0.067, "_%":     0.00},
               "COMM_BSC": { "_calls": 10, "_time":        0.134, "_%":     0.00},
               "POISON": { "_calls": 5, "_time":        1.798, "_%":     0.01,
                 "fft": { "_calls": 10, "_time":        1.667, "_%":     0.01}
               },
               "XC": { "_calls": 5, "_time":        1.170, "_%":     0.01,
                 "COMM_BSC": { "_calls": 10, "_time":        0.176, "_%":     0.00},
                 "GXC-CellXC": { "_calls": 5, "_time":        0.970, "_%":     0.00,
                   "gridxc@cellXC": { "_calls": 5, "_time":        0.970, "_%":     0.00}
                 }
               },
               "vmat": { "_calls": 5, "_time":        0.056, "_%":     0.00}
             }
           }
         },
         "compute_dm": { "_calls": 5, "_time":    23276.371, "_%":    99.70,
           "diagon": { "_calls": 5, "_time":    23276.344, "_%":    99.70,
             "c-eigval": { "_calls": 160, "_time":     4630.020, "_%":    19.83,
               "c-buildHS": { "_calls": 160, "_time":        0.152, "_%":     0.00},
               "cdiag": { "_calls": 160, "_time":     4629.868, "_%":    19.83,
                 "cdiag1": { "_calls": 160, "_time":      176.544, "_%":     0.76},
                 "cdiag2": { "_calls": 160, "_time":      638.366, "_%":     2.73},
                 "cdiag3": { "_calls": 160, "_time":     3786.015, "_%":    16.22}
               }
             },
             "c-eigvec": { "_calls": 160, "_time":     5127.808, "_%":    21.96,
               "cdiag": { "_calls": 160, "_time":     5126.311, "_%":    21.96,
                 "cdiag1": { "_calls": 160, "_time":      176.719, "_%":     0.76},
                 "cdiag2": { "_calls": 160, "_time":      635.548, "_%":     2.72},
                 "cdiag3": { "_calls": 160, "_time":     3810.299, "_%":    16.32},
                 "cdiag4": { "_calls": 160, "_time":      487.666, "_%":     2.09}
               }
             },
             "c-buildD": { "_calls": 160, "_time":    13514.244, "_%":    57.89}
           }
         },
         "MIXER": { "_calls": 5, "_time":        0.010, "_%":     0.00}
       },
       "state_analysis": { "_calls": 1, "_time":        0.088, "_%":     0.00},
       "siesta_move": { "_calls": 1, "_time":        0.000, "_%":     0.00}
     },
     "Analysis": { "_calls": 1, "_time":        2.569, "_%":     0.01,
       "optical": { "_calls": 1, "_time":        0.001, "_%":     0.00}
     }
   }
 }}
