{
 "global_section": { "_calls": 1, "_time":     3403.282, "_%":   100.00,
   "siesta": { "_calls": 1, "_time":     3403.282, "_%":   100.00,
     "Setup": { "_calls": 1, "_time":        1.229, "_%":     0.04,
       "bands": { "_calls": 1, "_time":        0.002, "_%":     0.00},
       "KSV_init": { "_calls": 1, "_time":        0.001, "_%":     0.00}
     },
     "IterGeom": { "_calls": 1, "_time":     3401.821, "_%":    99.96,
       "geom_init": { "_calls": 1, "_time":       12.086, "_%":     0.36,
         "state_init": { "_calls": 1, "_time":        1.948, "_%":     0.06,
           "hsparse": { "_calls": 1, "_time":        0.130, "_%":     0.00},
           "overlap": { "_calls": 1, "_time":        0.736, "_%":     0.02}
         },
         "Setup_H0": { "_calls": 1, "_time":       10.137, "_%":     0.30,
           "naefs": { "_calls": 1, "_time":        0.022, "_%":     0.00},
           "MolMec": { "_calls": 1, "_time":        0.000, "_%":     0.00},
           "kinefsm": { "_calls": 1, "_time":        0.731, "_%":     0.02},
           "nlefsm": { "_calls": 1, "_time":        1.629, "_%":     0.05},
           "DHSCF_Init": { "_calls": 1, "_time":        7.741, "_%":     0.23,
             "DHSCF1": { "_calls": 1, "_time":        0.059, "_%":     0.00,
               "INITMESH": { "_calls": 1, "_time":        0.000, "_%":     0.00}
             },
             "DHSCF2": { "_calls": 1, "_time":        7.660, "_%":     0.23,
               "REMESH": { "_calls": 1, "_time":        2.187, "_%":     0.06,
                 "INITMESH": { "_calls": 2, "_time":        2.159, "_%":     0.06,
                   "SPLOAD": { "_calls": 2, "_time":        2.133, "_%":     0.06}
                 }
               },
               "REORD": { "_calls": 2, "_time":        0.024, "_%":     0.00},
               "PHION": { "_calls": 1, "_time":        0.506, "_%":     0.01},
               "COMM_BSC": { "_calls": 1, "_time":        0.115, "_%":     0.00},
               "POISON": { "_calls": 1, "_time":        4.255, "_%":     0.13,
                 "fft": { "_calls": 2, "_time":        4.046, "_%":     0.12}
               }
             }
           }
         }
       },
       "IterSCF": { "_calls": 5, "_time":     3389.310, "_%":    99.59,
         "setup_H": { "_calls": 5, "_time":       34.421, "_%":     1.01,
           "DHSCF": { "_calls": 5, "_time":       34.214, "_%":     1.01,
             "DHSCF3": { "_calls": 5, "_time":       34.213, "_%":     1.01,
               "rhoofd": { "_calls": 5, "_time":        0.364, "_%":     0.01},
               "COMM_BSC": { "_calls": 10, "_time":        1.337, "_%":     0.04},
               "POISON": { "_calls": 5, "_time":       21.163, "_%":     0.62,
                 "fft": { "_calls": 10, "_time":       20.181, "_%":     0.59}
               },
               "XC": { "_calls": 5, "_time":        9.163, "_%":     0.27,
                 "COMM_BSC": { "_calls": 10, "_time":        0.983, "_%":     0.03},
                 "GXC-CellXC": { "_calls": 5, "_time":        7.902, "_%":     0.23,
                   "gridxc@cellXC": { "_calls": 5, "_time":        7.902, "_%":     0.23}
                 }
               },
               "vmat": { "_calls": 5, "_time":        0.380, "_%":     0.01}
             }
           }
         },
         "compute_dm": { "_calls": 5, "_time":     3354.459, "_%":    98.57,
           "elsi": { "_calls": 5, "_time":     3353.979, "_%":    98.55,
             "find nnz_g": { "_calls": 5, "_time":        0.000, "_%":     0.00},
             "elsi-solver": { "_calls": 5, "_time":     3353.917, "_%":    98.55}
           }
         },
         "MIXER": { "_calls": 5, "_time":        0.232, "_%":     0.01}
       },
       "state_analysis": { "_calls": 1, "_time":        0.055, "_%":     0.00},
       "siesta_move": { "_calls": 1, "_time":        0.000, "_%":     0.00}
     },
     "Analysis": { "_calls": 1, "_time":        0.219, "_%":     0.01,
       "optical": { "_calls": 1, "_time":        0.001, "_%":     0.00}
     }
   }
 }}
