[2024-09-11 09:33:48,388]:INFO: ######################################################################
[2024-09-11 09:33:48,389]:INFO: # benchmark: N2_1step
[2024-09-11 09:33:48,389]:INFO: # id: 1
[2024-09-11 09:33:48,389]:INFO: #
[2024-09-11 09:33:48,389]:INFO: # Quantum Espresso PWSCF benchmark v7.3.1
[2024-09-11 09:33:48,389]:INFO: ######################################################################
[2024-09-11 09:33:48,390]:DEBUG: ----- submit ( iter:0 | id:0 | parents: | cycle:0 | procs:1 ) -----
[2024-09-11 09:33:48,392]:DEBUG:   available parameter:
[2024-09-11 09:33:48,392]:DEBUG:          | parameter             | value                                    |
[2024-09-11 09:33:48,392]:DEBUG:          |-----------------------|------------------------------------------|
[2024-09-11 09:33:48,392]:DEBUG:          | accountno             | cin_staff                                |
[2024-09-11 09:33:48,392]:DEBUG:          | application_modules   | module load profile/chem-phys quantum-   |
[2024-09-11 09:33:48,392]:DEBUG:          |                       | espresso/7.3.1--intel-oneapi-mpi--       |
[2024-09-11 09:33:48,392]:DEBUG:          |                       | 2021.10.0--intel--2021.10.0-mkl          |
[2024-09-11 09:33:48,392]:DEBUG:          | args_executable       | -nk 1 -input cri3-480.in > cri3-480.out  |
[2024-09-11 09:33:48,392]:DEBUG:          | args_starter          | -n 32 --cpu-bind=cores --cpus-per-       |
[2024-09-11 09:33:48,392]:DEBUG:          |                       | task=$SLURM_CPUS_PER_TASK                |
[2024-09-11 09:33:48,392]:DEBUG:          | casename              | cri3-480                                 |
[2024-09-11 09:33:48,392]:DEBUG:          | cpuspertask           | 7                                        |
[2024-09-11 09:33:48,392]:DEBUG:          | dirin                 | inputfiles                               |
[2024-09-11 09:33:48,392]:DEBUG:          | dirout                | 'out'                                    |
[2024-09-11 09:33:48,392]:DEBUG:          | diskio                | 'none'                                   |
[2024-09-11 09:33:48,392]:DEBUG:          | env                   |                                          |
[2024-09-11 09:33:48,392]:DEBUG:          | exe_opt               | /leonardo_scratch/fast/Max3_devel_2/WP3/ |
[2024-09-11 09:33:48,392]:DEBUG:          |                       | qe/benchmarks/cri3/build_trad_scalapack/ |
[2024-09-11 09:33:48,392]:DEBUG:          |                       | bin/pw.x                                 |
[2024-09-11 09:33:48,392]:DEBUG:          | exe_platform          | pw.x                                     |
[2024-09-11 09:33:48,392]:DEBUG:          | executable            | pw.x                                     |
[2024-09-11 09:33:48,392]:DEBUG:          | fin                   | cri3-480.in                              |
[2024-09-11 09:33:48,392]:DEBUG:          | forces                | .FALSE.                                  |
[2024-09-11 09:33:48,392]:DEBUG:          | fout                  | cri3-480.out                             |
[2024-09-11 09:33:48,392]:DEBUG:          | install               | platform                                 |
[2024-09-11 09:33:48,392]:DEBUG:          | jube_benchmark_home   | /leonardo_scratch/fast/Max3_devel_2/WP3/ |
[2024-09-11 09:33:48,392]:DEBUG:          |                       | qe/benchmarks/cri3                       |
[2024-09-11 09:33:48,392]:DEBUG:          | jube_benchmark_id     | 1                                        |
[2024-09-11 09:33:48,392]:DEBUG:          | jube_benchmark_name   | N2_1step                                 |
[2024-09-11 09:33:48,392]:DEBUG:          | jube_benchmark_padid  | 000001                                   |
[2024-09-11 09:33:48,393]:DEBUG:          | jube_benchmark_rundir | /leonardo_scratch/fast/Max3_devel_2/WP3/ |
[2024-09-11 09:33:48,393]:DEBUG:          |                       | qe/benchmarks/cri3/N2_1step/000001       |
[2024-09-11 09:33:48,393]:DEBUG:          | jube_benchmark_start  | 2024-09-10T12:32:15                      |
[2024-09-11 09:33:48,393]:DEBUG:          | jube_step_cycles      | 1                                        |
[2024-09-11 09:33:48,393]:DEBUG:          | jube_step_iterations  | 1                                        |
[2024-09-11 09:33:48,393]:DEBUG:          | jube_step_name        | submit                                   |
[2024-09-11 09:33:48,393]:DEBUG:          | jube_wp_abspath       | /leonardo_scratch/fast/Max3_devel_2/WP3/ |
[2024-09-11 09:33:48,393]:DEBUG:          |                       | qe/benchmarks/cri3/N2_1step/000001/00000 |
[2024-09-11 09:33:48,393]:DEBUG:          |                       | 0_submit_N2np16omp7/work                 |
[2024-09-11 09:33:48,393]:DEBUG:          | jube_wp_cycle         | 0                                        |
[2024-09-11 09:33:48,393]:DEBUG:          | jube_wp_envlist       |                                          |
[2024-09-11 09:33:48,393]:DEBUG:          | jube_wp_envstr        |                                          |
[2024-09-11 09:33:48,393]:DEBUG:          | jube_wp_id            | 0                                        |
[2024-09-11 09:33:48,393]:DEBUG:          | jube_wp_iteration     | 0                                        |
[2024-09-11 09:33:48,393]:DEBUG:          | jube_wp_padid         | 000000                                   |
[2024-09-11 09:33:48,393]:DEBUG:          | jube_wp_relpath       | N2_1step/000001/000000_submit_N2np16omp7 |
[2024-09-11 09:33:48,393]:DEBUG:          |                       | /work                                    |
[2024-09-11 09:33:48,393]:DEBUG:          | mapping               | --cpu-bind=cores --cpus-per-             |
[2024-09-11 09:33:48,393]:DEBUG:          |                       | task=$SLURM_CPUS_PER_TASK                |
[2024-09-11 09:33:48,393]:DEBUG:          | maxstep               | 6                                        |
[2024-09-11 09:33:48,393]:DEBUG:          | measurement           |                                          |
[2024-09-11 09:33:48,393]:DEBUG:          | memnodemachine        | 330000                                   |
[2024-09-11 09:33:48,393]:DEBUG:          | minmem                | 330000                                   |
[2024-09-11 09:33:48,393]:DEBUG:          | modules               | module load profile/chem-phys quantum-   |
[2024-09-11 09:33:48,393]:DEBUG:          |                       | espresso/7.3.1--intel-oneapi-mpi--       |
[2024-09-11 09:33:48,393]:DEBUG:          |                       | 2021.10.0--intel--2021.10.0-mkl          |
[2024-09-11 09:33:48,393]:DEBUG:          | modules_platform      | module load profile/chem-phys quantum-   |
[2024-09-11 09:33:48,393]:DEBUG:          |                       | espresso/7.3.1--intel-oneapi-mpi--       |
[2024-09-11 09:33:48,393]:DEBUG:          |                       | 2021.10.0--intel--2021.10.0-mkl          |
[2024-09-11 09:33:48,393]:DEBUG:          | nbands                | 1                                        |
[2024-09-11 09:33:48,393]:DEBUG:          | ncores                | 112                                      |
[2024-09-11 09:33:48,393]:DEBUG:          | ncpus                 | 112                                      |
[2024-09-11 09:33:48,394]:DEBUG:          | nodes                 | 2                                        |
[2024-09-11 09:33:48,394]:DEBUG:          | nsocket               | 1                                        |
[2024-09-11 09:33:48,394]:DEBUG:          | pe                    | 7                                        |
[2024-09-11 09:33:48,394]:DEBUG:          | pools                 | 1                                        |
[2024-09-11 09:33:48,394]:DEBUG:          | postprocess           |                                          |
[2024-09-11 09:33:48,394]:DEBUG:          | preprocess            |                                          |
[2024-09-11 09:33:48,394]:DEBUG:          | qos                   | normal                                   |
[2024-09-11 09:33:48,394]:DEBUG:          | queue                 | dcgp_usr_prod                            |
[2024-09-11 09:33:48,394]:DEBUG:          | ready_file            | ready                                    |
[2024-09-11 09:33:48,394]:DEBUG:          | shared_folder         | shared                                   |
[2024-09-11 09:33:48,394]:DEBUG:          | shared_job_info       | shared/jobid                             |
[2024-09-11 09:33:48,394]:DEBUG:          | starter               | srun                                     |
[2024-09-11 09:33:48,394]:DEBUG:          | submit                | sbatch                                   |
[2024-09-11 09:33:48,394]:DEBUG:          | submit_script         | submit.job                               |
[2024-09-11 09:33:48,394]:DEBUG:          | tasks                 | 32                                       |
[2024-09-11 09:33:48,394]:DEBUG:          | taskspernode          | 16                                       |
[2024-09-11 09:33:48,394]:DEBUG:          | threads               | 112                                      |
[2024-09-11 09:33:48,394]:DEBUG:          | threadspertask        | 7                                        |
[2024-09-11 09:33:48,394]:DEBUG:          | timelimit             | 01:00:00                                 |
[2024-09-11 09:33:48,394]:DEBUG:          | wrapname              |                                          |
[2024-09-11 09:33:48,394]:DEBUG:          | wrappost              |                                          |
[2024-09-11 09:33:48,394]:DEBUG:          | wrappre               |                                          |
[2024-09-11 09:33:48,397]:DEBUG: >>> rm -rf 'out'
[2024-09-11 09:33:48,397]:DEBUG:     stdout: /leonardo_scratch/fast/Max3_devel_2/WP3/qe/benchmarks/cri3/N2_1step/000001/000000_submit_N2np16omp7/work/stdout
[2024-09-11 09:33:48,397]:DEBUG:     stderr: /leonardo_scratch/fast/Max3_devel_2/WP3/qe/benchmarks/cri3/N2_1step/000001/000000_submit_N2np16omp7/work/stderr
[2024-09-11 09:33:48,411]:DEBUG: Create new workpackages for workpackage submit(0)
[2024-09-11 09:33:48,411]:DEBUG:   0 new workpackages created
[2024-09-11 09:33:48,426]:DEBUG: ----- submit ( iter:0 | id:1 | parents: | cycle:0 | procs:1 ) -----
[2024-09-11 09:33:48,428]:DEBUG:   available parameter:
[2024-09-11 09:33:48,428]:DEBUG:          | parameter             | value                                    |
[2024-09-11 09:33:48,428]:DEBUG:          |-----------------------|------------------------------------------|
[2024-09-11 09:33:48,428]:DEBUG:          | accountno             | cin_staff                                |
[2024-09-11 09:33:48,428]:DEBUG:          | application_modules   | module load profile/chem-phys quantum-   |
[2024-09-11 09:33:48,428]:DEBUG:          |                       | espresso/7.3.1--intel-oneapi-mpi--       |
[2024-09-11 09:33:48,428]:DEBUG:          |                       | 2021.10.0--intel--2021.10.0-mkl          |
[2024-09-11 09:33:48,428]:DEBUG:          | args_executable       | -nk 1 -input cri3-480.in > cri3-480.out  |
[2024-09-11 09:33:48,428]:DEBUG:          | args_starter          | -n 56 --cpu-bind=cores --cpus-per-       |
[2024-09-11 09:33:48,428]:DEBUG:          |                       | task=$SLURM_CPUS_PER_TASK                |
[2024-09-11 09:33:48,428]:DEBUG:          | casename              | cri3-480                                 |
[2024-09-11 09:33:48,428]:DEBUG:          | cpuspertask           | 4                                        |
[2024-09-11 09:33:48,428]:DEBUG:          | dirin                 | inputfiles                               |
[2024-09-11 09:33:48,428]:DEBUG:          | dirout                | 'out'                                    |
[2024-09-11 09:33:48,428]:DEBUG:          | diskio                | 'none'                                   |
[2024-09-11 09:33:48,428]:DEBUG:          | env                   |                                          |
[2024-09-11 09:33:48,428]:DEBUG:          | exe_opt               | /leonardo_scratch/fast/Max3_devel_2/WP3/ |
[2024-09-11 09:33:48,428]:DEBUG:          |                       | qe/benchmarks/cri3/build_trad_scalapack/ |
[2024-09-11 09:33:48,428]:DEBUG:          |                       | bin/pw.x                                 |
[2024-09-11 09:33:48,428]:DEBUG:          | exe_platform          | pw.x                                     |
[2024-09-11 09:33:48,428]:DEBUG:          | executable            | pw.x                                     |
[2024-09-11 09:33:48,428]:DEBUG:          | fin                   | cri3-480.in                              |
[2024-09-11 09:33:48,428]:DEBUG:          | forces                | .FALSE.                                  |
[2024-09-11 09:33:48,429]:DEBUG:          | fout                  | cri3-480.out                             |
[2024-09-11 09:33:48,429]:DEBUG:          | install               | platform                                 |
[2024-09-11 09:33:48,429]:DEBUG:          | jube_benchmark_home   | /leonardo_scratch/fast/Max3_devel_2/WP3/ |
[2024-09-11 09:33:48,429]:DEBUG:          |                       | qe/benchmarks/cri3                       |
[2024-09-11 09:33:48,429]:DEBUG:          | jube_benchmark_id     | 1                                        |
[2024-09-11 09:33:48,429]:DEBUG:          | jube_benchmark_name   | N2_1step                                 |
[2024-09-11 09:33:48,429]:DEBUG:          | jube_benchmark_padid  | 000001                                   |
[2024-09-11 09:33:48,429]:DEBUG:          | jube_benchmark_rundir | /leonardo_scratch/fast/Max3_devel_2/WP3/ |
[2024-09-11 09:33:48,429]:DEBUG:          |                       | qe/benchmarks/cri3/N2_1step/000001       |
[2024-09-11 09:33:48,429]:DEBUG:          | jube_benchmark_start  | 2024-09-10T12:32:15                      |
[2024-09-11 09:33:48,429]:DEBUG:          | jube_step_cycles      | 1                                        |
[2024-09-11 09:33:48,429]:DEBUG:          | jube_step_iterations  | 1                                        |
[2024-09-11 09:33:48,429]:DEBUG:          | jube_step_name        | submit                                   |
[2024-09-11 09:33:48,429]:DEBUG:          | jube_wp_abspath       | /leonardo_scratch/fast/Max3_devel_2/WP3/ |
[2024-09-11 09:33:48,429]:DEBUG:          |                       | qe/benchmarks/cri3/N2_1step/000001/00000 |
[2024-09-11 09:33:48,429]:DEBUG:          |                       | 1_submit_N2np28omp4/work                 |
[2024-09-11 09:33:48,429]:DEBUG:          | jube_wp_cycle         | 0                                        |
[2024-09-11 09:33:48,429]:DEBUG:          | jube_wp_envlist       |                                          |
[2024-09-11 09:33:48,429]:DEBUG:          | jube_wp_envstr        |                                          |
[2024-09-11 09:33:48,429]:DEBUG:          | jube_wp_id            | 1                                        |
[2024-09-11 09:33:48,429]:DEBUG:          | jube_wp_iteration     | 0                                        |
[2024-09-11 09:33:48,429]:DEBUG:          | jube_wp_padid         | 000001                                   |
[2024-09-11 09:33:48,429]:DEBUG:          | jube_wp_relpath       | N2_1step/000001/000001_submit_N2np28omp4 |
[2024-09-11 09:33:48,429]:DEBUG:          |                       | /work                                    |
[2024-09-11 09:33:48,429]:DEBUG:          | mapping               | --cpu-bind=cores --cpus-per-             |
[2024-09-11 09:33:48,429]:DEBUG:          |                       | task=$SLURM_CPUS_PER_TASK                |
[2024-09-11 09:33:48,429]:DEBUG:          | maxstep               | 6                                        |
[2024-09-11 09:33:48,429]:DEBUG:          | measurement           |                                          |
[2024-09-11 09:33:48,429]:DEBUG:          | memnodemachine        | 330000                                   |
[2024-09-11 09:33:48,429]:DEBUG:          | minmem                | 330000                                   |
[2024-09-11 09:33:48,429]:DEBUG:          | modules               | module load profile/chem-phys quantum-   |
[2024-09-11 09:33:48,429]:DEBUG:          |                       | espresso/7.3.1--intel-oneapi-mpi--       |
[2024-09-11 09:33:48,429]:DEBUG:          |                       | 2021.10.0--intel--2021.10.0-mkl          |
[2024-09-11 09:33:48,430]:DEBUG:          | modules_platform      | module load profile/chem-phys quantum-   |
[2024-09-11 09:33:48,430]:DEBUG:          |                       | espresso/7.3.1--intel-oneapi-mpi--       |
[2024-09-11 09:33:48,430]:DEBUG:          |                       | 2021.10.0--intel--2021.10.0-mkl          |
[2024-09-11 09:33:48,430]:DEBUG:          | nbands                | 1                                        |
[2024-09-11 09:33:48,430]:DEBUG:          | ncores                | 112                                      |
[2024-09-11 09:33:48,430]:DEBUG:          | ncpus                 | 112                                      |
[2024-09-11 09:33:48,430]:DEBUG:          | nodes                 | 2                                        |
[2024-09-11 09:33:48,430]:DEBUG:          | nsocket               | 1                                        |
[2024-09-11 09:33:48,430]:DEBUG:          | pe                    | 4                                        |
[2024-09-11 09:33:48,430]:DEBUG:          | pools                 | 1                                        |
[2024-09-11 09:33:48,430]:DEBUG:          | postprocess           |                                          |
[2024-09-11 09:33:48,430]:DEBUG:          | preprocess            |                                          |
[2024-09-11 09:33:48,430]:DEBUG:          | qos                   | normal                                   |
[2024-09-11 09:33:48,430]:DEBUG:          | queue                 | dcgp_usr_prod                            |
[2024-09-11 09:33:48,430]:DEBUG:          | ready_file            | ready                                    |
[2024-09-11 09:33:48,430]:DEBUG:          | shared_folder         | shared                                   |
[2024-09-11 09:33:48,430]:DEBUG:          | shared_job_info       | shared/jobid                             |
[2024-09-11 09:33:48,430]:DEBUG:          | starter               | srun                                     |
[2024-09-11 09:33:48,430]:DEBUG:          | submit                | sbatch                                   |
[2024-09-11 09:33:48,430]:DEBUG:          | submit_script         | submit.job                               |
[2024-09-11 09:33:48,430]:DEBUG:          | tasks                 | 56                                       |
[2024-09-11 09:33:48,430]:DEBUG:          | taskspernode          | 28                                       |
[2024-09-11 09:33:48,430]:DEBUG:          | threads               | 112                                      |
[2024-09-11 09:33:48,430]:DEBUG:          | threadspertask        | 4                                        |
[2024-09-11 09:33:48,430]:DEBUG:          | timelimit             | 01:00:00                                 |
[2024-09-11 09:33:48,430]:DEBUG:          | wrapname              |                                          |
[2024-09-11 09:33:48,430]:DEBUG:          | wrappost              |                                          |
[2024-09-11 09:33:48,430]:DEBUG:          | wrappre               |                                          |
[2024-09-11 09:33:48,434]:DEBUG: >>> rm -rf 'out'
[2024-09-11 09:33:48,434]:DEBUG:     stdout: /leonardo_scratch/fast/Max3_devel_2/WP3/qe/benchmarks/cri3/N2_1step/000001/000001_submit_N2np28omp4/work/stdout
[2024-09-11 09:33:48,435]:DEBUG:     stderr: /leonardo_scratch/fast/Max3_devel_2/WP3/qe/benchmarks/cri3/N2_1step/000001/000001_submit_N2np28omp4/work/stderr
[2024-09-11 09:33:48,449]:DEBUG: Create new workpackages for workpackage submit(1)
[2024-09-11 09:33:48,449]:DEBUG:   0 new workpackages created
[2024-09-11 09:33:48,473]:DEBUG: ----- submit ( iter:0 | id:2 | parents: | cycle:0 | procs:1 ) -----
[2024-09-11 09:33:48,476]:DEBUG:   available parameter:
[2024-09-11 09:33:48,476]:DEBUG:          | parameter             | value                                    |
[2024-09-11 09:33:48,476]:DEBUG:          |-----------------------|------------------------------------------|
[2024-09-11 09:33:48,477]:DEBUG:          | accountno             | cin_staff                                |
[2024-09-11 09:33:48,477]:DEBUG:          | application_modules   | module load profile/chem-phys quantum-   |
[2024-09-11 09:33:48,477]:DEBUG:          |                       | espresso/7.3.1--intel-oneapi-mpi--       |
[2024-09-11 09:33:48,477]:DEBUG:          |                       | 2021.10.0--intel--2021.10.0-mkl          |
[2024-09-11 09:33:48,477]:DEBUG:          | args_executable       | -nk 1 -input cri3-480.in > cri3-480.out  |
[2024-09-11 09:33:48,477]:DEBUG:          | args_starter          | -n 112 --cpu-bind=cores --cpus-per-      |
[2024-09-11 09:33:48,477]:DEBUG:          |                       | task=$SLURM_CPUS_PER_TASK                |
[2024-09-11 09:33:48,477]:DEBUG:          | casename              | cri3-480                                 |
[2024-09-11 09:33:48,477]:DEBUG:          | cpuspertask           | 2                                        |
[2024-09-11 09:33:48,477]:DEBUG:          | dirin                 | inputfiles                               |
[2024-09-11 09:33:48,477]:DEBUG:          | dirout                | 'out'                                    |
[2024-09-11 09:33:48,477]:DEBUG:          | diskio                | 'none'                                   |
[2024-09-11 09:33:48,477]:DEBUG:          | env                   |                                          |
[2024-09-11 09:33:48,477]:DEBUG:          | exe_opt               | /leonardo_scratch/fast/Max3_devel_2/WP3/ |
[2024-09-11 09:33:48,477]:DEBUG:          |                       | qe/benchmarks/cri3/build_trad_scalapack/ |
[2024-09-11 09:33:48,477]:DEBUG:          |                       | bin/pw.x                                 |
[2024-09-11 09:33:48,477]:DEBUG:          | exe_platform          | pw.x                                     |
[2024-09-11 09:33:48,477]:DEBUG:          | executable            | pw.x                                     |
[2024-09-11 09:33:48,477]:DEBUG:          | fin                   | cri3-480.in                              |
[2024-09-11 09:33:48,477]:DEBUG:          | forces                | .FALSE.                                  |
[2024-09-11 09:33:48,477]:DEBUG:          | fout                  | cri3-480.out                             |
[2024-09-11 09:33:48,477]:DEBUG:          | install               | platform                                 |
[2024-09-11 09:33:48,478]:DEBUG:          | jube_benchmark_home   | /leonardo_scratch/fast/Max3_devel_2/WP3/ |
[2024-09-11 09:33:48,478]:DEBUG:          |                       | qe/benchmarks/cri3                       |
[2024-09-11 09:33:48,478]:DEBUG:          | jube_benchmark_id     | 1                                        |
[2024-09-11 09:33:48,478]:DEBUG:          | jube_benchmark_name   | N2_1step                                 |
[2024-09-11 09:33:48,478]:DEBUG:          | jube_benchmark_padid  | 000001                                   |
[2024-09-11 09:33:48,478]:DEBUG:          | jube_benchmark_rundir | /leonardo_scratch/fast/Max3_devel_2/WP3/ |
[2024-09-11 09:33:48,478]:DEBUG:          |                       | qe/benchmarks/cri3/N2_1step/000001       |
[2024-09-11 09:33:48,478]:DEBUG:          | jube_benchmark_start  | 2024-09-10T12:32:15                      |
[2024-09-11 09:33:48,478]:DEBUG:          | jube_step_cycles      | 1                                        |
[2024-09-11 09:33:48,478]:DEBUG:          | jube_step_iterations  | 1                                        |
[2024-09-11 09:33:48,478]:DEBUG:          | jube_step_name        | submit                                   |
[2024-09-11 09:33:48,478]:DEBUG:          | jube_wp_abspath       | /leonardo_scratch/fast/Max3_devel_2/WP3/ |
[2024-09-11 09:33:48,478]:DEBUG:          |                       | qe/benchmarks/cri3/N2_1step/000001/00000 |
[2024-09-11 09:33:48,478]:DEBUG:          |                       | 2_submit_N2np56omp2/work                 |
[2024-09-11 09:33:48,478]:DEBUG:          | jube_wp_cycle         | 0                                        |
[2024-09-11 09:33:48,478]:DEBUG:          | jube_wp_envlist       |                                          |
[2024-09-11 09:33:48,478]:DEBUG:          | jube_wp_envstr        |                                          |
[2024-09-11 09:33:48,478]:DEBUG:          | jube_wp_id            | 2                                        |
[2024-09-11 09:33:48,478]:DEBUG:          | jube_wp_iteration     | 0                                        |
[2024-09-11 09:33:48,478]:DEBUG:          | jube_wp_padid         | 000002                                   |
[2024-09-11 09:33:48,478]:DEBUG:          | jube_wp_relpath       | N2_1step/000001/000002_submit_N2np56omp2 |
[2024-09-11 09:33:48,478]:DEBUG:          |                       | /work                                    |
[2024-09-11 09:33:48,478]:DEBUG:          | mapping               | --cpu-bind=cores --cpus-per-             |
[2024-09-11 09:33:48,478]:DEBUG:          |                       | task=$SLURM_CPUS_PER_TASK                |
[2024-09-11 09:33:48,478]:DEBUG:          | maxstep               | 6                                        |
[2024-09-11 09:33:48,478]:DEBUG:          | measurement           |                                          |
[2024-09-11 09:33:48,478]:DEBUG:          | memnodemachine        | 330000                                   |
[2024-09-11 09:33:48,478]:DEBUG:          | minmem                | 330000                                   |
[2024-09-11 09:33:48,478]:DEBUG:          | modules               | module load profile/chem-phys quantum-   |
[2024-09-11 09:33:48,478]:DEBUG:          |                       | espresso/7.3.1--intel-oneapi-mpi--       |
[2024-09-11 09:33:48,478]:DEBUG:          |                       | 2021.10.0--intel--2021.10.0-mkl          |
[2024-09-11 09:33:48,478]:DEBUG:          | modules_platform      | module load profile/chem-phys quantum-   |
[2024-09-11 09:33:48,479]:DEBUG:          |                       | espresso/7.3.1--intel-oneapi-mpi--       |
[2024-09-11 09:33:48,479]:DEBUG:          |                       | 2021.10.0--intel--2021.10.0-mkl          |
[2024-09-11 09:33:48,479]:DEBUG:          | nbands                | 1                                        |
[2024-09-11 09:33:48,479]:DEBUG:          | ncores                | 112                                      |
[2024-09-11 09:33:48,479]:DEBUG:          | ncpus                 | 112                                      |
[2024-09-11 09:33:48,479]:DEBUG:          | nodes                 | 2                                        |
[2024-09-11 09:33:48,479]:DEBUG:          | nsocket               | 1                                        |
[2024-09-11 09:33:48,479]:DEBUG:          | pe                    | 2                                        |
[2024-09-11 09:33:48,479]:DEBUG:          | pools                 | 1                                        |
[2024-09-11 09:33:48,479]:DEBUG:          | postprocess           |                                          |
[2024-09-11 09:33:48,479]:DEBUG:          | preprocess            |                                          |
[2024-09-11 09:33:48,479]:DEBUG:          | qos                   | normal                                   |
[2024-09-11 09:33:48,479]:DEBUG:          | queue                 | dcgp_usr_prod                            |
[2024-09-11 09:33:48,479]:DEBUG:          | ready_file            | ready                                    |
[2024-09-11 09:33:48,479]:DEBUG:          | shared_folder         | shared                                   |
[2024-09-11 09:33:48,479]:DEBUG:          | shared_job_info       | shared/jobid                             |
[2024-09-11 09:33:48,479]:DEBUG:          | starter               | srun                                     |
[2024-09-11 09:33:48,479]:DEBUG:          | submit                | sbatch                                   |
[2024-09-11 09:33:48,479]:DEBUG:          | submit_script         | submit.job                               |
[2024-09-11 09:33:48,479]:DEBUG:          | tasks                 | 112                                      |
[2024-09-11 09:33:48,479]:DEBUG:          | taskspernode          | 56                                       |
[2024-09-11 09:33:48,479]:DEBUG:          | threads               | 112                                      |
[2024-09-11 09:33:48,479]:DEBUG:          | threadspertask        | 2                                        |
[2024-09-11 09:33:48,479]:DEBUG:          | timelimit             | 01:00:00                                 |
[2024-09-11 09:33:48,479]:DEBUG:          | wrapname              |                                          |
[2024-09-11 09:33:48,479]:DEBUG:          | wrappost              |                                          |
[2024-09-11 09:33:48,479]:DEBUG:          | wrappre               |                                          |
[2024-09-11 09:33:48,483]:DEBUG: >>> rm -rf 'out'
[2024-09-11 09:33:48,483]:DEBUG:     stdout: /leonardo_scratch/fast/Max3_devel_2/WP3/qe/benchmarks/cri3/N2_1step/000001/000002_submit_N2np56omp2/work/stdout
[2024-09-11 09:33:48,483]:DEBUG:     stderr: /leonardo_scratch/fast/Max3_devel_2/WP3/qe/benchmarks/cri3/N2_1step/000001/000002_submit_N2np56omp2/work/stderr
[2024-09-11 09:33:48,495]:DEBUG: Create new workpackages for workpackage submit(2)
[2024-09-11 09:33:48,496]:DEBUG:   0 new workpackages created
[2024-09-11 09:33:48,518]:DEBUG: ----- submit ( iter:0 | id:3 | parents: | cycle:0 | procs:1 ) -----
[2024-09-11 09:33:48,520]:DEBUG:   available parameter:
[2024-09-11 09:33:48,520]:DEBUG:          | parameter             | value                                    |
[2024-09-11 09:33:48,520]:DEBUG:          |-----------------------|------------------------------------------|
[2024-09-11 09:33:48,520]:DEBUG:          | accountno             | cin_staff                                |
[2024-09-11 09:33:48,520]:DEBUG:          | application_modules   | module load profile/chem-phys quantum-   |
[2024-09-11 09:33:48,520]:DEBUG:          |                       | espresso/7.3.1--intel-oneapi-mpi--       |
[2024-09-11 09:33:48,520]:DEBUG:          |                       | 2021.10.0--intel--2021.10.0-mkl          |
[2024-09-11 09:33:48,520]:DEBUG:          | args_executable       | -nk 1 -input cri3-480.in > cri3-480.out  |
[2024-09-11 09:33:48,520]:DEBUG:          | args_starter          | -n 224 --cpu-bind=cores --cpus-per-      |
[2024-09-11 09:33:48,520]:DEBUG:          |                       | task=$SLURM_CPUS_PER_TASK                |
[2024-09-11 09:33:48,520]:DEBUG:          | casename              | cri3-480                                 |
[2024-09-11 09:33:48,520]:DEBUG:          | cpuspertask           | 1                                        |
[2024-09-11 09:33:48,520]:DEBUG:          | dirin                 | inputfiles                               |
[2024-09-11 09:33:48,520]:DEBUG:          | dirout                | 'out'                                    |
[2024-09-11 09:33:48,520]:DEBUG:          | diskio                | 'none'                                   |
[2024-09-11 09:33:48,520]:DEBUG:          | env                   |                                          |
[2024-09-11 09:33:48,520]:DEBUG:          | exe_opt               | /leonardo_scratch/fast/Max3_devel_2/WP3/ |
[2024-09-11 09:33:48,520]:DEBUG:          |                       | qe/benchmarks/cri3/build_trad_scalapack/ |
[2024-09-11 09:33:48,520]:DEBUG:          |                       | bin/pw.x                                 |
[2024-09-11 09:33:48,520]:DEBUG:          | exe_platform          | pw.x                                     |
[2024-09-11 09:33:48,521]:DEBUG:          | executable            | pw.x                                     |
[2024-09-11 09:33:48,521]:DEBUG:          | fin                   | cri3-480.in                              |
[2024-09-11 09:33:48,521]:DEBUG:          | forces                | .FALSE.                                  |
[2024-09-11 09:33:48,521]:DEBUG:          | fout                  | cri3-480.out                             |
[2024-09-11 09:33:48,521]:DEBUG:          | install               | platform                                 |
[2024-09-11 09:33:48,521]:DEBUG:          | jube_benchmark_home   | /leonardo_scratch/fast/Max3_devel_2/WP3/ |
[2024-09-11 09:33:48,521]:DEBUG:          |                       | qe/benchmarks/cri3                       |
[2024-09-11 09:33:48,521]:DEBUG:          | jube_benchmark_id     | 1                                        |
[2024-09-11 09:33:48,521]:DEBUG:          | jube_benchmark_name   | N2_1step                                 |
[2024-09-11 09:33:48,521]:DEBUG:          | jube_benchmark_padid  | 000001                                   |
[2024-09-11 09:33:48,521]:DEBUG:          | jube_benchmark_rundir | /leonardo_scratch/fast/Max3_devel_2/WP3/ |
[2024-09-11 09:33:48,521]:DEBUG:          |                       | qe/benchmarks/cri3/N2_1step/000001       |
[2024-09-11 09:33:48,521]:DEBUG:          | jube_benchmark_start  | 2024-09-10T12:32:15                      |
[2024-09-11 09:33:48,521]:DEBUG:          | jube_step_cycles      | 1                                        |
[2024-09-11 09:33:48,521]:DEBUG:          | jube_step_iterations  | 1                                        |
[2024-09-11 09:33:48,521]:DEBUG:          | jube_step_name        | submit                                   |
[2024-09-11 09:33:48,521]:DEBUG:          | jube_wp_abspath       | /leonardo_scratch/fast/Max3_devel_2/WP3/ |
[2024-09-11 09:33:48,521]:DEBUG:          |                       | qe/benchmarks/cri3/N2_1step/000001/00000 |
[2024-09-11 09:33:48,521]:DEBUG:          |                       | 3_submit_N2np112omp1/work                |
[2024-09-11 09:33:48,521]:DEBUG:          | jube_wp_cycle         | 0                                        |
[2024-09-11 09:33:48,521]:DEBUG:          | jube_wp_envlist       |                                          |
[2024-09-11 09:33:48,521]:DEBUG:          | jube_wp_envstr        |                                          |
[2024-09-11 09:33:48,521]:DEBUG:          | jube_wp_id            | 3                                        |
[2024-09-11 09:33:48,521]:DEBUG:          | jube_wp_iteration     | 0                                        |
[2024-09-11 09:33:48,521]:DEBUG:          | jube_wp_padid         | 000003                                   |
[2024-09-11 09:33:48,521]:DEBUG:          | jube_wp_relpath       | N2_1step/000001/000003_submit_N2np112omp |
[2024-09-11 09:33:48,521]:DEBUG:          |                       | 1/work                                   |
[2024-09-11 09:33:48,521]:DEBUG:          | mapping               | --cpu-bind=cores --cpus-per-             |
[2024-09-11 09:33:48,521]:DEBUG:          |                       | task=$SLURM_CPUS_PER_TASK                |
[2024-09-11 09:33:48,521]:DEBUG:          | maxstep               | 6                                        |
[2024-09-11 09:33:48,521]:DEBUG:          | measurement           |                                          |
[2024-09-11 09:33:48,521]:DEBUG:          | memnodemachine        | 330000                                   |
[2024-09-11 09:33:48,521]:DEBUG:          | minmem                | 330000                                   |
[2024-09-11 09:33:48,521]:DEBUG:          | modules               | module load profile/chem-phys quantum-   |
[2024-09-11 09:33:48,522]:DEBUG:          |                       | espresso/7.3.1--intel-oneapi-mpi--       |
[2024-09-11 09:33:48,522]:DEBUG:          |                       | 2021.10.0--intel--2021.10.0-mkl          |
[2024-09-11 09:33:48,522]:DEBUG:          | modules_platform      | module load profile/chem-phys quantum-   |
[2024-09-11 09:33:48,522]:DEBUG:          |                       | espresso/7.3.1--intel-oneapi-mpi--       |
[2024-09-11 09:33:48,522]:DEBUG:          |                       | 2021.10.0--intel--2021.10.0-mkl          |
[2024-09-11 09:33:48,522]:DEBUG:          | nbands                | 1                                        |
[2024-09-11 09:33:48,522]:DEBUG:          | ncores                | 112                                      |
[2024-09-11 09:33:48,522]:DEBUG:          | ncpus                 | 112                                      |
[2024-09-11 09:33:48,522]:DEBUG:          | nodes                 | 2                                        |
[2024-09-11 09:33:48,522]:DEBUG:          | nsocket               | 1                                        |
[2024-09-11 09:33:48,522]:DEBUG:          | pe                    | 1                                        |
[2024-09-11 09:33:48,522]:DEBUG:          | pools                 | 1                                        |
[2024-09-11 09:33:48,522]:DEBUG:          | postprocess           |                                          |
[2024-09-11 09:33:48,522]:DEBUG:          | preprocess            |                                          |
[2024-09-11 09:33:48,522]:DEBUG:          | qos                   | normal                                   |
[2024-09-11 09:33:48,522]:DEBUG:          | queue                 | dcgp_usr_prod                            |
[2024-09-11 09:33:48,522]:DEBUG:          | ready_file            | ready                                    |
[2024-09-11 09:33:48,522]:DEBUG:          | shared_folder         | shared                                   |
[2024-09-11 09:33:48,522]:DEBUG:          | shared_job_info       | shared/jobid                             |
[2024-09-11 09:33:48,522]:DEBUG:          | starter               | srun                                     |
[2024-09-11 09:33:48,522]:DEBUG:          | submit                | sbatch                                   |
[2024-09-11 09:33:48,522]:DEBUG:          | submit_script         | submit.job                               |
[2024-09-11 09:33:48,522]:DEBUG:          | tasks                 | 224                                      |
[2024-09-11 09:33:48,522]:DEBUG:          | taskspernode          | 112                                      |
[2024-09-11 09:33:48,522]:DEBUG:          | threads               | 112                                      |
[2024-09-11 09:33:48,522]:DEBUG:          | threadspertask        | 1                                        |
[2024-09-11 09:33:48,522]:DEBUG:          | timelimit             | 01:00:00                                 |
[2024-09-11 09:33:48,522]:DEBUG:          | wrapname              |                                          |
[2024-09-11 09:33:48,522]:DEBUG:          | wrappost              |                                          |
[2024-09-11 09:33:48,522]:DEBUG:          | wrappre               |                                          |
[2024-09-11 09:33:48,526]:DEBUG: >>> rm -rf 'out'
[2024-09-11 09:33:48,526]:DEBUG:     stdout: /leonardo_scratch/fast/Max3_devel_2/WP3/qe/benchmarks/cri3/N2_1step/000001/000003_submit_N2np112omp1/work/stdout
[2024-09-11 09:33:48,526]:DEBUG:     stderr: /leonardo_scratch/fast/Max3_devel_2/WP3/qe/benchmarks/cri3/N2_1step/000001/000003_submit_N2np112omp1/work/stderr
[2024-09-11 09:33:48,538]:DEBUG: Create new workpackages for workpackage submit(3)
[2024-09-11 09:33:48,539]:DEBUG:   0 new workpackages created
[2024-09-11 09:33:48,561]:INFO:   | stepname | all | open | wait | error | done |
[2024-09-11 09:33:48,561]:INFO:   |----------|-----|------|------|-------|------|
[2024-09-11 09:33:48,561]:INFO:   |   submit |   4 |    0 |    0 |     0 |    4 |
[2024-09-11 09:33:48,561]:INFO: 
[2024-09-11 09:33:48,561]:INFO: >>>> Benchmark information and further useful commands:
[2024-09-11 09:33:48,561]:INFO: >>>>       id: 1
[2024-09-11 09:33:48,561]:INFO: >>>>   handle: N2_1step
[2024-09-11 09:33:48,561]:INFO: >>>>      dir: N2_1step/000001
[2024-09-11 09:33:48,561]:INFO: >>>>  analyse: jube analyse N2_1step --id 1
[2024-09-11 09:33:48,561]:INFO: >>>>   result: jube result N2_1step --id 1
[2024-09-11 09:33:48,562]:INFO: >>>>     info: jube info N2_1step --id 1
[2024-09-11 09:33:48,562]:INFO: >>>>      log: jube log N2_1step --id 1
[2024-09-11 09:33:48,562]:INFO: ######################################################################
[2024-09-11 09:33:55,267]:INFO: ######################################################################
[2024-09-11 09:33:55,267]:INFO: # benchmark: N2_1step
[2024-09-11 09:33:55,267]:INFO: # id: 1
[2024-09-11 09:33:55,267]:INFO: #
[2024-09-11 09:33:55,267]:INFO: # Quantum Espresso PWSCF benchmark v7.3.1
[2024-09-11 09:33:55,267]:INFO: ######################################################################
[2024-09-11 09:33:55,268]:DEBUG: Create new workpackages for workpackage submit(0)
[2024-09-11 09:33:55,268]:DEBUG:   0 new workpackages created
[2024-09-11 09:33:55,290]:DEBUG: Create new workpackages for workpackage submit(1)
[2024-09-11 09:33:55,290]:DEBUG:   0 new workpackages created
[2024-09-11 09:33:55,303]:DEBUG: Create new workpackages for workpackage submit(2)
[2024-09-11 09:33:55,303]:DEBUG:   0 new workpackages created
[2024-09-11 09:33:55,315]:DEBUG: Create new workpackages for workpackage submit(3)
[2024-09-11 09:33:55,316]:DEBUG:   0 new workpackages created
[2024-09-11 09:33:55,328]:INFO:   | stepname | all | open | wait | error | done |
[2024-09-11 09:33:55,328]:INFO:   |----------|-----|------|------|-------|------|
[2024-09-11 09:33:55,328]:INFO:   |   submit |   4 |    0 |    0 |     0 |    4 |
[2024-09-11 09:33:55,328]:INFO: 
[2024-09-11 09:33:55,328]:INFO: >>>> Benchmark information and further useful commands:
[2024-09-11 09:33:55,328]:INFO: >>>>       id: 1
[2024-09-11 09:33:55,328]:INFO: >>>>   handle: N2_1step
[2024-09-11 09:33:55,328]:INFO: >>>>      dir: N2_1step/000001
[2024-09-11 09:33:55,328]:INFO: >>>>  analyse: jube analyse N2_1step --id 1
[2024-09-11 09:33:55,328]:INFO: >>>>   result: jube result N2_1step --id 1
[2024-09-11 09:33:55,328]:INFO: >>>>     info: jube info N2_1step --id 1
[2024-09-11 09:33:55,329]:INFO: >>>>      log: jube log N2_1step --id 1
[2024-09-11 09:33:55,329]:INFO: ######################################################################
[2024-09-18 08:19:48,023]:INFO: ######################################################################
[2024-09-18 08:19:48,023]:INFO: # benchmark: N2_1step
[2024-09-18 08:19:48,023]:INFO: # id: 3
[2024-09-18 08:19:48,023]:INFO: #
[2024-09-18 08:19:48,023]:INFO: # Quantum Espresso PWSCF benchmark v7.3.1
[2024-09-18 08:19:48,024]:INFO: ######################################################################
[2024-09-18 08:19:48,024]:DEBUG: Create new workpackages for workpackage submit(0)
[2024-09-18 08:19:48,024]:DEBUG:   0 new workpackages created
[2024-09-18 08:19:48,036]:DEBUG: Create new workpackages for workpackage submit(1)
[2024-09-18 08:19:48,036]:DEBUG:   0 new workpackages created
[2024-09-18 08:19:48,049]:DEBUG: Create new workpackages for workpackage submit(2)
[2024-09-18 08:19:48,049]:DEBUG:   0 new workpackages created
[2024-09-18 08:19:48,061]:DEBUG: Create new workpackages for workpackage submit(3)
[2024-09-18 08:19:48,061]:DEBUG:   0 new workpackages created
[2024-09-18 08:19:48,073]:INFO:   | stepname | all | open | wait | error | done |
[2024-09-18 08:19:48,073]:INFO:   |----------|-----|------|------|-------|------|
[2024-09-18 08:19:48,073]:INFO:   |   submit |   4 |    0 |    0 |     0 |    4 |
[2024-09-18 08:19:48,073]:INFO: 
[2024-09-18 08:19:48,073]:INFO: >>>> Benchmark information and further useful commands:
[2024-09-18 08:19:48,073]:INFO: >>>>       id: 3
[2024-09-18 08:19:48,073]:INFO: >>>>   handle: logfiles
[2024-09-18 08:19:48,074]:INFO: >>>>      dir: logfiles/000003
[2024-09-18 08:19:48,074]:INFO: >>>>  analyse: jube analyse logfiles --id 3
[2024-09-18 08:19:48,074]:INFO: >>>>   result: jube result logfiles --id 3
[2024-09-18 08:19:48,074]:INFO: >>>>     info: jube info logfiles --id 3
[2024-09-18 08:19:48,074]:INFO: >>>>      log: jube log logfiles --id 3
[2024-09-18 08:19:48,074]:INFO: ######################################################################
