JobID        JobIDRaw        JobName  Partition  MaxVMSize  MaxVMSizeNode  MaxVMSizeTask  AveVMSize     MaxRSS MaxRSSNode MaxRSSTask     AveRSS MaxPages MaxPagesNode   MaxPagesTask   AvePages     MinCPU MinCPUNode MinCPUTask     AveCPU   NTasks  AllocCPUS    Elapsed      State ExitCode AveCPUFreq ReqCPUFreqMin ReqCPUFreqMax ReqCPUFreqGov     ReqMem ConsumedEnergy  MaxDiskRead MaxDiskReadNode MaxDiskReadTask    AveDiskRead MaxDiskWrite MaxDiskWriteNode MaxDiskWriteTask   AveDiskWrite    ReqTRES  AllocTRES TRESUsageInAve TRESUsageInMax TRESUsageInMaxNode TRESUsageInMaxTask TRESUsageInMin TRESUsageInMinNode TRESUsageInMinTask TRESUsageInTot TRESUsageOutMax TRESUsageOutMaxNode TRESUsageOutMaxTask TRESUsageOutAve TRESUsageOutTot 
------------ ------------ ---------- ---------- ---------- -------------- -------------- ---------- ---------- ---------- ---------- ---------- -------- ------------ -------------- ---------- ---------- ---------- ---------- ---------- -------- ---------- ---------- ---------- -------- ---------- ------------- ------------- ------------- ---------- -------------- ------------ --------------- --------------- -------------- ------------ ---------------- ---------------- -------------- ---------- ---------- -------------- -------------- ------------------ ------------------ -------------- ------------------ ------------------ -------------- --------------- ------------------- ------------------- --------------- --------------- 
8210835      8210835       CovidWeak standard-g                                                                                                                                                                                                             896   00:07:58    RUNNING      0:0                  Unknown       Unknown       Unknown      3840G                                                                                                                                          billing=2+ billing=8+                                                                                                                                                                                                                                 
8210835.bat+ 8210835.bat+      batch                                                                                                                                                                                                               1        112   00:07:58    RUNNING      0:0          0             0             0             0                         0                                                                                                                                      cpu=112,g+                                                                                                                                                                                                                                 
8210835.0    8210835.0    lumi-gpu-+             21728276K      nid007523            109 193727836+   4225756K  nid006036         65 3699170928     2857    nid007818            235       2295   00:08:37  nid007524        134   00:09:19      256        896   00:07:53  COMPLETED      0:0    991.29M       Unknown       Unknown       Unknown                     2.31M      332.62M       nid007524             128        329.73M       25.02M        nid006034                0          3.86M            cpu=896,g+ cpu=00:09:19,+ cpu=00:09:46,+ cpu=nid007817,ene+ cpu=214,fs/disk=1+ cpu=00:08:37,+ cpu=nid007524,ene+ cpu=134,fs/disk=2+ cpu=1-15:45:5+ energy=1336,fs+ energy=nid007525,f+           fs/disk=0 energy=29,fs/d+ energy=7603,fs+ 
