JobId=8210835 JobName=CovidWeak
   UserId=pedronfe(327000671) GroupId=pepr_pedronfe(327000671) MCS_label=N/A
   Priority=475 Nice=0 Account=project_465001212 QOS=normal
   JobState=RUNNING Reason=None Dependency=(null)
   Requeue=1 Restarts=0 BatchFlag=1 Reboot=0 ExitCode=0:0
   DerivedExitCode=0:0
   RunTime=00:00:03 TimeLimit=00:59:00 TimeMin=N/A
   SubmitTime=2024-10-18T11:35:14 EligibleTime=2024-10-18T11:35:14
   AccrueTime=2024-10-18T11:35:14
   StartTime=2024-10-18T11:37:24 EndTime=2024-10-18T12:36:24 Deadline=N/A
   SuspendTime=None SecsPreSuspend=0 LastSchedEval=2024-10-18T11:37:24 Scheduler=Backfill
   Partition=standard-g AllocNode:Sid=ln02:25815
   ReqNodeList=(null) ExcNodeList=(null)
   NodeList=nid[006034-006036,007523-007525,007817-007818]
   BatchHost=nid006034
   NumNodes=8 NumCPUs=896 NumTasks=256 CPUs/Task=1 ReqB:S:C:T=0:0:*:1
   ReqTRES=cpu=256,mem=3840G,node=8,billing=256,gres/gpu:a100=64
   AllocTRES=cpu=896,node=8,billing=896,gres/gpu:mi250=64
   Socks/Node=* NtasksPerN:B:S:C=32:0:*:1 CoreSpec=*
   JOB_GRES=gpu:mi250:64
     Nodes=nid[006034-006036,007523-007525,007817-007818] CPU_IDs=2-15,18-31,34-47,50-63,66-79,82-95,98-111,114-127 Mem=0 GRES=gpu:mi250:8(IDX:0-7)
   MinCPUsNode=32 MinMemoryCPU=0 MinTmpDiskNode=0
   Features=(null) DelayBoot=00:00:00
   OverSubscribe=NO Contiguous=0 Licenses=(null) Network=(null)
   Command=/pfs/lustrep1/projappl/project_465001212/fede/JUBE4MaX-GPU/max-inputs/interface/siesta/_CovidWeak/000000/000003_submit/work/submit.job
   WorkDir=/pfs/lustrep1/projappl/project_465001212/fede/JUBE4MaX-GPU/max-inputs/interface/siesta/_CovidWeak/000000/000003_submit/work
   StdErr=/pfs/lustrep1/projappl/project_465001212/fede/JUBE4MaX-GPU/max-inputs/interface/siesta/_CovidWeak/000000/000003_submit/work/slurm-8210835.out
   StdIn=/dev/null
   StdOut=/pfs/lustrep1/projappl/project_465001212/fede/JUBE4MaX-GPU/max-inputs/interface/siesta/_CovidWeak/000000/000003_submit/work/slurm-8210835.out
   Power=
   TresPerNode=gres:gpu:8
   

