JobID        JobIDRaw        JobName  Partition  MaxVMSize  MaxVMSizeNode  MaxVMSizeTask  AveVMSize     MaxRSS MaxRSSNode MaxRSSTask     AveRSS MaxPages MaxPagesNode   MaxPagesTask   AvePages     MinCPU MinCPUNode MinCPUTask     AveCPU   NTasks  AllocCPUS    Elapsed      State ExitCode AveCPUFreq ReqCPUFreqMin ReqCPUFreqMax ReqCPUFreqGov     ReqMem ConsumedEnergy  MaxDiskRead MaxDiskReadNode MaxDiskReadTask    AveDiskRead MaxDiskWrite MaxDiskWriteNode MaxDiskWriteTask   AveDiskWrite    ReqTRES  AllocTRES TRESUsageInAve TRESUsageInMax TRESUsageInMaxNode TRESUsageInMaxTask TRESUsageInMin TRESUsageInMinNode TRESUsageInMinTask TRESUsageInTot TRESUsageOutMax TRESUsageOutMaxNode TRESUsageOutMaxTask TRESUsageOutAve TRESUsageOutTot 
------------ ------------ ---------- ---------- ---------- -------------- -------------- ---------- ---------- ---------- ---------- ---------- -------- ------------ -------------- ---------- ---------- ---------- ---------- ---------- -------- ---------- ---------- ---------- -------- ---------- ------------- ------------- ------------- ---------- -------------- ------------ --------------- --------------- -------------- ------------ ---------------- ---------------- -------------- ---------- ---------- -------------- -------------- ------------------ ------------------ -------------- ------------------ ------------------ -------------- --------------- ------------------- ------------------- --------------- --------------- 
1422982      1422982       CovidWeak        cpu                                                                                                                                                                                                             256   00:08:52    RUNNING      0:0                  Unknown       Unknown       Unknown       480G                                                                                                                                          billing=1+ billing=2+                                                                                                                                                                                                                                 
1422982.bat+ 1422982.bat+      batch                                                                                                                                                                                                               1        256   00:08:52    RUNNING      0:0          0             0             0             0                         0                                                                                                                                      cpu=256,g+                                                                                                                                                                                                                                 
1422982.0    1422982.0        siesta              4411216K        mel0120             96 2694678736    939556K    mel0120         96  607871760     1915      mel0120              0       1497   00:08:30    mel0120         62   00:08:32      128        128   00:08:46  COMPLETED      0:0    332.80G       Unknown       Unknown       Unknown                   335.99K       23.99M         mel0120               0         22.84M       16.45M          mel0120                0          4.21M            cpu=128,m+ cpu=00:08:32,+ cpu=00:08:30,+ energy=mel0120,fs+ fs/disk=0,mem=96,+ cpu=00:08:30,+ cpu=mel0120,energ+             cpu=62 cpu=18:14:05,+ energy=740,fs/+ energy=mel0120,fs/+           fs/disk=0 energy=2,fs/di+ energy=260,fs/+ 
