{
 "global_section": { "_calls": 1, "_time":      513.796, "_%":   100.00,
   "siesta": { "_calls": 1, "_time":      513.796, "_%":   100.00,
     "Setup": { "_calls": 1, "_time":        1.373, "_%":     0.27,
       "bands": { "_calls": 1, "_time":        0.002, "_%":     0.00},
       "KSV_init": { "_calls": 1, "_time":        0.001, "_%":     0.00}
     },
     "IterGeom": { "_calls": 1, "_time":      512.248, "_%":    99.70,
       "geom_init": { "_calls": 1, "_time":       11.195, "_%":     2.18,
         "state_init": { "_calls": 1, "_time":        0.387, "_%":     0.08,
           "hsparse": { "_calls": 1, "_time":        0.128, "_%":     0.02},
           "overlap": { "_calls": 1, "_time":        0.064, "_%":     0.01}
         },
         "Setup_H0": { "_calls": 1, "_time":       10.807, "_%":     2.10,
           "naefs": { "_calls": 1, "_time":        0.024, "_%":     0.00},
           "MolMec": { "_calls": 1, "_time":        0.000, "_%":     0.00},
           "kinefsm": { "_calls": 1, "_time":        0.060, "_%":     0.01},
           "nlefsm": { "_calls": 1, "_time":        0.252, "_%":     0.05},
           "DHSCF_Init": { "_calls": 1, "_time":       10.457, "_%":     2.04,
             "DHSCF1": { "_calls": 1, "_time":        0.077, "_%":     0.02,
               "INITMESH": { "_calls": 1, "_time":        0.000, "_%":     0.00}
             },
             "DHSCF2": { "_calls": 1, "_time":       10.358, "_%":     2.02,
               "REMESH": { "_calls": 1, "_time":        0.086, "_%":     0.02,
                 "INITMESH": { "_calls": 2, "_time":        0.063, "_%":     0.01,
                   "SPLOAD": { "_calls": 2, "_time":        0.052, "_%":     0.01}
                 }
               },
               "REORD": { "_calls": 2, "_time":        0.042, "_%":     0.01},
               "PHION": { "_calls": 1, "_time":        0.326, "_%":     0.06},
               "COMM_BSC": { "_calls": 1, "_time":        0.252, "_%":     0.05},
               "POISON": { "_calls": 1, "_time":        8.868, "_%":     1.73,
                 "fft": { "_calls": 2, "_time":        8.518, "_%":     1.66}
               }
             }
           }
         }
       },
       "IterSCF": { "_calls": 5, "_time":      500.874, "_%":    97.49,
         "setup_H": { "_calls": 5, "_time":       70.317, "_%":    13.69,
           "DHSCF": { "_calls": 5, "_time":       69.860, "_%":    13.60,
             "DHSCF3": { "_calls": 5, "_time":       69.860, "_%":    13.60,
               "rhoofd": { "_calls": 5, "_time":        0.506, "_%":     0.10},
               "COMM_BSC": { "_calls": 10, "_time":        2.558, "_%":     0.50},
               "POISON": { "_calls": 5, "_time":       44.368, "_%":     8.64,
                 "fft": { "_calls": 10, "_time":       42.550, "_%":     8.28}
               },
               "XC": { "_calls": 5, "_time":       18.471, "_%":     3.59,
                 "COMM_BSC": { "_calls": 10, "_time":        2.433, "_%":     0.47},
                 "GXC-CellXC": { "_calls": 5, "_time":       15.226, "_%":     2.96,
                   "gridxc@cellXC": { "_calls": 5, "_time":       15.224, "_%":     2.96}
                 }
               },
               "vmat": { "_calls": 5, "_time":        0.160, "_%":     0.03}
             }
           }
         },
         "compute_dm": { "_calls": 5, "_time":      430.202, "_%":    83.73,
           "elsi": { "_calls": 5, "_time":      430.105, "_%":    83.71,
             "find nnz_g": { "_calls": 5, "_time":        0.000, "_%":     0.00},
             "elsi-solver": { "_calls": 5, "_time":      430.012, "_%":    83.69}
           }
         },
         "MIXER": { "_calls": 5, "_time":        0.170, "_%":     0.03}
       },
       "state_analysis": { "_calls": 1, "_time":        0.053, "_%":     0.01},
       "siesta_move": { "_calls": 1, "_time":        0.000, "_%":     0.00}
     },
     "Analysis": { "_calls": 1, "_time":        0.165, "_%":     0.03,
       "optical": { "_calls": 1, "_time":        0.001, "_%":     0.00}
     }
   }
 }}
