{
 "global_section": { "_calls": 1, "_time":     2220.112, "_%":   100.00,
   "siesta": { "_calls": 1, "_time":     2220.112, "_%":   100.00,
     "Setup": { "_calls": 1, "_time":        1.159, "_%":     0.05,
       "bands": { "_calls": 1, "_time":        0.003, "_%":     0.00},
       "KSV_init": { "_calls": 1, "_time":        0.001, "_%":     0.00}
     },
     "IterGeom": { "_calls": 1, "_time":     1992.970, "_%":    89.77,
       "geom_init": { "_calls": 1, "_time":        9.734, "_%":     0.44,
         "state_init": { "_calls": 1, "_time":        1.863, "_%":     0.08,
           "hsparse": { "_calls": 1, "_time":        0.138, "_%":     0.01},
           "overlap": { "_calls": 1, "_time":        0.775, "_%":     0.03}
         },
         "Setup_H0": { "_calls": 1, "_time":        7.868, "_%":     0.35,
           "naefs": { "_calls": 1, "_time":        0.023, "_%":     0.00},
           "MolMec": { "_calls": 1, "_time":        0.000, "_%":     0.00},
           "kinefsm": { "_calls": 1, "_time":        0.765, "_%":     0.03},
           "nlefsm": { "_calls": 1, "_time":        1.720, "_%":     0.08},
           "DHSCF_Init": { "_calls": 1, "_time":        5.344, "_%":     0.24,
             "DHSCF1": { "_calls": 1, "_time":        0.053, "_%":     0.00,
               "INITMESH": { "_calls": 1, "_time":        0.000, "_%":     0.00}
             },
             "DHSCF2": { "_calls": 1, "_time":        5.267, "_%":     0.24,
               "REMESH": { "_calls": 1, "_time":        2.215, "_%":     0.10,
                 "INITMESH": { "_calls": 2, "_time":        2.175, "_%":     0.10,
                   "SPLOAD": { "_calls": 2, "_time":        1.951, "_%":     0.09}
                 }
               },
               "REORD": { "_calls": 2, "_time":        0.008, "_%":     0.00},
               "PHION": { "_calls": 1, "_time":        0.258, "_%":     0.01},
               "COMM_BSC": { "_calls": 1, "_time":        0.046, "_%":     0.00},
               "POISON": { "_calls": 1, "_time":        2.359, "_%":     0.11,
                 "fft": { "_calls": 2, "_time":        2.262, "_%":     0.10}
               }
             }
           }
         }
       },
       "IterSCF": { "_calls": 5, "_time":     1983.160, "_%":    89.33,
         "setup_H": { "_calls": 5, "_time":       18.056, "_%":     0.81,
           "DHSCF": { "_calls": 5, "_time":       18.008, "_%":     0.81,
             "DHSCF3": { "_calls": 5, "_time":       18.008, "_%":     0.81,
               "rhoofd": { "_calls": 5, "_time":        0.188, "_%":     0.01},
               "COMM_BSC": { "_calls": 10, "_time":        0.513, "_%":     0.02},
               "POISON": { "_calls": 5, "_time":       11.636, "_%":     0.52,
                 "fft": { "_calls": 10, "_time":       11.141, "_%":     0.50}
               },
               "XC": { "_calls": 5, "_time":        4.517, "_%":     0.20,
                 "COMM_BSC": { "_calls": 10, "_time":        0.416, "_%":     0.02},
                 "GXC-CellXC": { "_calls": 5, "_time":        3.962, "_%":     0.18,
                   "gridxc@cellXC": { "_calls": 5, "_time":        3.961, "_%":     0.18}
                 }
               },
               "vmat": { "_calls": 5, "_time":        0.199, "_%":     0.01}
             }
           }
         },
         "compute_dm": { "_calls": 5, "_time":     1965.070, "_%":    88.51,
           "elsi": { "_calls": 5, "_time":     1964.569, "_%":    88.49,
             "find nnz_g": { "_calls": 5, "_time":        0.000, "_%":     0.00},
             "elsi-solver": { "_calls": 5, "_time":     1964.549, "_%":    88.49}
           }
         },
         "MIXER": { "_calls": 5, "_time":        0.006, "_%":     0.00}
       },
       "state_analysis": { "_calls": 1, "_time":        0.048, "_%":     0.00},
       "siesta_move": { "_calls": 1, "_time":        0.000, "_%":     0.00}
     },
     "Analysis": { "_calls": 1, "_time":      225.529, "_%":    10.16,
       "optical": { "_calls": 1, "_time":        0.001, "_%":     0.00}
     }
   }
 }}
