{
 "global_section": { "_calls": 1, "_time":     2884.087, "_%":   100.00,
   "siesta": { "_calls": 1, "_time":     2884.087, "_%":   100.00,
     "Setup": { "_calls": 1, "_time":        2.055, "_%":     0.07,
       "bands": { "_calls": 1, "_time":        0.003, "_%":     0.00},
       "KSV_init": { "_calls": 1, "_time":        0.001, "_%":     0.00}
     },
     "IterGeom": { "_calls": 1, "_time":     2881.898, "_%":    99.92,
       "geom_init": { "_calls": 1, "_time":       64.044, "_%":     2.22,
         "state_init": { "_calls": 1, "_time":        3.322, "_%":     0.12,
           "hsparse": { "_calls": 1, "_time":        0.100, "_%":     0.00},
           "overlap": { "_calls": 1, "_time":        0.018, "_%":     0.00}
         },
         "Setup_H0": { "_calls": 1, "_time":       60.720, "_%":     2.11,
           "naefs": { "_calls": 1, "_time":        0.015, "_%":     0.00},
           "MolMec": { "_calls": 1, "_time":        0.000, "_%":     0.00},
           "kinefsm": { "_calls": 1, "_time":        0.014, "_%":     0.00},
           "nlefsm": { "_calls": 1, "_time":        0.074, "_%":     0.00},
           "DHSCF_Init": { "_calls": 1, "_time":       60.609, "_%":     2.10,
             "DHSCF1": { "_calls": 1, "_time":        0.025, "_%":     0.00,
               "INITMESH": { "_calls": 1, "_time":        0.000, "_%":     0.00}
             },
             "DHSCF2": { "_calls": 1, "_time":       60.570, "_%":     2.10,
               "REMESH": { "_calls": 1, "_time":       53.204, "_%":     1.84,
                 "INITMESH": { "_calls": 2, "_time":       51.860, "_%":     1.80,
                   "SPLOAD": { "_calls": 2, "_time":        9.609, "_%":     0.33}
                 }
               },
               "REORD": { "_calls": 2, "_time":        0.000, "_%":     0.00},
               "PHION": { "_calls": 1, "_time":        0.008, "_%":     0.00},
               "COMM_BSC": { "_calls": 1, "_time":        0.055, "_%":     0.00},
               "POISON": { "_calls": 1, "_time":        0.478, "_%":     0.02,
                 "fft": { "_calls": 2, "_time":        0.475, "_%":     0.02}
               }
             }
           }
         }
       },
       "IterSCF": { "_calls": 5, "_time":     2817.778, "_%":    97.70,
         "setup_H": { "_calls": 5, "_time":        1.527, "_%":     0.05,
           "DHSCF": { "_calls": 5, "_time":        1.511, "_%":     0.05,
             "DHSCF3": { "_calls": 5, "_time":        1.511, "_%":     0.05,
               "rhoofd": { "_calls": 5, "_time":        0.025, "_%":     0.00},
               "COMM_BSC": { "_calls": 10, "_time":        0.073, "_%":     0.00},
               "POISON": { "_calls": 5, "_time":        0.566, "_%":     0.02,
                 "fft": { "_calls": 10, "_time":        0.543, "_%":     0.02}
               },
               "XC": { "_calls": 5, "_time":        0.752, "_%":     0.03,
                 "COMM_BSC": { "_calls": 10, "_time":        0.136, "_%":     0.00},
                 "GXC-CellXC": { "_calls": 5, "_time":        0.601, "_%":     0.02,
                   "gridxc@cellXC": { "_calls": 5, "_time":        0.601, "_%":     0.02}
                 }
               },
               "vmat": { "_calls": 5, "_time":        0.028, "_%":     0.00}
             }
           }
         },
         "compute_dm": { "_calls": 5, "_time":     2816.211, "_%":    97.65,
           "redist_orbs_fwd": { "_calls": 320, "_time":     1726.568, "_%":    59.87},
           "elsi-complex-solver": { "_calls": 5, "_time":     1078.100, "_%":    37.38,
             "elsi-solver": { "_calls": 5, "_time":     1077.828, "_%":    37.37}
           },
           "redist_dm-edm_bck": { "_calls": 5, "_time":       11.427, "_%":     0.40}
         },
         "MIXER": { "_calls": 5, "_time":        0.009, "_%":     0.00}
       },
       "state_analysis": { "_calls": 1, "_time":        0.052, "_%":     0.00},
       "siesta_move": { "_calls": 1, "_time":        0.000, "_%":     0.00}
     },
     "Analysis": { "_calls": 1, "_time":        0.128, "_%":     0.00,
       "optical": { "_calls": 1, "_time":        0.001, "_%":     0.00}
     }
   }
 }}
