{
 "global_section": { "_calls": 1, "_time":      735.229, "_%":   100.00,
   "siesta": { "_calls": 1, "_time":      735.229, "_%":   100.00,
     "Setup": { "_calls": 1, "_time":        2.135, "_%":     0.29,
       "bands": { "_calls": 1, "_time":        0.002, "_%":     0.00},
       "KSV_init": { "_calls": 1, "_time":        0.001, "_%":     0.00}
     },
     "IterGeom": { "_calls": 1, "_time":      732.930, "_%":    99.69,
       "geom_init": { "_calls": 1, "_time":        6.674, "_%":     0.91,
         "state_init": { "_calls": 1, "_time":        1.284, "_%":     0.17,
           "hsparse": { "_calls": 1, "_time":        0.101, "_%":     0.01},
           "overlap": { "_calls": 1, "_time":        0.545, "_%":     0.07}
         },
         "Setup_H0": { "_calls": 1, "_time":        5.388, "_%":     0.73,
           "naefs": { "_calls": 1, "_time":        0.014, "_%":     0.00},
           "MolMec": { "_calls": 1, "_time":        0.000, "_%":     0.00},
           "kinefsm": { "_calls": 1, "_time":        0.545, "_%":     0.07},
           "nlefsm": { "_calls": 1, "_time":        1.179, "_%":     0.16},
           "DHSCF_Init": { "_calls": 1, "_time":        3.641, "_%":     0.50,
             "DHSCF1": { "_calls": 1, "_time":        0.029, "_%":     0.00,
               "INITMESH": { "_calls": 1, "_time":        0.000, "_%":     0.00}
             },
             "DHSCF2": { "_calls": 1, "_time":        3.599, "_%":     0.49,
               "REMESH": { "_calls": 1, "_time":        2.085, "_%":     0.28,
                 "INITMESH": { "_calls": 2, "_time":        2.057, "_%":     0.28,
                   "SPLOAD": { "_calls": 2, "_time":        1.742, "_%":     0.24}
                 }
               },
               "REORD": { "_calls": 2, "_time":        0.004, "_%":     0.00},
               "PHION": { "_calls": 1, "_time":        0.122, "_%":     0.02},
               "COMM_BSC": { "_calls": 1, "_time":        0.029, "_%":     0.00},
               "POISON": { "_calls": 1, "_time":        0.959, "_%":     0.13,
                 "fft": { "_calls": 2, "_time":        0.923, "_%":     0.13}
               }
             }
           }
         }
       },
       "IterSCF": { "_calls": 5, "_time":      726.194, "_%":    98.77,
         "setup_H": { "_calls": 5, "_time":        7.878, "_%":     1.07,
           "DHSCF": { "_calls": 5, "_time":        7.869, "_%":     1.07,
             "DHSCF3": { "_calls": 5, "_time":        7.869, "_%":     1.07,
               "rhoofd": { "_calls": 5, "_time":        0.085, "_%":     0.01},
               "COMM_BSC": { "_calls": 10, "_time":        0.506, "_%":     0.07},
               "POISON": { "_calls": 5, "_time":        4.677, "_%":     0.64,
                 "fft": { "_calls": 10, "_time":        4.504, "_%":     0.61}
               },
               "XC": { "_calls": 5, "_time":        2.145, "_%":     0.29,
                 "COMM_BSC": { "_calls": 10, "_time":        0.259, "_%":     0.04},
                 "GXC-CellXC": { "_calls": 5, "_time":        1.846, "_%":     0.25,
                   "gridxc@cellXC": { "_calls": 5, "_time":        1.846, "_%":     0.25}
                 }
               },
               "vmat": { "_calls": 5, "_time":        0.101, "_%":     0.01}
             }
           }
         },
         "compute_dm": { "_calls": 5, "_time":      718.283, "_%":    97.70,
           "elsi": { "_calls": 5, "_time":      718.182, "_%":    97.68,
             "find nnz_g": { "_calls": 5, "_time":        0.000, "_%":     0.00},
             "elsi-solver": { "_calls": 5, "_time":      718.162, "_%":    97.68}
           }
         },
         "MIXER": { "_calls": 5, "_time":        0.006, "_%":     0.00}
       },
       "state_analysis": { "_calls": 1, "_time":        0.054, "_%":     0.01},
       "siesta_move": { "_calls": 1, "_time":        0.000, "_%":     0.00}
     },
     "Analysis": { "_calls": 1, "_time":        0.152, "_%":     0.02,
       "optical": { "_calls": 1, "_time":        0.001, "_%":     0.00}
     }
   }
 }}
