{
 "global_section": { "_calls": 1, "_time":       88.319, "_%":   100.00,
   "siesta": { "_calls": 1, "_time":       88.319, "_%":   100.00,
     "Setup": { "_calls": 1, "_time":        1.325, "_%":     1.50,
       "bands": { "_calls": 1, "_time":        0.002, "_%":     0.00},
       "KSV_init": { "_calls": 1, "_time":        0.001, "_%":     0.00}
     },
     "IterGeom": { "_calls": 1, "_time":       86.834, "_%":    98.32,
       "geom_init": { "_calls": 1, "_time":       11.302, "_%":    12.80,
         "state_init": { "_calls": 1, "_time":        0.386, "_%":     0.44,
           "hsparse": { "_calls": 1, "_time":        0.130, "_%":     0.15},
           "overlap": { "_calls": 1, "_time":        0.063, "_%":     0.07}
         },
         "Setup_H0": { "_calls": 1, "_time":       10.915, "_%":    12.36,
           "naefs": { "_calls": 1, "_time":        0.023, "_%":     0.03},
           "MolMec": { "_calls": 1, "_time":        0.000, "_%":     0.00},
           "kinefsm": { "_calls": 1, "_time":        0.061, "_%":     0.07},
           "nlefsm": { "_calls": 1, "_time":        0.256, "_%":     0.29},
           "DHSCF_Init": { "_calls": 1, "_time":       10.560, "_%":    11.96,
             "DHSCF1": { "_calls": 1, "_time":        0.077, "_%":     0.09,
               "INITMESH": { "_calls": 1, "_time":        0.000, "_%":     0.00}
             },
             "DHSCF2": { "_calls": 1, "_time":       10.464, "_%":    11.85,
               "REMESH": { "_calls": 1, "_time":        0.086, "_%":     0.10,
                 "INITMESH": { "_calls": 2, "_time":        0.062, "_%":     0.07,
                   "SPLOAD": { "_calls": 2, "_time":        0.051, "_%":     0.06}
                 }
               },
               "REORD": { "_calls": 2, "_time":        0.033, "_%":     0.04},
               "PHION": { "_calls": 1, "_time":        0.329, "_%":     0.37},
               "COMM_BSC": { "_calls": 1, "_time":        0.253, "_%":     0.29},
               "POISON": { "_calls": 1, "_time":        9.004, "_%":    10.19,
                 "fft": { "_calls": 2, "_time":        8.660, "_%":     9.81}
               }
             }
           }
         }
       },
       "IterSCF": { "_calls": 5, "_time":       75.367, "_%":    85.33,
         "setup_H": { "_calls": 5, "_time":       71.475, "_%":    80.93,
           "DHSCF": { "_calls": 5, "_time":       71.031, "_%":    80.42,
             "DHSCF3": { "_calls": 5, "_time":       71.031, "_%":    80.42,
               "rhoofd": { "_calls": 5, "_time":        0.519, "_%":     0.59},
               "COMM_BSC": { "_calls": 10, "_time":        2.679, "_%":     3.03},
               "POISON": { "_calls": 5, "_time":       44.855, "_%":    50.79,
                 "fft": { "_calls": 10, "_time":       42.975, "_%":    48.66}
               },
               "XC": { "_calls": 5, "_time":       18.315, "_%":    20.74,
                 "COMM_BSC": { "_calls": 10, "_time":        2.103, "_%":     2.38},
                 "GXC-CellXC": { "_calls": 5, "_time":       15.577, "_%":    17.64,
                   "gridxc@cellXC": { "_calls": 5, "_time":       15.573, "_%":    17.63}
                 }
               },
               "vmat": { "_calls": 5, "_time":        0.153, "_%":     0.17}
             }
           }
         },
         "compute_dm": { "_calls": 5, "_time":        3.719, "_%":     4.21,
           "elsi": { "_calls": 5, "_time":        3.693, "_%":     4.18,
             "find nnz_g": { "_calls": 5, "_time":        0.000, "_%":     0.00},
             "elsi-solver": { "_calls": 5, "_time":        3.621, "_%":     4.10}
           }
         },
         "MIXER": { "_calls": 5, "_time":        0.097, "_%":     0.11}
       },
       "state_analysis": { "_calls": 1, "_time":        0.052, "_%":     0.06},
       "siesta_move": { "_calls": 1, "_time":        0.000, "_%":     0.00}
     },
     "Analysis": { "_calls": 1, "_time":        0.145, "_%":     0.16,
       "optical": { "_calls": 1, "_time":        0.001, "_%":     0.00}
     }
   }
 }}
