{
 "global_section": { "_calls": 1, "_time":      589.090, "_%":   100.00,
   "siesta": { "_calls": 1, "_time":      589.090, "_%":   100.00,
     "Setup": { "_calls": 1, "_time":        0.764, "_%":     0.13,
       "bands": { "_calls": 1, "_time":        0.001, "_%":     0.00},
       "KSV_init": { "_calls": 1, "_time":        0.000, "_%":     0.00}
     },
     "IterGeom": { "_calls": 1, "_time":      583.058, "_%":    98.98,
       "geom_init": { "_calls": 1, "_time":        4.313, "_%":     0.73,
         "state_init": { "_calls": 1, "_time":        0.959, "_%":     0.16,
           "hsparse": { "_calls": 1, "_time":        0.087, "_%":     0.01},
           "overlap": { "_calls": 1, "_time":        0.045, "_%":     0.01}
         },
         "Setup_H0": { "_calls": 1, "_time":        3.353, "_%":     0.57,
           "naefs": { "_calls": 1, "_time":        0.020, "_%":     0.00},
           "MolMec": { "_calls": 1, "_time":        0.000, "_%":     0.00},
           "kinefsm": { "_calls": 1, "_time":        0.045, "_%":     0.01},
           "nlefsm": { "_calls": 1, "_time":        0.098, "_%":     0.02},
           "DHSCF_Init": { "_calls": 1, "_time":        3.177, "_%":     0.54,
             "DHSCF1": { "_calls": 1, "_time":        0.022, "_%":     0.00,
               "INITMESH": { "_calls": 1, "_time":        0.000, "_%":     0.00}
             },
             "DHSCF2": { "_calls": 1, "_time":        3.142, "_%":     0.53,
               "REMESH": { "_calls": 1, "_time":        0.577, "_%":     0.10,
                 "INITMESH": { "_calls": 2, "_time":        0.551, "_%":     0.09,
                   "SPLOAD": { "_calls": 2, "_time":        0.369, "_%":     0.06}
                 }
               },
               "REORD": { "_calls": 2, "_time":        0.007, "_%":     0.00},
               "PHION": { "_calls": 1, "_time":        0.120, "_%":     0.02},
               "COMM_BSC": { "_calls": 1, "_time":        0.071, "_%":     0.01},
               "POISON": { "_calls": 1, "_time":        2.052, "_%":     0.35,
                 "fft": { "_calls": 2, "_time":        1.962, "_%":     0.33}
               }
             }
           }
         }
       },
       "IterSCF": { "_calls": 5, "_time":      578.715, "_%":    98.24,
         "setup_H": { "_calls": 5, "_time":       16.328, "_%":     2.77,
           "DHSCF": { "_calls": 5, "_time":       16.296, "_%":     2.77,
             "DHSCF3": { "_calls": 5, "_time":       16.296, "_%":     2.77,
               "rhoofd": { "_calls": 5, "_time":        0.112, "_%":     0.02},
               "COMM_BSC": { "_calls": 10, "_time":        0.614, "_%":     0.10},
               "POISON": { "_calls": 5, "_time":        9.965, "_%":     1.69,
                 "fft": { "_calls": 10, "_time":        9.524, "_%":     1.62}
               },
               "XC": { "_calls": 5, "_time":        4.765, "_%":     0.81,
                 "COMM_BSC": { "_calls": 10, "_time":        0.469, "_%":     0.08},
                 "GXC-CellXC": { "_calls": 5, "_time":        4.192, "_%":     0.71,
                   "gridxc@cellXC": { "_calls": 5, "_time":        4.192, "_%":     0.71}
                 }
               },
               "vmat": { "_calls": 5, "_time":        0.111, "_%":     0.02}
             }
           }
         },
         "compute_dm": { "_calls": 5, "_time":      562.328, "_%":    95.46,
           "diagon": { "_calls": 5, "_time":      562.292, "_%":    95.45,
             "r-eigvec": { "_calls": 5, "_time":      469.791, "_%":    79.75,
               "r-buildHS": { "_calls": 5, "_time":        0.305, "_%":     0.05},
               "rdiag": { "_calls": 5, "_time":      469.486, "_%":    79.70,
                 "rdiag1": { "_calls": 5, "_time":        9.887, "_%":     1.68},
                 "rdiag2": { "_calls": 5, "_time":       31.733, "_%":     5.39},
                 "rdiag3": { "_calls": 5, "_time":      382.692, "_%":    64.96},
                 "rdiag4": { "_calls": 5, "_time":       42.735, "_%":     7.25}
               }
             },
             "r-buildD": { "_calls": 5, "_time":       92.051, "_%":    15.63}
           }
         },
         "MIXER": { "_calls": 5, "_time":        0.049, "_%":     0.01}
       },
       "state_analysis": { "_calls": 1, "_time":        0.023, "_%":     0.00},
       "siesta_move": { "_calls": 1, "_time":        0.000, "_%":     0.00}
     },
     "Analysis": { "_calls": 1, "_time":        5.260, "_%":     0.89,
       "optical": { "_calls": 1, "_time":        0.000, "_%":     0.00}
     }
   }
 }}
