JobID        JobIDRaw        JobName  Partition  MaxVMSize  MaxVMSizeNode  MaxVMSizeTask  AveVMSize     MaxRSS MaxRSSNode MaxRSSTask     AveRSS MaxPages MaxPagesNode   MaxPagesTask   AvePages     MinCPU MinCPUNode MinCPUTask     AveCPU   NTasks  AllocCPUS    Elapsed      State ExitCode AveCPUFreq ReqCPUFreqMin ReqCPUFreqMax ReqCPUFreqGov     ReqMem ConsumedEnergy  MaxDiskRead MaxDiskReadNode MaxDiskReadTask    AveDiskRead MaxDiskWrite MaxDiskWriteNode MaxDiskWriteTask   AveDiskWrite    ReqTRES  AllocTRES TRESUsageInAve TRESUsageInMax TRESUsageInMaxNode TRESUsageInMaxTask TRESUsageInMin TRESUsageInMinNode TRESUsageInMinTask TRESUsageInTot TRESUsageOutMax TRESUsageOutMaxNode TRESUsageOutMaxTask TRESUsageOutAve TRESUsageOutTot 
------------ ------------ ---------- ---------- ---------- -------------- -------------- ---------- ---------- ---------- ---------- ---------- -------- ------------ -------------- ---------- ---------- ---------- ---------- ---------- -------- ---------- ---------- ---------- -------- ---------- ------------- ------------- ------------- ---------- -------------- ------------ --------------- --------------- -------------- ------------ ---------------- ---------------- -------------- ---------- ---------- -------------- -------------- ------------------ ------------------ -------------- ------------------ ------------------ -------------- --------------- ------------------- ------------------- --------------- --------------- 
8022830      8022830       CovidWeak   standard                                                                                                                                                                                                             256   00:08:04    RUNNING      0:0                  Unknown       Unknown       Unknown       224G                                                                                                                                          billing=1+ billing=2+                                                                                                                                                                                                                                 
8022830.bat+ 8022830.bat+      batch                                                                                                                                                                                                               1        256   00:08:04    RUNNING      0:0          0             0             0             0                         0                                                                                                                                      cpu=256,m+                                                                                                                                                                                                                                 
8022830.0    8022830.0        siesta              8113784K      nid002095             19 6823772128   1065868K  nid002095          0  917344576     1065    nid002095             32        339   00:07:27  nid002095         19   00:07:56      128        256   00:08:00  COMPLETED      0:0    567.61M       Unknown       Unknown       Unknown                   303.64K        1.42M       nid002095               0          0.15M       12.29M        nid002095                0          0.50M            cpu=256,m+ cpu=00:07:56,+ cpu=00:07:57,+ cpu=nid002095,ene+ cpu=69,fs/disk=0,+ cpu=00:07:27,+ cpu=nid002095,ene+ cpu=19,fs/disk=19+ cpu=16:56:14,+ energy=689,fs/+ energy=nid002095,f+           fs/disk=0 energy=2,fs/di+ energy=366,fs/+ 
