{
 "global_section": { "_calls": 1, "_time":      471.314, "_%":   100.00,
   "siesta": { "_calls": 1, "_time":      471.314, "_%":   100.00,
     "Setup": { "_calls": 1, "_time":        0.794, "_%":     0.17,
       "bands": { "_calls": 1, "_time":        0.001, "_%":     0.00},
       "KSV_init": { "_calls": 1, "_time":        0.000, "_%":     0.00}
     },
     "IterGeom": { "_calls": 1, "_time":      470.434, "_%":    99.81,
       "geom_init": { "_calls": 1, "_time":       10.427, "_%":     2.21,
         "state_init": { "_calls": 1, "_time":        0.279, "_%":     0.06,
           "hsparse": { "_calls": 1, "_time":        0.092, "_%":     0.02},
           "overlap": { "_calls": 1, "_time":        0.042, "_%":     0.01}
         },
         "Setup_H0": { "_calls": 1, "_time":        9.575, "_%":     2.03,
           "naefs": { "_calls": 1, "_time":        0.019, "_%":     0.00},
           "MolMec": { "_calls": 1, "_time":        0.000, "_%":     0.00},
           "kinefsm": { "_calls": 1, "_time":        0.042, "_%":     0.01},
           "nlefsm": { "_calls": 1, "_time":        0.115, "_%":     0.02},
           "DHSCF_Init": { "_calls": 1, "_time":        9.388, "_%":     1.99,
             "DHSCF1": { "_calls": 1, "_time":        0.024, "_%":     0.01,
               "INITMESH": { "_calls": 1, "_time":        0.000, "_%":     0.00}
             },
             "DHSCF2": { "_calls": 1, "_time":        9.350, "_%":     1.98,
               "REMESH": { "_calls": 1, "_time":        0.076, "_%":     0.02,
                 "INITMESH": { "_calls": 2, "_time":        0.064, "_%":     0.01,
                   "SPLOAD": { "_calls": 2, "_time":        0.057, "_%":     0.01}
                 }
               },
               "REORD": { "_calls": 2, "_time":        0.052, "_%":     0.01},
               "PHION": { "_calls": 1, "_time":        0.286, "_%":     0.06},
               "COMM_BSC": { "_calls": 1, "_time":        0.341, "_%":     0.07},
               "POISON": { "_calls": 1, "_time":        7.928, "_%":     1.68,
                 "fft": { "_calls": 2, "_time":        7.552, "_%":     1.60}
               }
             }
           }
         }
       },
       "IterSCF": { "_calls": 5, "_time":      459.976, "_%":    97.59,
         "setup_H": { "_calls": 5, "_time":       61.531, "_%":    13.06,
           "DHSCF": { "_calls": 5, "_time":       61.498, "_%":    13.05,
             "DHSCF3": { "_calls": 5, "_time":       61.498, "_%":    13.05,
               "rhoofd": { "_calls": 5, "_time":        0.370, "_%":     0.08},
               "COMM_BSC": { "_calls": 10, "_time":        2.581, "_%":     0.55},
               "POISON": { "_calls": 5, "_time":       38.684, "_%":     8.21,
                 "fft": { "_calls": 10, "_time":       36.927, "_%":     7.83}
               },
               "XC": { "_calls": 5, "_time":       16.916, "_%":     3.59,
                 "COMM_BSC": { "_calls": 10, "_time":        2.287, "_%":     0.49},
                 "GXC-CellXC": { "_calls": 5, "_time":       14.388, "_%":     3.05,
                   "gridxc@cellXC": { "_calls": 5, "_time":       14.388, "_%":     3.05}
                 }
               },
               "vmat": { "_calls": 5, "_time":        0.334, "_%":     0.07}
             }
           }
         },
         "compute_dm": { "_calls": 5, "_time":      398.412, "_%":    84.53,
           "elsi": { "_calls": 5, "_time":      398.396, "_%":    84.53,
             "find nnz_g": { "_calls": 5, "_time":        0.000, "_%":     0.00},
             "elsi-solver": { "_calls": 5, "_time":      398.384, "_%":    84.53}
           }
         },
         "MIXER": { "_calls": 5, "_time":        0.024, "_%":     0.01}
       },
       "state_analysis": { "_calls": 1, "_time":        0.024, "_%":     0.01},
       "siesta_move": { "_calls": 1, "_time":        0.000, "_%":     0.00}
     },
     "Analysis": { "_calls": 1, "_time":        0.080, "_%":     0.02,
       "optical": { "_calls": 1, "_time":        0.000, "_%":     0.00}
     }
   }
 }}
