JobID        JobIDRaw        JobName  Partition  MaxVMSize  MaxVMSizeNode  MaxVMSizeTask  AveVMSize     MaxRSS MaxRSSNode MaxRSSTask     AveRSS MaxPages MaxPagesNode   MaxPagesTask   AvePages     MinCPU MinCPUNode MinCPUTask     AveCPU   NTasks  AllocCPUS    Elapsed      State ExitCode AveCPUFreq ReqCPUFreqMin ReqCPUFreqMax ReqCPUFreqGov     ReqMem ConsumedEnergy  MaxDiskRead MaxDiskReadNode MaxDiskReadTask    AveDiskRead MaxDiskWrite MaxDiskWriteNode MaxDiskWriteTask   AveDiskWrite    ReqTRES  AllocTRES TRESUsageInAve TRESUsageInMax TRESUsageInMaxNode TRESUsageInMaxTask TRESUsageInMin TRESUsageInMinNode TRESUsageInMinTask TRESUsageInTot TRESUsageOutMax TRESUsageOutMaxNode TRESUsageOutMaxTask TRESUsageOutAve TRESUsageOutTot 
------------ ------------ ---------- ---------- ---------- -------------- -------------- ---------- ---------- ---------- ---------- ---------- -------- ------------ -------------- ---------- ---------- ---------- ---------- ---------- -------- ---------- ---------- ---------- -------- ---------- ------------- ------------- ------------- ---------- -------------- ------------ --------------- --------------- -------------- ------------ ---------------- ---------------- -------------- ---------- ---------- -------------- -------------- ------------------ ------------------ -------------- ------------------ ------------------ -------------- --------------- ------------------- ------------------- --------------- --------------- 
8120489      8120489      submit.job boost_usr+                                                                                                                                                                                                             512   00:05:48    RUNNING      0:0                  Unknown       Unknown       Unknown      7700G                                                                                                                                          billing=5+ billing=5+                                                                                                                                                                                                                                 
8120489.bat+ 8120489.bat+      batch                                                                                                                                                                                                               1         32   00:05:48    RUNNING      0:0          0             0             0             0                         0                                                                                                                                      cpu=32,gr+                                                                                                                                                                                                                                 
8120489.ext+ 8120489.ext+     extern                                                                                                                                                                                                              16        512   00:05:48    RUNNING      0:0          0             0             0             0                         0                                                                                                                                      billing=5+                                                                                                                                                                                                                                 
8120489.0    8120489.0       bind.sh              6771364K       lrdn1526              0  419545856   1861356K   lrdn1526          0  113981376     3463     lrdn1526              0        148   00:05:43   lrdn1526          0   00:05:47       64        512   00:05:43  COMPLETED      0:0    340.08M       Unknown       Unknown       Unknown                         0        0.07M        lrdn2449              39          0.07M        0.00M         lrdn2744               62          0.00M            cpu=512,g+ cpu=00:05:47,+ cpu=00:05:48,+ cpu=lrdn2148,ener+ cpu=14,fs/disk=39+ cpu=00:05:43,+ cpu=lrdn1526,ener+ cpu=0,fs/disk=3,m+ cpu=06:10:18,+ energy=0,fs/di+ energy=lrdn2744,fs+          fs/disk=62 energy=0,fs/di+ energy=0,fs/di+ 
