JobId=8120489 JobName=submit.job
   UserId=lbellen1(33678) GroupId=interactive(25200) MCS_label=N/A
   Priority=134713 Nice=0 Account=cin_staff QOS=normal
   JobState=RUNNING Reason=None Dependency=(null)
   Requeue=0 Restarts=0 BatchFlag=1 Reboot=0 ExitCode=0:0
   DerivedExitCode=0:0
   RunTime=00:00:04 TimeLimit=00:20:00 TimeMin=N/A
   SubmitTime=2024-10-08T10:43:25 EligibleTime=2024-10-08T10:43:25
   AccrueTime=2024-10-08T10:43:25
   StartTime=2024-10-08T10:46:18 EndTime=2024-10-08T11:06:20 Deadline=N/A
   SuspendTime=None SecsPreSuspend=0 LastSchedEval=2024-10-08T10:46:18 Scheduler=Main
   Partition=boost_usr_prod AllocNode:Sid=slurm-controller:1066587
   ReqNodeList=(null) ExcNodeList=(null)
   NodeList=lrdn[1526,1890,2132,2148,2153,2162,2176,2178,2287,2449,2475,2489,2542,2564,2604,2744]
   BatchHost=lrdn1526
   NumNodes=16 NumCPUs=512 NumTasks=64 CPUs/Task=8 ReqB:S:C:T=0:0:*:*
   TRES=cpu=512,mem=7700G,node=16,billing=512,gres/gpu=64
   Socks/Node=* NtasksPerN:B:S:C=4:0:*:* CoreSpec=*
   JOB_GRES=gpu:a100:64
     Nodes=lrdn[1526,1890,2132,2148,2153,2162,2176,2178,2287,2449,2475,2489,2542,2564,2604,2744] CPU_IDs=0-31 Mem=492800 GRES=gpu:a100:4(IDX:0-3)
   MinCPUsNode=32 MinMemoryCPU=15400M MinTmpDiskNode=0
   Features=(null) DelayBoot=00:00:00
   OverSubscribe=NO Contiguous=0 Licenses=(null) Network=(null)
   Command=/leonardo_scratch/fast/Max3_devel_2/WP3/qe/benchmarks/bench-qe7.3.1-cnt10por8/logfiles/000000/000006_submit_N16np4/work/submit.job
   WorkDir=/leonardo_scratch/fast/Max3_devel_2/WP3/qe/benchmarks/bench-qe7.3.1-cnt10por8/logfiles/000000/000006_submit_N16np4/work
   StdErr=/leonardo_scratch/fast/Max3_devel_2/WP3/qe/benchmarks/bench-qe7.3.1-cnt10por8/logfiles/000000/000006_submit_N16np4/work/slurm-8120489.out
   StdIn=/dev/null
   StdOut=/leonardo_scratch/fast/Max3_devel_2/WP3/qe/benchmarks/bench-qe7.3.1-cnt10por8/logfiles/000000/000006_submit_N16np4/work/slurm-8120489.out
   Power=
   TresPerNode=gres:gpu:4
   

