{
 "global_section": { "_calls": 1, "_time":     1992.244, "_%":   100.00,
   "siesta": { "_calls": 1, "_time":     1992.244, "_%":   100.00,
     "Setup": { "_calls": 1, "_time":        2.078, "_%":     0.10,
       "bands": { "_calls": 1, "_time":        0.004, "_%":     0.00},
       "KSV_init": { "_calls": 1, "_time":        0.001, "_%":     0.00}
     },
     "IterGeom": { "_calls": 1, "_time":     1989.686, "_%":    99.87,
       "geom_init": { "_calls": 1, "_time":       13.196, "_%":     0.66,
         "state_init": { "_calls": 1, "_time":        2.516, "_%":     0.13,
           "hsparse": { "_calls": 1, "_time":        0.180, "_%":     0.01},
           "overlap": { "_calls": 1, "_time":        1.276, "_%":     0.06}
         },
         "Setup_H0": { "_calls": 1, "_time":       10.678, "_%":     0.54,
           "naefs": { "_calls": 1, "_time":        0.030, "_%":     0.00},
           "MolMec": { "_calls": 1, "_time":        0.000, "_%":     0.00},
           "kinefsm": { "_calls": 1, "_time":        1.257, "_%":     0.06},
           "nlefsm": { "_calls": 1, "_time":        2.984, "_%":     0.15},
           "DHSCF_Init": { "_calls": 1, "_time":        6.389, "_%":     0.32,
             "DHSCF1": { "_calls": 1, "_time":        0.062, "_%":     0.00,
               "INITMESH": { "_calls": 1, "_time":        0.000, "_%":     0.00}
             },
             "DHSCF2": { "_calls": 1, "_time":        6.290, "_%":     0.32,
               "REMESH": { "_calls": 1, "_time":        3.378, "_%":     0.17,
                 "INITMESH": { "_calls": 2, "_time":        3.155, "_%":     0.16,
                   "SPLOAD": { "_calls": 2, "_time":        1.798, "_%":     0.09}
                 }
               },
               "REORD": { "_calls": 2, "_time":        0.014, "_%":     0.00},
               "PHION": { "_calls": 1, "_time":        0.202, "_%":     0.01},
               "COMM_BSC": { "_calls": 1, "_time":        0.079, "_%":     0.00},
               "POISON": { "_calls": 1, "_time":        2.004, "_%":     0.10,
                 "fft": { "_calls": 2, "_time":        1.913, "_%":     0.10}
               }
             }
           }
         }
       },
       "IterSCF": { "_calls": 5, "_time":     1976.379, "_%":    99.20,
         "setup_H": { "_calls": 5, "_time":       15.364, "_%":     0.77,
           "DHSCF": { "_calls": 5, "_time":       15.356, "_%":     0.77,
             "DHSCF3": { "_calls": 5, "_time":       15.356, "_%":     0.77,
               "rhoofd": { "_calls": 5, "_time":        0.201, "_%":     0.01},
               "COMM_BSC": { "_calls": 10, "_time":        0.607, "_%":     0.03},
               "POISON": { "_calls": 5, "_time":        9.677, "_%":     0.49,
                 "fft": { "_calls": 10, "_time":        9.196, "_%":     0.46}
               },
               "XC": { "_calls": 5, "_time":        3.817, "_%":     0.19,
                 "COMM_BSC": { "_calls": 10, "_time":        0.442, "_%":     0.02},
                 "GXC-CellXC": { "_calls": 5, "_time":        3.243, "_%":     0.16,
                   "gridxc@cellXC": { "_calls": 5, "_time":        3.242, "_%":     0.16}
                 }
               },
               "vmat": { "_calls": 5, "_time":        0.193, "_%":     0.01}
             }
           }
         },
         "compute_dm": { "_calls": 5, "_time":     1960.976, "_%":    98.43,
           "elsi": { "_calls": 5, "_time":     1960.044, "_%":    98.38,
             "find nnz_g": { "_calls": 5, "_time":        0.000, "_%":     0.00},
             "elsi-solver": { "_calls": 5, "_time":     1959.982, "_%":    98.38}
           }
         },
         "MIXER": { "_calls": 5, "_time":        0.007, "_%":     0.00}
       },
       "state_analysis": { "_calls": 1, "_time":        0.089, "_%":     0.00},
       "siesta_move": { "_calls": 1, "_time":        0.000, "_%":     0.00}
     },
     "Analysis": { "_calls": 1, "_time":        0.406, "_%":     0.02,
       "optical": { "_calls": 1, "_time":        0.001, "_%":     0.00}
     }
   }
 }}
