JobID        JobIDRaw        JobName  Partition  MaxVMSize  MaxVMSizeNode  MaxVMSizeTask  AveVMSize     MaxRSS MaxRSSNode MaxRSSTask     AveRSS MaxPages MaxPagesNode   MaxPagesTask   AvePages     MinCPU MinCPUNode MinCPUTask     AveCPU   NTasks  AllocCPUS    Elapsed      State ExitCode AveCPUFreq ReqCPUFreqMin ReqCPUFreqMax ReqCPUFreqGov     ReqMem ConsumedEnergy  MaxDiskRead MaxDiskReadNode MaxDiskReadTask    AveDiskRead MaxDiskWrite MaxDiskWriteNode MaxDiskWriteTask   AveDiskWrite    ReqTRES  AllocTRES TRESUsageInAve TRESUsageInMax TRESUsageInMaxNode TRESUsageInMaxTask TRESUsageInMin TRESUsageInMinNode TRESUsageInMinTask TRESUsageInTot TRESUsageOutMax TRESUsageOutMaxNode TRESUsageOutMaxTask TRESUsageOutAve TRESUsageOutTot 
------------ ------------ ---------- ---------- ---------- -------------- -------------- ---------- ---------- ---------- ---------- ---------- -------- ------------ -------------- ---------- ---------- ---------- ---------- ---------- -------- ---------- ---------- ---------- -------- ---------- ------------- ------------- ------------- ---------- -------------- ------------ --------------- --------------- -------------- ------------ ---------------- ---------------- -------------- ---------- ---------- -------------- -------------- ------------------ ------------------ -------------- ------------------ ------------------ -------------- --------------- ------------------- ------------------- --------------- --------------- 
7331697      7331697      submit.job boost_usr+                                                                                                                                                                                                            3840   01:05:15    RUNNING      0:0                  Unknown       Unknown       Unknown     57750G                                                                                                                                          billing=3+ billing=3+                                                                                                                                                                                                                                 
7331697.bat+ 7331697.bat+      batch                                                                                                                                                                                                               1         32   01:05:15    RUNNING      0:0          0             0             0             0                         0                                                                                                                                      cpu=32,gr+                                                                                                                                                                                                                                 
7331697.ext+ 7331697.ext+     extern                                                                                                                                                                                                             120       3840   01:05:15    RUNNING      0:0          0             0             0             0                         0                                                                                                                                      billing=3+                                                                                                                                                                                                                                 
7331697.0    7331697.0         orted             22942076K       lrdn0010              0  197417527  20037852K   lrdn0010          0  172426558     8442     lrdn0010              0         70   04:19:11   lrdn0712         59   04:19:15      119       3808   01:05:09  COMPLETED      0:0     16.91M       Unknown       Unknown       Unknown                         0        0.37M        lrdn1441             115          0.37M        0.06M         lrdn0010                0          0.03M            cpu=3808,+ cpu=04:19:15,+ cpu=04:19:18,+ cpu=lrdn0304,ener+ cpu=22,fs/disk=11+ cpu=04:19:11,+ cpu=lrdn0712,ener+ cpu=59,fs/disk=64+ cpu=21-10:11:+ energy=0,fs/di+ energy=lrdn1474,fs+           fs/disk=0 energy=0,fs/di+ energy=0,fs/di+ 
