JobId=1589802 JobName=CovidStrong
   UserId=it4i-fpedron(9897) GroupId=it4i-fpedron(11979) MCS_label=N/A
   Priority=302734925 Nice=0 Account=dd-24-70 QOS=2820_4664
   JobState=RUNNING Reason=None Dependency=(null)
   Requeue=1 Restarts=0 BatchFlag=1 Reboot=0 ExitCode=0:0
   DerivedExitCode=0:0
   RunTime=00:00:02 TimeLimit=00:59:00 TimeMin=N/A
   SubmitTime=2024-09-06T11:25:37 EligibleTime=2024-09-06T11:25:37
   AccrueTime=2024-09-06T11:25:37
   StartTime=2024-09-06T11:25:40 EndTime=2024-09-06T12:24:40 Deadline=N/A
   PreemptEligibleTime=2024-09-06T11:25:40 PreemptTime=None
   SuspendTime=None SecsPreSuspend=0 LastSchedEval=2024-09-06T11:25:40 Scheduler=Main
   Partition=qgpu AllocNode:Sid=login4.karolina.it4i.cz:2332276
   ReqNodeList=(null) ExcNodeList=(null)
   NodeList=acn[27-28]
   BatchHost=acn27
   NumNodes=2 NumCPUs=256 NumTasks=128 CPUs/Task=1 ReqB:S:C:T=0:0:*:*
   ReqTRES=cpu=128,mem=970G,node=2,billing=16,gres/gpu=16
   AllocTRES=cpu=256,mem=1940G,node=2,billing=16,gres/gpu=16
   Socks/Node=* NtasksPerN:B:S:C=64:0:*:* CoreSpec=*
   JOB_GRES=gpu:a100:16
     Nodes=acn[27-28] CPU_IDs=0-127 Mem=993280 GRES=gpu:a100:8(IDX:0-7)
   MinCPUsNode=64 MinMemoryCPU=7760M MinTmpDiskNode=0
   Features=(null) DelayBoot=00:00:00
   OverSubscribe=NO Contiguous=0 Licenses=(null) Network=(null)
   Command=/home/it4i-fpedron/JUBE4MaX-GPU/max-inputs/interface/siesta/_CovidStrong/000000/000001_submit/work/submit.job
   WorkDir=/home/it4i-fpedron/JUBE4MaX-GPU/max-inputs/interface/siesta/_CovidStrong/000000/000001_submit/work
   StdErr=/home/it4i-fpedron/JUBE4MaX-GPU/max-inputs/interface/siesta/_CovidStrong/000000/000001_submit/work/slurm-1589802.out
   StdIn=/dev/null
   StdOut=/home/it4i-fpedron/JUBE4MaX-GPU/max-inputs/interface/siesta/_CovidStrong/000000/000001_submit/work/slurm-1589802.out
   Power=
   CpusPerTres=gres/gpu:16
   TresPerNode=gres/gpu:8
   

