JobId=7210377 JobName=submit.job
   UserId=nspallan(25378) GroupId=interactive(25200) MCS_label=N/A
   Priority=195369 Nice=0 Account=euhpc_b12_044 QOS=dcgp_qos_bprod
   JobState=RUNNING Reason=None Dependency=(null)
   Requeue=0 Restarts=0 BatchFlag=1 Reboot=0 ExitCode=0:0
   DerivedExitCode=0:0
   RunTime=00:00:04 TimeLimit=06:00:00 TimeMin=N/A
   SubmitTime=2024-08-23T15:56:36 EligibleTime=2024-08-23T15:56:36
   AccrueTime=2024-08-23T15:56:36
   StartTime=2024-08-23T15:56:38 EndTime=2024-08-23T21:56:39 Deadline=N/A
   SuspendTime=None SecsPreSuspend=0 LastSchedEval=2024-08-23T15:56:38 Scheduler=Main
   Partition=dcgp_usr_prod AllocNode:Sid=slurm-controller:938051
   ReqNodeList=(null) ExcNodeList=(null)
   NodeList=lrdn[3489,3504,3507,3534,3553,3585,3603,3633,3665,3685,3706,3733,3748,3800,3828,3879,3904,3933,3992,4024,4066,4089,4143,4191]
   BatchHost=lrdn3489
   NumNodes=24 NumCPUs=2688 NumTasks=192 CPUs/Task=14 ReqB:S:C:T=0:0:*:*
   TRES=cpu=2688,mem=11550G,node=24,billing=2688,gres/tmpfs=79164837199872
   Socks/Node=* NtasksPerN:B:S:C=8:0:4:* CoreSpec=*
   JOB_GRES=tmpfs:79164837199872
     Nodes=lrdn[3489,3504,3507,3534,3553,3585,3603,3633,3665,3685,3706,3733,3748,3800,3828,3879,3904,3933,3992,4024,4066,4089,4143,4191] CPU_IDs=0-111 Mem=492800 GRES=tmpfs(CNT:3298534883328)
   MinCPUsNode=112 MinMemoryCPU=4400M MinTmpDiskNode=0
   Features=(null) DelayBoot=00:00:00
   OverSubscribe=NO Contiguous=0 Licenses=(null) Network=(null)
   Command=/leonardo_work/EUHPC_E01_022/nspallan/benchmarks/strongscaling_dcgp_7k_8tpn/000000/000005_submit/work/submit.job
   WorkDir=/leonardo_work/EUHPC_E01_022/nspallan/benchmarks/strongscaling_dcgp_7k_8tpn/000000/000005_submit/work
   StdErr=/leonardo_work/EUHPC_E01_022/nspallan/benchmarks/strongscaling_dcgp_7k_8tpn/000000/000005_submit/work/slurm-7210377.out
   StdIn=/dev/null
   StdOut=/leonardo_work/EUHPC_E01_022/nspallan/benchmarks/strongscaling_dcgp_7k_8tpn/000000/000005_submit/work/slurm-7210377.out
   Power=
   TresPerNode=gres:tmpfs:10g
   

