       JobID     JobIDRaw    JobName  Partition  MaxVMSize  MaxVMSizeNode  MaxVMSizeTask  AveVMSize     MaxRSS MaxRSSNode MaxRSSTask     AveRSS MaxPages MaxPagesNode   MaxPagesTask   AvePages     MinCPU MinCPUNode MinCPUTask     AveCPU   NTasks  AllocCPUS    Elapsed      State ExitCode AveCPUFreq ReqCPUFreqMin ReqCPUFreqMax ReqCPUFreqGov     ReqMem ConsumedEnergy  MaxDiskRead MaxDiskReadNode MaxDiskReadTask    AveDiskRead MaxDiskWrite MaxDiskWriteNode MaxDiskWriteTask   AveDiskWrite    AllocGRES      ReqGRES    ReqTRES  AllocTRES TRESUsageInAve TRESUsageInMax TRESUsageInMaxNode TRESUsageInMaxTask TRESUsageInMin TRESUsageInMinNode TRESUsageInMinTask TRESUsageInTot TRESUsageOutMax TRESUsageOutMaxNode TRESUsageOutMaxTask TRESUsageOutAve TRESUsageOutTot 
------------ ------------ ---------- ---------- ---------- -------------- -------------- ---------- ---------- ---------- ---------- ---------- -------- ------------ -------------- ---------- ---------- ---------- ---------- ---------- -------- ---------- ---------- ---------- -------- ---------- ------------- ------------- ------------- ---------- -------------- ------------ --------------- --------------- -------------- ------------ ---------------- ---------------- -------------- ------------ ------------ ---------- ---------- -------------- -------------- ------------------ ------------------ -------------- ------------------ ------------------ -------------- --------------- ------------------- ------------------- --------------- --------------- 
244960       244960       CovidWeak+         cn                                                                                                                                                                                                             256   01:17:07    RUNNING      0:0                  Unknown       Unknown       Unknown        1Gc                                                                                                                                                                    billing=2+ billing=2+                                                                                                                                                                                                                                 
244960.batch 244960.batch      batch                                                                                                                                                                                                               1        128   01:17:07    RUNNING      0:0          0             0             0             0        1Gc              0                                                                                                                                                                cpu=128,m+                                                                                                                                                                                                                                 
244960.0     244960.0         siesta              2065828K         cn0123              0 1782197808    864864K     cn0140        184  781332848       95       cn0123              0         21   01:15:21     cn0123          9   01:16:13      256        256   01:17:01  COMPLETED      0:0       464K       Unknown       Unknown       Unknown        1Gc              0       10.06M          cn0123               0          8.27M       26.09M           cn0123                0          5.00M                                      cpu=256,m+ cpu=01:16:13,+ cpu=01:16:16,+ cpu=cn0140,energy+ cpu=183,fs/disk=0+ cpu=01:15:21,+ cpu=cn0123,energy+ cpu=9,fs/disk=248+ cpu=13-13:11:+ energy=0,fs/di+ energy=cn0140,fs/d+           fs/disk=0 energy=0,fs/di+ energy=0,fs/di+ 
