       JobID     JobIDRaw    JobName  Partition  MaxVMSize  MaxVMSizeNode  MaxVMSizeTask  AveVMSize     MaxRSS MaxRSSNode MaxRSSTask     AveRSS MaxPages MaxPagesNode   MaxPagesTask   AvePages     MinCPU MinCPUNode MinCPUTask     AveCPU   NTasks  AllocCPUS    Elapsed      State ExitCode AveCPUFreq ReqCPUFreqMin ReqCPUFreqMax ReqCPUFreqGov     ReqMem ConsumedEnergy  MaxDiskRead MaxDiskReadNode MaxDiskReadTask    AveDiskRead MaxDiskWrite MaxDiskWriteNode MaxDiskWriteTask   AveDiskWrite    AllocGRES      ReqGRES    ReqTRES  AllocTRES TRESUsageInAve TRESUsageInMax TRESUsageInMaxNode TRESUsageInMaxTask TRESUsageInMin TRESUsageInMinNode TRESUsageInMinTask TRESUsageInTot TRESUsageOutMax TRESUsageOutMaxNode TRESUsageOutMaxTask TRESUsageOutAve TRESUsageOutTot 
------------ ------------ ---------- ---------- ---------- -------------- -------------- ---------- ---------- ---------- ---------- ---------- -------- ------------ -------------- ---------- ---------- ---------- ---------- ---------- -------- ---------- ---------- ---------- -------- ---------- ------------- ------------- ------------- ---------- -------------- ------------ --------------- --------------- -------------- ------------ ---------------- ---------------- -------------- ------------ ------------ ---------- ---------- -------------- -------------- ------------------ ------------------ -------------- ------------------ ------------------ -------------- --------------- ------------------- ------------------- --------------- --------------- 
244509       244509       CovidWeak+         cn                                                                                                                                                                                                             128   00:03:08    RUNNING      0:0                  Unknown       Unknown       Unknown        1Gc                                                                                                                                                                    billing=1+ billing=1+                                                                                                                                                                                                                                 
244509.batch 244509.batch      batch                                                                                                                                                                                                               1        128   00:03:08    RUNNING      0:0          0             0             0             0        1Gc              0                                                                                                                                                                cpu=128,m+                                                                                                                                                                                                                                 
244509.0     244509.0         siesta              2027068K         cn0333              0 1813128480    816528K     cn0333          6  797811424      107       cn0333              0         19   00:02:55     cn0333         30   00:03:01      128        128   00:03:05  COMPLETED      0:0     14.74M       Unknown       Unknown       Unknown        1Gc         81.17K        9.80M          cn0333               0          8.34M       16.79M           cn0333                0          4.21M                                      cpu=128,m+ cpu=00:03:01,+ cpu=00:03:01,+ cpu=cn0333,energy+ cpu=36,fs/disk=0,+ cpu=00:02:55,+ cpu=cn0333,energy+ cpu=30,fs/disk=30+ cpu=06:26:08,+ energy=500,fs/+ energy=cn0333,fs/d+           fs/disk=0 energy=6,fs/di+ energy=831,fs/+ 
