{
 "global_section": { "_calls": 1, "_time":      182.372, "_%":   100.00,
   "siesta": { "_calls": 1, "_time":      182.372, "_%":   100.00,
     "Setup": { "_calls": 1, "_time":        2.038, "_%":     1.12,
       "bands": { "_calls": 1, "_time":        0.004, "_%":     0.00},
       "KSV_init": { "_calls": 1, "_time":        0.001, "_%":     0.00}
     },
     "IterGeom": { "_calls": 1, "_time":      180.117, "_%":    98.76,
       "geom_init": { "_calls": 1, "_time":       22.401, "_%":    12.28,
         "state_init": { "_calls": 1, "_time":        0.576, "_%":     0.32,
           "hsparse": { "_calls": 1, "_time":        0.174, "_%":     0.10},
           "overlap": { "_calls": 1, "_time":        0.110, "_%":     0.06}
         },
         "Setup_H0": { "_calls": 1, "_time":       21.824, "_%":    11.97,
           "naefs": { "_calls": 1, "_time":        0.031, "_%":     0.02},
           "MolMec": { "_calls": 1, "_time":        0.000, "_%":     0.00},
           "kinefsm": { "_calls": 1, "_time":        0.100, "_%":     0.05},
           "nlefsm": { "_calls": 1, "_time":        0.427, "_%":     0.23},
           "DHSCF_Init": { "_calls": 1, "_time":       21.247, "_%":    11.65,
             "DHSCF1": { "_calls": 1, "_time":        0.097, "_%":     0.05,
               "INITMESH": { "_calls": 1, "_time":        0.000, "_%":     0.00}
             },
             "DHSCF2": { "_calls": 1, "_time":       21.117, "_%":    11.58,
               "REMESH": { "_calls": 1, "_time":        0.174, "_%":     0.10,
                 "INITMESH": { "_calls": 2, "_time":        0.135, "_%":     0.07,
                   "SPLOAD": { "_calls": 2, "_time":        0.117, "_%":     0.06}
                 }
               },
               "REORD": { "_calls": 2, "_time":        0.117, "_%":     0.06},
               "PHION": { "_calls": 1, "_time":        0.509, "_%":     0.28},
               "COMM_BSC": { "_calls": 1, "_time":        0.455, "_%":     0.25},
               "POISON": { "_calls": 1, "_time":       18.496, "_%":    10.14,
                 "fft": { "_calls": 2, "_time":       17.641, "_%":     9.67}
               }
             }
           }
         }
       },
       "IterSCF": { "_calls": 5, "_time":      157.604, "_%":    86.42,
         "setup_H": { "_calls": 5, "_time":      135.615, "_%":    74.36,
           "DHSCF": { "_calls": 5, "_time":      135.533, "_%":    74.32,
             "DHSCF3": { "_calls": 5, "_time":      135.533, "_%":    74.32,
               "rhoofd": { "_calls": 5, "_time":        0.809, "_%":     0.44},
               "COMM_BSC": { "_calls": 10, "_time":        3.987, "_%":     2.19},
               "POISON": { "_calls": 5, "_time":       93.039, "_%":    51.02,
                 "fft": { "_calls": 10, "_time":       88.967, "_%":    48.78}
               },
               "XC": { "_calls": 5, "_time":       28.627, "_%":    15.70,
                 "COMM_BSC": { "_calls": 10, "_time":        4.213, "_%":     2.31},
                 "GXC-CellXC": { "_calls": 5, "_time":       23.183, "_%":    12.71,
                   "gridxc@cellXC": { "_calls": 5, "_time":       23.183, "_%":    12.71}
                 }
               },
               "vmat": { "_calls": 5, "_time":        0.413, "_%":     0.23}
             }
           }
         },
         "compute_dm": { "_calls": 5, "_time":       21.944, "_%":    12.03,
           "redist_orbs_fwd": { "_calls": 5, "_time":        0.023, "_%":     0.01},
           "elsi-complex-solver": { "_calls": 5, "_time":       21.894, "_%":    12.01,
             "elsi-solver": { "_calls": 5, "_time":       21.735, "_%":    11.92}
           },
           "redist_dm-edm_bck": { "_calls": 5, "_time":        0.010, "_%":     0.01}
         },
         "MIXER": { "_calls": 5, "_time":        0.013, "_%":     0.01}
       },
       "state_analysis": { "_calls": 1, "_time":        0.080, "_%":     0.04},
       "siesta_move": { "_calls": 1, "_time":        0.000, "_%":     0.00}
     },
     "Analysis": { "_calls": 1, "_time":        0.210, "_%":     0.12,
       "optical": { "_calls": 1, "_time":        0.001, "_%":     0.00}
     }
   }
 }}
