{
 "global_section": { "_calls": 1, "_time":     2176.105, "_%":   100.00,
   "siesta": { "_calls": 1, "_time":     2176.105, "_%":   100.00,
     "Setup": { "_calls": 1, "_time":        2.989, "_%":     0.14,
       "bands": { "_calls": 1, "_time":        0.003, "_%":     0.00},
       "KSV_init": { "_calls": 1, "_time":        0.001, "_%":     0.00}
     },
     "IterGeom": { "_calls": 1, "_time":     2172.507, "_%":    99.83,
       "geom_init": { "_calls": 1, "_time":       13.433, "_%":     0.62,
         "state_init": { "_calls": 1, "_time":        1.046, "_%":     0.05,
           "hsparse": { "_calls": 1, "_time":        0.374, "_%":     0.02},
           "overlap": { "_calls": 1, "_time":        0.091, "_%":     0.00}
         },
         "Setup_H0": { "_calls": 1, "_time":       12.386, "_%":     0.57,
           "naefs": { "_calls": 1, "_time":        0.059, "_%":     0.00},
           "MolMec": { "_calls": 1, "_time":        0.000, "_%":     0.00},
           "kinefsm": { "_calls": 1, "_time":        0.087, "_%":     0.00},
           "nlefsm": { "_calls": 1, "_time":        0.248, "_%":     0.01},
           "DHSCF_Init": { "_calls": 1, "_time":       11.951, "_%":     0.55,
             "DHSCF1": { "_calls": 1, "_time":        0.149, "_%":     0.01,
               "INITMESH": { "_calls": 1, "_time":        0.000, "_%":     0.00}
             },
             "DHSCF2": { "_calls": 1, "_time":       11.755, "_%":     0.54,
               "REMESH": { "_calls": 1, "_time":        0.346, "_%":     0.02,
                 "INITMESH": { "_calls": 2, "_time":        0.309, "_%":     0.01,
                   "SPLOAD": { "_calls": 2, "_time":        0.227, "_%":     0.01}
                 }
               },
               "REORD": { "_calls": 2, "_time":        0.069, "_%":     0.00},
               "PHION": { "_calls": 1, "_time":        0.441, "_%":     0.02},
               "COMM_BSC": { "_calls": 1, "_time":        0.163, "_%":     0.01},
               "POISON": { "_calls": 1, "_time":        9.705, "_%":     0.45,
                 "fft": { "_calls": 2, "_time":        9.326, "_%":     0.43}
               }
             }
           }
         }
       },
       "IterSCF": { "_calls": 5, "_time":     2158.822, "_%":    99.21,
         "setup_H": { "_calls": 5, "_time":       77.284, "_%":     3.55,
           "DHSCF": { "_calls": 5, "_time":       77.227, "_%":     3.55,
             "DHSCF3": { "_calls": 5, "_time":       77.227, "_%":     3.55,
               "rhoofd": { "_calls": 5, "_time":        0.368, "_%":     0.02},
               "COMM_BSC": { "_calls": 10, "_time":        1.889, "_%":     0.09},
               "POISON": { "_calls": 5, "_time":       47.982, "_%":     2.20,
                 "fft": { "_calls": 10, "_time":       46.022, "_%":     2.11}
               },
               "XC": { "_calls": 5, "_time":       22.557, "_%":     1.04,
                 "COMM_BSC": { "_calls": 10, "_time":        2.011, "_%":     0.09},
                 "GXC-CellXC": { "_calls": 5, "_time":       20.046, "_%":     0.92,
                   "gridxc@cellXC": { "_calls": 5, "_time":       20.046, "_%":     0.92}
                 }
               },
               "vmat": { "_calls": 5, "_time":        0.641, "_%":     0.03}
             }
           }
         },
         "compute_dm": { "_calls": 5, "_time":     2081.519, "_%":    95.65,
           "elsi": { "_calls": 5, "_time":     2081.395, "_%":    95.65,
             "find nnz_g": { "_calls": 5, "_time":        0.000, "_%":     0.00},
             "elsi-solver": { "_calls": 5, "_time":     2081.356, "_%":    95.65}
           }
         },
         "MIXER": { "_calls": 5, "_time":        0.005, "_%":     0.00}
       },
       "state_analysis": { "_calls": 1, "_time":        0.190, "_%":     0.01},
       "siesta_move": { "_calls": 1, "_time":        0.000, "_%":     0.00}
     },
     "Analysis": { "_calls": 1, "_time":        0.555, "_%":     0.03,
       "optical": { "_calls": 1, "_time":        0.001, "_%":     0.00}
     }
   }
 }}
