JobId=7757247 JobName=submit.job
   UserId=fpedron0(126159) GroupId=interactive(25200) MCS_label=N/A
   Priority=141855 Nice=0 Account=euhpc_b13_053 QOS=normal
   JobState=RUNNING Reason=None Dependency=(null)
   Requeue=0 Restarts=0 BatchFlag=1 Reboot=0 ExitCode=0:0
   DerivedExitCode=0:0
   RunTime=00:00:05 TimeLimit=01:00:00 TimeMin=N/A
   SubmitTime=2024-09-18T14:37:22 EligibleTime=2024-09-18T14:37:22
   AccrueTime=2024-09-18T14:37:22
   StartTime=2024-09-18T14:45:50 EndTime=2024-09-18T15:45:52 Deadline=N/A
   SuspendTime=None SecsPreSuspend=0 LastSchedEval=2024-09-18T14:45:50 Scheduler=Backfill
   Partition=boost_usr_prod AllocNode:Sid=slurm-controller:2777051
   ReqNodeList=(null) ExcNodeList=(null)
   NodeList=lrdn[3345,3392]
   BatchHost=lrdn3345
   NumNodes=2 NumCPUs=64 NumTasks=64 CPUs/Task=1 ReqB:S:C:T=0:0:*:*
   TRES=cpu=64,mem=962.50G,node=2,billing=64,gres/gpu=8
   Socks/Node=* NtasksPerN:B:S:C=32:0:*:* CoreSpec=*
   JOB_GRES=gpu:a100:8
     Nodes=lrdn[3345,3392] CPU_IDs=0-31 Mem=492800 GRES=gpu:a100:4(IDX:0-3)
   MinCPUsNode=32 MinMemoryCPU=15400M MinTmpDiskNode=0
   Features=(null) DelayBoot=00:00:00
   OverSubscribe=NO Contiguous=0 Licenses=(null) Network=(null)
   Command=/leonardo/home/userexternal/fpedron0/JUBE4MaX-GPU/max-inputs/interface/siesta/_CovidWeak/000001/000001_submit/work/submit.job
   WorkDir=/leonardo/home/userexternal/fpedron0/JUBE4MaX-GPU/max-inputs/interface/siesta/_CovidWeak/000001/000001_submit/work
   StdErr=/leonardo/home/userexternal/fpedron0/JUBE4MaX-GPU/max-inputs/interface/siesta/_CovidWeak/000001/000001_submit/work/slurm-7757247.out
   StdIn=/dev/null
   StdOut=/leonardo/home/userexternal/fpedron0/JUBE4MaX-GPU/max-inputs/interface/siesta/_CovidWeak/000001/000001_submit/work/slurm-7757247.out
   Power=
   TresPerNode=gres:gpu:4
   

