{
 "global_section": { "_calls": 1, "_time":      521.277, "_%":   100.00,
   "siesta": { "_calls": 1, "_time":      521.277, "_%":   100.00,
     "Setup": { "_calls": 1, "_time":        1.326, "_%":     0.25,
       "bands": { "_calls": 1, "_time":        0.002, "_%":     0.00},
       "KSV_init": { "_calls": 1, "_time":        0.001, "_%":     0.00}
     },
     "IterGeom": { "_calls": 1, "_time":      519.404, "_%":    99.64,
       "geom_init": { "_calls": 1, "_time":       12.784, "_%":     2.45,
         "state_init": { "_calls": 1, "_time":        0.423, "_%":     0.08,
           "hsparse": { "_calls": 1, "_time":        0.113, "_%":     0.02},
           "overlap": { "_calls": 1, "_time":        0.140, "_%":     0.03}
         },
         "Setup_H0": { "_calls": 1, "_time":       12.359, "_%":     2.37,
           "naefs": { "_calls": 1, "_time":        0.016, "_%":     0.00},
           "MolMec": { "_calls": 1, "_time":        0.000, "_%":     0.00},
           "kinefsm": { "_calls": 1, "_time":        0.135, "_%":     0.03},
           "nlefsm": { "_calls": 1, "_time":        0.647, "_%":     0.12},
           "DHSCF_Init": { "_calls": 1, "_time":       11.552, "_%":     2.22,
             "DHSCF1": { "_calls": 1, "_time":        0.056, "_%":     0.01,
               "INITMESH": { "_calls": 1, "_time":        0.000, "_%":     0.00}
             },
             "DHSCF2": { "_calls": 1, "_time":       11.477, "_%":     2.20,
               "REMESH": { "_calls": 1, "_time":        0.145, "_%":     0.03,
                 "INITMESH": { "_calls": 2, "_time":        0.103, "_%":     0.02,
                   "SPLOAD": { "_calls": 2, "_time":        0.098, "_%":     0.02}
                 }
               },
               "REORD": { "_calls": 2, "_time":        0.064, "_%":     0.01},
               "PHION": { "_calls": 1, "_time":        0.687, "_%":     0.13},
               "COMM_BSC": { "_calls": 1, "_time":        0.395, "_%":     0.08},
               "POISON": { "_calls": 1, "_time":        9.284, "_%":     1.78,
                 "fft": { "_calls": 2, "_time":        8.914, "_%":     1.71}
               }
             }
           }
         }
       },
       "IterSCF": { "_calls": 5, "_time":      506.433, "_%":    97.15,
         "setup_H": { "_calls": 5, "_time":       82.571, "_%":    15.84,
           "DHSCF": { "_calls": 5, "_time":       81.971, "_%":    15.72,
             "DHSCF3": { "_calls": 5, "_time":       81.971, "_%":    15.72,
               "rhoofd": { "_calls": 5, "_time":        0.578, "_%":     0.11},
               "COMM_BSC": { "_calls": 10, "_time":        3.651, "_%":     0.70},
               "POISON": { "_calls": 5, "_time":       46.054, "_%":     8.83,
                 "fft": { "_calls": 10, "_time":       44.012, "_%":     8.44}
               },
               "XC": { "_calls": 5, "_time":       27.464, "_%":     5.27,
                 "COMM_BSC": { "_calls": 10, "_time":        2.990, "_%":     0.57},
                 "GXC-CellXC": { "_calls": 5, "_time":       23.598, "_%":     4.53,
                   "gridxc@cellXC": { "_calls": 5, "_time":       23.598, "_%":     4.53}
                 }
               },
               "vmat": { "_calls": 5, "_time":        0.386, "_%":     0.07}
             }
           }
         },
         "compute_dm": { "_calls": 5, "_time":      423.811, "_%":    81.30,
           "elsi": { "_calls": 5, "_time":      423.593, "_%":    81.26,
             "find nnz_g": { "_calls": 5, "_time":        0.000, "_%":     0.00},
             "elsi-solver": { "_calls": 5, "_time":      423.572, "_%":    81.26}
           }
         },
         "MIXER": { "_calls": 5, "_time":        0.006, "_%":     0.00}
       },
       "state_analysis": { "_calls": 1, "_time":        0.037, "_%":     0.01},
       "siesta_move": { "_calls": 1, "_time":        0.000, "_%":     0.00}
     },
     "Analysis": { "_calls": 1, "_time":        0.515, "_%":     0.10,
       "optical": { "_calls": 1, "_time":        0.001, "_%":     0.00}
     }
   }
 }}
