JobID        JobIDRaw        JobName  Partition  MaxVMSize  MaxVMSizeNode  MaxVMSizeTask  AveVMSize     MaxRSS MaxRSSNode MaxRSSTask     AveRSS MaxPages MaxPagesNode   MaxPagesTask   AvePages     MinCPU MinCPUNode MinCPUTask     AveCPU   NTasks  AllocCPUS    Elapsed      State ExitCode AveCPUFreq ReqCPUFreqMin ReqCPUFreqMax ReqCPUFreqGov     ReqMem ConsumedEnergy  MaxDiskRead MaxDiskReadNode MaxDiskReadTask    AveDiskRead MaxDiskWrite MaxDiskWriteNode MaxDiskWriteTask   AveDiskWrite    ReqTRES  AllocTRES TRESUsageInAve TRESUsageInMax TRESUsageInMaxNode TRESUsageInMaxTask TRESUsageInMin TRESUsageInMinNode TRESUsageInMinTask TRESUsageInTot TRESUsageOutMax TRESUsageOutMaxNode TRESUsageOutMaxTask TRESUsageOutAve TRESUsageOutTot 
------------ ------------ ---------- ---------- ---------- -------------- -------------- ---------- ---------- ---------- ---------- ---------- -------- ------------ -------------- ---------- ---------- ---------- ---------- ---------- -------- ---------- ---------- ---------- -------- ---------- ------------- ------------- ------------- ---------- -------------- ------------ --------------- --------------- -------------- ------------ ---------------- ---------------- -------------- ---------- ---------- -------------- -------------- ------------------ ------------------ -------------- ------------------ ------------------ -------------- --------------- ------------------- ------------------- --------------- --------------- 
34389366     34389366     CovidStro+        gpu                                                                                                                                                                                                             512   17:14:25    RUNNING      0:0                  Unknown       Unknown       Unknown       250G                                                                                                                                          billing=5+ billing=5+                                                                                                                                                                                                                                 
34389366.ba+ 34389366.ba+      batch                                                                                                                                                                                                               1        256   17:14:25    RUNNING      0:0          0             0             0             0                         0                                                                                                                                      cpu=256,g+                                                                                                                                                                                                                                 
34389366.ex+ 34389366.ex+     extern                                                                                                                                                                                                               2        512   17:14:25    RUNNING      0:0          0             0             0             0                         0                                                                                                                                      billing=5+                                                                                                                                                                                                                                 
34389366.0   34389366.0        orted                                                                                                                                                                                                               1        512   17:14:25    RUNNING      0:0          0             0             0             0                         0                                                                                                                                      billing=5+                                                                                                                                                                                                                                 
