       JobID     JobIDRaw    JobName  Partition  MaxVMSize  MaxVMSizeNode  MaxVMSizeTask  AveVMSize     MaxRSS MaxRSSNode MaxRSSTask     AveRSS MaxPages MaxPagesNode   MaxPagesTask   AvePages     MinCPU MinCPUNode MinCPUTask     AveCPU   NTasks  AllocCPUS    Elapsed      State ExitCode AveCPUFreq ReqCPUFreqMin ReqCPUFreqMax ReqCPUFreqGov     ReqMem ConsumedEnergy  MaxDiskRead MaxDiskReadNode MaxDiskReadTask    AveDiskRead MaxDiskWrite MaxDiskWriteNode MaxDiskWriteTask   AveDiskWrite    AllocGRES      ReqGRES    ReqTRES  AllocTRES TRESUsageInAve TRESUsageInMax TRESUsageInMaxNode TRESUsageInMaxTask TRESUsageInMin TRESUsageInMinNode TRESUsageInMinTask TRESUsageInTot TRESUsageOutMax TRESUsageOutMaxNode TRESUsageOutMaxTask TRESUsageOutAve TRESUsageOutTot 
------------ ------------ ---------- ---------- ---------- -------------- -------------- ---------- ---------- ---------- ---------- ---------- -------- ------------ -------------- ---------- ---------- ---------- ---------- ---------- -------- ---------- ---------- ---------- -------- ---------- ------------- ------------- ------------- ---------- -------------- ------------ --------------- --------------- -------------- ------------ ---------------- ---------------- -------------- ------------ ------------ ---------- ---------- -------------- -------------- ------------------ ------------------ -------------- ------------------ ------------------ -------------- --------------- ------------------- ------------------- --------------- --------------- 
244517       244517       CovidWeak+         cn                                                                                                                                                                                                            2048   00:01:45    RUNNING      0:0                  Unknown       Unknown       Unknown        1Gc                                                                                                                                                                    billing=2+ billing=2+                                                                                                                                                                                                                                 
244517.batch 244517.batch      batch                                                                                                                                                                                                               1        128   00:01:45    RUNNING      0:0          0             0             0             0        1Gc              0                                                                                                                                                                cpu=128,m+                                                                                                                                                                                                                                 
244517.0     244517.0         siesta              1494244K         cn0625              0 1183254142    294428K     cn0625          0  230801656       96       cn0625              0         30   00:01:34     cn0625         31   00:01:37     2048       2048   00:01:43  COMPLETED      0:0     11.91M       Unknown       Unknown       Unknown        1Gc        731.76K       10.41M          cn0625               0          8.22M       16.89M           cn0625                0          4.12M                                      cpu=2048,+ cpu=00:01:37,+ cpu=00:01:38,+ cpu=cn0629,energy+ cpu=594,fs/disk=0+ cpu=00:01:34,+ cpu=cn0625,energy+ cpu=31,fs/disk=20+ cpu=2-07:40:4+ energy=480,fs/+ energy=cn0636,fs/d+           fs/disk=0 energy=12,fs/d+ energy=24700,f+ 
