Nodes;Tasks;omp;electrons;cbands;diaghg;Xegterg;vloc_psi;h_psi;sum_band;walltime
1;4;20;8.22;6.97;1.80;6.10;2.23;3.29;1.02;10.63
2;8;20;8.96;7.79;2.01;7.20;3.43;4.44;0.96;11.15
4;16;20;7.49;6.54;2.17;6.19;2.54;3.44;0.74;9.45
8;32;20;8.20;7.07;2.06;6.85;3.23;4.08;0.90;10.24
12;48;20;8.79;7.64;2.02;7.47;4.14;5.08;0.93;11.34
16;64;20;10.08;8.68;2.17;8.50;4.92;5.90;1.12;12.55
