{
 "global_section": { "_calls": 1, "_time":       61.722, "_%":   100.00,
   "siesta": { "_calls": 1, "_time":       61.722, "_%":   100.00,
     "Setup": { "_calls": 1, "_time":        2.156, "_%":     3.49,
       "bands": { "_calls": 1, "_time":        0.002, "_%":     0.00},
       "KSV_init": { "_calls": 1, "_time":        0.001, "_%":     0.00}
     },
     "IterGeom": { "_calls": 1, "_time":       59.420, "_%":    96.27,
       "geom_init": { "_calls": 1, "_time":        4.264, "_%":     6.91,
         "state_init": { "_calls": 1, "_time":        0.570, "_%":     0.92,
           "hsparse": { "_calls": 1, "_time":        0.101, "_%":     0.16},
           "overlap": { "_calls": 1, "_time":        0.053, "_%":     0.09}
         },
         "Setup_H0": { "_calls": 1, "_time":        3.693, "_%":     5.98,
           "naefs": { "_calls": 1, "_time":        0.014, "_%":     0.02},
           "MolMec": { "_calls": 1, "_time":        0.000, "_%":     0.00},
           "kinefsm": { "_calls": 1, "_time":        0.051, "_%":     0.08},
           "nlefsm": { "_calls": 1, "_time":        0.163, "_%":     0.26},
           "DHSCF_Init": { "_calls": 1, "_time":        3.456, "_%":     5.60,
             "DHSCF1": { "_calls": 1, "_time":        0.030, "_%":     0.05,
               "INITMESH": { "_calls": 1, "_time":        0.000, "_%":     0.00}
             },
             "DHSCF2": { "_calls": 1, "_time":        3.410, "_%":     5.52,
               "REMESH": { "_calls": 1, "_time":        0.872, "_%":     1.41,
                 "INITMESH": { "_calls": 2, "_time":        0.857, "_%":     1.39,
                   "SPLOAD": { "_calls": 2, "_time":        0.779, "_%":     1.26}
                 }
               },
               "REORD": { "_calls": 2, "_time":        0.010, "_%":     0.02},
               "PHION": { "_calls": 1, "_time":        0.123, "_%":     0.20},
               "COMM_BSC": { "_calls": 1, "_time":        0.055, "_%":     0.09},
               "POISON": { "_calls": 1, "_time":        1.969, "_%":     3.19,
                 "fft": { "_calls": 2, "_time":        1.892, "_%":     3.07}
               }
             }
           }
         }
       },
       "IterSCF": { "_calls": 5, "_time":       55.089, "_%":    89.25,
         "setup_H": { "_calls": 5, "_time":       15.231, "_%":    24.68,
           "DHSCF": { "_calls": 5, "_time":       15.226, "_%":    24.67,
             "DHSCF3": { "_calls": 5, "_time":       15.226, "_%":    24.67,
               "rhoofd": { "_calls": 5, "_time":        0.089, "_%":     0.14},
               "COMM_BSC": { "_calls": 10, "_time":        0.430, "_%":     0.70},
               "POISON": { "_calls": 5, "_time":        9.841, "_%":    15.94,
                 "fft": { "_calls": 10, "_time":        9.454, "_%":    15.32}
               },
               "XC": { "_calls": 5, "_time":        4.111, "_%":     6.66,
                 "COMM_BSC": { "_calls": 10, "_time":        0.569, "_%":     0.92},
                 "GXC-CellXC": { "_calls": 5, "_time":        3.485, "_%":     5.65,
                   "gridxc@cellXC": { "_calls": 5, "_time":        3.485, "_%":     5.65}
                 }
               },
               "vmat": { "_calls": 5, "_time":        0.110, "_%":     0.18}
             }
           }
         },
         "compute_dm": { "_calls": 5, "_time":       39.833, "_%":    64.54,
           "elsi": { "_calls": 5, "_time":       39.832, "_%":    64.54,
             "find nnz_g": { "_calls": 5, "_time":        0.000, "_%":     0.00},
             "elsi-solver": { "_calls": 5, "_time":       39.809, "_%":    64.50}
           }
         },
         "MIXER": { "_calls": 5, "_time":        0.011, "_%":     0.02}
       },
       "state_analysis": { "_calls": 1, "_time":        0.056, "_%":     0.09},
       "siesta_move": { "_calls": 1, "_time":        0.000, "_%":     0.00}
     },
     "Analysis": { "_calls": 1, "_time":        0.130, "_%":     0.21,
       "optical": { "_calls": 1, "_time":        0.001, "_%":     0.00}
     }
   }
 }}
