The following modules were not unloaded:
  (Use "module --force purge" to unload all):

  1) ModuleLabel/label   2) lumi-tools/23.11   3) init-lumi/0.2

The following sticky modules could not be reloaded:

  1) lumi-tools

Lmod is automatically replacing "craype-x86-trento" with "craype-x86-rome".

-------------------------------------------------------------------------------
There are messages associated with the following module(s):
-------------------------------------------------------------------------------

rocm/5.3.3:
   This module is not installed the way it is intended by AMD. Hence some
   parts of ROCm may be broken or offer slower than expected performance and
   there is nothing the LUMI User Support Team can do about that. As the
   module is also not an official HPE Cray module there is no guarantee that
   it will integrate properly with HPE Cray PE modules or work correctly in
   that environment. Note that HPE Cray PE programming environments up to at
   least 23.02 have only been tested with ROCm version prior to 5.3 by HPE.

-------------------------------------------------------------------------------

Lmod has detected the following error: The following module(s) are unknown:
"cray-mpich/8.1.25" "rocm/5.2.0"

Please check the spelling or version number. Also try "module spider ..."
It is also possible your cache file is out-of-date; it may help to try:
  $ module --ignore_cache load "cray-mpich/8.1.25" "rocm/5.2.0"

Also make sure that all modulefiles written in TCL start with the string
#%Module

Executing this command requires loading "cray-mpich/8.1.25" which failed while
processing the following module(s):

    Module fullname  Module Filename
    ---------------  ---------------
    cpe/23.03        /opt/cray/pe/lmod/modulefiles/core/cpe/23.03.luaExecuting this command requires loading "rocm/5.2.0" which failed while
processing the following module(s):

    Module fullname  Module Filename
    ---------------  ---------------
    cpe/23.03        /opt/cray/pe/lmod/modulefiles/core/cpe/23.03.lua



The following have been reloaded with a version change:
  1) cce/14.0.2 => cce/15.0.1


The following have been reloaded with a version change:
  1) rocm/5.3.3 => rocm/5.2.3

 STOP  
 STOP  
 STOP  
 STOP  
 STOP  
 STOP  
 STOP  
 STOP  
 STOP  
 STOP  
 STOP  
 STOP  
 STOP  
 STOP  
 STOP  
 STOP  
