{
 "global_section": { "_calls": 1, "_time":      875.170, "_%":   100.00,
   "siesta": { "_calls": 1, "_time":      875.170, "_%":   100.00,
     "Setup": { "_calls": 1, "_time":        2.018, "_%":     0.23,
       "bands": { "_calls": 1, "_time":        0.004, "_%":     0.00},
       "KSV_init": { "_calls": 1, "_time":        0.001, "_%":     0.00}
     },
     "IterGeom": { "_calls": 1, "_time":      873.025, "_%":    99.75,
       "geom_init": { "_calls": 1, "_time":        5.101, "_%":     0.58,
         "state_init": { "_calls": 1, "_time":        0.924, "_%":     0.11,
           "hsparse": { "_calls": 1, "_time":        0.100, "_%":     0.01},
           "overlap": { "_calls": 1, "_time":        0.030, "_%":     0.00}
         },
         "Setup_H0": { "_calls": 1, "_time":        4.177, "_%":     0.48,
           "naefs": { "_calls": 1, "_time":        0.014, "_%":     0.00},
           "MolMec": { "_calls": 1, "_time":        0.000, "_%":     0.00},
           "kinefsm": { "_calls": 1, "_time":        0.027, "_%":     0.00},
           "nlefsm": { "_calls": 1, "_time":        0.098, "_%":     0.01},
           "DHSCF_Init": { "_calls": 1, "_time":        4.028, "_%":     0.46,
             "DHSCF1": { "_calls": 1, "_time":        0.027, "_%":     0.00,
               "INITMESH": { "_calls": 1, "_time":        0.000, "_%":     0.00}
             },
             "DHSCF2": { "_calls": 1, "_time":        3.987, "_%":     0.46,
               "REMESH": { "_calls": 1, "_time":        2.726, "_%":     0.31,
                 "INITMESH": { "_calls": 2, "_time":        2.639, "_%":     0.30,
                   "SPLOAD": { "_calls": 2, "_time":        1.424, "_%":     0.16}
                 }
               },
               "REORD": { "_calls": 2, "_time":        0.002, "_%":     0.00},
               "PHION": { "_calls": 1, "_time":        0.017, "_%":     0.00},
               "COMM_BSC": { "_calls": 1, "_time":        0.058, "_%":     0.01},
               "POISON": { "_calls": 1, "_time":        0.539, "_%":     0.06,
                 "fft": { "_calls": 2, "_time":        0.521, "_%":     0.06}
               }
             }
           }
         }
       },
       "IterSCF": { "_calls": 5, "_time":      867.848, "_%":    99.16,
         "setup_H": { "_calls": 5, "_time":        4.226, "_%":     0.48,
           "DHSCF": { "_calls": 5, "_time":        4.210, "_%":     0.48,
             "DHSCF3": { "_calls": 5, "_time":        4.210, "_%":     0.48,
               "rhoofd": { "_calls": 5, "_time":        0.049, "_%":     0.01},
               "COMM_BSC": { "_calls": 10, "_time":        0.160, "_%":     0.02},
               "POISON": { "_calls": 5, "_time":        2.423, "_%":     0.28,
                 "fft": { "_calls": 10, "_time":        2.333, "_%":     0.27}
               },
               "XC": { "_calls": 5, "_time":        1.352, "_%":     0.15,
                 "COMM_BSC": { "_calls": 10, "_time":        0.171, "_%":     0.02},
                 "GXC-CellXC": { "_calls": 5, "_time":        1.153, "_%":     0.13,
                   "gridxc@cellXC": { "_calls": 5, "_time":        1.153, "_%":     0.13}
                 }
               },
               "vmat": { "_calls": 5, "_time":        0.034, "_%":     0.00}
             }
           }
         },
         "compute_dm": { "_calls": 5, "_time":      863.575, "_%":    98.68,
           "redist_orbs_fwd": { "_calls": 80, "_time":       17.789, "_%":     2.03},
           "elsi-complex-solver": { "_calls": 5, "_time":      845.272, "_%":    96.58,
             "elsi-solver": { "_calls": 5, "_time":      835.423, "_%":    95.46}
           },
           "redist_dm-edm_bck": { "_calls": 5, "_time":        0.477, "_%":     0.05}
         },
         "MIXER": { "_calls": 5, "_time":        0.012, "_%":     0.00}
       },
       "state_analysis": { "_calls": 1, "_time":        0.051, "_%":     0.01},
       "siesta_move": { "_calls": 1, "_time":        0.000, "_%":     0.00}
     },
     "Analysis": { "_calls": 1, "_time":        0.123, "_%":     0.01,
       "optical": { "_calls": 1, "_time":        0.001, "_%":     0.00}
     }
   }
 }}
