{
 "global_section": { "_calls": 1, "_time":     2355.334, "_%":   100.00,
   "siesta": { "_calls": 1, "_time":     2355.334, "_%":   100.00,
     "Setup": { "_calls": 1, "_time":        2.461, "_%":     0.10,
       "bands": { "_calls": 1, "_time":        0.003, "_%":     0.00},
       "KSV_init": { "_calls": 1, "_time":        0.001, "_%":     0.00}
     },
     "IterGeom": { "_calls": 1, "_time":     2352.278, "_%":    99.87,
       "geom_init": { "_calls": 1, "_time":       12.967, "_%":     0.55,
         "state_init": { "_calls": 1, "_time":        2.742, "_%":     0.12,
           "hsparse": { "_calls": 1, "_time":        0.190, "_%":     0.01},
           "overlap": { "_calls": 1, "_time":        1.139, "_%":     0.05}
         },
         "Setup_H0": { "_calls": 1, "_time":       10.223, "_%":     0.43,
           "naefs": { "_calls": 1, "_time":        0.032, "_%":     0.00},
           "MolMec": { "_calls": 1, "_time":        0.000, "_%":     0.00},
           "kinefsm": { "_calls": 1, "_time":        1.156, "_%":     0.05},
           "nlefsm": { "_calls": 1, "_time":        2.669, "_%":     0.11},
           "DHSCF_Init": { "_calls": 1, "_time":        6.346, "_%":     0.27,
             "DHSCF1": { "_calls": 1, "_time":        0.073, "_%":     0.00,
               "INITMESH": { "_calls": 1, "_time":        0.000, "_%":     0.00}
             },
             "DHSCF2": { "_calls": 1, "_time":        6.247, "_%":     0.27,
               "REMESH": { "_calls": 1, "_time":        2.920, "_%":     0.12,
                 "INITMESH": { "_calls": 2, "_time":        2.860, "_%":     0.12,
                   "SPLOAD": { "_calls": 2, "_time":        2.544, "_%":     0.11}
                 }
               },
               "REORD": { "_calls": 2, "_time":        0.010, "_%":     0.00},
               "PHION": { "_calls": 1, "_time":        0.369, "_%":     0.02},
               "COMM_BSC": { "_calls": 1, "_time":        0.146, "_%":     0.01},
               "POISON": { "_calls": 1, "_time":        2.321, "_%":     0.10,
                 "fft": { "_calls": 2, "_time":        2.231, "_%":     0.09}
               }
             }
           }
         }
       },
       "IterSCF": { "_calls": 5, "_time":     2339.125, "_%":    99.31,
         "setup_H": { "_calls": 5, "_time":       21.967, "_%":     0.93,
           "DHSCF": { "_calls": 5, "_time":       21.933, "_%":     0.93,
             "DHSCF3": { "_calls": 5, "_time":       21.933, "_%":     0.93,
               "rhoofd": { "_calls": 5, "_time":        0.250, "_%":     0.01},
               "COMM_BSC": { "_calls": 10, "_time":        1.856, "_%":     0.08},
               "POISON": { "_calls": 5, "_time":       11.493, "_%":     0.49,
                 "fft": { "_calls": 10, "_time":       11.007, "_%":     0.47}
               },
               "XC": { "_calls": 5, "_time":        7.034, "_%":     0.30,
                 "COMM_BSC": { "_calls": 10, "_time":        0.956, "_%":     0.04},
                 "GXC-CellXC": { "_calls": 5, "_time":        5.965, "_%":     0.25,
                   "gridxc@cellXC": { "_calls": 5, "_time":        5.965, "_%":     0.25}
                 }
               },
               "vmat": { "_calls": 5, "_time":        0.350, "_%":     0.01}
             }
           }
         },
         "compute_dm": { "_calls": 5, "_time":     2317.127, "_%":    98.38,
           "elsi": { "_calls": 5, "_time":     2316.396, "_%":    98.35,
             "find nnz_g": { "_calls": 5, "_time":        0.000, "_%":     0.00},
             "elsi-solver": { "_calls": 5, "_time":     2316.356, "_%":    98.35}
           }
         },
         "MIXER": { "_calls": 5, "_time":        0.006, "_%":     0.00}
       },
       "state_analysis": { "_calls": 1, "_time":        0.116, "_%":     0.00},
       "siesta_move": { "_calls": 1, "_time":        0.000, "_%":     0.00}
     },
     "Analysis": { "_calls": 1, "_time":        0.538, "_%":     0.02,
       "optical": { "_calls": 1, "_time":        0.001, "_%":     0.00}
     }
   }
 }}
