JobId=34683764 JobName=CovidWeakKPoints
   UserId=eufedericop(1977552410) GroupId=eufedericop(1977552410) MCS_label=N/A
   Priority=66071144 Nice=0 Account=b2024b06-053-users QOS=normal
   JobState=RUNNING Reason=None Dependency=(null)
   Requeue=1 Restarts=0 BatchFlag=1 Reboot=0 ExitCode=0:0
   DerivedExitCode=0:0
   RunTime=00:00:05 TimeLimit=1-00:00:00 TimeMin=N/A
   SubmitTime=2024-09-13T08:58:37 EligibleTime=2024-09-13T08:58:37
   AccrueTime=2024-09-13T08:58:37
   StartTime=2024-09-14T13:47:07 EndTime=2024-09-15T13:47:07 Deadline=N/A
   SuspendTime=None SecsPreSuspend=0 LastSchedEval=2024-09-14T13:47:07 Scheduler=Main
   Partition=gpu AllocNode:Sid=login0002-dmz:4095111
   ReqNodeList=(null) ExcNodeList=(null)
   NodeList=gn[32,41-43,45-47,49]
   BatchHost=gn32
   NumNodes=8 NumCPUs=2048 NumTasks=512 CPUs/Task=2 ReqB:S:C:T=0:0:*:1
   ReqTRES=cpu=1024,mem=1000G,node=8,billing=2048,gres/gpu=32
   AllocTRES=cpu=2048,mem=1000G,node=8,billing=2048,gres/gpu=32
   Socks/Node=* NtasksPerN:B:S:C=64:0:*:* CoreSpec=*
   JOB_GRES=gpu:32
     Nodes=gn[32,41-43,45-47,49] CPU_IDs=0-255 Mem=128000 GRES=gpu:4(IDX:0-3)
   MinCPUsNode=128 MinMemoryCPU=1000M MinTmpDiskNode=0
   Features=(null) DelayBoot=00:00:00
   OverSubscribe=NO Contiguous=0 Licenses=(null) Network=(null)
   Command=/ceph/hpc/home/eufedericop/JUBE4MaX-GPU/max-inputs/interface/siesta/_CovidWeakKPoints/000002/000003_submit/work/submit.job
   WorkDir=/ceph/hpc/home/eufedericop/JUBE4MaX-GPU/max-inputs/interface/siesta/_CovidWeakKPoints/000002/000003_submit/work
   StdErr=/ceph/hpc/home/eufedericop/JUBE4MaX-GPU/max-inputs/interface/siesta/_CovidWeakKPoints/000002/000003_submit/work/slurm-34683764.out
   StdIn=/dev/null
   StdOut=/ceph/hpc/home/eufedericop/JUBE4MaX-GPU/max-inputs/interface/siesta/_CovidWeakKPoints/000002/000003_submit/work/slurm-34683764.out
   Power=
   TresPerNode=gres/gpu:4
   TresPerTask=cpu:2
   

