Unloading profile/base
  ERROR: Module evaluation aborted
Loading quantum-espresso/7.3.1--openmpi--4.1.4--nvhpc--23.1-openblas
  Loading requirement: zlib/1.2.13--gcc--11.3.0
    openmpi/4.1.4--nvhpc--23.1-cuda-11.8
    fftw/3.3.10--openmpi--4.1.4--nvhpc--23.1 libxc/5.2.3--nvhpc--23.1
    openblas/0.3.21--nvhpc--23.1
--------------------------------------------------------------------------
MPI_ABORT was invoked on rank 6 in communicator MPI_COMM_WORLD
with errorcode 1.

NOTE: invoking MPI_ABORT causes Open MPI to kill all MPI processes.
You may or may not see output from other processes, depending on
exactly when Open MPI kills them.
--------------------------------------------------------------------------
[lrdn1027.leonardo.local:1116538] 7 more processes have sent help message help-mpi-api.txt / mpi-abort
[lrdn1027.leonardo.local:1116538] Set MCA parameter "orte_base_help_aggregate" to 0 to see all help / error messages
