Unloading profile/base
  ERROR: Module evaluation aborted
Loading quantum-espresso/7.3.1--openmpi--4.1.4--nvhpc--23.1-openblas
  Loading requirement: zlib/1.2.13--gcc--11.3.0
    openmpi/4.1.4--nvhpc--23.1-cuda-11.8
    fftw/3.3.10--openmpi--4.1.4--nvhpc--23.1 libxc/5.2.3--nvhpc--23.1
    openblas/0.3.21--nvhpc--23.1
0: ALLOCATE: 45497091072 bytes requested; status = 2(out of memory)
0: ALLOCATE: 45497091072 bytes requested; status = 2(out of memory)
0: ALLOCATE: 45497091072 bytes requested; status = 2(out of memory)
0: ALLOCATE: 45497091072 bytes requested; status = 2(out of memory)
slurmstepd: error:  mpi/pmix_v3: _errhandler: lrdn2282 [0]: pmixp_client_v2.c:212: Error handler invoked: status = -25, source = [slurm.pmix.8120480.0:1]
slurmstepd: error: *** STEP 8120480.0 ON lrdn2282 CANCELLED AT 2024-10-08T10:44:57 ***
srun: Job step aborted: Waiting up to 92 seconds for job step to finish.
srun: error: lrdn2282: task 2: Exited with exit code 127
srun: error: lrdn2282: task 0: Exited with exit code 127
srun: error: lrdn2282: task 1: Exited with exit code 127
srun: error: lrdn2282: task 3: Exited with exit code 127
