JobID        JobIDRaw        JobName  Partition  MaxVMSize  MaxVMSizeNode  MaxVMSizeTask  AveVMSize     MaxRSS MaxRSSNode MaxRSSTask     AveRSS MaxPages MaxPagesNode   MaxPagesTask   AvePages     MinCPU MinCPUNode MinCPUTask     AveCPU   NTasks  AllocCPUS    Elapsed      State ExitCode AveCPUFreq ReqCPUFreqMin ReqCPUFreqMax ReqCPUFreqGov     ReqMem ConsumedEnergy  MaxDiskRead MaxDiskReadNode MaxDiskReadTask    AveDiskRead MaxDiskWrite MaxDiskWriteNode MaxDiskWriteTask   AveDiskWrite    ReqTRES  AllocTRES TRESUsageInAve TRESUsageInMax TRESUsageInMaxNode TRESUsageInMaxTask TRESUsageInMin TRESUsageInMinNode TRESUsageInMinTask TRESUsageInTot TRESUsageOutMax TRESUsageOutMaxNode TRESUsageOutMaxTask TRESUsageOutAve TRESUsageOutTot 
------------ ------------ ---------- ---------- ---------- -------------- -------------- ---------- ---------- ---------- ---------- ---------- -------- ------------ -------------- ---------- ---------- ---------- ---------- ---------- -------- ---------- ---------- ---------- -------- ---------- ------------- ------------- ------------- ---------- -------------- ------------ --------------- --------------- -------------- ------------ ---------------- ---------------- -------------- ---------- ---------- -------------- -------------- ------------------ ------------------ -------------- ------------------ ------------------ -------------- --------------- ------------------- ------------------- --------------- --------------- 
8023631      8023631           yambo standard-g                                                                                                                                                                                                             224   01:09:29    RUNNING      0:0                  Unknown       Unknown       Unknown       960G                                                                                                                                          billing=1+ billing=2+                                                                                                                                                                                                                                 
8023631.bat+ 8023631.bat+      batch                                                                                                                                                                                                               1        112   01:09:29    RUNNING      0:0          0             0             0             0                         0                                                                                                                                      cpu=112,g+                                                                                                                                                                                                                                 
8023631.0    8023631.0    select_gpu             14598292K      nid006124              7  14126475K   4102148K  nid006124          7 4110091008     2109    nid006124              0       1263   07:09:55  nid006125         13   07:17:21       16        224   01:09:25  COMPLETED      0:0       649K       Unknown       Unknown       Unknown                     8.29M     2576.27M       nid006124               0       2425.75M     1036.89M        nid006124                0        150.61M            cpu=224,g+ cpu=07:17:21,+ cpu=07:22:58,+ cpu=nid006124,ene+ cpu=0,fs/disk=0,m+ cpu=07:09:55,+ cpu=nid006125,ene+ cpu=13,fs/disk=13+ cpu=4-20:37:3+ energy=1655,fs+ energy=nid006124,f+           fs/disk=0 energy=116,fs/+ energy=1860,fs+ 
