JobID        JobIDRaw        JobName  Partition  MaxVMSize  MaxVMSizeNode  MaxVMSizeTask  AveVMSize     MaxRSS MaxRSSNode MaxRSSTask     AveRSS MaxPages MaxPagesNode   MaxPagesTask   AvePages     MinCPU MinCPUNode MinCPUTask     AveCPU   NTasks  AllocCPUS    Elapsed      State ExitCode AveCPUFreq ReqCPUFreqMin ReqCPUFreqMax ReqCPUFreqGov     ReqMem ConsumedEnergy  MaxDiskRead MaxDiskReadNode MaxDiskReadTask    AveDiskRead MaxDiskWrite MaxDiskWriteNode MaxDiskWriteTask   AveDiskWrite    ReqTRES  AllocTRES TRESUsageInAve TRESUsageInMax TRESUsageInMaxNode TRESUsageInMaxTask TRESUsageInMin TRESUsageInMinNode TRESUsageInMinTask TRESUsageInTot TRESUsageOutMax TRESUsageOutMaxNode TRESUsageOutMaxTask TRESUsageOutAve TRESUsageOutTot 
------------ ------------ ---------- ---------- ---------- -------------- -------------- ---------- ---------- ---------- ---------- ---------- -------- ------------ -------------- ---------- ---------- ---------- ---------- ---------- -------- ---------- ---------- ---------- -------- ---------- ------------- ------------- ------------- ---------- -------------- ------------ --------------- --------------- -------------- ------------ ---------------- ---------------- -------------- ---------- ---------- -------------- -------------- ------------------ ------------------ -------------- ------------------ ------------------ -------------- --------------- ------------------- ------------------- --------------- --------------- 
151884       151884       CovidStro+ normal-x86                                                                                                                                                                                                             512   00:41:16    RUNNING      0:0                  Unknown       Unknown       Unknown       968G                                                                                                                                          billing=5+ billing=5+                                                                                                                                                                                                                                 
151884.batch 151884.batch      batch                                                                                                                                                                                                               1        128   00:41:16    RUNNING      0:0          0             0             0             0                         0                                                                                                                                      cpu=128,m+                                                                                                                                                                                                                                 
151884.exte+ 151884.exte+     extern                                                                                                                                                                                                               4        512   00:41:16    RUNNING      0:0          0             0             0             0                         0                                                                                                                                      billing=5+                                                                                                                                                                                                                                 
151884.0     151884.0          orted             69302744K         cnx344              2 662482315+  68045444K     cnx344          2 649254775+      594       cnx331              1        495 3-14:51:40     cnx331          1 3-14:52:40        3        512   00:41:16  COMPLETED      0:0        18K             0             0             0                               2611.44M          cnx199               0       2611.43M      527.35M           cnx199                0        527.34M            billing=5+ cpu=3-14:52:4+ cpu=3-14:53:1+ cpu=cnx199,energy+ cpu=0,fs/disk=0,m+ cpu=3-14:51:4+ cpu=cnx331,energy+ cpu=1,fs/disk=2,m+ cpu=10-20:38:+ energy=0,fs/di+ energy=cnx344,fs/d+           fs/disk=0 energy=0,fs/di+ energy=0,fs/di+ 
