{
 "global_section": { "_calls": 1, "_time":     2462.443, "_%":   100.00,
   "siesta": { "_calls": 1, "_time":     2462.443, "_%":   100.00,
     "Setup": { "_calls": 1, "_time":        2.133, "_%":     0.09,
       "bands": { "_calls": 1, "_time":        0.003, "_%":     0.00},
       "KSV_init": { "_calls": 1, "_time":        0.001, "_%":     0.00}
     },
     "IterGeom": { "_calls": 1, "_time":     2460.035, "_%":    99.90,
       "geom_init": { "_calls": 1, "_time":       10.217, "_%":     0.41,
         "state_init": { "_calls": 1, "_time":        1.953, "_%":     0.08,
           "hsparse": { "_calls": 1, "_time":        0.135, "_%":     0.01},
           "overlap": { "_calls": 1, "_time":        0.758, "_%":     0.03}
         },
         "Setup_H0": { "_calls": 1, "_time":        8.261, "_%":     0.34,
           "naefs": { "_calls": 1, "_time":        0.022, "_%":     0.00},
           "MolMec": { "_calls": 1, "_time":        0.000, "_%":     0.00},
           "kinefsm": { "_calls": 1, "_time":        0.753, "_%":     0.03},
           "nlefsm": { "_calls": 1, "_time":        1.711, "_%":     0.07},
           "DHSCF_Init": { "_calls": 1, "_time":        5.761, "_%":     0.23,
             "DHSCF1": { "_calls": 1, "_time":        0.052, "_%":     0.00,
               "INITMESH": { "_calls": 1, "_time":        0.000, "_%":     0.00}
             },
             "DHSCF2": { "_calls": 1, "_time":        5.686, "_%":     0.23,
               "REMESH": { "_calls": 1, "_time":        2.596, "_%":     0.11,
                 "INITMESH": { "_calls": 2, "_time":        2.555, "_%":     0.10,
                   "SPLOAD": { "_calls": 2, "_time":        2.341, "_%":     0.10}
                 }
               },
               "REORD": { "_calls": 2, "_time":        0.016, "_%":     0.00},
               "PHION": { "_calls": 1, "_time":        0.254, "_%":     0.01},
               "COMM_BSC": { "_calls": 1, "_time":        0.194, "_%":     0.01},
               "POISON": { "_calls": 1, "_time":        2.252, "_%":     0.09,
                 "fft": { "_calls": 2, "_time":        2.162, "_%":     0.09}
               }
             }
           }
         }
       },
       "IterSCF": { "_calls": 5, "_time":     2449.733, "_%":    99.48,
         "setup_H": { "_calls": 5, "_time":       18.078, "_%":     0.73,
           "DHSCF": { "_calls": 5, "_time":       18.042, "_%":     0.73,
             "DHSCF3": { "_calls": 5, "_time":       18.042, "_%":     0.73,
               "rhoofd": { "_calls": 5, "_time":        0.177, "_%":     0.01},
               "COMM_BSC": { "_calls": 10, "_time":        0.910, "_%":     0.04},
               "POISON": { "_calls": 5, "_time":       11.183, "_%":     0.45,
                 "fft": { "_calls": 10, "_time":       10.718, "_%":     0.44}
               },
               "XC": { "_calls": 5, "_time":        4.734, "_%":     0.19,
                 "COMM_BSC": { "_calls": 10, "_time":        0.630, "_%":     0.03},
                 "GXC-CellXC": { "_calls": 5, "_time":        3.988, "_%":     0.16,
                   "gridxc@cellXC": { "_calls": 5, "_time":        3.988, "_%":     0.16}
                 }
               },
               "vmat": { "_calls": 5, "_time":        0.201, "_%":     0.01}
             }
           }
         },
         "compute_dm": { "_calls": 5, "_time":     2431.585, "_%":    98.75,
           "diagon": { "_calls": 5, "_time":     2429.238, "_%":    98.65,
             "r-eigvec": { "_calls": 5, "_time":     2258.111, "_%":    91.70,
               "r-buildHS": { "_calls": 5, "_time":        0.501, "_%":     0.02},
               "rdiag": { "_calls": 5, "_time":     2257.610, "_%":    91.68,
                 "rdiag1": { "_calls": 5, "_time":       53.811, "_%":     2.19},
                 "rdiag2": { "_calls": 5, "_time":      158.145, "_%":     6.42},
                 "rdiag3": { "_calls": 5, "_time":     1823.895, "_%":    74.07},
                 "rdiag4": { "_calls": 5, "_time":      214.386, "_%":     8.71}
               }
             },
             "r-buildD": { "_calls": 5, "_time":      170.190, "_%":     6.91}
           }
         },
         "MIXER": { "_calls": 5, "_time":        0.023, "_%":     0.00}
       },
       "state_analysis": { "_calls": 1, "_time":        0.068, "_%":     0.00},
       "siesta_move": { "_calls": 1, "_time":        0.000, "_%":     0.00}
     },
     "Analysis": { "_calls": 1, "_time":        0.236, "_%":     0.01,
       "optical": { "_calls": 1, "_time":        0.001, "_%":     0.00}
     }
   }
 }}
