JobID        JobIDRaw        JobName  Partition  MaxVMSize  MaxVMSizeNode  MaxVMSizeTask  AveVMSize     MaxRSS MaxRSSNode MaxRSSTask     AveRSS MaxPages MaxPagesNode   MaxPagesTask   AvePages     MinCPU MinCPUNode MinCPUTask     AveCPU   NTasks  AllocCPUS    Elapsed      State ExitCode AveCPUFreq ReqCPUFreqMin ReqCPUFreqMax ReqCPUFreqGov     ReqMem ConsumedEnergy  MaxDiskRead MaxDiskReadNode MaxDiskReadTask    AveDiskRead MaxDiskWrite MaxDiskWriteNode MaxDiskWriteTask   AveDiskWrite    ReqTRES  AllocTRES TRESUsageInAve TRESUsageInMax TRESUsageInMaxNode TRESUsageInMaxTask TRESUsageInMin TRESUsageInMinNode TRESUsageInMinTask TRESUsageInTot TRESUsageOutMax TRESUsageOutMaxNode TRESUsageOutMaxTask TRESUsageOutAve TRESUsageOutTot 
------------ ------------ ---------- ---------- ---------- -------------- -------------- ---------- ---------- ---------- ---------- ---------- -------- ------------ -------------- ---------- ---------- ---------- ---------- ---------- -------- ---------- ---------- ---------- -------- ---------- ------------- ------------- ------------- ---------- -------------- ------------ --------------- --------------- -------------- ------------ ---------------- ---------------- -------------- ---------- ---------- -------------- -------------- ------------------ ------------------ -------------- ------------------ ------------------ -------------- --------------- ------------------- ------------------- --------------- --------------- 
8340362      8340362      submit.job boost_usr+                                                                                                                                                                                                              96   00:10:47    RUNNING      0:0                  Unknown       Unknown       Unknown   1478400M                                                                                                                                          billing=9+ billing=9+                                                                                                                                                                                                                                 
8340362.bat+ 8340362.bat+      batch                                                                                                                                                                                                               1         32   00:10:47    RUNNING      0:0          0             0             0             0                         0                                                                                                                                      cpu=32,gr+                                                                                                                                                                                                                                 
8340362.ext+ 8340362.ext+     extern                                                                                                                                                                                                               3         96   00:10:47    RUNNING      0:0          0             0             0             0                         0                                                                                                                                      billing=9+                                                                                                                                                                                                                                 
8340362.0    8340362.0         orted                                                                                                                                                                                                               2         64   00:10:43    RUNNING      0:0          0       Unknown       Unknown       Unknown                         0                                                                                                                                      cpu=64,gr+                                                                                                                                                                                                                                 
