JobId=7722450 JobName=CovidWeak
   UserId=icn2553284(51005) GroupId=icn2(50004) MCS_label=N/A
   Priority=94414 Nice=0 Account=ehpc37 QOS=acc_ehpc
   JobState=RUNNING Reason=None Dependency=(null)
   Requeue=0 Restarts=0 BatchFlag=1 Reboot=0 ExitCode=0:0
   RunTime=00:00:07 TimeLimit=02:00:00 TimeMin=N/A
   SubmitTime=2024-09-18T15:20:09 EligibleTime=2024-09-18T15:20:09
   AccrueTime=2024-09-18T15:20:09
   StartTime=2024-09-18T15:20:09 EndTime=2024-09-18T17:20:09 Deadline=N/A
   SuspendTime=None SecsPreSuspend=0 LastSchedEval=2024-09-18T15:20:09 Scheduler=Main
   Partition=acc AllocNode:Sid=alogin2:3479146
   ReqNodeList=(null) ExcNodeList=(null)
   NodeList=as07r1b[01-16],as07r3b[01-16]
   BatchHost=as07r1b01
   NumNodes=32 NumCPUs=5120 NumTasks=2560 CPUs/Task=1 ReqB:S:C:T=0:0:*:1
   ReqTRES=cpu=2560,mem=15625G,node=32,billing=2560,gres/gpu=128
   AllocTRES=cpu=5120,mem=15625G,node=32,billing=5120,gres/gpu=128
   Socks/Node=* NtasksPerN:B:S:C=80:0:*:* CoreSpec=*
   MinCPUsNode=80 MinMemoryCPU=6250M MinTmpDiskNode=0
   Features=(null) DelayBoot=00:00:00
   OverSubscribe=NO Contiguous=0 Licenses=(null) Network=(null)
   Command=/gpfs/home/icn2/icn2553284/jube4max-gpu/max-inputs/interface/siesta/_CovidWeak/000002/000000_submit/work/submit.job
   WorkDir=/gpfs/home/icn2/icn2553284/jube4max-gpu/max-inputs/interface/siesta/_CovidWeak/000002/000000_submit/work
   StdErr=/gpfs/home/icn2/icn2553284/jube4max-gpu/max-inputs/interface/siesta/_CovidWeak/000002/000000_submit/work/job_7722450.err
   StdIn=/dev/null
   StdOut=/gpfs/home/icn2/icn2553284/jube4max-gpu/max-inputs/interface/siesta/_CovidWeak/000002/000000_submit/work/job_7722450.out
   Power=
   TresPerNode=gres:gpu:4
   

