JobID        JobIDRaw        JobName  Partition  MaxVMSize  MaxVMSizeNode  MaxVMSizeTask  AveVMSize     MaxRSS MaxRSSNode MaxRSSTask     AveRSS MaxPages MaxPagesNode   MaxPagesTask   AvePages     MinCPU MinCPUNode MinCPUTask     AveCPU   NTasks  AllocCPUS    Elapsed      State ExitCode AveCPUFreq ReqCPUFreqMin ReqCPUFreqMax ReqCPUFreqGov     ReqMem ConsumedEnergy  MaxDiskRead MaxDiskReadNode MaxDiskReadTask    AveDiskRead MaxDiskWrite MaxDiskWriteNode MaxDiskWriteTask   AveDiskWrite    ReqTRES  AllocTRES TRESUsageInAve TRESUsageInMax TRESUsageInMaxNode TRESUsageInMaxTask TRESUsageInMin TRESUsageInMinNode TRESUsageInMinTask TRESUsageInTot TRESUsageOutMax TRESUsageOutMaxNode TRESUsageOutMaxTask TRESUsageOutAve TRESUsageOutTot 
------------ ------------ ---------- ---------- ---------- -------------- -------------- ---------- ---------- ---------- ---------- ---------- -------- ------------ -------------- ---------- ---------- ---------- ---------- ---------- -------- ---------- ---------- ---------- -------- ---------- ------------- ------------- ------------- ---------- -------------- ------------ --------------- --------------- -------------- ------------ ---------------- ---------------- -------------- ---------- ---------- -------------- -------------- ------------------ ------------------ -------------- ------------------ ------------------ -------------- --------------- ------------------- ------------------- --------------- --------------- 
7682232      7682232      submit.job dcgp_usr_+                                                                                                                                                                                                             224   00:25:36    RUNNING      0:0                  Unknown       Unknown       Unknown    962.50G                                                                                                                                          billing=2+ billing=2+                                                                                                                                                                                                                                 
7682232.bat+ 7682232.bat+      batch                                                                                                                                                                                                               1        112   00:25:36    RUNNING      0:0          0             0             0             0                         0                                                                                                                                      cpu=112,g+                                                                                                                                                                                                                                 
7682232.ext+ 7682232.ext+     extern                                                                                                                                                                                                               2        224   00:25:36    RUNNING      0:0          0             0             0             0                         0                                                                                                                                      billing=2+                                                                                                                                                                                                                                 
7682232.0    7682232.0        siesta              1149188K       lrdn4421              4  555009865   1119764K   lrdn4421          4  528148699      444     lrdn4421              0         12   00:25:04   lrdn4424        213   00:25:11      224        224   00:25:31  COMPLETED      0:0    174.28M       Unknown       Unknown       Unknown                         0        2.36M        lrdn4421               0          1.39M       12.70M         lrdn4421                0          0.86M            cpu=224,g+ cpu=00:25:11,+ cpu=00:25:17,+ cpu=lrdn4421,ener+ cpu=4,fs/disk=0,m+ cpu=00:25:04,+ cpu=lrdn4424,ener+ cpu=213,fs/disk=9+ cpu=3-22:02:2+ energy=0,fs/di+ energy=lrdn4421,fs+           fs/disk=0 energy=0,fs/di+ energy=0,fs/di+ 
