{
 "global_section": { "_calls": 1, "_time":     1496.805, "_%":   100.00,
   "siesta": { "_calls": 1, "_time":     1496.805, "_%":   100.00,
     "Setup": { "_calls": 1, "_time":        3.253, "_%":     0.22,
       "bands": { "_calls": 1, "_time":        0.003, "_%":     0.00},
       "KSV_init": { "_calls": 1, "_time":        0.000, "_%":     0.00}
     },
     "IterGeom": { "_calls": 1, "_time":     1488.760, "_%":    99.46,
       "geom_init": { "_calls": 1, "_time":        4.855, "_%":     0.32,
         "state_init": { "_calls": 1, "_time":        0.451, "_%":     0.03,
           "hsparse": { "_calls": 1, "_time":        0.100, "_%":     0.01},
           "overlap": { "_calls": 1, "_time":        0.036, "_%":     0.00}
         },
         "Setup_H0": { "_calls": 1, "_time":        4.402, "_%":     0.29,
           "naefs": { "_calls": 1, "_time":        0.014, "_%":     0.00},
           "MolMec": { "_calls": 1, "_time":        0.000, "_%":     0.00},
           "kinefsm": { "_calls": 1, "_time":        0.035, "_%":     0.00},
           "nlefsm": { "_calls": 1, "_time":        0.115, "_%":     0.01},
           "DHSCF_Init": { "_calls": 1, "_time":        4.230, "_%":     0.28,
             "DHSCF1": { "_calls": 1, "_time":        0.034, "_%":     0.00,
               "INITMESH": { "_calls": 1, "_time":        0.000, "_%":     0.00}
             },
             "DHSCF2": { "_calls": 1, "_time":        4.184, "_%":     0.28,
               "REMESH": { "_calls": 1, "_time":        0.157, "_%":     0.01,
                 "INITMESH": { "_calls": 2, "_time":        0.145, "_%":     0.01,
                   "SPLOAD": { "_calls": 2, "_time":        0.131, "_%":     0.01}
                 }
               },
               "REORD": { "_calls": 2, "_time":        0.021, "_%":     0.00},
               "PHION": { "_calls": 1, "_time":        0.152, "_%":     0.01},
               "COMM_BSC": { "_calls": 1, "_time":        0.097, "_%":     0.01},
               "POISON": { "_calls": 1, "_time":        3.396, "_%":     0.23,
                 "fft": { "_calls": 2, "_time":        3.250, "_%":     0.22}
               }
             }
           }
         }
       },
       "IterSCF": { "_calls": 5, "_time":     1483.808, "_%":    99.13,
         "setup_H": { "_calls": 5, "_time":       28.766, "_%":     1.92,
           "DHSCF": { "_calls": 5, "_time":       28.747, "_%":     1.92,
             "DHSCF3": { "_calls": 5, "_time":       28.747, "_%":     1.92,
               "rhoofd": { "_calls": 5, "_time":        0.282, "_%":     0.02},
               "COMM_BSC": { "_calls": 10, "_time":        1.510, "_%":     0.10},
               "POISON": { "_calls": 5, "_time":       16.821, "_%":     1.12,
                 "fft": { "_calls": 10, "_time":       16.091, "_%":     1.08}
               },
               "XC": { "_calls": 5, "_time":        8.932, "_%":     0.60,
                 "COMM_BSC": { "_calls": 10, "_time":        0.925, "_%":     0.06},
                 "GXC-CellXC": { "_calls": 5, "_time":        7.689, "_%":     0.51,
                   "gridxc@cellXC": { "_calls": 5, "_time":        7.689, "_%":     0.51}
                 }
               },
               "vmat": { "_calls": 5, "_time":        0.100, "_%":     0.01}
             }
           }
         },
         "compute_dm": { "_calls": 5, "_time":     1454.963, "_%":    97.20,
           "diagon": { "_calls": 5, "_time":     1454.950, "_%":    97.20,
             "c-eigval": { "_calls": 10, "_time":      673.804, "_%":    45.02,
               "c-buildHS": { "_calls": 10, "_time":        0.225, "_%":     0.02},
               "cdiag": { "_calls": 10, "_time":      673.578, "_%":    45.00,
                 "cdiag1": { "_calls": 10, "_time":       27.830, "_%":     1.86},
                 "cdiag2": { "_calls": 10, "_time":       80.429, "_%":     5.37},
                 "cdiag3": { "_calls": 10, "_time":      556.305, "_%":    37.17}
               }
             },
             "c-eigvec": { "_calls": 10, "_time":      710.006, "_%":    47.43,
               "cdiag": { "_calls": 10, "_time":      709.750, "_%":    47.42,
                 "cdiag1": { "_calls": 10, "_time":       26.744, "_%":     1.79},
                 "cdiag2": { "_calls": 10, "_time":       80.189, "_%":     5.36},
                 "cdiag3": { "_calls": 10, "_time":      543.481, "_%":    36.31},
                 "cdiag4": { "_calls": 10, "_time":       50.340, "_%":     3.36}
               }
             },
             "c-buildD": { "_calls": 10, "_time":       70.537, "_%":     4.71}
           }
         },
         "MIXER": { "_calls": 5, "_time":        0.065, "_%":     0.00}
       },
       "state_analysis": { "_calls": 1, "_time":        0.074, "_%":     0.00},
       "siesta_move": { "_calls": 1, "_time":        0.000, "_%":     0.00}
     },
     "Analysis": { "_calls": 1, "_time":        0.327, "_%":     0.02,
       "optical": { "_calls": 1, "_time":        0.001, "_%":     0.00}
     }
   }
 }}
