JobID        JobIDRaw        JobName  Partition  MaxVMSize  MaxVMSizeNode  MaxVMSizeTask  AveVMSize     MaxRSS MaxRSSNode MaxRSSTask     AveRSS MaxPages MaxPagesNode   MaxPagesTask   AvePages     MinCPU MinCPUNode MinCPUTask     AveCPU   NTasks  AllocCPUS    Elapsed      State ExitCode AveCPUFreq ReqCPUFreqMin ReqCPUFreqMax ReqCPUFreqGov     ReqMem ConsumedEnergy  MaxDiskRead MaxDiskReadNode MaxDiskReadTask    AveDiskRead MaxDiskWrite MaxDiskWriteNode MaxDiskWriteTask   AveDiskWrite    ReqTRES  AllocTRES TRESUsageInAve TRESUsageInMax TRESUsageInMaxNode TRESUsageInMaxTask TRESUsageInMin TRESUsageInMinNode TRESUsageInMinTask TRESUsageInTot TRESUsageOutMax TRESUsageOutMaxNode TRESUsageOutMaxTask TRESUsageOutAve TRESUsageOutTot 
------------ ------------ ---------- ---------- ---------- -------------- -------------- ---------- ---------- ---------- ---------- ---------- -------- ------------ -------------- ---------- ---------- ---------- ---------- ---------- -------- ---------- ---------- ---------- -------- ---------- ------------- ------------- ------------- ---------- -------------- ------------ --------------- --------------- -------------- ------------ ---------------- ---------------- -------------- ---------- ---------- -------------- -------------- ------------------ ------------------ -------------- ------------------ ------------------ -------------- --------------- ------------------- ------------------- --------------- --------------- 
155327       155327       CovidStro+ normal-a1+                                                                                                                                                                                                             256   00:56:02    RUNNING      0:0                  Unknown       Unknown       Unknown       968G                                                                                                                                          billing=6+ billing=2+                                                                                                                                                                                                                                 
155327.batch 155327.batch      batch                                                                                                                                                                                                               1        128   00:56:02    RUNNING      0:0          0             0             0             0                         0                                                                                                                                      cpu=128,m+                                                                                                                                                                                                                                 
155327.exte+ 155327.exte+     extern                                                                                                                                                                                                               2        256   00:56:02    RUNNING      0:0          0             0             0             0                         0                                                                                                                                      billing=2+                                                                                                                                                                                                                                 
155327.0     155327.0          orted            123940872K         gnx511              0 123940872K 121168724K     gnx511          0 121168724K    18843       gnx511              0      18843 1-05:25:54     gnx511          0 1-05:25:54        1        256   00:56:02  COMPLETED      0:0        12K             0             0             0                                958.44M          gnx511               0        958.44M      131.71M           gnx511                0        131.71M            billing=2+ cpu=1-05:25:5+ cpu=1-05:25:5+ cpu=gnx511,energy+ cpu=0,fs/disk=0,m+ cpu=1-05:25:5+ cpu=gnx511,energy+ cpu=0,fs/disk=0,m+ cpu=1-05:25:5+ energy=0,fs/di+ energy=gnx511,fs/d+           fs/disk=0 energy=0,fs/di+ energy=0,fs/di+ 
