{
 "global_section": { "_calls": 1, "_time":      761.415, "_%":   100.00,
   "siesta": { "_calls": 1, "_time":      761.415, "_%":   100.00,
     "Setup": { "_calls": 1, "_time":        1.385, "_%":     0.18,
       "bands": { "_calls": 1, "_time":        0.002, "_%":     0.00},
       "KSV_init": { "_calls": 1, "_time":        0.001, "_%":     0.00}
     },
     "IterGeom": { "_calls": 1, "_time":      632.813, "_%":    83.11,
       "geom_init": { "_calls": 1, "_time":        4.377, "_%":     0.57,
         "state_init": { "_calls": 1, "_time":        1.982, "_%":     0.26,
           "hsparse": { "_calls": 1, "_time":        1.372, "_%":     0.18},
           "overlap": { "_calls": 1, "_time":        0.091, "_%":     0.01}
         },
         "Setup_H0": { "_calls": 1, "_time":        2.394, "_%":     0.31,
           "naefs": { "_calls": 1, "_time":        0.121, "_%":     0.02},
           "MolMec": { "_calls": 1, "_time":        0.000, "_%":     0.00},
           "kinefsm": { "_calls": 1, "_time":        0.090, "_%":     0.01},
           "nlefsm": { "_calls": 1, "_time":        0.259, "_%":     0.03},
           "DHSCF_Init": { "_calls": 1, "_time":        1.861, "_%":     0.24,
             "DHSCF1": { "_calls": 1, "_time":        0.030, "_%":     0.00,
               "INITMESH": { "_calls": 1, "_time":        0.000, "_%":     0.00}
             },
             "DHSCF2": { "_calls": 1, "_time":        1.821, "_%":     0.24,
               "REMESH": { "_calls": 1, "_time":        0.619, "_%":     0.08,
                 "INITMESH": { "_calls": 2, "_time":        0.584, "_%":     0.08,
                   "SPLOAD": { "_calls": 2, "_time":        0.395, "_%":     0.05}
                 }
               },
               "REORD": { "_calls": 2, "_time":        0.001, "_%":     0.00},
               "PHION": { "_calls": 1, "_time":        0.191, "_%":     0.03},
               "COMM_BSC": { "_calls": 1, "_time":        0.009, "_%":     0.00},
               "POISON": { "_calls": 1, "_time":        0.158, "_%":     0.02,
                 "fft": { "_calls": 2, "_time":        0.147, "_%":     0.02}
               }
             }
           }
         }
       },
       "IterSCF": { "_calls": 5, "_time":      628.217, "_%":    82.51,
         "setup_H": { "_calls": 5, "_time":        4.298, "_%":     0.56,
           "DHSCF": { "_calls": 5, "_time":        4.295, "_%":     0.56,
             "DHSCF3": { "_calls": 5, "_time":        4.295, "_%":     0.56,
               "rhoofd": { "_calls": 5, "_time":        0.092, "_%":     0.01},
               "COMM_BSC": { "_calls": 10, "_time":        0.093, "_%":     0.01},
               "POISON": { "_calls": 5, "_time":        0.760, "_%":     0.10,
                 "fft": { "_calls": 10, "_time":        0.716, "_%":     0.09}
               },
               "XC": { "_calls": 5, "_time":        3.170, "_%":     0.42,
                 "COMM_BSC": { "_calls": 10, "_time":        0.074, "_%":     0.01},
                 "GXC-CellXC": { "_calls": 5, "_time":        3.084, "_%":     0.41,
                   "gridxc@cellXC": { "_calls": 5, "_time":        3.084, "_%":     0.41}
                 }
               },
               "vmat": { "_calls": 5, "_time":        0.083, "_%":     0.01}
             }
           }
         },
         "compute_dm": { "_calls": 5, "_time":      623.903, "_%":    81.94,
           "elsi": { "_calls": 5, "_time":      622.553, "_%":    81.76,
             "find nnz_g": { "_calls": 5, "_time":        0.000, "_%":     0.00},
             "elsi-solver": { "_calls": 5, "_time":      622.538, "_%":    81.76}
           }
         },
         "MIXER": { "_calls": 5, "_time":        0.005, "_%":     0.00}
       },
       "state_analysis": { "_calls": 1, "_time":        0.093, "_%":     0.01},
       "siesta_move": { "_calls": 1, "_time":        0.000, "_%":     0.00}
     },
     "Analysis": { "_calls": 1, "_time":      125.914, "_%":    16.54,
       "optical": { "_calls": 1, "_time":        0.001, "_%":     0.00}
     }
   }
 }}
