{
 "global_section": { "_calls": 1, "_time":     5230.608, "_%":   100.00,
   "siesta": { "_calls": 1, "_time":     5230.608, "_%":   100.00,
     "Setup": { "_calls": 1, "_time":        2.073, "_%":     0.04,
       "bands": { "_calls": 1, "_time":        0.004, "_%":     0.00},
       "KSV_init": { "_calls": 1, "_time":        0.001, "_%":     0.00}
     },
     "IterGeom": { "_calls": 1, "_time":     5228.135, "_%":    99.95,
       "geom_init": { "_calls": 1, "_time":       11.597, "_%":     0.22,
         "state_init": { "_calls": 1, "_time":        0.852, "_%":     0.02,
           "hsparse": { "_calls": 1, "_time":        0.175, "_%":     0.00},
           "overlap": { "_calls": 1, "_time":        0.089, "_%":     0.00}
         },
         "Setup_H0": { "_calls": 1, "_time":       10.744, "_%":     0.21,
           "naefs": { "_calls": 1, "_time":        0.034, "_%":     0.00},
           "MolMec": { "_calls": 1, "_time":        0.000, "_%":     0.00},
           "kinefsm": { "_calls": 1, "_time":        0.074, "_%":     0.00},
           "nlefsm": { "_calls": 1, "_time":        0.263, "_%":     0.01},
           "DHSCF_Init": { "_calls": 1, "_time":       10.352, "_%":     0.20,
             "DHSCF1": { "_calls": 1, "_time":        0.071, "_%":     0.00,
               "INITMESH": { "_calls": 1, "_time":        0.000, "_%":     0.00}
             },
             "DHSCF2": { "_calls": 1, "_time":       10.250, "_%":     0.20,
               "REMESH": { "_calls": 1, "_time":        0.298, "_%":     0.01,
                 "INITMESH": { "_calls": 2, "_time":        0.269, "_%":     0.01,
                   "SPLOAD": { "_calls": 2, "_time":        0.218, "_%":     0.00}
                 }
               },
               "REORD": { "_calls": 2, "_time":        0.067, "_%":     0.00},
               "PHION": { "_calls": 1, "_time":        0.244, "_%":     0.00},
               "COMM_BSC": { "_calls": 1, "_time":        0.141, "_%":     0.00},
               "POISON": { "_calls": 1, "_time":        8.693, "_%":     0.17,
                 "fft": { "_calls": 2, "_time":        8.314, "_%":     0.16}
               }
             }
           }
         }
       },
       "IterSCF": { "_calls": 5, "_time":     5216.442, "_%":    99.73,
         "setup_H": { "_calls": 5, "_time":       67.739, "_%":     1.30,
           "DHSCF": { "_calls": 5, "_time":       67.677, "_%":     1.29,
             "DHSCF3": { "_calls": 5, "_time":       67.677, "_%":     1.29,
               "rhoofd": { "_calls": 5, "_time":        0.456, "_%":     0.01},
               "COMM_BSC": { "_calls": 10, "_time":        5.313, "_%":     0.10},
               "POISON": { "_calls": 5, "_time":       43.053, "_%":     0.82,
                 "fft": { "_calls": 10, "_time":       41.001, "_%":     0.78}
               },
               "XC": { "_calls": 5, "_time":       14.747, "_%":     0.28,
                 "COMM_BSC": { "_calls": 10, "_time":        2.021, "_%":     0.04},
                 "GXC-CellXC": { "_calls": 5, "_time":       12.075, "_%":     0.23,
                   "gridxc@cellXC": { "_calls": 5, "_time":       12.075, "_%":     0.23}
                 }
               },
               "vmat": { "_calls": 5, "_time":        0.292, "_%":     0.01}
             }
           }
         },
         "compute_dm": { "_calls": 5, "_time":     5148.532, "_%":    98.43,
           "diagon": { "_calls": 5, "_time":     5148.529, "_%":    98.43,
             "c-eigval": { "_calls": 10, "_time":     2446.529, "_%":    46.77,
               "c-buildHS": { "_calls": 10, "_time":        1.325, "_%":     0.03},
               "cdiag": { "_calls": 10, "_time":     2445.204, "_%":    46.75,
                 "cdiag1": { "_calls": 10, "_time":       73.089, "_%":     1.40},
                 "cdiag2": { "_calls": 10, "_time":      220.983, "_%":     4.22},
                 "cdiag3": { "_calls": 10, "_time":     2139.579, "_%":    40.90}
               }
             },
             "c-eigvec": { "_calls": 10, "_time":     2606.357, "_%":    49.83,
               "cdiag": { "_calls": 10, "_time":     2605.025, "_%":    49.80,
                 "cdiag1": { "_calls": 10, "_time":       72.945, "_%":     1.39},
                 "cdiag2": { "_calls": 10, "_time":      220.815, "_%":     4.22},
                 "cdiag3": { "_calls": 10, "_time":     2139.350, "_%":    40.90},
                 "cdiag4": { "_calls": 10, "_time":      160.704, "_%":     3.07}
               }
             },
             "c-buildD": { "_calls": 10, "_time":       93.246, "_%":     1.78}
           }
         },
         "MIXER": { "_calls": 5, "_time":        0.008, "_%":     0.00}
       },
       "state_analysis": { "_calls": 1, "_time":        0.083, "_%":     0.00},
       "siesta_move": { "_calls": 1, "_time":        0.000, "_%":     0.00}
     },
     "Analysis": { "_calls": 1, "_time":        0.392, "_%":     0.01,
       "optical": { "_calls": 1, "_time":        0.001, "_%":     0.00}
     }
   }
 }}
