
     Program PWSCF v.7.2 starts on 13Nov2023 at 17:24:24 

     This program is part of the open-source Quantum ESPRESSO suite
     for quantum simulation of materials; please cite
         "P. Giannozzi et al., J. Phys.:Condens. Matter 21 395502 (2009);
         "P. Giannozzi et al., J. Phys.:Condens. Matter 29 465901 (2017);
         "P. Giannozzi et al., J. Chem. Phys. 152 154105 (2020);
          URL http://www.quantum-espresso.org", 
     in publications or presentations arising from this work. More details at
     http://www.quantum-espresso.org/quote

     Parallel version (MPI & OpenMP), running on       8 processor cores
     Number of MPI processes:                 8
     Threads/MPI process:                     1

     MPI processes distributed on     1 nodes
     489234 MiB available memory on the printing compute node when the environment starts
 
     Reading input from ausurf.in

     Current dimensions of program PWSCF are:
     Max number of different atomic species (ntypx) = 10
     Max number of k-points (npk) =  40000
     Max angular momentum in pseudopotentials (lmaxx) =  4
 
     R & G space division:  proc/nbgrp/npool/nimage =       8
     Subspace diagonalization in iterative solution of the eigenvalue problem:
     a serial algorithm will be used

 
     Parallelization info
     --------------------
     sticks:   dense  smooth     PW     G-vecs:    dense   smooth      PW
     Min        1479     739    192               269795    95411   12592
     Max        1480     740    193               269800    95416   12595
     Sum       11837    5915   1537              2158381   763307  100747
 
     Using Slab Decomposition
 

     Title: 
      DEISA pw benchmark                                                        


     bravais-lattice index     =            8
     lattice parameter (alat)  =      38.7583  a.u.
     unit-cell volume          =   45191.4962 (a.u.)^3
     number of atoms/cell      =          112
     number of atomic types    =            1
     number of electrons       =      1232.00
     number of Kohn-Sham states=          800
     kinetic-energy cutoff     =      25.0000  Ry
     charge density cutoff     =     200.0000  Ry
     scf convergence threshold =      1.0E-06
     mixing beta               =       0.7000
     number of iterations used =            8  plain     mixing
     Exchange-correlation=  SLA  PW   PBE  PBE
                           (   1   4   3   4   0   0   0)

     celldm(1)=  38.758300  celldm(2)=   0.494393  celldm(3)=   1.569966
     celldm(4)=   0.000000  celldm(5)=   0.000000  celldm(6)=   0.000000

     crystal axes: (cart. coord. in units of alat)
               a(1) = (   1.000000   0.000000   0.000000 )  
               a(2) = (   0.000000   0.494393   0.000000 )  
               a(3) = (   0.000000   0.000000   1.569966 )  

     reciprocal axes: (cart. coord. in units 2 pi/alat)
               b(1) = (  1.000000  0.000000  0.000000 )  
               b(2) = (  0.000000  2.022682  0.000000 )  
               b(3) = (  0.000000  0.000000  0.636956 )  


     PseudoPot. # 1 for Au read from file:
     ./Au.pbe-nd-van.UPF
     MD5 check sum: deb5c07af10777505a79e28f5b4b4115
     Pseudo is Ultrasoft + core correction, Zval = 11.0
     Generated by new atomic code, or converted to UPF format
     Using radial grid of  985 points,  3 beta functions with: 
                l(1) =   1
                l(2) =   2
                l(3) =   2
     Q(r) pseudized with  8 coefficients,  rinner =    1.100   1.100   1.100
                                                       1.100   1.100

     atomic species   valence    mass     pseudopotential
     AU               11.00   196.96000     Au( 1.00)

     No symmetry found



   Cartesian axes

     site n.     atom                  positions (alat units)
         1        AU     tau(   1) = (   1.4278394   1.9784974   0.3497317  )
         2        AU     tau(   2) = (   1.4278394   1.7313986   0.3497317  )
         3        AU     tau(   3) = (   1.5706478   1.9784974   0.3497317  )
         4        AU     tau(   4) = (   1.5706478   1.7313986   0.3497317  )
         5        AU     tau(   5) = (   1.7134072   1.9784974   0.3497317  )
         6        AU     tau(   6) = (   1.7134072   1.7313986   0.3497317  )
         7        AU     tau(   7) = (   1.8562156   1.9784974   0.3497317  )
         8        AU     tau(   8) = (   1.8562156   1.7313986   0.3497317  )
         9        AU     tau(   9) = (   1.9989753   1.9784974   0.3497317  )
        10        AU     tau(  10) = (   1.9989753   1.7313986   0.3497317  )
        11        AU     tau(  11) = (   2.1417836   1.9784974   0.3497317  )
        12        AU     tau(  12) = (   2.1417836   1.7313986   0.3497317  )
        13        AU     tau(  13) = (   2.2845431   1.9784974   0.3497317  )
        14        AU     tau(  14) = (   2.2845431   1.7313986   0.3497317  )
        15        AU     tau(  15) = (   1.4278394   2.0609450   0.2331545  )
        16        AU     tau(  16) = (   1.4278394   1.8138461   0.2331545  )
        17        AU     tau(  17) = (   1.5706478   2.0609450   0.2331545  )
        18        AU     tau(  18) = (   1.5706478   1.8138461   0.2331545  )
        19        AU     tau(  19) = (   1.7134072   2.0609450   0.2331545  )
        20        AU     tau(  20) = (   1.7134072   1.8138461   0.2331545  )
        21        AU     tau(  21) = (   1.8562156   2.0609450   0.2331545  )
        22        AU     tau(  22) = (   1.8562156   1.8138461   0.2331545  )
        23        AU     tau(  23) = (   1.9989753   2.0609450   0.2331545  )
        24        AU     tau(  24) = (   1.9989753   1.8138461   0.2331545  )
        25        AU     tau(  25) = (   2.1417836   2.0609450   0.2331545  )
        26        AU     tau(  26) = (   2.1417836   1.8138461   0.2331545  )
        27        AU     tau(  27) = (   2.2845431   2.0609450   0.2331545  )
        28        AU     tau(  28) = (   2.2845431   1.8138461   0.2331545  )
        29        AU     tau(  29) = (   1.4992193   2.1021445   0.3497317  )
        30        AU     tau(  30) = (   1.4992193   1.8550455   0.3497317  )
        31        AU     tau(  31) = (   1.6420276   2.1021445   0.3497317  )
        32        AU     tau(  32) = (   1.6420276   1.8550455   0.3497317  )
        33        AU     tau(  33) = (   1.7847871   2.1021445   0.3497317  )
        34        AU     tau(  34) = (   1.7847871   1.8550455   0.3497317  )
        35        AU     tau(  35) = (   1.9275954   2.1021445   0.3497317  )
        36        AU     tau(  36) = (   1.9275954   1.8550455   0.3497317  )
        37        AU     tau(  37) = (   2.0704038   2.1021445   0.3497317  )
        38        AU     tau(  38) = (   2.0704038   1.8550455   0.3497317  )
        39        AU     tau(  39) = (   2.2131632   2.1021445   0.3497317  )
        40        AU     tau(  40) = (   2.2131632   1.8550455   0.3497317  )
        41        AU     tau(  41) = (   2.3559716   2.1021445   0.3497317  )
        42        AU     tau(  42) = (   2.3559716   1.8550455   0.3497317  )
        43        AU     tau(  43) = (   1.4992193   1.6901992   0.2331545  )
        44        AU     tau(  44) = (   1.4992193   1.9374930   0.2331545  )
        45        AU     tau(  45) = (   1.6420276   1.6901992   0.2331545  )
        46        AU     tau(  46) = (   1.6420276   1.9374930   0.2331545  )
        47        AU     tau(  47) = (   1.7847871   1.6901992   0.2331545  )
        48        AU     tau(  48) = (   1.7847871   1.9374930   0.2331545  )
        49        AU     tau(  49) = (   1.9275954   1.6901992   0.2331545  )
        50        AU     tau(  50) = (   1.9275954   1.9374930   0.2331545  )
        51        AU     tau(  51) = (   2.0704038   1.6901992   0.2331545  )
        52        AU     tau(  52) = (   2.0704038   1.9374930   0.2331545  )
        53        AU     tau(  53) = (   2.2131632   1.6901992   0.2331545  )
        54        AU     tau(  54) = (   2.2131632   1.9374930   0.2331545  )
        55        AU     tau(  55) = (   2.3559716   1.6901992   0.2331545  )
        56        AU     tau(  56) = (   2.3559716   1.9374930   0.2331545  )
        57        AU     tau(  57) = (   1.4278394   1.9784974   0.0000000  )
        58        AU     tau(  58) = (   1.4278394   1.7313986   0.0000000  )
        59        AU     tau(  59) = (   1.5706478   1.9784974   0.0000000  )
        60        AU     tau(  60) = (   1.5706478   1.7313986   0.0000000  )
        61        AU     tau(  61) = (   1.7134072   1.9784974   0.0000000  )
        62        AU     tau(  62) = (   1.7134072   1.7313986   0.0000000  )
        63        AU     tau(  63) = (   1.8562156   1.9784974   0.0000000  )
        64        AU     tau(  64) = (   1.8562156   1.7313986   0.0000000  )
        65        AU     tau(  65) = (   1.9989753   1.9784974   0.0000000  )
        66        AU     tau(  66) = (   1.9989753   1.7313986   0.0000000  )
        67        AU     tau(  67) = (   2.1417836   1.9784974   0.0000000  )
        68        AU     tau(  68) = (   2.1417836   1.7313986   0.0000000  )
        69        AU     tau(  69) = (   2.2845431   1.9784974   0.0000000  )
        70        AU     tau(  70) = (   2.2845431   1.7313986   0.0000000  )
        71        AU     tau(  71) = (   1.4992193   2.0196968   0.1165772  )
        72        AU     tau(  72) = (   1.4992193   1.7725979   0.1165772  )
        73        AU     tau(  73) = (   1.6420276   2.0196968   0.1165772  )
        74        AU     tau(  74) = (   1.6420276   1.7725979   0.1165772  )
        75        AU     tau(  75) = (   1.7847871   2.0196968   0.1165772  )
        76        AU     tau(  76) = (   1.7847871   1.7725979   0.1165772  )
        77        AU     tau(  77) = (   1.9275954   2.0196968   0.1165772  )
        78        AU     tau(  78) = (   1.9275954   1.7725979   0.1165772  )
        79        AU     tau(  79) = (   2.0704038   2.0196968   0.1165772  )
        80        AU     tau(  80) = (   2.0704038   1.7725979   0.1165772  )
        81        AU     tau(  81) = (   2.2131632   2.0196968   0.1165772  )
        82        AU     tau(  82) = (   2.2131632   1.7725979   0.1165772  )
        83        AU     tau(  83) = (   2.3559716   2.0196968   0.1165772  )
        84        AU     tau(  84) = (   2.3559716   1.7725979   0.1165772  )
        85        AU     tau(  85) = (   1.4278394   2.1433437   0.1165772  )
        86        AU     tau(  86) = (   1.4278394   1.8962937   0.1165772  )
        87        AU     tau(  87) = (   1.5706478   2.1433437   0.1165772  )
        88        AU     tau(  88) = (   1.5706478   1.8962937   0.1165772  )
        89        AU     tau(  89) = (   1.7134072   2.1433437   0.1165772  )
        90        AU     tau(  90) = (   1.7134072   1.8962937   0.1165772  )
        91        AU     tau(  91) = (   1.8562156   2.1433437   0.1165772  )
        92        AU     tau(  92) = (   1.8562156   1.8962937   0.1165772  )
        93        AU     tau(  93) = (   1.9989753   2.1433437   0.1165772  )
        94        AU     tau(  94) = (   1.9989753   1.8962937   0.1165772  )
        95        AU     tau(  95) = (   2.1417836   2.1433437   0.1165772  )
        96        AU     tau(  96) = (   2.1417836   1.8962937   0.1165772  )
        97        AU     tau(  97) = (   2.2845431   2.1433437   0.1165772  )
        98        AU     tau(  98) = (   2.2845431   1.8962937   0.1165772  )
        99        AU     tau(  99) = (   1.4992193   2.1021445   0.0000000  )
       100        AU     tau( 100) = (   1.4992193   1.8550455   0.0000000  )
       101        AU     tau( 101) = (   1.6420276   2.1021445   0.0000000  )
       102        AU     tau( 102) = (   1.6420276   1.8550455   0.0000000  )
       103        AU     tau( 103) = (   1.7847871   2.1021445   0.0000000  )
       104        AU     tau( 104) = (   1.7847871   1.8550455   0.0000000  )
       105        AU     tau( 105) = (   1.9275954   2.1021445   0.0000000  )
       106        AU     tau( 106) = (   1.9275954   1.8550455   0.0000000  )
       107        AU     tau( 107) = (   2.0704038   2.1021445   0.0000000  )
       108        AU     tau( 108) = (   2.0704038   1.8550455   0.0000000  )
       109        AU     tau( 109) = (   2.2131632   2.1021445   0.0000000  )
       110        AU     tau( 110) = (   2.2131632   1.8550455   0.0000000  )
       111        AU     tau( 111) = (   2.3559716   2.1021445   0.0000000  )
       112        AU     tau( 112) = (   2.3559716   1.8550455   0.0000000  )

     number of k points=     2  Marzari-Vanderbilt smearing, width (Ry)=  0.0500
                       cart. coord. in units 2pi/alat
        k(    1) = (   0.2500000   0.5056706   0.0000000), wk =   1.0000000
        k(    2) = (  -0.2500000   0.5056706   0.0000000), wk =   1.0000000

     Dense  grid:  2158381 G-vectors     FFT dimensions: ( 180,  90, 288)

     Smooth grid:   763307 G-vectors     FFT dimensions: ( 125,  64, 200)

     Estimated max dynamical RAM per process >       1.82 GB

     Estimated total dynamical RAM >      14.54 GB

     Initial potential from superposition of free atoms

     starting charge    1230.6995, renormalised to    1232.0000

     negative rho (up, down):  3.043E+00 0.000E+00
     Starting wfcs are 1008 randomized atomic wfcs

     total cpu time spent up to now is       25.9 secs

     Self-consistent Calculation

     iteration #  1     ecut=    25.00 Ry     beta= 0.70
     Davidson diagonalization with overlap
     ethr =  1.00E-02,  avg # of iterations =  4.0

     Threshold (ethr) on eigenvalues was too large:
     Diagonalizing with lowered threshold

     Davidson diagonalization with overlap
     ethr =  4.37E-04,  avg # of iterations = 17.5

     negative rho (up, down):  2.992E+00 0.000E+00

     total cpu time spent up to now is      140.6 secs

     total energy              =  -11423.49029287 Ry
     estimated scf accuracy    <       6.31551700 Ry

     iteration #  2     ecut=    25.00 Ry     beta= 0.70
     Davidson diagonalization with overlap
     ethr =  5.13E-04,  avg # of iterations = 15.0

     negative rho (up, down):  2.993E+00 0.000E+00

     total cpu time spent up to now is      234.6 secs

     total energy              =  -11408.38290697 Ry
     estimated scf accuracy    <     196.15588348 Ry

     iteration #  3     ecut=    25.00 Ry     beta= 0.70
     Davidson diagonalization with overlap
     ethr =  5.13E-04,  avg # of iterations = 10.0

     negative rho (up, down):  3.038E+00 0.000E+00

     total cpu time spent up to now is      305.0 secs

     total energy              =  -11426.41175015 Ry
     estimated scf accuracy    <       5.02813064 Ry

     iteration #  4     ecut=    25.00 Ry     beta= 0.70
     Davidson diagonalization with overlap
     ethr =  4.08E-04,  avg # of iterations =  2.0

     negative rho (up, down):  3.045E+00 0.000E+00

     total cpu time spent up to now is      328.1 secs

     total energy              =  -11426.62349371 Ry
     estimated scf accuracy    <       4.26574880 Ry

     iteration #  5     ecut=    25.00 Ry     beta= 0.70
     Davidson diagonalization with overlap
     ethr =  3.46E-04,  avg # of iterations =  2.0

     negative rho (up, down):  3.061E+00 0.000E+00

     total cpu time spent up to now is      350.9 secs

     total energy              =  -11426.86834309 Ry
     estimated scf accuracy    <       4.86003085 Ry

     iteration #  6     ecut=    25.00 Ry     beta= 0.70
     Davidson diagonalization with overlap
     ethr =  3.46E-04,  avg # of iterations =  1.0

     negative rho (up, down):  3.070E+00 0.000E+00

     total cpu time spent up to now is      370.5 secs

     total energy              =  -11427.08079039 Ry
     estimated scf accuracy    <       0.09051366 Ry

     iteration #  7     ecut=    25.00 Ry     beta= 0.70
     Davidson diagonalization with overlap
     c_bands:  3 eigenvalues not converged
     c_bands:  1 eigenvalues not converged
     ethr =  7.35E-06,  avg # of iterations = 20.0

     negative rho (up, down):  3.079E+00 0.000E+00

     total cpu time spent up to now is      506.2 secs

     total energy              =  -11427.07364651 Ry
     estimated scf accuracy    <       0.20435869 Ry

     iteration #  8     ecut=    25.00 Ry     beta= 0.70
     Davidson diagonalization with overlap
     ethr =  7.35E-06,  avg # of iterations = 14.0

     negative rho (up, down):  3.080E+00 0.000E+00

     total cpu time spent up to now is      567.0 secs

     total energy              =  -11427.09030162 Ry
     estimated scf accuracy    <       0.05605733 Ry

     iteration #  9     ecut=    25.00 Ry     beta= 0.70
     Davidson diagonalization with overlap
     ethr =  4.55E-06,  avg # of iterations =  8.5

     negative rho (up, down):  3.082E+00 0.000E+00

     total cpu time spent up to now is      606.9 secs

     total energy              =  -11427.09295936 Ry
     estimated scf accuracy    <       0.01841245 Ry

     iteration # 10     ecut=    25.00 Ry     beta= 0.70
     Davidson diagonalization with overlap
     ethr =  1.49E-06,  avg # of iterations =  5.0

     negative rho (up, down):  3.083E+00 0.000E+00

     total cpu time spent up to now is      637.4 secs

     total energy              =  -11427.09351449 Ry
     estimated scf accuracy    <       0.00409959 Ry

     iteration # 11     ecut=    25.00 Ry     beta= 0.70
     Davidson diagonalization with overlap
     ethr =  3.33E-07,  avg # of iterations =  2.0

     negative rho (up, down):  3.083E+00 0.000E+00

     total cpu time spent up to now is      660.1 secs

     total energy              =  -11427.09388162 Ry
     estimated scf accuracy    <       0.00050133 Ry

     iteration # 12     ecut=    25.00 Ry     beta= 0.70
     Davidson diagonalization with overlap
     ethr =  4.07E-08,  avg # of iterations =  2.0

     negative rho (up, down):  3.084E+00 0.000E+00

     total cpu time spent up to now is      684.1 secs

     total energy              =  -11427.09376868 Ry
     estimated scf accuracy    <       0.00426303 Ry

     iteration # 13     ecut=    25.00 Ry     beta= 0.70
     Davidson diagonalization with overlap
     ethr =  4.07E-08,  avg # of iterations =  2.0

     negative rho (up, down):  3.084E+00 0.000E+00

     total cpu time spent up to now is      706.5 secs

     total energy              =  -11427.09393076 Ry
     estimated scf accuracy    <       0.00086487 Ry

     iteration # 14     ecut=    25.00 Ry     beta= 0.70
     Davidson diagonalization with overlap
     ethr =  4.07E-08,  avg # of iterations =  2.0

     negative rho (up, down):  3.084E+00 0.000E+00

     total cpu time spent up to now is      729.1 secs

     total energy              =  -11427.09395804 Ry
     estimated scf accuracy    <       0.00069120 Ry

     iteration # 15     ecut=    25.00 Ry     beta= 0.70
     Davidson diagonalization with overlap
     ethr =  4.07E-08,  avg # of iterations =  1.0

     negative rho (up, down):  3.084E+00 0.000E+00

     total cpu time spent up to now is      748.3 secs

     total energy              =  -11427.09400017 Ry
     estimated scf accuracy    <       0.00024195 Ry

     iteration # 16     ecut=    25.00 Ry     beta= 0.70
     Davidson diagonalization with overlap
     ethr =  1.96E-08,  avg # of iterations =  1.0

     negative rho (up, down):  3.084E+00 0.000E+00

     total cpu time spent up to now is      768.2 secs

     total energy              =  -11427.09401334 Ry
     estimated scf accuracy    <       0.00014135 Ry

     iteration # 17     ecut=    25.00 Ry     beta= 0.70
     Davidson diagonalization with overlap
     ethr =  1.15E-08,  avg # of iterations =  1.0

     negative rho (up, down):  3.085E+00 0.000E+00

     total cpu time spent up to now is      787.7 secs

     total energy              =  -11427.09401986 Ry
     estimated scf accuracy    <       0.00001099 Ry

     iteration # 18     ecut=    25.00 Ry     beta= 0.70
     Davidson diagonalization with overlap
     ethr =  8.92E-10,  avg # of iterations =  2.0

     negative rho (up, down):  3.085E+00 0.000E+00

     total cpu time spent up to now is      810.6 secs

     total energy              =  -11427.09402085 Ry
     estimated scf accuracy    <       0.00000655 Ry

     iteration # 19     ecut=    25.00 Ry     beta= 0.70
     Davidson diagonalization with overlap
     ethr =  5.32E-10,  avg # of iterations =  2.0

     negative rho (up, down):  3.085E+00 0.000E+00

     total cpu time spent up to now is      833.5 secs

     total energy              =  -11427.09401923 Ry
     estimated scf accuracy    <       0.00006365 Ry

     iteration # 20     ecut=    25.00 Ry     beta= 0.70
     Davidson diagonalization with overlap
     ethr =  5.32E-10,  avg # of iterations =  2.0

     negative rho (up, down):  3.085E+00 0.000E+00

     total cpu time spent up to now is      855.7 secs

     End of self-consistent calculation

          k = 0.2500 0.5057 0.0000 ( 95386 PWs)   bands (ev):

    -8.0050  -7.7856  -7.3697  -7.1566  -6.9591  -6.8867  -6.8077  -6.6749
    -6.6111  -6.2903  -6.2196  -6.1892  -6.1053  -6.0376  -5.9304  -5.9282
    -5.8889  -5.8393  -5.8312  -5.8252  -5.7941  -5.7362  -5.7242  -5.6816
    -5.6677  -5.6497  -5.6456  -5.6403  -5.5500  -5.5386  -5.5311  -5.5229
    -5.5166  -5.5074  -5.4894  -5.4815  -5.4632  -5.4597  -5.4285  -5.3754
    -5.3692  -5.3539  -5.3517  -5.3173  -5.3101  -5.2941  -5.2914  -5.2339
    -5.2329  -5.2328  -5.2284  -5.2185  -5.1999  -5.1788  -5.1556  -5.1449
    -5.1300  -5.1246  -5.1159  -5.1143  -5.1107  -5.1094  -5.0883  -5.0677
    -5.0649  -5.0572  -5.0562  -5.0491  -5.0409  -5.0379  -5.0306  -4.9879
    -4.9822  -4.9671  -4.9639  -4.9483  -4.9344  -4.9326  -4.9291  -4.9270
    -4.9178  -4.9161  -4.9071  -4.9041  -4.8860  -4.8856  -4.8819  -4.8720
    -4.8720  -4.8623  -4.8598  -4.8489  -4.8282  -4.8271  -4.8249  -4.8222
    -4.7420  -4.7395  -4.7378  -4.7370  -4.7331  -4.7257  -4.7213  -4.7211
    -4.7204  -4.7122  -4.6997  -4.6850  -4.6744  -4.6167  -4.6003  -4.5972
    -4.5935  -4.5852  -4.5626  -4.5612  -4.5576  -4.5270  -4.4708  -4.4697
    -4.4511  -4.4139  -4.3981  -4.3953  -4.3937  -4.3934  -4.3919  -4.3855
    -4.3555  -4.3458  -4.3453  -4.3372  -4.3258  -4.3231  -4.3203  -4.3037
    -4.3022  -4.2740  -4.2646  -4.2575  -4.2479  -4.2453  -4.2296  -4.2107
    -4.1939  -4.1681  -4.1563  -4.1552  -4.1547  -4.1532  -4.1484  -4.1397
    -4.1374  -4.1046  -4.0973  -4.0836  -4.0776  -4.0764  -4.0700  -4.0545
    -4.0507  -4.0354  -4.0308  -4.0242  -4.0215  -4.0173  -4.0086  -3.9940
    -3.9869  -3.9708  -3.9588  -3.9276  -3.9141  -3.8987  -3.8932  -3.8897
    -3.8711  -3.8708  -3.8613  -3.8375  -3.8367  -3.8331  -3.8166  -3.8086
    -3.7861  -3.7802  -3.7393  -3.7359  -3.7266  -3.7242  -3.7150  -3.7103
    -3.7011  -3.6854  -3.6809  -3.6713  -3.6590  -3.6406  -3.6193  -3.6193
    -3.6174  -3.6163  -3.6057  -3.6019  -3.5992  -3.5953  -3.5918  -3.5798
    -3.5699  -3.5671  -3.5646  -3.5597  -3.5576  -3.5510  -3.5460  -3.5450
    -3.5436  -3.5343  -3.5237  -3.4924  -3.4824  -3.4564  -3.4541  -3.4430
    -3.4426  -3.4406  -3.4393  -3.4262  -3.4215  -3.4128  -3.4052  -3.3971
    -3.3880  -3.3798  -3.3741  -3.3721  -3.3705  -3.3696  -3.3644  -3.3564
    -3.3527  -3.3375  -3.3358  -3.3270  -3.3262  -3.3245  -3.3201  -3.3172
    -3.3135  -3.3131  -3.3093  -3.3087  -3.2998  -3.2971  -3.2920  -3.2862
    -3.2815  -3.2796  -3.2592  -3.2499  -3.2469  -3.2439  -3.2383  -3.2289
    -3.2198  -3.2190  -3.2143  -3.2103  -3.2023  -3.1999  -3.1891  -3.1806
    -3.1791  -3.1734  -3.1722  -3.1685  -3.1670  -3.1593  -3.1582  -3.1460
    -3.1458  -3.1217  -3.1213  -3.1107  -3.0984  -3.0907  -3.0845  -3.0581
    -3.0414  -3.0401  -3.0346  -3.0334  -3.0263  -3.0240  -3.0232  -3.0182
    -3.0174  -3.0164  -3.0157  -3.0092  -3.0025  -3.0016  -2.9894  -2.9849
    -2.9819  -2.9809  -2.9802  -2.9751  -2.9750  -2.9712  -2.9688  -2.9510
    -2.9152  -2.9132  -2.8902  -2.8760  -2.8743  -2.8625  -2.8598  -2.8494
    -2.8477  -2.8281  -2.8221  -2.8206  -2.7998  -2.7963  -2.7957  -2.7832
    -2.7798  -2.7755  -2.7675  -2.7642  -2.7503  -2.7493  -2.7469  -2.7422
    -2.7234  -2.7226  -2.7208  -2.7181  -2.6629  -2.6545  -2.6463  -2.6368
    -2.6297  -2.6262  -2.6216  -2.5957  -2.5802  -2.5699  -2.5675  -2.5670
    -2.5636  -2.5592  -2.5532  -2.5409  -2.5282  -2.5253  -2.5196  -2.5162
    -2.5091  -2.5073  -2.5012  -2.4930  -2.4900  -2.4864  -2.4806  -2.4794
    -2.4733  -2.4725  -2.4666  -2.4658  -2.4599  -2.4492  -2.4354  -2.4348
    -2.4066  -2.4002  -2.3984  -2.3744  -2.3704  -2.3633  -2.3560  -2.3559
    -2.3488  -2.3454  -2.3357  -2.3325  -2.3154  -2.3005  -2.2929  -2.2720
    -2.2686  -2.2668  -2.2638  -2.2489  -2.2434  -2.2337  -2.2318  -2.2152
    -2.2127  -2.2056  -2.2054  -2.1980  -2.1972  -2.1784  -2.1450  -2.1362
    -2.1305  -2.1060  -2.1025  -2.0849  -2.0676  -2.0486  -2.0476  -2.0443
    -2.0375  -2.0320  -2.0024  -1.9984  -1.9949  -1.9642  -1.9608  -1.9574
    -1.9562  -1.9520  -1.9482  -1.9454  -1.9394  -1.9389  -1.9371  -1.9310
    -1.9300  -1.9277  -1.9172  -1.9123  -1.9079  -1.9021  -1.8648  -1.8558
    -1.8551  -1.8387  -1.8311  -1.8274  -1.8233  -1.8172  -1.8162  -1.8137
    -1.8116  -1.8015  -1.8003  -1.7991  -1.7935  -1.7666  -1.7597  -1.7586
    -1.7576  -1.7484  -1.7433  -1.7426  -1.7367  -1.7366  -1.7267  -1.7240
    -1.7064  -1.7048  -1.6990  -1.6980  -1.6882  -1.6746  -1.6703  -1.6659
    -1.6636  -1.6588  -1.6509  -1.6289  -1.6132  -1.6039  -1.5995  -1.5976
    -1.5793  -1.5761  -1.5756  -1.5741  -1.5603  -1.5449  -1.5045  -1.4993
    -1.4928  -1.4882  -1.4801  -1.4792  -1.4708  -1.4674  -1.4600  -1.4582
    -1.4512  -1.4445  -1.4337  -1.4326  -1.4263  -1.4134  -1.4128  -1.4075
    -1.3998  -1.3818  -1.3719  -1.3686  -1.3631  -1.3581  -1.3455  -1.3397
    -1.3279  -1.3257  -1.3220  -1.3075  -1.3027  -1.2979  -1.2934  -1.2874
    -1.2873  -1.2780  -1.2767  -1.2672  -1.2647  -1.2555  -1.2537  -1.2498
    -1.2418  -1.2398  -1.2281  -1.2277  -1.2201  -1.2194  -1.2193  -1.2190
    -1.2155  -1.2089  -1.2061  -1.1781  -1.1768  -1.1708  -1.1567  -1.1555
    -1.1451  -1.1403  -1.1380  -1.1337  -1.1302  -1.1252  -1.1246  -1.1219
    -1.1190  -1.1077  -1.1061  -1.0986  -1.0875  -1.0830  -1.0801  -1.0782
    -1.0773  -1.0758  -1.0726  -1.0630  -1.0581  -1.0551  -1.0538  -1.0510
    -1.0503  -1.0443  -1.0046  -0.9812  -0.9699  -0.9650  -0.9524  -0.9374
    -0.9361  -0.9295  -0.9247  -0.9209  -0.9162  -0.9079  -0.9004  -0.8821
    -0.8782  -0.8616  -0.8301  -0.8282  -0.8261  -0.7660  -0.6682  -0.6318
    -0.6017  -0.5947  -0.5469  -0.4529  -0.3799  -0.1937  -0.1603  -0.1190
    -0.0037   0.0219   0.0571   0.1551   0.1619   0.1918   0.2705   0.2881
     0.3154   0.3345   0.5885   0.5920   0.6429   0.6717   0.7318   0.7781
     0.8025   0.8033   0.9239   0.9705   0.9830   1.1552   1.1638   1.1983
     1.3016   1.3261   1.3631   1.3874   1.4794   1.5211   1.5256   1.7952
     1.8680   1.8789   1.8970   1.8998   1.9099   1.9750   1.9819   2.0314
     2.0615   2.0732   2.1942   2.4009   2.4062   2.4082   2.4467   2.4513
     2.6430   2.6538   2.6774   2.7097   2.7214   2.7960   2.8415   3.1808
     3.2034   3.2177   3.2815   3.3294   3.3640   3.3777   3.5441   3.5474
     3.5698   3.6167   3.6257   3.7991   3.8063   3.8937   3.9028   4.0002
     4.0224   4.1241   4.1802   4.2438   4.2472   4.2702   4.3016   4.3972
     4.4719   4.4972   4.5209   4.5647   4.6629   4.8050   4.8114   4.8409
     4.8497   4.8522   4.8937   4.9668   4.9888   5.0739   5.0905   5.1943
     5.2013   5.2117   5.2378   5.2617   5.3012   5.4402   5.4933   5.5254
     5.5325   5.5329   5.5443   5.6497   5.6731   5.7195   5.7316   5.8366
     5.8521   5.8737   5.8956   5.9062   5.9063   5.9801   5.9911   6.0157
     6.0170   6.0263   6.0329   6.0421   6.0869   6.1380   6.1418   6.1476
     6.1656   6.2220   6.2292   6.3070   6.4014   6.4092   6.4469   6.4472
     6.4738   6.5147   6.5236   6.5726   6.5876   6.6321   6.6407   6.6538
     6.6609   6.6906   6.7353   6.7481   6.7689   6.8237   6.8288   6.9307
     6.9365   6.9722   6.9726   6.9987   7.0273   7.0635   7.1003   7.1088
     7.1282   7.1637   7.1905   7.1919   7.1997   7.2022   7.2794   7.2910
     7.3066   7.3546   7.3590   7.4024   7.4171   7.4340   7.4641   7.5085
     7.5607   7.5674   7.6061   7.6175   7.6583   7.6583   7.6667   7.6691
     7.6931   7.6937   7.7179   7.7227   7.7376   7.7418   7.7926   7.8309
     7.8579   7.8670   7.8740   7.9408   7.9894   7.9906   8.0023   8.0254

          k =-0.2500 0.5057 0.0000 ( 95386 PWs)   bands (ev):

    -8.0050  -7.7856  -7.3697  -7.1566  -6.9591  -6.8867  -6.8077  -6.6749
    -6.6111  -6.2903  -6.2196  -6.1892  -6.1053  -6.0376  -5.9304  -5.9282
    -5.8889  -5.8393  -5.8312  -5.8252  -5.7941  -5.7362  -5.7242  -5.6816
    -5.6677  -5.6497  -5.6456  -5.6403  -5.5500  -5.5386  -5.5311  -5.5229
    -5.5166  -5.5074  -5.4894  -5.4815  -5.4632  -5.4597  -5.4285  -5.3754
    -5.3692  -5.3539  -5.3517  -5.3173  -5.3101  -5.2941  -5.2914  -5.2339
    -5.2329  -5.2328  -5.2284  -5.2185  -5.1999  -5.1788  -5.1556  -5.1449
    -5.1300  -5.1246  -5.1159  -5.1144  -5.1107  -5.1094  -5.0883  -5.0677
    -5.0649  -5.0572  -5.0561  -5.0491  -5.0409  -5.0379  -5.0306  -4.9879
    -4.9822  -4.9671  -4.9639  -4.9483  -4.9344  -4.9326  -4.9291  -4.9270
    -4.9178  -4.9161  -4.9071  -4.9041  -4.8860  -4.8856  -4.8819  -4.8720
    -4.8720  -4.8623  -4.8598  -4.8489  -4.8282  -4.8271  -4.8249  -4.8222
    -4.7420  -4.7395  -4.7378  -4.7370  -4.7331  -4.7257  -4.7213  -4.7210
    -4.7204  -4.7122  -4.6997  -4.6850  -4.6744  -4.6167  -4.6003  -4.5972
    -4.5935  -4.5852  -4.5626  -4.5612  -4.5576  -4.5270  -4.4708  -4.4697
    -4.4511  -4.4139  -4.3981  -4.3953  -4.3937  -4.3934  -4.3919  -4.3855
    -4.3555  -4.3458  -4.3453  -4.3372  -4.3258  -4.3231  -4.3203  -4.3037
    -4.3022  -4.2740  -4.2646  -4.2575  -4.2479  -4.2453  -4.2296  -4.2107
    -4.1939  -4.1681  -4.1563  -4.1552  -4.1547  -4.1532  -4.1484  -4.1397
    -4.1374  -4.1046  -4.0973  -4.0836  -4.0776  -4.0764  -4.0700  -4.0545
    -4.0507  -4.0354  -4.0308  -4.0242  -4.0215  -4.0174  -4.0086  -3.9940
    -3.9869  -3.9708  -3.9588  -3.9276  -3.9141  -3.8987  -3.8932  -3.8897
    -3.8711  -3.8708  -3.8613  -3.8375  -3.8367  -3.8331  -3.8166  -3.8086
    -3.7861  -3.7802  -3.7393  -3.7359  -3.7266  -3.7242  -3.7150  -3.7103
    -3.7011  -3.6854  -3.6809  -3.6713  -3.6590  -3.6406  -3.6193  -3.6193
    -3.6174  -3.6163  -3.6057  -3.6019  -3.5992  -3.5953  -3.5918  -3.5798
    -3.5699  -3.5671  -3.5646  -3.5597  -3.5576  -3.5510  -3.5460  -3.5450
    -3.5436  -3.5343  -3.5237  -3.4924  -3.4824  -3.4564  -3.4541  -3.4430
    -3.4426  -3.4406  -3.4393  -3.4262  -3.4215  -3.4128  -3.4052  -3.3971
    -3.3880  -3.3798  -3.3741  -3.3721  -3.3704  -3.3696  -3.3644  -3.3564
    -3.3527  -3.3375  -3.3358  -3.3270  -3.3262  -3.3245  -3.3201  -3.3172
    -3.3135  -3.3131  -3.3093  -3.3087  -3.2998  -3.2971  -3.2920  -3.2862
    -3.2815  -3.2796  -3.2592  -3.2498  -3.2469  -3.2439  -3.2383  -3.2289
    -3.2198  -3.2190  -3.2143  -3.2103  -3.2023  -3.1999  -3.1891  -3.1806
    -3.1791  -3.1734  -3.1722  -3.1685  -3.1670  -3.1593  -3.1582  -3.1460
    -3.1458  -3.1217  -3.1213  -3.1107  -3.0984  -3.0907  -3.0845  -3.0581
    -3.0414  -3.0401  -3.0346  -3.0334  -3.0263  -3.0240  -3.0232  -3.0182
    -3.0174  -3.0164  -3.0157  -3.0092  -3.0025  -3.0016  -2.9895  -2.9850
    -2.9819  -2.9808  -2.9801  -2.9751  -2.9751  -2.9712  -2.9688  -2.9510
    -2.9152  -2.9132  -2.8902  -2.8760  -2.8743  -2.8625  -2.8598  -2.8494
    -2.8477  -2.8281  -2.8221  -2.8206  -2.7998  -2.7963  -2.7957  -2.7832
    -2.7798  -2.7755  -2.7675  -2.7642  -2.7503  -2.7493  -2.7469  -2.7422
    -2.7234  -2.7226  -2.7208  -2.7181  -2.6629  -2.6544  -2.6463  -2.6368
    -2.6297  -2.6262  -2.6216  -2.5957  -2.5802  -2.5699  -2.5675  -2.5670
    -2.5636  -2.5591  -2.5532  -2.5409  -2.5282  -2.5253  -2.5196  -2.5162
    -2.5091  -2.5073  -2.5013  -2.4930  -2.4900  -2.4864  -2.4806  -2.4794
    -2.4733  -2.4725  -2.4666  -2.4658  -2.4599  -2.4492  -2.4354  -2.4348
    -2.4066  -2.4002  -2.3984  -2.3744  -2.3704  -2.3633  -2.3560  -2.3559
    -2.3488  -2.3454  -2.3357  -2.3325  -2.3154  -2.3005  -2.2929  -2.2720
    -2.2686  -2.2668  -2.2638  -2.2489  -2.2434  -2.2337  -2.2318  -2.2152
    -2.2127  -2.2056  -2.2054  -2.1980  -2.1972  -2.1784  -2.1450  -2.1362
    -2.1305  -2.1060  -2.1025  -2.0849  -2.0676  -2.0486  -2.0476  -2.0443
    -2.0375  -2.0320  -2.0024  -1.9984  -1.9949  -1.9642  -1.9608  -1.9574
    -1.9562  -1.9520  -1.9482  -1.9454  -1.9394  -1.9389  -1.9371  -1.9310
    -1.9300  -1.9276  -1.9172  -1.9123  -1.9079  -1.9021  -1.8648  -1.8558
    -1.8551  -1.8387  -1.8311  -1.8274  -1.8233  -1.8172  -1.8162  -1.8137
    -1.8116  -1.8015  -1.8003  -1.7991  -1.7935  -1.7666  -1.7597  -1.7587
    -1.7576  -1.7484  -1.7433  -1.7426  -1.7367  -1.7366  -1.7267  -1.7240
    -1.7064  -1.7048  -1.6990  -1.6980  -1.6882  -1.6746  -1.6703  -1.6659
    -1.6636  -1.6588  -1.6509  -1.6289  -1.6132  -1.6039  -1.5995  -1.5976
    -1.5793  -1.5761  -1.5756  -1.5741  -1.5603  -1.5449  -1.5045  -1.4993
    -1.4928  -1.4882  -1.4801  -1.4792  -1.4708  -1.4674  -1.4600  -1.4582
    -1.4512  -1.4445  -1.4337  -1.4326  -1.4263  -1.4134  -1.4128  -1.4075
    -1.3998  -1.3818  -1.3719  -1.3686  -1.3631  -1.3581  -1.3455  -1.3397
    -1.3279  -1.3257  -1.3220  -1.3075  -1.3027  -1.2979  -1.2934  -1.2874
    -1.2873  -1.2780  -1.2767  -1.2672  -1.2647  -1.2555  -1.2537  -1.2498
    -1.2418  -1.2398  -1.2281  -1.2277  -1.2201  -1.2194  -1.2193  -1.2190
    -1.2155  -1.2089  -1.2061  -1.1781  -1.1768  -1.1708  -1.1567  -1.1555
    -1.1451  -1.1403  -1.1380  -1.1337  -1.1302  -1.1252  -1.1246  -1.1219
    -1.1190  -1.1077  -1.1061  -1.0986  -1.0875  -1.0830  -1.0801  -1.0782
    -1.0773  -1.0758  -1.0726  -1.0630  -1.0581  -1.0551  -1.0538  -1.0510
    -1.0503  -1.0443  -1.0046  -0.9812  -0.9699  -0.9650  -0.9524  -0.9375
    -0.9359  -0.9295  -0.9247  -0.9209  -0.9162  -0.9079  -0.9004  -0.8821
    -0.8782  -0.8616  -0.8301  -0.8282  -0.8261  -0.7660  -0.6682  -0.6318
    -0.6017  -0.5947  -0.5469  -0.4529  -0.3799  -0.1937  -0.1603  -0.1190
    -0.0037   0.0219   0.0571   0.1551   0.1619   0.1918   0.2705   0.2881
     0.3154   0.3345   0.5885   0.5920   0.6429   0.6717   0.7318   0.7781
     0.8025   0.8033   0.9239   0.9705   0.9830   1.1552   1.1638   1.1983
     1.3016   1.3261   1.3631   1.3874   1.4794   1.5211   1.5256   1.7953
     1.8680   1.8789   1.8970   1.8998   1.9099   1.9750   1.9819   2.0314
     2.0615   2.0732   2.1942   2.4009   2.4062   2.4082   2.4467   2.4513
     2.6430   2.6538   2.6774   2.7097   2.7214   2.7960   2.8415   3.1808
     3.2034   3.2177   3.2815   3.3294   3.3640   3.3777   3.5441   3.5474
     3.5698   3.6167   3.6257   3.7991   3.8063   3.8937   3.9028   4.0002
     4.0224   4.1241   4.1802   4.2438   4.2472   4.2702   4.3016   4.3972
     4.4719   4.4972   4.5209   4.5647   4.6629   4.8050   4.8114   4.8409
     4.8497   4.8522   4.8937   4.9668   4.9888   5.0739   5.0905   5.1943
     5.2013   5.2117   5.2378   5.2617   5.3012   5.4402   5.4933   5.5254
     5.5325   5.5329   5.5443   5.6497   5.6731   5.7195   5.7316   5.8366
     5.8521   5.8737   5.8956   5.9062   5.9063   5.9801   5.9911   6.0157
     6.0170   6.0263   6.0329   6.0421   6.0869   6.1380   6.1418   6.1476
     6.1656   6.2220   6.2292   6.3070   6.4014   6.4092   6.4469   6.4472
     6.4738   6.5147   6.5236   6.5725   6.5876   6.6321   6.6407   6.6538
     6.6609   6.6906   6.7353   6.7481   6.7689   6.8237   6.8288   6.9307
     6.9365   6.9722   6.9726   6.9987   7.0273   7.0635   7.1003   7.1088
     7.1282   7.1636   7.1905   7.1919   7.1997   7.2022   7.2794   7.2910
     7.3066   7.3546   7.3590   7.4024   7.4171   7.4340   7.4641   7.5085
     7.5606   7.5674   7.6061   7.6175   7.6582   7.6583   7.6667   7.6691
     7.6931   7.6937   7.7179   7.7227   7.7377   7.7418   7.7924   7.8310
     7.8579   7.8670   7.8744   7.9402   7.9895   7.9965   8.0016   8.0253

     the Fermi energy is     0.7843 ev

!    total energy              =  -11427.09402124 Ry
     estimated scf accuracy    <       0.00000070 Ry
     smearing contrib. (-TS)   =       0.06311077 Ry
     internal energy E=F+TS    =  -11427.15713201 Ry

     The total energy is F=E-TS. E is the sum of the following terms:
     one-electron contribution = -129707.75744419 Ry
     hartree contribution      =   65677.94115769 Ry
     xc contribution           =   -5523.82336386 Ry
     ewald contribution        =   58126.48251834 Ry

     convergence has been achieved in  20 iterations
 
     init_run     :     15.73s CPU     20.23s WALL (       1 calls)
     electrons    :    785.62s CPU    829.84s WALL (       1 calls)

     Called by init_run:
     wfcinit      :      9.76s CPU     13.02s WALL (       1 calls)
     potinit      :      0.78s CPU      0.90s WALL (       1 calls)
     hinit0       :      2.48s CPU      2.68s WALL (       1 calls)

     Called by electrons:
     c_bands      :    711.83s CPU    733.38s WALL (      21 calls)
     sum_band     :     29.53s CPU     46.72s WALL (      21 calls)
     v_of_rho     :      6.65s CPU      7.43s WALL (      21 calls)
     newd         :     37.87s CPU     42.90s WALL (      21 calls)
     mix_rho      :      1.23s CPU      1.26s WALL (      21 calls)

     Called by c_bands:
     init_us_2    :     12.57s CPU     15.67s WALL (      86 calls)
     init_us_2:cp :     11.77s CPU     11.75s WALL (      86 calls)
     cegterg      :    635.54s CPU    655.85s WALL (      42 calls)

     Called by *egterg:
     cdiaghg      :    537.22s CPU    534.58s WALL (     272 calls)
     h_psi        :     49.11s CPU     43.39s WALL (     276 calls)
     s_psi_omp    :      1.83s CPU      2.83s WALL (     276 calls)
     g_psi        :      6.82s CPU      6.78s WALL (     232 calls)

     Called by h_psi:
     h_psi:calbec :      9.64s CPU     12.46s WALL (     276 calls)
     vloc_psi     :     30.00s CPU     23.36s WALL (     276 calls)
     add_vuspsi   :      2.28s CPU      3.56s WALL (     276 calls)

     General routines
     calbec_omp   :     11.94s CPU     14.40s WALL (     318 calls)
     fft          :      4.19s CPU      5.75s WALL (     272 calls)
     ffts         :      0.60s CPU      0.67s WALL (      42 calls)
     fftw         :     39.82s CPU     34.52s WALL (   43754 calls)
     interpolate  :      0.81s CPU      0.85s WALL (      21 calls)
 
     Parallel routines
 
     PWSCF        :  13m21.42s CPU  14m15.78s WALL

 
   This run was terminated on:  17:38:40  13Nov2023            

=------------------------------------------------------------------------------=
   JOB DONE.
=------------------------------------------------------------------------------=
