{
 "global_section": { "_calls": 1, "_time":     1308.781, "_%":   100.00,
   "siesta": { "_calls": 1, "_time":     1308.781, "_%":   100.00,
     "Setup": { "_calls": 1, "_time":        1.752, "_%":     0.13,
       "bands": { "_calls": 1, "_time":        0.002, "_%":     0.00},
       "KSV_init": { "_calls": 1, "_time":        0.000, "_%":     0.00}
     },
     "IterGeom": { "_calls": 1, "_time":     1306.632, "_%":    99.84,
       "geom_init": { "_calls": 1, "_time":       22.031, "_%":     1.68,
         "state_init": { "_calls": 1, "_time":        0.631, "_%":     0.05,
           "hsparse": { "_calls": 1, "_time":        0.234, "_%":     0.02},
           "overlap": { "_calls": 1, "_time":        0.065, "_%":     0.00}
         },
         "Setup_H0": { "_calls": 1, "_time":       21.399, "_%":     1.64,
           "naefs": { "_calls": 1, "_time":        0.034, "_%":     0.00},
           "MolMec": { "_calls": 1, "_time":        0.000, "_%":     0.00},
           "kinefsm": { "_calls": 1, "_time":        0.062, "_%":     0.00},
           "nlefsm": { "_calls": 1, "_time":        0.211, "_%":     0.02},
           "DHSCF_Init": { "_calls": 1, "_time":       21.070, "_%":     1.61,
             "DHSCF1": { "_calls": 1, "_time":        0.070, "_%":     0.01,
               "INITMESH": { "_calls": 1, "_time":        0.000, "_%":     0.00}
             },
             "DHSCF2": { "_calls": 1, "_time":       20.974, "_%":     1.60,
               "REMESH": { "_calls": 1, "_time":        0.171, "_%":     0.01,
                 "INITMESH": { "_calls": 2, "_time":        0.139, "_%":     0.01,
                   "SPLOAD": { "_calls": 2, "_time":        0.127, "_%":     0.01}
                 }
               },
               "REORD": { "_calls": 2, "_time":        0.115, "_%":     0.01},
               "PHION": { "_calls": 1, "_time":        0.553, "_%":     0.04},
               "COMM_BSC": { "_calls": 1, "_time":        0.341, "_%":     0.03},
               "POISON": { "_calls": 1, "_time":       18.517, "_%":     1.41,
                 "fft": { "_calls": 2, "_time":       17.826, "_%":     1.36}
               }
             }
           }
         }
       },
       "IterSCF": { "_calls": 5, "_time":     1284.421, "_%":    98.14,
         "setup_H": { "_calls": 5, "_time":      134.074, "_%":    10.24,
           "DHSCF": { "_calls": 5, "_time":      134.015, "_%":    10.24,
             "DHSCF3": { "_calls": 5, "_time":      134.015, "_%":    10.24,
               "rhoofd": { "_calls": 5, "_time":        0.757, "_%":     0.06},
               "COMM_BSC": { "_calls": 10, "_time":        4.066, "_%":     0.31},
               "POISON": { "_calls": 5, "_time":       92.176, "_%":     7.04,
                 "fft": { "_calls": 10, "_time":       88.369, "_%":     6.75}
               },
               "XC": { "_calls": 5, "_time":       29.174, "_%":     2.23,
                 "COMM_BSC": { "_calls": 10, "_time":        4.149, "_%":     0.32},
                 "GXC-CellXC": { "_calls": 5, "_time":       23.936, "_%":     1.83,
                   "gridxc@cellXC": { "_calls": 5, "_time":       23.936, "_%":     1.83}
                 }
               },
               "vmat": { "_calls": 5, "_time":        0.737, "_%":     0.06}
             }
           }
         },
         "compute_dm": { "_calls": 5, "_time":     1150.334, "_%":    87.89,
           "elsi": { "_calls": 5, "_time":     1150.288, "_%":    87.89,
             "find nnz_g": { "_calls": 5, "_time":        0.000, "_%":     0.00},
             "elsi-solver": { "_calls": 5, "_time":     1150.269, "_%":    87.89}
           }
         },
         "MIXER": { "_calls": 5, "_time":        0.005, "_%":     0.00}
       },
       "state_analysis": { "_calls": 1, "_time":        0.098, "_%":     0.01},
       "siesta_move": { "_calls": 1, "_time":        0.000, "_%":     0.00}
     },
     "Analysis": { "_calls": 1, "_time":        0.308, "_%":     0.02,
       "optical": { "_calls": 1, "_time":        0.001, "_%":     0.00}
     }
   }
 }}
