JobID        JobIDRaw        JobName  Partition  MaxVMSize  MaxVMSizeNode  MaxVMSizeTask  AveVMSize     MaxRSS MaxRSSNode MaxRSSTask     AveRSS MaxPages MaxPagesNode   MaxPagesTask   AvePages     MinCPU MinCPUNode MinCPUTask     AveCPU   NTasks  AllocCPUS    Elapsed      State ExitCode AveCPUFreq ReqCPUFreqMin ReqCPUFreqMax ReqCPUFreqGov     ReqMem ConsumedEnergy  MaxDiskRead MaxDiskReadNode MaxDiskReadTask    AveDiskRead MaxDiskWrite MaxDiskWriteNode MaxDiskWriteTask   AveDiskWrite    ReqTRES  AllocTRES TRESUsageInAve TRESUsageInMax TRESUsageInMaxNode TRESUsageInMaxTask TRESUsageInMin TRESUsageInMinNode TRESUsageInMinTask TRESUsageInTot TRESUsageOutMax TRESUsageOutMaxNode TRESUsageOutMaxTask TRESUsageOutAve TRESUsageOutTot 
------------ ------------ ---------- ---------- ---------- -------------- -------------- ---------- ---------- ---------- ---------- ---------- -------- ------------ -------------- ---------- ---------- ---------- ---------- ---------- -------- ---------- ---------- ---------- -------- ---------- ------------- ------------- ------------- ---------- -------------- ------------ --------------- --------------- -------------- ------------ ---------------- ---------------- -------------- ---------- ---------- -------------- -------------- ------------------ ------------------ -------------- ------------------ ------------------ -------------- --------------- ------------------- ------------------- --------------- --------------- 
9592899      9592899      CovidWeak+        gpp                                                                                                                                                                                                             224   00:02:09    RUNNING      0:0                  Unknown       Unknown       Unknown    224000M                                                                                                                                          billing=1+ billing=2+                                                                                                                                                                                                                                 
9592899.bat+ 9592899.bat+      batch                                                                                                                                                                                                               1        224   00:02:09    RUNNING      0:0          0             0             0             0                         0                                                                                                                                      cpu=224,m+                                                                                                                                                                                                                                 
9592899.ext+ 9592899.ext+     extern                                                                                                                                                                                                               1        224   00:02:09    RUNNING      0:0          0             0             0             0                         0                                                                                                                                      billing=2+                                                                                                                                                                                                                                 
9592899.0    9592899.0        siesta              6314080K      gs20r2b65             48 6300351744   1228830K  gs20r2b65         12 1117687396       24    gs20r2b65             58          2   00:00:48  gs20r2b65         24   00:01:06      112        224   00:01:25  COMPLETED      0:0    425.60M       Unknown       Unknown       Unknown                    58.78K       11.29M       gs20r2b65               0          9.32M       16.77M        gs20r2b65                0          4.24M            cpu=224,m+ cpu=00:01:06,+ cpu=00:01:12,+ cpu=gs20r2b65,ene+ cpu=97,fs/disk=0,+ cpu=00:00:48,+ cpu=gs20r2b65,ene+ cpu=24,fs/disk=74+ cpu=02:03:55,+ energy=907,fs/+ energy=gs20r2b65,f+           fs/disk=0 energy=3,fs/di+ energy=369,fs/+ 
