{
 "global_section": { "_calls": 1, "_time":       71.007, "_%":   100.00,
   "siesta": { "_calls": 1, "_time":       71.007, "_%":   100.00,
     "Setup": { "_calls": 1, "_time":        2.079, "_%":     2.93,
       "bands": { "_calls": 1, "_time":        0.002, "_%":     0.00},
       "KSV_init": { "_calls": 1, "_time":        0.001, "_%":     0.00}
     },
     "IterGeom": { "_calls": 1, "_time":       68.790, "_%":    96.88,
       "geom_init": { "_calls": 1, "_time":        8.564, "_%":    12.06,
         "state_init": { "_calls": 1, "_time":        0.326, "_%":     0.46,
           "hsparse": { "_calls": 1, "_time":        0.105, "_%":     0.15},
           "overlap": { "_calls": 1, "_time":        0.036, "_%":     0.05}
         },
         "Setup_H0": { "_calls": 1, "_time":        8.237, "_%":    11.60,
           "naefs": { "_calls": 1, "_time":        0.014, "_%":     0.02},
           "MolMec": { "_calls": 1, "_time":        0.000, "_%":     0.00},
           "kinefsm": { "_calls": 1, "_time":        0.035, "_%":     0.05},
           "nlefsm": { "_calls": 1, "_time":        0.117, "_%":     0.17},
           "DHSCF_Init": { "_calls": 1, "_time":        8.061, "_%":    11.35,
             "DHSCF1": { "_calls": 1, "_time":        0.040, "_%":     0.06,
               "INITMESH": { "_calls": 1, "_time":        0.000, "_%":     0.00}
             },
             "DHSCF2": { "_calls": 1, "_time":        8.006, "_%":    11.27,
               "REMESH": { "_calls": 1, "_time":        0.113, "_%":     0.16,
                 "INITMESH": { "_calls": 2, "_time":        0.091, "_%":     0.13,
                   "SPLOAD": { "_calls": 2, "_time":        0.084, "_%":     0.12}
                 }
               },
               "REORD": { "_calls": 2, "_time":        0.037, "_%":     0.05},
               "PHION": { "_calls": 1, "_time":        0.291, "_%":     0.41},
               "COMM_BSC": { "_calls": 1, "_time":        0.187, "_%":     0.26},
               "POISON": { "_calls": 1, "_time":        6.844, "_%":     9.64,
                 "fft": { "_calls": 2, "_time":        6.571, "_%":     9.25}
               }
             }
           }
         }
       },
       "IterSCF": { "_calls": 5, "_time":       60.159, "_%":    84.72,
         "setup_H": { "_calls": 5, "_time":       55.370, "_%":    77.98,
           "DHSCF": { "_calls": 5, "_time":       55.361, "_%":    77.97,
             "DHSCF3": { "_calls": 5, "_time":       55.361, "_%":    77.97,
               "rhoofd": { "_calls": 5, "_time":        0.307, "_%":     0.43},
               "COMM_BSC": { "_calls": 10, "_time":        2.007, "_%":     2.83},
               "POISON": { "_calls": 5, "_time":       34.371, "_%":    48.41,
                 "fft": { "_calls": 10, "_time":       32.879, "_%":    46.30}
               },
               "XC": { "_calls": 5, "_time":       15.531, "_%":    21.87,
                 "COMM_BSC": { "_calls": 10, "_time":        1.832, "_%":     2.58},
                 "GXC-CellXC": { "_calls": 5, "_time":       13.392, "_%":    18.86,
                   "gridxc@cellXC": { "_calls": 5, "_time":       13.392, "_%":    18.86}
                 }
               },
               "vmat": { "_calls": 5, "_time":        0.212, "_%":     0.30}
             }
           }
         },
         "compute_dm": { "_calls": 5, "_time":        4.766, "_%":     6.71,
           "elsi": { "_calls": 5, "_time":        4.765, "_%":     6.71,
             "find nnz_g": { "_calls": 5, "_time":        0.000, "_%":     0.00},
             "elsi-solver": { "_calls": 5, "_time":        4.742, "_%":     6.68}
           }
         },
         "MIXER": { "_calls": 5, "_time":        0.007, "_%":     0.01}
       },
       "state_analysis": { "_calls": 1, "_time":        0.057, "_%":     0.08},
       "siesta_move": { "_calls": 1, "_time":        0.000, "_%":     0.00}
     },
     "Analysis": { "_calls": 1, "_time":        0.133, "_%":     0.19,
       "optical": { "_calls": 1, "_time":        0.001, "_%":     0.00}
     }
   }
 }}
