JobID        JobIDRaw        JobName  Partition  MaxVMSize  MaxVMSizeNode  MaxVMSizeTask  AveVMSize     MaxRSS MaxRSSNode MaxRSSTask     AveRSS MaxPages MaxPagesNode   MaxPagesTask   AvePages     MinCPU MinCPUNode MinCPUTask     AveCPU   NTasks  AllocCPUS    Elapsed      State ExitCode AveCPUFreq ReqCPUFreqMin ReqCPUFreqMax ReqCPUFreqGov     ReqMem ConsumedEnergy  MaxDiskRead MaxDiskReadNode MaxDiskReadTask    AveDiskRead MaxDiskWrite MaxDiskWriteNode MaxDiskWriteTask   AveDiskWrite    ReqTRES  AllocTRES TRESUsageInAve TRESUsageInMax TRESUsageInMaxNode TRESUsageInMaxTask TRESUsageInMin TRESUsageInMinNode TRESUsageInMinTask TRESUsageInTot TRESUsageOutMax TRESUsageOutMaxNode TRESUsageOutMaxTask TRESUsageOutAve TRESUsageOutTot 
------------ ------------ ---------- ---------- ---------- -------------- -------------- ---------- ---------- ---------- ---------- ---------- -------- ------------ -------------- ---------- ---------- ---------- ---------- ---------- -------- ---------- ---------- ---------- -------- ---------- ------------- ------------- ------------- ---------- -------------- ------------ --------------- --------------- -------------- ------------ ---------------- ---------------- -------------- ---------- ---------- -------------- -------------- ------------------ ------------------ -------------- ------------------ ------------------ -------------- --------------- ------------------- ------------------- --------------- --------------- 
7682282      7682282      submit.job boost_usr+                                                                                                                                                                                                             128   01:17:56    RUNNING      0:0                  Unknown       Unknown       Unknown      1925G                                                                                                                                          billing=1+ billing=1+                                                                                                                                                                                                                                 
7682282.bat+ 7682282.bat+      batch                                                                                                                                                                                                               1         32   01:17:56    RUNNING      0:0          0             0             0             0                         0                                                                                                                                      cpu=32,gr+                                                                                                                                                                                                                                 
7682282.ext+ 7682282.ext+     extern                                                                                                                                                                                                               4        128   01:17:56    RUNNING      0:0          0             0             0             0                         0                                                                                                                                      billing=1+                                                                                                                                                                                                                                 
7682282.0    7682282.0    leonardo-+              6604404K       lrdn3036              0 1671790880   6500168K   lrdn3036          0 1653267904      603     lrdn3036              2         81   01:17:00   lrdn3171         97   01:17:11      128        128   01:17:52  COMPLETED      0:0     16.66M       Unknown       Unknown       Unknown                         0        2.31M        lrdn3036               0          1.37M       45.39M         lrdn3036                0          6.04M            cpu=128,g+ cpu=01:17:11,+ cpu=01:17:15,+ cpu=lrdn3171,ener+ cpu=125,fs/disk=0+ cpu=01:17:00,+ cpu=lrdn3171,ener+ cpu=97,fs/disk=26+ cpu=6-20:40:3+ energy=0,fs/di+ energy=lrdn3036,fs+           fs/disk=0 energy=0,fs/di+ energy=0,fs/di+ 
