{
 "global_section": { "_calls": 1, "_time":     2050.959, "_%":   100.00,
   "siesta": { "_calls": 1, "_time":     2050.959, "_%":   100.00,
     "Setup": { "_calls": 1, "_time":        1.986, "_%":     0.10,
       "bands": { "_calls": 1, "_time":        0.002, "_%":     0.00},
       "KSV_init": { "_calls": 1, "_time":        0.001, "_%":     0.00}
     },
     "IterGeom": { "_calls": 1, "_time":     2048.693, "_%":    99.89,
       "geom_init": { "_calls": 1, "_time":       10.926, "_%":     0.53,
         "state_init": { "_calls": 1, "_time":        2.099, "_%":     0.10,
           "hsparse": { "_calls": 1, "_time":        0.136, "_%":     0.01},
           "overlap": { "_calls": 1, "_time":        0.771, "_%":     0.04}
         },
         "Setup_H0": { "_calls": 1, "_time":        8.826, "_%":     0.43,
           "naefs": { "_calls": 1, "_time":        0.022, "_%":     0.00},
           "MolMec": { "_calls": 1, "_time":        0.000, "_%":     0.00},
           "kinefsm": { "_calls": 1, "_time":        0.766, "_%":     0.04},
           "nlefsm": { "_calls": 1, "_time":        1.740, "_%":     0.08},
           "DHSCF_Init": { "_calls": 1, "_time":        6.283, "_%":     0.31,
             "DHSCF1": { "_calls": 1, "_time":        0.052, "_%":     0.00,
               "INITMESH": { "_calls": 1, "_time":        0.000, "_%":     0.00}
             },
             "DHSCF2": { "_calls": 1, "_time":        6.211, "_%":     0.30,
               "REMESH": { "_calls": 1, "_time":        2.932, "_%":     0.14,
                 "INITMESH": { "_calls": 2, "_time":        2.890, "_%":     0.14,
                   "SPLOAD": { "_calls": 2, "_time":        2.672, "_%":     0.13}
                 }
               },
               "REORD": { "_calls": 2, "_time":        0.009, "_%":     0.00},
               "PHION": { "_calls": 1, "_time":        0.260, "_%":     0.01},
               "COMM_BSC": { "_calls": 1, "_time":        0.205, "_%":     0.01},
               "POISON": { "_calls": 1, "_time":        2.396, "_%":     0.12,
                 "fft": { "_calls": 2, "_time":        2.304, "_%":     0.11}
               }
             }
           }
         }
       },
       "IterSCF": { "_calls": 5, "_time":     2037.682, "_%":    99.35,
         "setup_H": { "_calls": 5, "_time":       20.150, "_%":     0.98,
           "DHSCF": { "_calls": 5, "_time":       20.116, "_%":     0.98,
             "DHSCF3": { "_calls": 5, "_time":       20.116, "_%":     0.98,
               "rhoofd": { "_calls": 5, "_time":        0.177, "_%":     0.01},
               "COMM_BSC": { "_calls": 10, "_time":        1.349, "_%":     0.07},
               "POISON": { "_calls": 5, "_time":       12.154, "_%":     0.59,
                 "fft": { "_calls": 10, "_time":       11.686, "_%":     0.57}
               },
               "XC": { "_calls": 5, "_time":        5.293, "_%":     0.26,
                 "COMM_BSC": { "_calls": 10, "_time":        0.710, "_%":     0.03},
                 "GXC-CellXC": { "_calls": 5, "_time":        4.464, "_%":     0.22,
                   "gridxc@cellXC": { "_calls": 5, "_time":        4.464, "_%":     0.22}
                 }
               },
               "vmat": { "_calls": 5, "_time":        0.223, "_%":     0.01}
             }
           }
         },
         "compute_dm": { "_calls": 5, "_time":     2017.460, "_%":    98.37,
           "elsi": { "_calls": 5, "_time":     2016.875, "_%":    98.34,
             "find nnz_g": { "_calls": 5, "_time":        0.000, "_%":     0.00},
             "elsi-solver": { "_calls": 5, "_time":     2016.857, "_%":    98.34}
           }
         },
         "MIXER": { "_calls": 5, "_time":        0.021, "_%":     0.00}
       },
       "state_analysis": { "_calls": 1, "_time":        0.070, "_%":     0.00},
       "siesta_move": { "_calls": 1, "_time":        0.000, "_%":     0.00}
     },
     "Analysis": { "_calls": 1, "_time":        0.247, "_%":     0.01,
       "optical": { "_calls": 1, "_time":        0.001, "_%":     0.00}
     }
   }
 }}
