JobId=244492 JobName=CovidStrong
   UserId=fpedron(5340) GroupId=fpedron(5340) MCS_label=N/A
   Priority=1 Nice=0 Account=ehpc-ben-2024b06-053 QOS=ehpc-ben-2024b06-053
   JobState=RUNNING Reason=None Dependency=(null)
   Requeue=1 Restarts=0 BatchFlag=1 Reboot=0 ExitCode=0:0
   DerivedExitCode=0:0
   RunTime=00:00:01 TimeLimit=05:59:00 TimeMin=N/A
   SubmitTime=2024-09-10T18:21:59 EligibleTime=2024-09-10T18:21:59
   AccrueTime=2024-09-10T18:21:59
   StartTime=2024-09-10T18:22:02 EndTime=2024-09-11T00:21:02 Deadline=N/A
   SuspendTime=None SecsPreSuspend=0 LastSchedEval=2024-09-10T18:22:02
   Partition=cn AllocNode:Sid=login1:3540154
   ReqNodeList=(null) ExcNodeList=(null)
   NodeList=cn[0545-0552]
   BatchHost=cn0545
   NumNodes=8 NumCPUs=1024 NumTasks=1024 CPUs/Task=1 ReqB:S:C:T=0:0:*:*
   TRES=cpu=1024,mem=1T,node=8,billing=1024
   Socks/Node=* NtasksPerN:B:S:C=128:0:*:* CoreSpec=*
   JOB_GRES=(null)
     Nodes=cn[0545-0552] CPU_IDs=0-127 Mem=131072 GRES=
   MinCPUsNode=128 MinMemoryCPU=1G MinTmpDiskNode=0
   Features=(null) DelayBoot=00:00:00
   OverSubscribe=OK Contiguous=0 Licenses=(null) Network=(null)
   Command=/home/fpedron/JUBE4MaX/max-inputs/interface/siesta/_CovidStrong/000000/000003_submit/work/submit.job
   WorkDir=/home/fpedron/JUBE4MaX/max-inputs/interface/siesta/_CovidStrong/000000/000003_submit/work
   StdErr=/home/fpedron/JUBE4MaX/max-inputs/interface/siesta/_CovidStrong/000000/000003_submit/work/slurm-244492.out
   StdIn=/dev/null
   StdOut=/home/fpedron/JUBE4MaX/max-inputs/interface/siesta/_CovidStrong/000000/000003_submit/work/slurm-244492.out
   Power=
   MailUser=fpedron MailType=NONE

