JobID        JobIDRaw        JobName  Partition  MaxVMSize  MaxVMSizeNode  MaxVMSizeTask  AveVMSize     MaxRSS MaxRSSNode MaxRSSTask     AveRSS MaxPages MaxPagesNode   MaxPagesTask   AvePages     MinCPU MinCPUNode MinCPUTask     AveCPU   NTasks  AllocCPUS    Elapsed      State ExitCode AveCPUFreq ReqCPUFreqMin ReqCPUFreqMax ReqCPUFreqGov     ReqMem ConsumedEnergy  MaxDiskRead MaxDiskReadNode MaxDiskReadTask    AveDiskRead MaxDiskWrite MaxDiskWriteNode MaxDiskWriteTask   AveDiskWrite    ReqTRES  AllocTRES TRESUsageInAve TRESUsageInMax TRESUsageInMaxNode TRESUsageInMaxTask TRESUsageInMin TRESUsageInMinNode TRESUsageInMinTask TRESUsageInTot TRESUsageOutMax TRESUsageOutMaxNode TRESUsageOutMaxTask TRESUsageOutAve TRESUsageOutTot 
------------ ------------ ---------- ---------- ---------- -------------- -------------- ---------- ---------- ---------- ---------- ---------- -------- ------------ -------------- ---------- ---------- ---------- ---------- ---------- -------- ---------- ---------- ---------- -------- ---------- ------------- ------------- ------------- ---------- -------------- ------------ --------------- --------------- -------------- ------------ ---------------- ---------------- -------------- ---------- ---------- -------------- -------------- ------------------ ------------------ -------------- ------------------ ------------------ -------------- --------------- ------------------- ------------------- --------------- --------------- 
8022834      8022834       CovidWeak   standard                                                                                                                                                                                                            1024   00:00:45    RUNNING      0:0                  Unknown       Unknown       Unknown       896G                                                                                                                                          billing=5+ billing=1+                                                                                                                                                                                                                                 
8022834.bat+ 8022834.bat+      batch                                                                                                                                                                                                               1        256   00:00:45    RUNNING      0:0          0             0             0             0                         0                                                                                                                                      cpu=256,m+                                                                                                                                                                                                                                 
8022834.0    8022834.0        siesta              3024028K      nid001213              0 2486191832    493908K  nid001213         60  415245008      911    nid001213            105        317   00:00:25  nid001213        120   00:00:35      512       1024   00:00:41  COMPLETED      0:0      6.16G       Unknown       Unknown       Unknown                    93.81K        1.91M       nid001213               0          0.17M       14.41M        nid001213                0          0.09M            cpu=1024,+ cpu=00:00:35,+ cpu=00:00:37,+ cpu=nid002099,ene+ cpu=392,fs/disk=0+ cpu=00:00:25,+ cpu=nid001213,ene+ cpu=120,fs/disk=2+ cpu=05:01:04,+ energy=708,fs/+ energy=nid002099,f+           fs/disk=0 energy=2,fs/di+ energy=1228,fs+ 
