{
 "global_section": { "_calls": 1, "_time":       29.581, "_%":   100.00,
   "siesta": { "_calls": 1, "_time":       29.581, "_%":   100.00,
     "Setup": { "_calls": 1, "_time":        0.747, "_%":     2.53,
       "bands": { "_calls": 1, "_time":        0.001, "_%":     0.00},
       "KSV_init": { "_calls": 1, "_time":        0.000, "_%":     0.00}
     },
     "IterGeom": { "_calls": 1, "_time":       28.751, "_%":    97.19,
       "geom_init": { "_calls": 1, "_time":        4.267, "_%":    14.42,
         "state_init": { "_calls": 1, "_time":        0.951, "_%":     3.21,
           "hsparse": { "_calls": 1, "_time":        0.087, "_%":     0.29},
           "overlap": { "_calls": 1, "_time":        0.044, "_%":     0.15}
         },
         "Setup_H0": { "_calls": 1, "_time":        3.315, "_%":    11.21,
           "naefs": { "_calls": 1, "_time":        0.020, "_%":     0.07},
           "MolMec": { "_calls": 1, "_time":        0.000, "_%":     0.00},
           "kinefsm": { "_calls": 1, "_time":        0.043, "_%":     0.15},
           "nlefsm": { "_calls": 1, "_time":        0.095, "_%":     0.32},
           "DHSCF_Init": { "_calls": 1, "_time":        3.144, "_%":    10.63,
             "DHSCF1": { "_calls": 1, "_time":        0.021, "_%":     0.07,
               "INITMESH": { "_calls": 1, "_time":        0.000, "_%":     0.00}
             },
             "DHSCF2": { "_calls": 1, "_time":        3.110, "_%":    10.51,
               "REMESH": { "_calls": 1, "_time":        0.549, "_%":     1.86,
                 "INITMESH": { "_calls": 2, "_time":        0.524, "_%":     1.77,
                   "SPLOAD": { "_calls": 2, "_time":        0.361, "_%":     1.22}
                 }
               },
               "REORD": { "_calls": 2, "_time":        0.010, "_%":     0.03},
               "PHION": { "_calls": 1, "_time":        0.116, "_%":     0.39},
               "COMM_BSC": { "_calls": 1, "_time":        0.069, "_%":     0.23},
               "POISON": { "_calls": 1, "_time":        2.066, "_%":     6.99,
                 "fft": { "_calls": 2, "_time":        1.974, "_%":     6.67}
               }
             }
           }
         }
       },
       "IterSCF": { "_calls": 5, "_time":       24.453, "_%":    82.67,
         "setup_H": { "_calls": 5, "_time":       17.270, "_%":    58.38,
           "DHSCF": { "_calls": 5, "_time":       17.238, "_%":    58.28,
             "DHSCF3": { "_calls": 5, "_time":       17.238, "_%":    58.28,
               "rhoofd": { "_calls": 5, "_time":        0.114, "_%":     0.39},
               "COMM_BSC": { "_calls": 10, "_time":        0.611, "_%":     2.07},
               "POISON": { "_calls": 5, "_time":       10.172, "_%":    34.39,
                 "fft": { "_calls": 10, "_time":        9.730, "_%":    32.89}
               },
               "XC": { "_calls": 5, "_time":        5.328, "_%":    18.01,
                 "COMM_BSC": { "_calls": 10, "_time":        0.468, "_%":     1.58},
                 "GXC-CellXC": { "_calls": 5, "_time":        4.756, "_%":    16.08,
                   "gridxc@cellXC": { "_calls": 5, "_time":        4.756, "_%":    16.08}
                 }
               },
               "vmat": { "_calls": 5, "_time":        0.114, "_%":     0.38}
             }
           }
         },
         "compute_dm": { "_calls": 5, "_time":        7.138, "_%":    24.13,
           "elsi": { "_calls": 5, "_time":        7.137, "_%":    24.13,
             "find nnz_g": { "_calls": 5, "_time":        0.000, "_%":     0.00},
             "elsi-solver": { "_calls": 5, "_time":        7.121, "_%":    24.07}
           }
         },
         "MIXER": { "_calls": 5, "_time":        0.036, "_%":     0.12}
       },
       "state_analysis": { "_calls": 1, "_time":        0.022, "_%":     0.08},
       "siesta_move": { "_calls": 1, "_time":        0.000, "_%":     0.00}
     },
     "Analysis": { "_calls": 1, "_time":        0.075, "_%":     0.26,
       "optical": { "_calls": 1, "_time":        0.000, "_%":     0.00}
     }
   }
 }}
