JobID        JobIDRaw        JobName  Partition  MaxVMSize  MaxVMSizeNode  MaxVMSizeTask  AveVMSize     MaxRSS MaxRSSNode MaxRSSTask     AveRSS MaxPages MaxPagesNode   MaxPagesTask   AvePages     MinCPU MinCPUNode MinCPUTask     AveCPU   NTasks  AllocCPUS    Elapsed      State ExitCode AveCPUFreq ReqCPUFreqMin ReqCPUFreqMax ReqCPUFreqGov     ReqMem ConsumedEnergy  MaxDiskRead MaxDiskReadNode MaxDiskReadTask    AveDiskRead MaxDiskWrite MaxDiskWriteNode MaxDiskWriteTask   AveDiskWrite    ReqTRES  AllocTRES TRESUsageInAve TRESUsageInMax TRESUsageInMaxNode TRESUsageInMaxTask TRESUsageInMin TRESUsageInMinNode TRESUsageInMinTask TRESUsageInTot TRESUsageOutMax TRESUsageOutMaxNode TRESUsageOutMaxTask TRESUsageOutAve TRESUsageOutTot 
------------ ------------ ---------- ---------- ---------- -------------- -------------- ---------- ---------- ---------- ---------- ---------- -------- ------------ -------------- ---------- ---------- ---------- ---------- ---------- -------- ---------- ---------- ---------- -------- ---------- ------------- ------------- ------------- ---------- -------------- ------------ --------------- --------------- -------------- ------------ ---------------- ---------------- -------------- ---------- ---------- -------------- -------------- ------------------ ------------------ -------------- ------------------ ------------------ -------------- --------------- ------------------- ------------------- --------------- --------------- 
155750       155750       CovidWeak+ normal-x86                                                                                                                                                                                                             256   00:01:46    RUNNING      0:0                  Unknown       Unknown       Unknown       484G                                                                                                                                          billing=2+ billing=2+                                                                                                                                                                                                                                 
155750.batch 155750.batch      batch                                                                                                                                                                                                               1        128   00:01:46    RUNNING      0:0          0             0             0             0                         0                                                                                                                                      cpu=128,m+                                                                                                                                                                                                                                 
155750.exte+ 155750.exte+     extern                                                                                                                                                                                                               2        256   00:01:46    RUNNING      0:0          0             0             0             0                         0                                                                                                                                      billing=2+                                                                                                                                                                                                                                 
155750.0     155750.0          orted             94622632K         cnx163              0  94622632K  93671836K     cnx163          0  93671836K      495       cnx163              0        495   03:29:10     cnx163          0   03:29:10        1        256   00:01:46  COMPLETED      0:0       209K             0             0             0                               2616.80M          cnx163               0       2616.80M      527.56M           cnx163                0        527.56M            billing=2+ cpu=03:29:10,+ cpu=03:29:10,+ cpu=cnx163,energy+ cpu=0,fs/disk=0,m+ cpu=03:29:10,+ cpu=cnx163,energy+ cpu=0,fs/disk=0,m+ cpu=03:29:10,+ energy=0,fs/di+ energy=cnx163,fs/d+           fs/disk=0 energy=0,fs/di+ energy=0,fs/di+ 
