{
 "global_section": { "_calls": 1, "_time":     1881.587, "_%":   100.00,
   "siesta": { "_calls": 1, "_time":     1881.587, "_%":   100.00,
     "Setup": { "_calls": 1, "_time":        2.279, "_%":     0.12,
       "bands": { "_calls": 1, "_time":        0.004, "_%":     0.00},
       "KSV_init": { "_calls": 1, "_time":        0.001, "_%":     0.00}
     },
     "IterGeom": { "_calls": 1, "_time":     1878.791, "_%":    99.85,
       "geom_init": { "_calls": 1, "_time":       11.583, "_%":     0.62,
         "state_init": { "_calls": 1, "_time":        1.026, "_%":     0.05,
           "hsparse": { "_calls": 1, "_time":        0.353, "_%":     0.02},
           "overlap": { "_calls": 1, "_time":        0.106, "_%":     0.01}
         },
         "Setup_H0": { "_calls": 1, "_time":       10.555, "_%":     0.56,
           "naefs": { "_calls": 1, "_time":        0.066, "_%":     0.00},
           "MolMec": { "_calls": 1, "_time":        0.000, "_%":     0.00},
           "kinefsm": { "_calls": 1, "_time":        0.084, "_%":     0.00},
           "nlefsm": { "_calls": 1, "_time":        0.254, "_%":     0.01},
           "DHSCF_Init": { "_calls": 1, "_time":       10.112, "_%":     0.54,
             "DHSCF1": { "_calls": 1, "_time":        0.097, "_%":     0.01,
               "INITMESH": { "_calls": 1, "_time":        0.000, "_%":     0.00}
             },
             "DHSCF2": { "_calls": 1, "_time":        9.955, "_%":     0.53,
               "REMESH": { "_calls": 1, "_time":        3.941, "_%":     0.21,
                 "INITMESH": { "_calls": 2, "_time":        3.719, "_%":     0.20,
                   "SPLOAD": { "_calls": 2, "_time":        0.419, "_%":     0.02}
                 }
               },
               "REORD": { "_calls": 2, "_time":        0.049, "_%":     0.00},
               "PHION": { "_calls": 1, "_time":        0.120, "_%":     0.01},
               "COMM_BSC": { "_calls": 1, "_time":        0.099, "_%":     0.01},
               "POISON": { "_calls": 1, "_time":        4.758, "_%":     0.25,
                 "fft": { "_calls": 2, "_time":        4.559, "_%":     0.24}
               }
             }
           }
         }
       },
       "IterSCF": { "_calls": 5, "_time":     1867.038, "_%":    99.23,
         "setup_H": { "_calls": 5, "_time":       34.465, "_%":     1.83,
           "DHSCF": { "_calls": 5, "_time":       34.446, "_%":     1.83,
             "DHSCF3": { "_calls": 5, "_time":       34.446, "_%":     1.83,
               "rhoofd": { "_calls": 5, "_time":        0.241, "_%":     0.01},
               "COMM_BSC": { "_calls": 10, "_time":        0.998, "_%":     0.05},
               "POISON": { "_calls": 5, "_time":       23.959, "_%":     1.27,
                 "fft": { "_calls": 10, "_time":       22.975, "_%":     1.22}
               },
               "XC": { "_calls": 5, "_time":        7.264, "_%":     0.39,
                 "COMM_BSC": { "_calls": 10, "_time":        0.791, "_%":     0.04},
                 "GXC-CellXC": { "_calls": 5, "_time":        6.199, "_%":     0.33,
                   "gridxc@cellXC": { "_calls": 5, "_time":        6.199, "_%":     0.33}
                 }
               },
               "vmat": { "_calls": 5, "_time":        0.153, "_%":     0.01}
             }
           }
         },
         "compute_dm": { "_calls": 5, "_time":     1832.537, "_%":    97.39,
           "diagon": { "_calls": 5, "_time":     1832.464, "_%":    97.39,
             "r-eigvec": { "_calls": 5, "_time":     1315.322, "_%":    69.90,
               "r-buildHS": { "_calls": 5, "_time":        0.387, "_%":     0.02},
               "rdiag": { "_calls": 5, "_time":     1314.935, "_%":    69.88,
                 "rdiag1": { "_calls": 5, "_time":       39.774, "_%":     2.11},
                 "rdiag2": { "_calls": 5, "_time":      106.196, "_%":     5.64},
                 "rdiag3": { "_calls": 5, "_time":     1042.958, "_%":    55.43},
                 "rdiag4": { "_calls": 5, "_time":      123.763, "_%":     6.58}
               }
             },
             "r-buildD": { "_calls": 5, "_time":      516.134, "_%":    27.43}
           }
         },
         "MIXER": { "_calls": 5, "_time":        0.007, "_%":     0.00}
       },
       "state_analysis": { "_calls": 1, "_time":        0.158, "_%":     0.01},
       "siesta_move": { "_calls": 1, "_time":        0.000, "_%":     0.00}
     },
     "Analysis": { "_calls": 1, "_time":        0.509, "_%":     0.03,
       "optical": { "_calls": 1, "_time":        0.001, "_%":     0.00}
     }
   }
 }}
