JobID        JobIDRaw        JobName  Partition  MaxVMSize  MaxVMSizeNode  MaxVMSizeTask  AveVMSize     MaxRSS MaxRSSNode MaxRSSTask     AveRSS MaxPages MaxPagesNode   MaxPagesTask   AvePages     MinCPU MinCPUNode MinCPUTask     AveCPU   NTasks  AllocCPUS    Elapsed      State ExitCode AveCPUFreq ReqCPUFreqMin ReqCPUFreqMax ReqCPUFreqGov     ReqMem ConsumedEnergy  MaxDiskRead MaxDiskReadNode MaxDiskReadTask    AveDiskRead MaxDiskWrite MaxDiskWriteNode MaxDiskWriteTask   AveDiskWrite    ReqTRES  AllocTRES TRESUsageInAve TRESUsageInMax TRESUsageInMaxNode TRESUsageInMaxTask TRESUsageInMin TRESUsageInMinNode TRESUsageInMinTask TRESUsageInTot TRESUsageOutMax TRESUsageOutMaxNode TRESUsageOutMaxTask TRESUsageOutAve TRESUsageOutTot 
------------ ------------ ---------- ---------- ---------- -------------- -------------- ---------- ---------- ---------- ---------- ---------- -------- ------------ -------------- ---------- ---------- ---------- ---------- ---------- -------- ---------- ---------- ---------- -------- ---------- ------------- ------------- ------------- ---------- -------------- ------------ --------------- --------------- -------------- ------------ ---------------- ---------------- -------------- ---------- ---------- -------------- -------------- ------------------ ------------------ -------------- ------------------ ------------------ -------------- --------------- ------------------- ------------------- --------------- --------------- 
1590738      1590738      CovidStro+       qcpu                                                                                                                                                                                                             128   02:13:34    RUNNING      0:0                  Unknown       Unknown       Unknown       230G                                                                                                                                          billing=1+ billing=1+                                                                                                                                                                                                                                 
1590738.bat+ 1590738.bat+      batch                                                                                                                                                                                                               1        128   02:13:34    RUNNING      0:0          0             0             0             0                         0                                                                                                                                      cpu=128,m+                                                                                                                                                                                                                                 
1590738.ext+ 1590738.ext+     extern                                                                                                                                                                                                               1        128   02:13:34    RUNNING      0:0          0             0             0             0                         0                                                                                                                                      billing=1+                                                                                                                                                                                                                                 
1590738.0    1590738.0        siesta              1796732K          cn599             80 1717803360   1646776K      cn599          0 1599051840       70        cn599              0         18   02:12:07      cn599          0   02:12:34      128        128   02:13:29  COMPLETED      0:0     33.66M       Unknown       Unknown       Unknown                         0       14.97M           cn599               0         13.75M       20.05M            cn599                0          5.28M            cpu=128,m+ cpu=02:12:34,+ cpu=02:12:38,+ cpu=cn599,energy=+ cpu=125,fs/disk=0+ cpu=02:12:07,+ cpu=cn599,energy=+ cpu=0,fs/disk=6,m+ cpu=11-18:49:+ energy=0,fs/di+ energy=cn599,fs/di+           fs/disk=0 energy=0,fs/di+ energy=0,fs/di+ 
