JobId=1590738 JobName=CovidStrong
   UserId=it4i-fpedron(9897) GroupId=it4i-fpedron(11979) MCS_label=N/A
   Priority=202230917 Nice=0 Account=dd-24-70 QOS=2820_4663
   JobState=RUNNING Reason=None Dependency=(null)
   Requeue=1 Restarts=0 BatchFlag=1 Reboot=0 ExitCode=0:0
   DerivedExitCode=0:0
   RunTime=00:00:05 TimeLimit=03:59:00 TimeMin=N/A
   SubmitTime=2024-09-06T16:39:47 EligibleTime=2024-09-06T16:39:47
   AccrueTime=2024-09-06T16:39:47
   StartTime=2024-09-06T16:42:20 EndTime=2024-09-06T20:41:20 Deadline=N/A
   PreemptEligibleTime=2024-09-06T16:42:20 PreemptTime=None
   SuspendTime=None SecsPreSuspend=0 LastSchedEval=2024-09-06T16:42:20 Scheduler=Backfill
   Partition=qcpu AllocNode:Sid=login3.karolina.it4i.cz:2241179
   ReqNodeList=(null) ExcNodeList=(null)
   NodeList=cn599
   BatchHost=cn599
   NumNodes=1 NumCPUs=128 NumTasks=128 CPUs/Task=1 ReqB:S:C:T=0:0:*:*
   ReqTRES=cpu=128,mem=230G,node=1,billing=1
   AllocTRES=cpu=128,mem=230G,node=1,billing=1
   Socks/Node=* NtasksPerN:B:S:C=128:0:*:* CoreSpec=*
   JOB_GRES=(null)
     Nodes=cn599 CPU_IDs=0-127 Mem=235520 GRES=
   MinCPUsNode=128 MinMemoryNode=230G MinTmpDiskNode=0
   Features=(null) DelayBoot=00:00:00
   OverSubscribe=NO Contiguous=0 Licenses=(null) Network=(null)
   Command=/home/it4i-fpedron/JUBE4MaX/max-inputs/interface/siesta/_CovidStrong/000000/000000_submit/work/submit.job
   WorkDir=/home/it4i-fpedron/JUBE4MaX/max-inputs/interface/siesta/_CovidStrong/000000/000000_submit/work
   StdErr=/home/it4i-fpedron/JUBE4MaX/max-inputs/interface/siesta/_CovidStrong/000000/000000_submit/work/slurm-1590738.out
   StdIn=/dev/null
   StdOut=/home/it4i-fpedron/JUBE4MaX/max-inputs/interface/siesta/_CovidStrong/000000/000000_submit/work/slurm-1590738.out
   Power=
   TresPerTask=cpu:1
   

