{
 "global_section": { "_calls": 1, "_time":     7996.447, "_%":   100.00,
   "siesta": { "_calls": 1, "_time":     7996.447, "_%":   100.00,
     "Setup": { "_calls": 1, "_time":        2.626, "_%":     0.03,
       "bands": { "_calls": 1, "_time":        0.003, "_%":     0.00},
       "KSV_init": { "_calls": 1, "_time":        0.001, "_%":     0.00}
     },
     "IterGeom": { "_calls": 1, "_time":     7993.215, "_%":    99.96,
       "geom_init": { "_calls": 1, "_time":       15.084, "_%":     0.19,
         "state_init": { "_calls": 1, "_time":        3.008, "_%":     0.04,
           "hsparse": { "_calls": 1, "_time":        0.197, "_%":     0.00},
           "overlap": { "_calls": 1, "_time":        1.865, "_%":     0.02}
         },
         "Setup_H0": { "_calls": 1, "_time":       12.075, "_%":     0.15,
           "naefs": { "_calls": 1, "_time":        0.031, "_%":     0.00},
           "MolMec": { "_calls": 1, "_time":        0.000, "_%":     0.00},
           "kinefsm": { "_calls": 1, "_time":        1.844, "_%":     0.02},
           "nlefsm": { "_calls": 1, "_time":        4.579, "_%":     0.06},
           "DHSCF_Init": { "_calls": 1, "_time":        5.601, "_%":     0.07,
             "DHSCF1": { "_calls": 1, "_time":        0.060, "_%":     0.00,
               "INITMESH": { "_calls": 1, "_time":        0.000, "_%":     0.00}
             },
             "DHSCF2": { "_calls": 1, "_time":        5.514, "_%":     0.07,
               "REMESH": { "_calls": 1, "_time":        0.392, "_%":     0.00,
                 "INITMESH": { "_calls": 2, "_time":        0.357, "_%":     0.00,
                   "SPLOAD": { "_calls": 2, "_time":        0.343, "_%":     0.00}
                 }
               },
               "REORD": { "_calls": 2, "_time":        0.023, "_%":     0.00},
               "PHION": { "_calls": 1, "_time":        0.703, "_%":     0.01},
               "COMM_BSC": { "_calls": 1, "_time":        0.085, "_%":     0.00},
               "POISON": { "_calls": 1, "_time":        3.857, "_%":     0.05,
                 "fft": { "_calls": 2, "_time":        3.667, "_%":     0.05}
               }
             }
           }
         }
       },
       "IterSCF": { "_calls": 5, "_time":     7977.976, "_%":    99.77,
         "setup_H": { "_calls": 5, "_time":       33.460, "_%":     0.42,
           "DHSCF": { "_calls": 5, "_time":       33.404, "_%":     0.42,
             "DHSCF3": { "_calls": 5, "_time":       33.404, "_%":     0.42,
               "rhoofd": { "_calls": 5, "_time":        0.456, "_%":     0.01},
               "COMM_BSC": { "_calls": 10, "_time":        0.899, "_%":     0.01},
               "POISON": { "_calls": 5, "_time":       19.219, "_%":     0.24,
                 "fft": { "_calls": 10, "_time":       18.259, "_%":     0.23}
               },
               "XC": { "_calls": 5, "_time":       10.923, "_%":     0.14,
                 "COMM_BSC": { "_calls": 10, "_time":        1.190, "_%":     0.01},
                 "GXC-CellXC": { "_calls": 5, "_time":        9.483, "_%":     0.12,
                   "gridxc@cellXC": { "_calls": 5, "_time":        9.483, "_%":     0.12}
                 }
               },
               "vmat": { "_calls": 5, "_time":        0.376, "_%":     0.00}
             }
           }
         },
         "compute_dm": { "_calls": 5, "_time":     7944.496, "_%":    99.35,
           "elsi": { "_calls": 5, "_time":     7943.826, "_%":    99.34,
             "find nnz_g": { "_calls": 5, "_time":        0.000, "_%":     0.00},
             "elsi-solver": { "_calls": 5, "_time":     7943.791, "_%":    99.34}
           }
         },
         "MIXER": { "_calls": 5, "_time":        0.006, "_%":     0.00}
       },
       "state_analysis": { "_calls": 1, "_time":        0.102, "_%":     0.00},
       "siesta_move": { "_calls": 1, "_time":        0.000, "_%":     0.00}
     },
     "Analysis": { "_calls": 1, "_time":        0.550, "_%":     0.01,
       "optical": { "_calls": 1, "_time":        0.001, "_%":     0.00}
     }
   }
 }}
