JobID        JobIDRaw        JobName  Partition  MaxVMSize  MaxVMSizeNode  MaxVMSizeTask  AveVMSize     MaxRSS MaxRSSNode MaxRSSTask     AveRSS MaxPages MaxPagesNode   MaxPagesTask   AvePages     MinCPU MinCPUNode MinCPUTask     AveCPU   NTasks  AllocCPUS    Elapsed      State ExitCode AveCPUFreq ReqCPUFreqMin ReqCPUFreqMax ReqCPUFreqGov     ReqMem ConsumedEnergy  MaxDiskRead MaxDiskReadNode MaxDiskReadTask    AveDiskRead MaxDiskWrite MaxDiskWriteNode MaxDiskWriteTask   AveDiskWrite    ReqTRES  AllocTRES TRESUsageInAve TRESUsageInMax TRESUsageInMaxNode TRESUsageInMaxTask TRESUsageInMin TRESUsageInMinNode TRESUsageInMinTask TRESUsageInTot TRESUsageOutMax TRESUsageOutMaxNode TRESUsageOutMaxTask TRESUsageOutAve TRESUsageOutTot 
------------ ------------ ---------- ---------- ---------- -------------- -------------- ---------- ---------- ---------- ---------- ---------- -------- ------------ -------------- ---------- ---------- ---------- ---------- ---------- -------- ---------- ---------- ---------- -------- ---------- ------------- ------------- ------------- ---------- -------------- ------------ --------------- --------------- -------------- ------------ ---------------- ---------------- -------------- ---------- ---------- -------------- -------------- ------------------ ------------------ -------------- ------------------ ------------------ -------------- --------------- ------------------- ------------------- --------------- --------------- 
1425785      1425785      CovidWeak+        gpu                                                                                                                                                                                                            2048   00:16:06    RUNNING      0:0                  Unknown       Unknown       Unknown      7.50T                                                                                                                                          billing=5+ billing=2+                                                                                                                                                                                                                                 
1425785.bat+ 1425785.bat+      batch                                                                                                                                                                                                               1        128   00:16:06    RUNNING      0:0          0             0             0             0                         0                                                                                                                                      cpu=128,g+                                                                                                                                                                                                                                 
1425785.0    1425785.0    meluxina-+                                                                                                                                                                                                             512       2048   00:15:54    RUNNING      0:0          0       Unknown       Unknown       Unknown                         0                                                                                                                                      cpu=2048,+                                                                                                                                                                                                                                 
