JobID        JobIDRaw        JobName  Partition  MaxVMSize  MaxVMSizeNode  MaxVMSizeTask  AveVMSize     MaxRSS MaxRSSNode MaxRSSTask     AveRSS MaxPages MaxPagesNode   MaxPagesTask   AvePages     MinCPU MinCPUNode MinCPUTask     AveCPU   NTasks  AllocCPUS    Elapsed      State ExitCode AveCPUFreq ReqCPUFreqMin ReqCPUFreqMax ReqCPUFreqGov     ReqMem ConsumedEnergy  MaxDiskRead MaxDiskReadNode MaxDiskReadTask    AveDiskRead MaxDiskWrite MaxDiskWriteNode MaxDiskWriteTask   AveDiskWrite    ReqTRES  AllocTRES TRESUsageInAve TRESUsageInMax TRESUsageInMaxNode TRESUsageInMaxTask TRESUsageInMin TRESUsageInMinNode TRESUsageInMinTask TRESUsageInTot TRESUsageOutMax TRESUsageOutMaxNode TRESUsageOutMaxTask TRESUsageOutAve TRESUsageOutTot 
------------ ------------ ---------- ---------- ---------- -------------- -------------- ---------- ---------- ---------- ---------- ---------- -------- ------------ -------------- ---------- ---------- ---------- ---------- ---------- -------- ---------- ---------- ---------- -------- ---------- ------------- ------------- ------------- ---------- -------------- ------------ --------------- --------------- -------------- ------------ ---------------- ---------------- -------------- ---------- ---------- -------------- -------------- ------------------ ------------------ -------------- ------------------ ------------------ -------------- --------------- ------------------- ------------------- --------------- --------------- 
34961326     34961326     CovidStro+        cpu                                                                                                                                                                                                            4096   00:02:54    RUNNING      0:0                  Unknown       Unknown       Unknown      2000G                                                                                                                                          billing=2+ billing=4+                                                                                                                                                                                                                                 
34961326.ba+ 34961326.ba+      batch                                                                                                                                                                                                               1        256   00:02:54    RUNNING      0:0          0             0             0             0                         0                                                                                                                                      cpu=256,m+                                                                                                                                                                                                                                 
34961326.ex+ 34961326.ex+     extern                                                                                                                                                                                                              16       4096   00:02:54    RUNNING      0:0          0             0             0             0                         0                                                                                                                                      billing=4+                                                                                                                                                                                                                                 
34961326.0   34961326.0       siesta               328932K         cn0289              0  140749430    190388K     cn0289         11  138620346       83       cn0289              0         11   00:01:43     cn0301       1248   00:02:11     2048       4096   00:02:50  COMPLETED      0:0     33.65G       Unknown       Unknown       Unknown                         0       28.97M          cn0289               0         27.78M       20.99M           cn0289                0          4.16M            cpu=4096,+ cpu=00:02:11,+ cpu=00:02:15,+ cpu=cn0289,energy+ cpu=0,fs/disk=0,m+ cpu=00:01:43,+ cpu=cn0301,energy+ cpu=1248,fs/disk=+ cpu=3-02:56:2+ energy=0,fs/di+ energy=cn0293,fs/d+           fs/disk=0 energy=0,fs/di+ energy=0,fs/di+ 
