JobId=34961326 JobName=CovidStrong
   UserId=eufedericop(1977552410) GroupId=eufedericop(1977552410) MCS_label=N/A
   Priority=65909839 Nice=0 Account=b2024b06-053-users QOS=normal
   JobState=RUNNING Reason=None Dependency=(null)
   Requeue=1 Restarts=0 BatchFlag=1 Reboot=0 ExitCode=0:0
   DerivedExitCode=0:0
   RunTime=00:00:03 TimeLimit=10:00:00 TimeMin=N/A
   SubmitTime=2024-09-17T13:13:56 EligibleTime=2024-09-17T13:13:56
   AccrueTime=2024-09-17T13:13:56
   StartTime=2024-09-17T13:13:56 EndTime=2024-09-17T23:13:56 Deadline=N/A
   SuspendTime=None SecsPreSuspend=0 LastSchedEval=2024-09-17T13:13:56 Scheduler=Main
   Partition=cpu AllocNode:Sid=login0001-dmz:1944248
   ReqNodeList=(null) ExcNodeList=(null)
   NodeList=cn[0289-0290,0292-0294,0296,0298-0304,0307,0309-0310]
   BatchHost=cn0289
   NumNodes=16 NumCPUs=4096 NumTasks=2048 CPUs/Task=1 ReqB:S:C:T=0:0:*:1
   ReqTRES=cpu=2048,mem=2000G,node=16,billing=2048
   AllocTRES=cpu=4096,mem=2000G,node=16,billing=4096
   Socks/Node=* NtasksPerN:B:S:C=128:0:*:* CoreSpec=*
   JOB_GRES=(null)
     Nodes=cn[0289-0290,0292-0294,0296,0298-0304,0307,0309-0310] CPU_IDs=0-255 Mem=128000 GRES=
   MinCPUsNode=128 MinMemoryCPU=1000M MinTmpDiskNode=0
   Features=(null) DelayBoot=00:00:00
   OverSubscribe=NO Contiguous=0 Licenses=(null) Network=(null)
   Command=/ceph/hpc/home/eufedericop/JUBE4MaX/max-inputs/interface/siesta/_CovidStrong/000000/000013_submit/work/submit.job
   WorkDir=/ceph/hpc/home/eufedericop/JUBE4MaX/max-inputs/interface/siesta/_CovidStrong/000000/000013_submit/work
   StdErr=/ceph/hpc/home/eufedericop/JUBE4MaX/max-inputs/interface/siesta/_CovidStrong/000000/000013_submit/work/slurm-34961326.out
   StdIn=/dev/null
   StdOut=/ceph/hpc/home/eufedericop/JUBE4MaX/max-inputs/interface/siesta/_CovidStrong/000000/000013_submit/work/slurm-34961326.out
   Power=
   TresPerTask=cpu:1
   

