JobID        JobIDRaw        JobName  Partition  MaxVMSize  MaxVMSizeNode  MaxVMSizeTask  AveVMSize     MaxRSS MaxRSSNode MaxRSSTask     AveRSS MaxPages MaxPagesNode   MaxPagesTask   AvePages     MinCPU MinCPUNode MinCPUTask     AveCPU   NTasks  AllocCPUS    Elapsed      State ExitCode AveCPUFreq ReqCPUFreqMin ReqCPUFreqMax ReqCPUFreqGov     ReqMem ConsumedEnergy  MaxDiskRead MaxDiskReadNode MaxDiskReadTask    AveDiskRead MaxDiskWrite MaxDiskWriteNode MaxDiskWriteTask   AveDiskWrite    ReqTRES  AllocTRES TRESUsageInAve TRESUsageInMax TRESUsageInMaxNode TRESUsageInMaxTask TRESUsageInMin TRESUsageInMinNode TRESUsageInMinTask TRESUsageInTot TRESUsageOutMax TRESUsageOutMaxNode TRESUsageOutMaxTask TRESUsageOutAve TRESUsageOutTot 
------------ ------------ ---------- ---------- ---------- -------------- -------------- ---------- ---------- ---------- ---------- ---------- -------- ------------ -------------- ---------- ---------- ---------- ---------- ---------- -------- ---------- ---------- ---------- -------- ---------- ------------- ------------- ------------- ---------- -------------- ------------ --------------- --------------- -------------- ------------ ---------------- ---------------- -------------- ---------- ---------- -------------- -------------- ------------------ ------------------ -------------- ------------------ ------------------ -------------- --------------- ------------------- ------------------- --------------- --------------- 
35111130     35111130      CovidWeak        cpu                                                                                                                                                                                                             512   00:05:24    RUNNING      0:0                  Unknown       Unknown       Unknown       250G                                                                                                                                          billing=2+ billing=5+                                                                                                                                                                                                                                 
35111130.ba+ 35111130.ba+      batch                                                                                                                                                                                                               1        256   00:05:24    RUNNING      0:0          0             0             0             0                         0                                                                                                                                      cpu=256,m+                                                                                                                                                                                                                                 
35111130.ex+ 35111130.ex+     extern                                                                                                                                                                                                               2        512   00:05:24    RUNNING      0:0          0             0             0             0                         0                                                                                                                                      billing=5+                                                                                                                                                                                                                                 
35111130.0   35111130.0       siesta               661232K         cn0186              0  438277360    458612K     cn0186         42  430043424       84       cn0186              0         10   00:05:02     cn0189        129   00:05:06      256        512   00:05:19  COMPLETED      0:0    826.88M       Unknown       Unknown       Unknown                         0       28.11M          cn0186               0         26.95M       23.62M           cn0186                0          4.20M            cpu=512,m+ cpu=00:05:06,+ cpu=00:05:10,+ cpu=cn0186,energy+ cpu=49,fs/disk=0,+ cpu=00:05:02,+ cpu=cn0189,energy+ cpu=129,fs/disk=5+ cpu=21:46:45,+ energy=0,fs/di+ energy=cn0186,fs/d+           fs/disk=0 energy=0,fs/di+ energy=0,fs/di+ 
