JobID        JobIDRaw        JobName  Partition  MaxVMSize  MaxVMSizeNode  MaxVMSizeTask  AveVMSize     MaxRSS MaxRSSNode MaxRSSTask     AveRSS MaxPages MaxPagesNode   MaxPagesTask   AvePages     MinCPU MinCPUNode MinCPUTask     AveCPU   NTasks  AllocCPUS    Elapsed      State ExitCode AveCPUFreq ReqCPUFreqMin ReqCPUFreqMax ReqCPUFreqGov     ReqMem ConsumedEnergy  MaxDiskRead MaxDiskReadNode MaxDiskReadTask    AveDiskRead MaxDiskWrite MaxDiskWriteNode MaxDiskWriteTask   AveDiskWrite    ReqTRES  AllocTRES TRESUsageInAve TRESUsageInMax TRESUsageInMaxNode TRESUsageInMaxTask TRESUsageInMin TRESUsageInMinNode TRESUsageInMinTask TRESUsageInTot TRESUsageOutMax TRESUsageOutMaxNode TRESUsageOutMaxTask TRESUsageOutAve TRESUsageOutTot 
------------ ------------ ---------- ---------- ---------- -------------- -------------- ---------- ---------- ---------- ---------- ---------- -------- ------------ -------------- ---------- ---------- ---------- ---------- ---------- -------- ---------- ---------- ---------- -------- ---------- ------------- ------------- ------------- ---------- -------------- ------------ --------------- --------------- -------------- ------------ ---------------- ---------------- -------------- ---------- ---------- -------------- -------------- ------------------ ------------------ -------------- ------------------ ------------------ -------------- --------------- ------------------- ------------------- --------------- --------------- 
1589190      1589190      CovidWeak+       qcpu                                                                                                                                                                                                            2048   00:01:35    RUNNING      0:0                  Unknown       Unknown       Unknown      3680G                                                                                                                                          billing=1+ billing=1+                                                                                                                                                                                                                                 
1589190.bat+ 1589190.bat+      batch                                                                                                                                                                                                               1        128   00:01:35    RUNNING      0:0          0             0             0             0                         0                                                                                                                                      cpu=128,m+                                                                                                                                                                                                                                 
1589190.ext+ 1589190.ext+     extern                                                                                                                                                                                                              16       2048   00:01:35    RUNNING      0:0          0             0             0             0                         0                                                                                                                                      billing=1+                                                                                                                                                                                                                                 
1589190.0    1589190.0        siesta               260516K          cn222              0  172293918    217648K      cn222          0  164951088      126        cn623           1511         45   00:01:19      cn222          0   00:01:21     2048       2048   00:01:31  COMPLETED      0:0     39.40G       Unknown       Unknown       Unknown                         0       14.85M           cn222               0         13.72M       16.95M            cn222                0          4.14M            cpu=2048,+ cpu=00:01:21,+ cpu=00:01:22,+ cpu=cn576,energy=+ cpu=603,fs/disk=0+ cpu=00:01:19,+ cpu=cn222,energy=+ cpu=0,fs/disk=113+ cpu=1-22:19:3+ energy=0,fs/di+ energy=cn615,fs/di+           fs/disk=0 energy=0,fs/di+ energy=0,fs/di+ 
