JobID        JobIDRaw        JobName  Partition  MaxVMSize  MaxVMSizeNode  MaxVMSizeTask  AveVMSize     MaxRSS MaxRSSNode MaxRSSTask     AveRSS MaxPages MaxPagesNode   MaxPagesTask   AvePages     MinCPU MinCPUNode MinCPUTask     AveCPU   NTasks  AllocCPUS    Elapsed      State ExitCode AveCPUFreq ReqCPUFreqMin ReqCPUFreqMax ReqCPUFreqGov     ReqMem ConsumedEnergy  MaxDiskRead MaxDiskReadNode MaxDiskReadTask    AveDiskRead MaxDiskWrite MaxDiskWriteNode MaxDiskWriteTask   AveDiskWrite    ReqTRES  AllocTRES TRESUsageInAve TRESUsageInMax TRESUsageInMaxNode TRESUsageInMaxTask TRESUsageInMin TRESUsageInMinNode TRESUsageInMinTask TRESUsageInTot TRESUsageOutMax TRESUsageOutMaxNode TRESUsageOutMaxTask TRESUsageOutAve TRESUsageOutTot 
------------ ------------ ---------- ---------- ---------- -------------- -------------- ---------- ---------- ---------- ---------- ---------- -------- ------------ -------------- ---------- ---------- ---------- ---------- ---------- -------- ---------- ---------- ---------- -------- ---------- ------------- ------------- ------------- ---------- -------------- ------------ --------------- --------------- -------------- ------------ ---------------- ---------------- -------------- ---------- ---------- -------------- -------------- ------------------ ------------------ -------------- ------------------ ------------------ -------------- --------------- ------------------- ------------------- --------------- --------------- 
34595967     34595967     CovidWeak+        gpu                                                                                                                                                                                                            4096   07:05:17    RUNNING      0:0                  Unknown       Unknown       Unknown      2000G                                                                                                                                          billing=4+ billing=4+                                                                                                                                                                                                                                 
34595967.ba+ 34595967.ba+      batch                                                                                                                                                                                                               1        256   07:05:17    RUNNING      0:0          0             0             0             0                         0                                                                                                                                      cpu=256,g+                                                                                                                                                                                                                                 
34595967.ex+ 34595967.ex+     extern                                                                                                                                                                                                              16       4096   07:05:17    RUNNING      0:0          0             0             0             0                         0                                                                                                                                      billing=4+                                                                                                                                                                                                                                 
34595967.0   34595967.0        orted                                                                                                                                                                                                              15       4096   07:05:17    RUNNING      0:0          0             0             0             0                         0                                                                                                                                      billing=4+                                                                                                                                                                                                                                 
