JobID        JobIDRaw        JobName  Partition  MaxVMSize  MaxVMSizeNode  MaxVMSizeTask  AveVMSize     MaxRSS MaxRSSNode MaxRSSTask     AveRSS MaxPages MaxPagesNode   MaxPagesTask   AvePages     MinCPU MinCPUNode MinCPUTask     AveCPU   NTasks  AllocCPUS    Elapsed      State ExitCode AveCPUFreq ReqCPUFreqMin ReqCPUFreqMax ReqCPUFreqGov     ReqMem ConsumedEnergy  MaxDiskRead MaxDiskReadNode MaxDiskReadTask    AveDiskRead MaxDiskWrite MaxDiskWriteNode MaxDiskWriteTask   AveDiskWrite    ReqTRES  AllocTRES TRESUsageInAve TRESUsageInMax TRESUsageInMaxNode TRESUsageInMaxTask TRESUsageInMin TRESUsageInMinNode TRESUsageInMinTask TRESUsageInTot TRESUsageOutMax TRESUsageOutMaxNode TRESUsageOutMaxTask TRESUsageOutAve TRESUsageOutTot 
------------ ------------ ---------- ---------- ---------- -------------- -------------- ---------- ---------- ---------- ---------- ---------- -------- ------------ -------------- ---------- ---------- ---------- ---------- ---------- -------- ---------- ---------- ---------- -------- ---------- ------------- ------------- ------------- ---------- -------------- ------------ --------------- --------------- -------------- ------------ ---------------- ---------------- -------------- ---------- ---------- -------------- -------------- ------------------ ------------------ -------------- ------------------ ------------------ -------------- --------------- ------------------- ------------------- --------------- --------------- 
11907753     11907753     submit.job boost_usr+                                                                                                                                                                                                              32   00:00:39    RUNNING      0:0                  Unknown       Unknown       Unknown    492800M                                                                                                                                          billing=3+ billing=3+                                                                                                                                                                                                                                 
11907753.ba+ 11907753.ba+      batch                                                                                                                                                                                                               1         32   00:00:39    RUNNING      0:0          0             0             0             0                         0                                                                                                                                      cpu=32,gr+                                                                                                                                                                                                                                 
11907753.ex+ 11907753.ex+     extern                                                                                                                                                                                                               1         32   00:00:39    RUNNING      0:0          0             0             0             0                         0                                                                                                                                      billing=3+                                                                                                                                                                                                                                 
11907753.0   11907753.0         pw.x              8683368K       lrdn2091              0   8683368K   4674512K   lrdn2091          0   4674512K     8823     lrdn2091              0       8823   00:01:36   lrdn2091          0   00:01:36        1         32   00:00:35  CANCELLED     0:11     27.30M       Unknown       Unknown       Unknown                         0        3.77M        lrdn2091               0          3.77M        4.12M         lrdn2091                0          4.12M            cpu=32,gr+ cpu=00:01:36,+ cpu=00:01:36,+ cpu=lrdn2091,ener+ cpu=0,fs/disk=0,m+ cpu=00:01:36,+ cpu=lrdn2091,ener+ cpu=0,fs/disk=0,m+ cpu=00:01:36,+ energy=0,fs/di+ energy=lrdn2091,fs+           fs/disk=0 energy=0,fs/di+ energy=0,fs/di+ 
