Unloading profile/base
  ERROR: Module evaluation aborted
Loading quantum-espresso/7.3.1--openmpi--4.1.4--nvhpc--23.1-openblas
  Loading requirement: zlib/1.2.13--gcc--11.3.0
    openmpi/4.1.4--nvhpc--23.1-cuda-11.8
    fftw/3.3.10--openmpi--4.1.4--nvhpc--23.1 libxc/5.2.3--nvhpc--23.1
    openblas/0.3.21--nvhpc--23.1
Currently Loaded Modulefiles:
 1) profile/base(default)                                         
 2) profile/chem-phys                                             
 3) zlib/1.2.13--gcc--11.3.0 <aL>                                 
 4) openmpi/4.1.4--nvhpc--23.1-cuda-11.8 <aL>                     
 5) fftw/3.3.10--openmpi--4.1.4--nvhpc--23.1 <aL>                 
 6) libxc/5.2.3--nvhpc--23.1 <aL>                                 
 7) openblas/0.3.21--nvhpc--23.1 <aL>                             
 8) quantum-espresso/7.3.1--openmpi--4.1.4--nvhpc--23.1-openblas  

Key:
(symbolic-version)  <module-tag>  <aL>=auto-loaded  
Warning: ieee_divide_by_zero is signaling
Warning: ieee_inexact is signaling
FORTRAN STOP
[lrdn2091:3862119:0:3862119] Caught signal 11 (Segmentation fault: address not mapped to object at address 0x28d673c767c0)
==== backtrace (tid:3862119) ====
 0  /usr/lib/gcc/x86_64-redhat-linux/8/../../../../lib64/libucs.so.0(ucs_handle_error+0x2dc) [0x146b43dcfedc]
 1  /usr/lib/gcc/x86_64-redhat-linux/8/../../../../lib64/libucs.so.0(+0x2b0bc) [0x146b43dd00bc]
 2  /usr/lib/gcc/x86_64-redhat-linux/8/../../../../lib64/libucs.so.0(+0x2b28a) [0x146b43dd028a]
 3  [0x53c11bb8]
=================================
[lrdn2091:3862119] *** Process received signal ***
[lrdn2091:3862119] Signal: Segmentation fault (11)
[lrdn2091:3862119] Signal code:  (-6)
[lrdn2091:3862119] Failing at address: 0x838e003aee67
[lrdn2091:3862119] [ 0] /usr/lib/gcc/x86_64-redhat-linux/8/../../../../lib64/libpthread.so.0(+0x12cf0)[0x146c58017cf0]
[lrdn2091:3862119] [ 1] [0x53c11bb8]
[lrdn2091:3862119] *** End of error message ***
srun: error: lrdn2091: task 0: Segmentation fault
