{
 "global_section": { "_calls": 1, "_time":       78.270, "_%":   100.00,
   "siesta": { "_calls": 1, "_time":       78.270, "_%":   100.00,
     "Setup": { "_calls": 1, "_time":        2.089, "_%":     2.67,
       "bands": { "_calls": 1, "_time":        0.003, "_%":     0.00},
       "KSV_init": { "_calls": 1, "_time":        0.001, "_%":     0.00}
     },
     "IterGeom": { "_calls": 1, "_time":       76.043, "_%":    97.16,
       "geom_init": { "_calls": 1, "_time":        8.604, "_%":    10.99,
         "state_init": { "_calls": 1, "_time":        0.362, "_%":     0.46,
           "hsparse": { "_calls": 1, "_time":        0.104, "_%":     0.13},
           "overlap": { "_calls": 1, "_time":        0.037, "_%":     0.05}
         },
         "Setup_H0": { "_calls": 1, "_time":        8.242, "_%":    10.53,
           "naefs": { "_calls": 1, "_time":        0.015, "_%":     0.02},
           "MolMec": { "_calls": 1, "_time":        0.000, "_%":     0.00},
           "kinefsm": { "_calls": 1, "_time":        0.035, "_%":     0.05},
           "nlefsm": { "_calls": 1, "_time":        0.128, "_%":     0.16},
           "DHSCF_Init": { "_calls": 1, "_time":        8.054, "_%":    10.29,
             "DHSCF1": { "_calls": 1, "_time":        0.040, "_%":     0.05,
               "INITMESH": { "_calls": 1, "_time":        0.000, "_%":     0.00}
             },
             "DHSCF2": { "_calls": 1, "_time":        7.995, "_%":    10.21,
               "REMESH": { "_calls": 1, "_time":        0.106, "_%":     0.13,
                 "INITMESH": { "_calls": 2, "_time":        0.084, "_%":     0.11,
                   "SPLOAD": { "_calls": 2, "_time":        0.077, "_%":     0.10}
                 }
               },
               "REORD": { "_calls": 2, "_time":        0.035, "_%":     0.05},
               "PHION": { "_calls": 1, "_time":        0.295, "_%":     0.38},
               "COMM_BSC": { "_calls": 1, "_time":        0.187, "_%":     0.24},
               "POISON": { "_calls": 1, "_time":        6.843, "_%":     8.74,
                 "fft": { "_calls": 2, "_time":        6.557, "_%":     8.38}
               }
             }
           }
         }
       },
       "IterSCF": { "_calls": 5, "_time":       67.370, "_%":    86.07,
         "setup_H": { "_calls": 5, "_time":       55.736, "_%":    71.21,
           "DHSCF": { "_calls": 5, "_time":       55.724, "_%":    71.19,
             "DHSCF3": { "_calls": 5, "_time":       55.724, "_%":    71.19,
               "rhoofd": { "_calls": 5, "_time":        0.305, "_%":     0.39},
               "COMM_BSC": { "_calls": 10, "_time":        2.006, "_%":     2.56},
               "POISON": { "_calls": 5, "_time":       34.386, "_%":    43.93,
                 "fft": { "_calls": 10, "_time":       32.859, "_%":    41.98}
               },
               "XC": { "_calls": 5, "_time":       15.871, "_%":    20.28,
                 "COMM_BSC": { "_calls": 10, "_time":        1.822, "_%":     2.33},
                 "GXC-CellXC": { "_calls": 5, "_time":       13.738, "_%":    17.55,
                   "gridxc@cellXC": { "_calls": 5, "_time":       13.738, "_%":    17.55}
                 }
               },
               "vmat": { "_calls": 5, "_time":        0.216, "_%":     0.28}
             }
           }
         },
         "compute_dm": { "_calls": 5, "_time":       11.611, "_%":    14.83,
           "redist_orbs_fwd": { "_calls": 5, "_time":        0.011, "_%":     0.01},
           "elsi-complex-solver": { "_calls": 5, "_time":       11.579, "_%":    14.79,
             "elsi-solver": { "_calls": 5, "_time":        9.741, "_%":    12.45}
           },
           "redist_dm-edm_bck": { "_calls": 5, "_time":        0.005, "_%":     0.01}
         },
         "MIXER": { "_calls": 5, "_time":        0.005, "_%":     0.01}
       },
       "state_analysis": { "_calls": 1, "_time":        0.055, "_%":     0.07},
       "siesta_move": { "_calls": 1, "_time":        0.000, "_%":     0.00}
     },
     "Analysis": { "_calls": 1, "_time":        0.132, "_%":     0.17,
       "optical": { "_calls": 1, "_time":        0.001, "_%":     0.00}
     }
   }
 }}
