
     Program PWSCF v.7.2 starts on 13Nov2023 at 17:24:15 

     This program is part of the open-source Quantum ESPRESSO suite
     for quantum simulation of materials; please cite
         "P. Giannozzi et al., J. Phys.:Condens. Matter 21 395502 (2009);
         "P. Giannozzi et al., J. Phys.:Condens. Matter 29 465901 (2017);
         "P. Giannozzi et al., J. Chem. Phys. 152 154105 (2020);
          URL http://www.quantum-espresso.org", 
     in publications or presentations arising from this work. More details at
     http://www.quantum-espresso.org/quote

     Parallel version (MPI & OpenMP), running on       2 processor cores
     Number of MPI processes:                 2
     Threads/MPI process:                     1

     MPI processes distributed on     1 nodes
     490200 MiB available memory on the printing compute node when the environment starts
 
     Reading input from ausurf.in

     Current dimensions of program PWSCF are:
     Max number of different atomic species (ntypx) = 10
     Max number of k-points (npk) =  40000
     Max angular momentum in pseudopotentials (lmaxx) =  4
 
     R & G space division:  proc/nbgrp/npool/nimage =       2
     Subspace diagonalization in iterative solution of the eigenvalue problem:
     a serial algorithm will be used

 
     Parallelization info
     --------------------
     sticks:   dense  smooth     PW     G-vecs:    dense   smooth      PW
     Min        5918    2957    768              1079188   381653   50372
     Max        5919    2958    769              1079193   381654   50375
     Sum       11837    5915   1537              2158381   763307  100747
 
     Using Slab Decomposition
 

     Title: 
      DEISA pw benchmark                                                        


     bravais-lattice index     =            8
     lattice parameter (alat)  =      38.7583  a.u.
     unit-cell volume          =   45191.4962 (a.u.)^3
     number of atoms/cell      =          112
     number of atomic types    =            1
     number of electrons       =      1232.00
     number of Kohn-Sham states=          800
     kinetic-energy cutoff     =      25.0000  Ry
     charge density cutoff     =     200.0000  Ry
     scf convergence threshold =      1.0E-06
     mixing beta               =       0.7000
     number of iterations used =            8  plain     mixing
     Exchange-correlation=  SLA  PW   PBE  PBE
                           (   1   4   3   4   0   0   0)

     celldm(1)=  38.758300  celldm(2)=   0.494393  celldm(3)=   1.569966
     celldm(4)=   0.000000  celldm(5)=   0.000000  celldm(6)=   0.000000

     crystal axes: (cart. coord. in units of alat)
               a(1) = (   1.000000   0.000000   0.000000 )  
               a(2) = (   0.000000   0.494393   0.000000 )  
               a(3) = (   0.000000   0.000000   1.569966 )  

     reciprocal axes: (cart. coord. in units 2 pi/alat)
               b(1) = (  1.000000  0.000000  0.000000 )  
               b(2) = (  0.000000  2.022682  0.000000 )  
               b(3) = (  0.000000  0.000000  0.636956 )  


     PseudoPot. # 1 for Au read from file:
     ./Au.pbe-nd-van.UPF
     MD5 check sum: deb5c07af10777505a79e28f5b4b4115
     Pseudo is Ultrasoft + core correction, Zval = 11.0
     Generated by new atomic code, or converted to UPF format
     Using radial grid of  985 points,  3 beta functions with: 
                l(1) =   1
                l(2) =   2
                l(3) =   2
     Q(r) pseudized with  8 coefficients,  rinner =    1.100   1.100   1.100
                                                       1.100   1.100

     atomic species   valence    mass     pseudopotential
     AU               11.00   196.96000     Au( 1.00)

     No symmetry found



   Cartesian axes

     site n.     atom                  positions (alat units)
         1        AU     tau(   1) = (   1.4278394   1.9784974   0.3497317  )
         2        AU     tau(   2) = (   1.4278394   1.7313986   0.3497317  )
         3        AU     tau(   3) = (   1.5706478   1.9784974   0.3497317  )
         4        AU     tau(   4) = (   1.5706478   1.7313986   0.3497317  )
         5        AU     tau(   5) = (   1.7134072   1.9784974   0.3497317  )
         6        AU     tau(   6) = (   1.7134072   1.7313986   0.3497317  )
         7        AU     tau(   7) = (   1.8562156   1.9784974   0.3497317  )
         8        AU     tau(   8) = (   1.8562156   1.7313986   0.3497317  )
         9        AU     tau(   9) = (   1.9989753   1.9784974   0.3497317  )
        10        AU     tau(  10) = (   1.9989753   1.7313986   0.3497317  )
        11        AU     tau(  11) = (   2.1417836   1.9784974   0.3497317  )
        12        AU     tau(  12) = (   2.1417836   1.7313986   0.3497317  )
        13        AU     tau(  13) = (   2.2845431   1.9784974   0.3497317  )
        14        AU     tau(  14) = (   2.2845431   1.7313986   0.3497317  )
        15        AU     tau(  15) = (   1.4278394   2.0609450   0.2331545  )
        16        AU     tau(  16) = (   1.4278394   1.8138461   0.2331545  )
        17        AU     tau(  17) = (   1.5706478   2.0609450   0.2331545  )
        18        AU     tau(  18) = (   1.5706478   1.8138461   0.2331545  )
        19        AU     tau(  19) = (   1.7134072   2.0609450   0.2331545  )
        20        AU     tau(  20) = (   1.7134072   1.8138461   0.2331545  )
        21        AU     tau(  21) = (   1.8562156   2.0609450   0.2331545  )
        22        AU     tau(  22) = (   1.8562156   1.8138461   0.2331545  )
        23        AU     tau(  23) = (   1.9989753   2.0609450   0.2331545  )
        24        AU     tau(  24) = (   1.9989753   1.8138461   0.2331545  )
        25        AU     tau(  25) = (   2.1417836   2.0609450   0.2331545  )
        26        AU     tau(  26) = (   2.1417836   1.8138461   0.2331545  )
        27        AU     tau(  27) = (   2.2845431   2.0609450   0.2331545  )
        28        AU     tau(  28) = (   2.2845431   1.8138461   0.2331545  )
        29        AU     tau(  29) = (   1.4992193   2.1021445   0.3497317  )
        30        AU     tau(  30) = (   1.4992193   1.8550455   0.3497317  )
        31        AU     tau(  31) = (   1.6420276   2.1021445   0.3497317  )
        32        AU     tau(  32) = (   1.6420276   1.8550455   0.3497317  )
        33        AU     tau(  33) = (   1.7847871   2.1021445   0.3497317  )
        34        AU     tau(  34) = (   1.7847871   1.8550455   0.3497317  )
        35        AU     tau(  35) = (   1.9275954   2.1021445   0.3497317  )
        36        AU     tau(  36) = (   1.9275954   1.8550455   0.3497317  )
        37        AU     tau(  37) = (   2.0704038   2.1021445   0.3497317  )
        38        AU     tau(  38) = (   2.0704038   1.8550455   0.3497317  )
        39        AU     tau(  39) = (   2.2131632   2.1021445   0.3497317  )
        40        AU     tau(  40) = (   2.2131632   1.8550455   0.3497317  )
        41        AU     tau(  41) = (   2.3559716   2.1021445   0.3497317  )
        42        AU     tau(  42) = (   2.3559716   1.8550455   0.3497317  )
        43        AU     tau(  43) = (   1.4992193   1.6901992   0.2331545  )
        44        AU     tau(  44) = (   1.4992193   1.9374930   0.2331545  )
        45        AU     tau(  45) = (   1.6420276   1.6901992   0.2331545  )
        46        AU     tau(  46) = (   1.6420276   1.9374930   0.2331545  )
        47        AU     tau(  47) = (   1.7847871   1.6901992   0.2331545  )
        48        AU     tau(  48) = (   1.7847871   1.9374930   0.2331545  )
        49        AU     tau(  49) = (   1.9275954   1.6901992   0.2331545  )
        50        AU     tau(  50) = (   1.9275954   1.9374930   0.2331545  )
        51        AU     tau(  51) = (   2.0704038   1.6901992   0.2331545  )
        52        AU     tau(  52) = (   2.0704038   1.9374930   0.2331545  )
        53        AU     tau(  53) = (   2.2131632   1.6901992   0.2331545  )
        54        AU     tau(  54) = (   2.2131632   1.9374930   0.2331545  )
        55        AU     tau(  55) = (   2.3559716   1.6901992   0.2331545  )
        56        AU     tau(  56) = (   2.3559716   1.9374930   0.2331545  )
        57        AU     tau(  57) = (   1.4278394   1.9784974   0.0000000  )
        58        AU     tau(  58) = (   1.4278394   1.7313986   0.0000000  )
        59        AU     tau(  59) = (   1.5706478   1.9784974   0.0000000  )
        60        AU     tau(  60) = (   1.5706478   1.7313986   0.0000000  )
        61        AU     tau(  61) = (   1.7134072   1.9784974   0.0000000  )
        62        AU     tau(  62) = (   1.7134072   1.7313986   0.0000000  )
        63        AU     tau(  63) = (   1.8562156   1.9784974   0.0000000  )
        64        AU     tau(  64) = (   1.8562156   1.7313986   0.0000000  )
        65        AU     tau(  65) = (   1.9989753   1.9784974   0.0000000  )
        66        AU     tau(  66) = (   1.9989753   1.7313986   0.0000000  )
        67        AU     tau(  67) = (   2.1417836   1.9784974   0.0000000  )
        68        AU     tau(  68) = (   2.1417836   1.7313986   0.0000000  )
        69        AU     tau(  69) = (   2.2845431   1.9784974   0.0000000  )
        70        AU     tau(  70) = (   2.2845431   1.7313986   0.0000000  )
        71        AU     tau(  71) = (   1.4992193   2.0196968   0.1165772  )
        72        AU     tau(  72) = (   1.4992193   1.7725979   0.1165772  )
        73        AU     tau(  73) = (   1.6420276   2.0196968   0.1165772  )
        74        AU     tau(  74) = (   1.6420276   1.7725979   0.1165772  )
        75        AU     tau(  75) = (   1.7847871   2.0196968   0.1165772  )
        76        AU     tau(  76) = (   1.7847871   1.7725979   0.1165772  )
        77        AU     tau(  77) = (   1.9275954   2.0196968   0.1165772  )
        78        AU     tau(  78) = (   1.9275954   1.7725979   0.1165772  )
        79        AU     tau(  79) = (   2.0704038   2.0196968   0.1165772  )
        80        AU     tau(  80) = (   2.0704038   1.7725979   0.1165772  )
        81        AU     tau(  81) = (   2.2131632   2.0196968   0.1165772  )
        82        AU     tau(  82) = (   2.2131632   1.7725979   0.1165772  )
        83        AU     tau(  83) = (   2.3559716   2.0196968   0.1165772  )
        84        AU     tau(  84) = (   2.3559716   1.7725979   0.1165772  )
        85        AU     tau(  85) = (   1.4278394   2.1433437   0.1165772  )
        86        AU     tau(  86) = (   1.4278394   1.8962937   0.1165772  )
        87        AU     tau(  87) = (   1.5706478   2.1433437   0.1165772  )
        88        AU     tau(  88) = (   1.5706478   1.8962937   0.1165772  )
        89        AU     tau(  89) = (   1.7134072   2.1433437   0.1165772  )
        90        AU     tau(  90) = (   1.7134072   1.8962937   0.1165772  )
        91        AU     tau(  91) = (   1.8562156   2.1433437   0.1165772  )
        92        AU     tau(  92) = (   1.8562156   1.8962937   0.1165772  )
        93        AU     tau(  93) = (   1.9989753   2.1433437   0.1165772  )
        94        AU     tau(  94) = (   1.9989753   1.8962937   0.1165772  )
        95        AU     tau(  95) = (   2.1417836   2.1433437   0.1165772  )
        96        AU     tau(  96) = (   2.1417836   1.8962937   0.1165772  )
        97        AU     tau(  97) = (   2.2845431   2.1433437   0.1165772  )
        98        AU     tau(  98) = (   2.2845431   1.8962937   0.1165772  )
        99        AU     tau(  99) = (   1.4992193   2.1021445   0.0000000  )
       100        AU     tau( 100) = (   1.4992193   1.8550455   0.0000000  )
       101        AU     tau( 101) = (   1.6420276   2.1021445   0.0000000  )
       102        AU     tau( 102) = (   1.6420276   1.8550455   0.0000000  )
       103        AU     tau( 103) = (   1.7847871   2.1021445   0.0000000  )
       104        AU     tau( 104) = (   1.7847871   1.8550455   0.0000000  )
       105        AU     tau( 105) = (   1.9275954   2.1021445   0.0000000  )
       106        AU     tau( 106) = (   1.9275954   1.8550455   0.0000000  )
       107        AU     tau( 107) = (   2.0704038   2.1021445   0.0000000  )
       108        AU     tau( 108) = (   2.0704038   1.8550455   0.0000000  )
       109        AU     tau( 109) = (   2.2131632   2.1021445   0.0000000  )
       110        AU     tau( 110) = (   2.2131632   1.8550455   0.0000000  )
       111        AU     tau( 111) = (   2.3559716   2.1021445   0.0000000  )
       112        AU     tau( 112) = (   2.3559716   1.8550455   0.0000000  )

     number of k points=     2  Marzari-Vanderbilt smearing, width (Ry)=  0.0500
                       cart. coord. in units 2pi/alat
        k(    1) = (   0.2500000   0.5056706   0.0000000), wk =   1.0000000
        k(    2) = (  -0.2500000   0.5056706   0.0000000), wk =   1.0000000

     Dense  grid:  2158381 G-vectors     FFT dimensions: ( 180,  90, 288)

     Smooth grid:   763307 G-vectors     FFT dimensions: ( 125,  64, 200)

     Estimated max dynamical RAM per process >       6.87 GB

     Estimated total dynamical RAM >      13.75 GB

     Initial potential from superposition of free atoms

     starting charge    1230.6995, renormalised to    1232.0000

     negative rho (up, down):  3.043E+00 0.000E+00
     Starting wfcs are 1008 randomized atomic wfcs

     total cpu time spent up to now is       46.2 secs

     Self-consistent Calculation

     iteration #  1     ecut=    25.00 Ry     beta= 0.70
     Davidson diagonalization with overlap
     ethr =  1.00E-02,  avg # of iterations =  5.0

     Threshold (ethr) on eigenvalues was too large:
     Diagonalizing with lowered threshold

     Davidson diagonalization with overlap
     c_bands:  3 eigenvalues not converged
     ethr =  4.37E-04,  avg # of iterations = 18.0

     negative rho (up, down):  2.992E+00 0.000E+00

     total cpu time spent up to now is      221.1 secs

     total energy              =  -11423.48932002 Ry
     estimated scf accuracy    <       6.31702185 Ry

     iteration #  2     ecut=    25.00 Ry     beta= 0.70
     Davidson diagonalization with overlap
     ethr =  5.13E-04,  avg # of iterations = 14.5

     negative rho (up, down):  2.993E+00 0.000E+00

     total cpu time spent up to now is      351.8 secs

     total energy              =  -11408.38108894 Ry
     estimated scf accuracy    <     196.15969177 Ry

     iteration #  3     ecut=    25.00 Ry     beta= 0.70
     Davidson diagonalization with overlap
     ethr =  5.13E-04,  avg # of iterations = 11.0

     negative rho (up, down):  3.038E+00 0.000E+00

     total cpu time spent up to now is      463.7 secs

     total energy              =  -11426.41130415 Ry
     estimated scf accuracy    <       5.03526602 Ry

     iteration #  4     ecut=    25.00 Ry     beta= 0.70
     Davidson diagonalization with overlap
     ethr =  4.09E-04,  avg # of iterations =  2.5

     negative rho (up, down):  3.045E+00 0.000E+00

     total cpu time spent up to now is      515.1 secs

     total energy              =  -11426.62541269 Ry
     estimated scf accuracy    <       4.22829805 Ry

     iteration #  5     ecut=    25.00 Ry     beta= 0.70
     Davidson diagonalization with overlap
     ethr =  3.43E-04,  avg # of iterations =  2.5

     negative rho (up, down):  3.061E+00 0.000E+00

     total cpu time spent up to now is      565.9 secs

     total energy              =  -11426.86706791 Ry
     estimated scf accuracy    <       4.89461553 Ry

     iteration #  6     ecut=    25.00 Ry     beta= 0.70
     Davidson diagonalization with overlap
     ethr =  3.43E-04,  avg # of iterations =  1.0

     negative rho (up, down):  3.070E+00 0.000E+00

     total cpu time spent up to now is      609.2 secs

     total energy              =  -11427.08078099 Ry
     estimated scf accuracy    <       0.09056462 Ry

     iteration #  7     ecut=    25.00 Ry     beta= 0.70
     Davidson diagonalization with overlap
     c_bands:  2 eigenvalues not converged
     c_bands:  1 eigenvalues not converged
     ethr =  7.35E-06,  avg # of iterations = 20.0

     negative rho (up, down):  3.079E+00 0.000E+00

     total cpu time spent up to now is      779.3 secs

     total energy              =  -11427.07396432 Ry
     estimated scf accuracy    <       0.20143170 Ry

     iteration #  8     ecut=    25.00 Ry     beta= 0.70
     Davidson diagonalization with overlap
     ethr =  7.35E-06,  avg # of iterations = 13.0

     negative rho (up, down):  3.081E+00 0.000E+00

     total cpu time spent up to now is      867.5 secs

     total energy              =  -11427.09264604 Ry
     estimated scf accuracy    <       0.00794252 Ry

     iteration #  9     ecut=    25.00 Ry     beta= 0.70
     Davidson diagonalization with overlap
     ethr =  6.45E-07,  avg # of iterations =  7.5

     negative rho (up, down):  3.082E+00 0.000E+00

     total cpu time spent up to now is      939.2 secs

     total energy              =  -11427.09177838 Ry
     estimated scf accuracy    <       0.04581247 Ry

     iteration # 10     ecut=    25.00 Ry     beta= 0.70
     Davidson diagonalization with overlap
     ethr =  6.45E-07,  avg # of iterations =  3.0

     negative rho (up, down):  3.083E+00 0.000E+00

     total cpu time spent up to now is      992.2 secs

     total energy              =  -11427.09338410 Ry
     estimated scf accuracy    <       0.00777169 Ry

     iteration # 11     ecut=    25.00 Ry     beta= 0.70
     Davidson diagonalization with overlap
     ethr =  6.31E-07,  avg # of iterations =  1.0

     negative rho (up, down):  3.083E+00 0.000E+00

     total cpu time spent up to now is     1036.4 secs

     total energy              =  -11427.09387608 Ry
     estimated scf accuracy    <       0.00056358 Ry

     iteration # 12     ecut=    25.00 Ry     beta= 0.70
     Davidson diagonalization with overlap
     ethr =  4.57E-08,  avg # of iterations =  2.0

     negative rho (up, down):  3.084E+00 0.000E+00

     total cpu time spent up to now is     1088.5 secs

     total energy              =  -11427.09384934 Ry
     estimated scf accuracy    <       0.00203149 Ry

     iteration # 13     ecut=    25.00 Ry     beta= 0.70
     Davidson diagonalization with overlap
     ethr =  4.57E-08,  avg # of iterations =  2.0

     negative rho (up, down):  3.084E+00 0.000E+00

     total cpu time spent up to now is     1138.8 secs

     total energy              =  -11427.09389562 Ry
     estimated scf accuracy    <       0.00157618 Ry

     iteration # 14     ecut=    25.00 Ry     beta= 0.70
     Davidson diagonalization with overlap
     ethr =  4.57E-08,  avg # of iterations =  1.0

     negative rho (up, down):  3.084E+00 0.000E+00

     total cpu time spent up to now is     1182.1 secs

     total energy              =  -11427.09395284 Ry
     estimated scf accuracy    <       0.00089143 Ry

     iteration # 15     ecut=    25.00 Ry     beta= 0.70
     Davidson diagonalization with overlap
     ethr =  4.57E-08,  avg # of iterations =  1.0

     negative rho (up, down):  3.084E+00 0.000E+00

     total cpu time spent up to now is     1225.7 secs

     total energy              =  -11427.09399315 Ry
     estimated scf accuracy    <       0.00039252 Ry

     iteration # 16     ecut=    25.00 Ry     beta= 0.70
     Davidson diagonalization with overlap
     ethr =  3.19E-08,  avg # of iterations =  1.0

     negative rho (up, down):  3.084E+00 0.000E+00

     total cpu time spent up to now is     1269.0 secs

     total energy              =  -11427.09401494 Ry
     estimated scf accuracy    <       0.00010273 Ry

     iteration # 17     ecut=    25.00 Ry     beta= 0.70
     Davidson diagonalization with overlap
     ethr =  8.34E-09,  avg # of iterations =  1.0

     negative rho (up, down):  3.085E+00 0.000E+00

     total cpu time spent up to now is     1312.5 secs

     total energy              =  -11427.09401996 Ry
     estimated scf accuracy    <       0.00001026 Ry

     iteration # 18     ecut=    25.00 Ry     beta= 0.70
     Davidson diagonalization with overlap
     ethr =  8.33E-10,  avg # of iterations =  2.0

     negative rho (up, down):  3.085E+00 0.000E+00

     total cpu time spent up to now is     1362.8 secs

     total energy              =  -11427.09402116 Ry
     estimated scf accuracy    <       0.00000628 Ry

     iteration # 19     ecut=    25.00 Ry     beta= 0.70
     Davidson diagonalization with overlap
     ethr =  5.10E-10,  avg # of iterations =  2.0

     negative rho (up, down):  3.085E+00 0.000E+00

     total cpu time spent up to now is     1412.7 secs

     total energy              =  -11427.09402125 Ry
     estimated scf accuracy    <       0.00001109 Ry

     iteration # 20     ecut=    25.00 Ry     beta= 0.70
     Davidson diagonalization with overlap
     ethr =  5.10E-10,  avg # of iterations =  1.0

     negative rho (up, down):  3.085E+00 0.000E+00

     total cpu time spent up to now is     1456.0 secs

     total energy              =  -11427.09402175 Ry
     estimated scf accuracy    <       0.00000419 Ry

     iteration # 21     ecut=    25.00 Ry     beta= 0.70
     Davidson diagonalization with overlap
     ethr =  3.40E-10,  avg # of iterations =  1.0

     negative rho (up, down):  3.085E+00 0.000E+00

     total cpu time spent up to now is     1499.2 secs

     End of self-consistent calculation

          k = 0.2500 0.5057 0.0000 ( 95386 PWs)   bands (ev):

    -8.0051  -7.7857  -7.3697  -7.1567  -6.9591  -6.8867  -6.8078  -6.6749
    -6.6111  -6.2902  -6.2197  -6.1893  -6.1052  -6.0377  -5.9305  -5.9281
    -5.8889  -5.8394  -5.8312  -5.8251  -5.7942  -5.7363  -5.7243  -5.6816
    -5.6677  -5.6498  -5.6456  -5.6404  -5.5501  -5.5387  -5.5312  -5.5230
    -5.5167  -5.5075  -5.4894  -5.4816  -5.4632  -5.4597  -5.4285  -5.3755
    -5.3693  -5.3540  -5.3517  -5.3174  -5.3102  -5.2941  -5.2914  -5.2340
    -5.2330  -5.2329  -5.2285  -5.2186  -5.2000  -5.1789  -5.1557  -5.1449
    -5.1301  -5.1247  -5.1159  -5.1144  -5.1108  -5.1095  -5.0883  -5.0677
    -5.0650  -5.0572  -5.0561  -5.0490  -5.0409  -5.0378  -5.0307  -4.9880
    -4.9823  -4.9671  -4.9640  -4.9482  -4.9344  -4.9326  -4.9290  -4.9271
    -4.9179  -4.9162  -4.9071  -4.9041  -4.8861  -4.8855  -4.8820  -4.8721
    -4.8720  -4.8623  -4.8598  -4.8490  -4.8282  -4.8272  -4.8250  -4.8223
    -4.7421  -4.7394  -4.7379  -4.7369  -4.7331  -4.7257  -4.7213  -4.7211
    -4.7203  -4.7123  -4.6997  -4.6850  -4.6744  -4.6168  -4.6003  -4.5973
    -4.5935  -4.5853  -4.5627  -4.5612  -4.5576  -4.5270  -4.4707  -4.4697
    -4.4511  -4.4139  -4.3981  -4.3953  -4.3937  -4.3933  -4.3918  -4.3855
    -4.3555  -4.3458  -4.3452  -4.3373  -4.3257  -4.3232  -4.3204  -4.3037
    -4.3023  -4.2741  -4.2646  -4.2576  -4.2478  -4.2454  -4.2295  -4.2107
    -4.1939  -4.1680  -4.1563  -4.1552  -4.1548  -4.1532  -4.1484  -4.1397
    -4.1375  -4.1047  -4.0974  -4.0836  -4.0776  -4.0764  -4.0700  -4.0546
    -4.0508  -4.0355  -4.0308  -4.0242  -4.0215  -4.0174  -4.0086  -3.9941
    -3.9869  -3.9709  -3.9588  -3.9278  -3.9141  -3.8987  -3.8933  -3.8898
    -3.8712  -3.8709  -3.8613  -3.8376  -3.8368  -3.8331  -3.8167  -3.8086
    -3.7861  -3.7803  -3.7393  -3.7359  -3.7267  -3.7242  -3.7151  -3.7103
    -3.7011  -3.6854  -3.6809  -3.6714  -3.6592  -3.6406  -3.6194  -3.6193
    -3.6174  -3.6164  -3.6056  -3.6020  -3.5992  -3.5954  -3.5918  -3.5798
    -3.5699  -3.5672  -3.5646  -3.5596  -3.5576  -3.5510  -3.5460  -3.5450
    -3.5437  -3.5344  -3.5237  -3.4924  -3.4824  -3.4564  -3.4542  -3.4431
    -3.4427  -3.4407  -3.4394  -3.4262  -3.4215  -3.4129  -3.4054  -3.3970
    -3.3879  -3.3798  -3.3742  -3.3721  -3.3705  -3.3697  -3.3644  -3.3565
    -3.3527  -3.3376  -3.3358  -3.3271  -3.3262  -3.3245  -3.3201  -3.3172
    -3.3135  -3.3132  -3.3093  -3.3088  -3.2999  -3.2970  -3.2921  -3.2862
    -3.2816  -3.2796  -3.2592  -3.2498  -3.2469  -3.2440  -3.2383  -3.2289
    -3.2197  -3.2190  -3.2143  -3.2103  -3.2024  -3.1999  -3.1891  -3.1807
    -3.1792  -3.1733  -3.1723  -3.1686  -3.1670  -3.1593  -3.1583  -3.1459
    -3.1457  -3.1218  -3.1213  -3.1108  -3.0983  -3.0907  -3.0844  -3.0581
    -3.0415  -3.0401  -3.0346  -3.0334  -3.0263  -3.0240  -3.0232  -3.0182
    -3.0174  -3.0164  -3.0157  -3.0092  -3.0026  -3.0016  -2.9894  -2.9849
    -2.9819  -2.9808  -2.9802  -2.9751  -2.9750  -2.9712  -2.9687  -2.9509
    -2.9153  -2.9131  -2.8902  -2.8759  -2.8743  -2.8624  -2.8599  -2.8494
    -2.8476  -2.8281  -2.8222  -2.8206  -2.7998  -2.7963  -2.7956  -2.7831
    -2.7799  -2.7755  -2.7675  -2.7642  -2.7503  -2.7492  -2.7470  -2.7422
    -2.7233  -2.7225  -2.7208  -2.7182  -2.6629  -2.6545  -2.6463  -2.6368
    -2.6296  -2.6262  -2.6216  -2.5956  -2.5802  -2.5699  -2.5676  -2.5670
    -2.5636  -2.5591  -2.5532  -2.5409  -2.5282  -2.5254  -2.5196  -2.5162
    -2.5091  -2.5073  -2.5012  -2.4930  -2.4901  -2.4865  -2.4805  -2.4794
    -2.4733  -2.4725  -2.4667  -2.4658  -2.4600  -2.4492  -2.4354  -2.4348
    -2.4066  -2.4002  -2.3984  -2.3744  -2.3705  -2.3634  -2.3559  -2.3559
    -2.3488  -2.3454  -2.3357  -2.3325  -2.3154  -2.3005  -2.2930  -2.2720
    -2.2687  -2.2668  -2.2638  -2.2489  -2.2435  -2.2337  -2.2317  -2.2151
    -2.2127  -2.2057  -2.2053  -2.1979  -2.1972  -2.1783  -2.1450  -2.1363
    -2.1305  -2.1060  -2.1024  -2.0849  -2.0676  -2.0486  -2.0476  -2.0443
    -2.0374  -2.0319  -2.0024  -1.9984  -1.9950  -1.9641  -1.9608  -1.9574
    -1.9562  -1.9520  -1.9482  -1.9454  -1.9394  -1.9389  -1.9371  -1.9309
    -1.9300  -1.9277  -1.9172  -1.9123  -1.9079  -1.9022  -1.8648  -1.8558
    -1.8551  -1.8387  -1.8311  -1.8274  -1.8234  -1.8172  -1.8163  -1.8137
    -1.8116  -1.8015  -1.8002  -1.7991  -1.7935  -1.7666  -1.7597  -1.7587
    -1.7576  -1.7484  -1.7433  -1.7426  -1.7367  -1.7367  -1.7267  -1.7240
    -1.7063  -1.7048  -1.6990  -1.6980  -1.6882  -1.6745  -1.6703  -1.6659
    -1.6636  -1.6588  -1.6509  -1.6289  -1.6132  -1.6038  -1.5995  -1.5976
    -1.5793  -1.5761  -1.5756  -1.5741  -1.5603  -1.5448  -1.5044  -1.4993
    -1.4928  -1.4881  -1.4801  -1.4792  -1.4707  -1.4674  -1.4599  -1.4582
    -1.4513  -1.4444  -1.4337  -1.4326  -1.4263  -1.4134  -1.4127  -1.4075
    -1.3998  -1.3818  -1.3719  -1.3686  -1.3631  -1.3582  -1.3455  -1.3398
    -1.3279  -1.3258  -1.3221  -1.3075  -1.3028  -1.2978  -1.2934  -1.2875
    -1.2873  -1.2780  -1.2767  -1.2672  -1.2647  -1.2555  -1.2538  -1.2498
    -1.2419  -1.2399  -1.2282  -1.2278  -1.2201  -1.2194  -1.2193  -1.2191
    -1.2155  -1.2090  -1.2061  -1.1781  -1.1769  -1.1708  -1.1567  -1.1556
    -1.1451  -1.1403  -1.1380  -1.1337  -1.1302  -1.1252  -1.1247  -1.1218
    -1.1191  -1.1077  -1.1061  -1.0986  -1.0876  -1.0831  -1.0802  -1.0782
    -1.0774  -1.0759  -1.0727  -1.0630  -1.0581  -1.0551  -1.0539  -1.0510
    -1.0504  -1.0444  -1.0045  -0.9813  -0.9700  -0.9651  -0.9524  -0.9373
    -0.9360  -0.9294  -0.9247  -0.9208  -0.9163  -0.9079  -0.9005  -0.8821
    -0.8782  -0.8615  -0.8302  -0.8282  -0.8261  -0.7660  -0.6683  -0.6319
    -0.6017  -0.5947  -0.5468  -0.4530  -0.3798  -0.1938  -0.1603  -0.1191
    -0.0036   0.0219   0.0571   0.1550   0.1618   0.1918   0.2704   0.2880
     0.3154   0.3345   0.5885   0.5919   0.6429   0.6717   0.7318   0.7782
     0.8026   0.8034   0.9238   0.9705   0.9830   1.1552   1.1638   1.1982
     1.3016   1.3260   1.3630   1.3874   1.4794   1.5212   1.5256   1.7952
     1.8680   1.8789   1.8971   1.8998   1.9099   1.9750   1.9819   2.0314
     2.0615   2.0732   2.1942   2.4009   2.4062   2.4082   2.4466   2.4513
     2.6430   2.6538   2.6773   2.7097   2.7215   2.7960   2.8415   3.1809
     3.2033   3.2177   3.2814   3.3293   3.3640   3.3777   3.5441   3.5474
     3.5697   3.6168   3.6257   3.7991   3.8063   3.8937   3.9028   4.0002
     4.0224   4.1241   4.1801   4.2438   4.2473   4.2702   4.3016   4.3971
     4.4719   4.4972   4.5208   4.5647   4.6630   4.8051   4.8114   4.8409
     4.8497   4.8522   4.8938   4.9669   4.9888   5.0739   5.0906   5.1943
     5.2012   5.2117   5.2378   5.2617   5.3013   5.4403   5.4933   5.5254
     5.5325   5.5329   5.5443   5.6497   5.6731   5.7195   5.7316   5.8365
     5.8521   5.8738   5.8956   5.9063   5.9063   5.9801   5.9911   6.0158
     6.0171   6.0264   6.0329   6.0421   6.0869   6.1380   6.1418   6.1476
     6.1656   6.2220   6.2292   6.3071   6.4015   6.4092   6.4469   6.4472
     6.4738   6.5147   6.5236   6.5726   6.5876   6.6321   6.6407   6.6538
     6.6609   6.6906   6.7353   6.7481   6.7689   6.8237   6.8288   6.9307
     6.9365   6.9722   6.9726   6.9987   7.0273   7.0635   7.1003   7.1088
     7.1282   7.1636   7.1905   7.1920   7.1997   7.2022   7.2794   7.2910
     7.3066   7.3546   7.3590   7.4024   7.4171   7.4340   7.4641   7.5085
     7.5606   7.5674   7.6061   7.6175   7.6582   7.6583   7.6666   7.6692
     7.6931   7.6937   7.7179   7.7227   7.7376   7.7418   7.7924   7.8309
     7.8578   7.8670   7.8739   7.9407   7.9893   7.9902   8.0015   8.0251

          k =-0.2500 0.5057 0.0000 ( 95386 PWs)   bands (ev):

    -8.0051  -7.7857  -7.3697  -7.1567  -6.9591  -6.8867  -6.8078  -6.6749
    -6.6111  -6.2902  -6.2197  -6.1893  -6.1052  -6.0377  -5.9305  -5.9281
    -5.8889  -5.8394  -5.8312  -5.8251  -5.7942  -5.7363  -5.7243  -5.6816
    -5.6677  -5.6498  -5.6456  -5.6404  -5.5501  -5.5387  -5.5312  -5.5230
    -5.5167  -5.5075  -5.4894  -5.4816  -5.4632  -5.4597  -5.4285  -5.3755
    -5.3693  -5.3540  -5.3517  -5.3174  -5.3102  -5.2941  -5.2914  -5.2340
    -5.2330  -5.2329  -5.2285  -5.2186  -5.2000  -5.1789  -5.1557  -5.1449
    -5.1301  -5.1247  -5.1159  -5.1144  -5.1108  -5.1095  -5.0883  -5.0677
    -5.0650  -5.0572  -5.0561  -5.0490  -5.0409  -5.0378  -5.0307  -4.9880
    -4.9823  -4.9671  -4.9640  -4.9482  -4.9344  -4.9326  -4.9290  -4.9271
    -4.9179  -4.9162  -4.9071  -4.9041  -4.8861  -4.8854  -4.8820  -4.8721
    -4.8720  -4.8623  -4.8598  -4.8490  -4.8282  -4.8272  -4.8250  -4.8223
    -4.7421  -4.7394  -4.7379  -4.7369  -4.7331  -4.7257  -4.7214  -4.7210
    -4.7203  -4.7123  -4.6997  -4.6850  -4.6744  -4.6168  -4.6003  -4.5973
    -4.5935  -4.5853  -4.5627  -4.5612  -4.5576  -4.5270  -4.4707  -4.4697
    -4.4511  -4.4139  -4.3981  -4.3954  -4.3937  -4.3933  -4.3918  -4.3855
    -4.3555  -4.3458  -4.3452  -4.3373  -4.3257  -4.3232  -4.3204  -4.3037
    -4.3023  -4.2741  -4.2647  -4.2576  -4.2478  -4.2454  -4.2295  -4.2107
    -4.1939  -4.1680  -4.1563  -4.1552  -4.1548  -4.1532  -4.1485  -4.1397
    -4.1375  -4.1047  -4.0974  -4.0836  -4.0776  -4.0764  -4.0700  -4.0546
    -4.0508  -4.0355  -4.0308  -4.0242  -4.0215  -4.0175  -4.0086  -3.9941
    -3.9869  -3.9709  -3.9588  -3.9278  -3.9141  -3.8987  -3.8933  -3.8898
    -3.8712  -3.8709  -3.8613  -3.8376  -3.8368  -3.8331  -3.8167  -3.8086
    -3.7861  -3.7803  -3.7393  -3.7359  -3.7267  -3.7242  -3.7151  -3.7103
    -3.7011  -3.6854  -3.6809  -3.6714  -3.6592  -3.6406  -3.6194  -3.6193
    -3.6174  -3.6164  -3.6056  -3.6020  -3.5992  -3.5954  -3.5918  -3.5798
    -3.5699  -3.5672  -3.5646  -3.5596  -3.5576  -3.5510  -3.5460  -3.5450
    -3.5436  -3.5344  -3.5237  -3.4924  -3.4824  -3.4564  -3.4542  -3.4431
    -3.4427  -3.4407  -3.4394  -3.4261  -3.4215  -3.4129  -3.4054  -3.3970
    -3.3880  -3.3798  -3.3742  -3.3721  -3.3705  -3.3697  -3.3644  -3.3565
    -3.3527  -3.3376  -3.3358  -3.3271  -3.3262  -3.3245  -3.3201  -3.3172
    -3.3135  -3.3132  -3.3093  -3.3088  -3.2999  -3.2970  -3.2921  -3.2862
    -3.2816  -3.2796  -3.2592  -3.2498  -3.2469  -3.2440  -3.2383  -3.2289
    -3.2197  -3.2190  -3.2143  -3.2103  -3.2024  -3.1999  -3.1891  -3.1807
    -3.1792  -3.1733  -3.1723  -3.1686  -3.1670  -3.1593  -3.1582  -3.1459
    -3.1457  -3.1218  -3.1212  -3.1108  -3.0983  -3.0907  -3.0844  -3.0581
    -3.0415  -3.0401  -3.0346  -3.0334  -3.0263  -3.0240  -3.0232  -3.0182
    -3.0174  -3.0164  -3.0157  -3.0092  -3.0025  -3.0016  -2.9895  -2.9850
    -2.9820  -2.9808  -2.9801  -2.9751  -2.9751  -2.9712  -2.9687  -2.9509
    -2.9153  -2.9131  -2.8902  -2.8759  -2.8743  -2.8624  -2.8599  -2.8494
    -2.8476  -2.8280  -2.8222  -2.8206  -2.7998  -2.7963  -2.7956  -2.7831
    -2.7799  -2.7755  -2.7675  -2.7642  -2.7503  -2.7492  -2.7470  -2.7422
    -2.7233  -2.7225  -2.7208  -2.7181  -2.6628  -2.6545  -2.6463  -2.6368
    -2.6296  -2.6262  -2.6216  -2.5956  -2.5801  -2.5699  -2.5676  -2.5670
    -2.5637  -2.5591  -2.5533  -2.5409  -2.5282  -2.5254  -2.5196  -2.5162
    -2.5091  -2.5073  -2.5012  -2.4930  -2.4901  -2.4865  -2.4805  -2.4794
    -2.4733  -2.4725  -2.4667  -2.4658  -2.4600  -2.4492  -2.4354  -2.4348
    -2.4066  -2.4002  -2.3984  -2.3744  -2.3705  -2.3634  -2.3559  -2.3558
    -2.3488  -2.3454  -2.3357  -2.3325  -2.3154  -2.3005  -2.2930  -2.2720
    -2.2687  -2.2668  -2.2638  -2.2489  -2.2435  -2.2337  -2.2317  -2.2151
    -2.2127  -2.2057  -2.2053  -2.1979  -2.1972  -2.1783  -2.1450  -2.1363
    -2.1305  -2.1060  -2.1024  -2.0849  -2.0677  -2.0486  -2.0476  -2.0443
    -2.0374  -2.0319  -2.0024  -1.9984  -1.9950  -1.9641  -1.9608  -1.9574
    -1.9562  -1.9520  -1.9482  -1.9454  -1.9394  -1.9389  -1.9371  -1.9310
    -1.9300  -1.9277  -1.9172  -1.9123  -1.9079  -1.9022  -1.8648  -1.8558
    -1.8551  -1.8387  -1.8311  -1.8274  -1.8234  -1.8172  -1.8163  -1.8137
    -1.8116  -1.8015  -1.8002  -1.7991  -1.7935  -1.7666  -1.7597  -1.7587
    -1.7576  -1.7484  -1.7433  -1.7426  -1.7367  -1.7367  -1.7267  -1.7240
    -1.7063  -1.7048  -1.6990  -1.6980  -1.6882  -1.6745  -1.6703  -1.6659
    -1.6636  -1.6588  -1.6509  -1.6289  -1.6132  -1.6038  -1.5995  -1.5976
    -1.5793  -1.5761  -1.5756  -1.5741  -1.5603  -1.5448  -1.5044  -1.4993
    -1.4928  -1.4881  -1.4801  -1.4792  -1.4707  -1.4674  -1.4599  -1.4582
    -1.4513  -1.4444  -1.4337  -1.4326  -1.4263  -1.4134  -1.4127  -1.4075
    -1.3998  -1.3818  -1.3719  -1.3686  -1.3631  -1.3582  -1.3455  -1.3398
    -1.3279  -1.3258  -1.3220  -1.3075  -1.3028  -1.2978  -1.2934  -1.2875
    -1.2873  -1.2780  -1.2767  -1.2672  -1.2647  -1.2555  -1.2538  -1.2498
    -1.2419  -1.2399  -1.2282  -1.2278  -1.2201  -1.2194  -1.2193  -1.2191
    -1.2155  -1.2090  -1.2061  -1.1782  -1.1769  -1.1708  -1.1567  -1.1556
    -1.1451  -1.1403  -1.1380  -1.1337  -1.1302  -1.1252  -1.1247  -1.1218
    -1.1191  -1.1077  -1.1061  -1.0987  -1.0876  -1.0831  -1.0802  -1.0782
    -1.0774  -1.0759  -1.0727  -1.0630  -1.0581  -1.0551  -1.0539  -1.0510
    -1.0504  -1.0444  -1.0045  -0.9813  -0.9700  -0.9651  -0.9524  -0.9375
    -0.9358  -0.9294  -0.9247  -0.9208  -0.9163  -0.9079  -0.9005  -0.8821
    -0.8782  -0.8615  -0.8302  -0.8282  -0.8261  -0.7660  -0.6683  -0.6319
    -0.6017  -0.5947  -0.5468  -0.4530  -0.3798  -0.1938  -0.1603  -0.1191
    -0.0036   0.0219   0.0571   0.1550   0.1618   0.1918   0.2705   0.2880
     0.3154   0.3345   0.5885   0.5919   0.6429   0.6717   0.7318   0.7782
     0.8025   0.8034   0.9238   0.9705   0.9830   1.1552   1.1638   1.1982
     1.3016   1.3260   1.3630   1.3874   1.4794   1.5212   1.5256   1.7952
     1.8680   1.8789   1.8971   1.8998   1.9099   1.9751   1.9819   2.0314
     2.0615   2.0732   2.1942   2.4009   2.4062   2.4082   2.4466   2.4513
     2.6430   2.6538   2.6773   2.7097   2.7215   2.7960   2.8415   3.1809
     3.2033   3.2177   3.2814   3.3293   3.3640   3.3777   3.5441   3.5474
     3.5697   3.6168   3.6257   3.7991   3.8063   3.8937   3.9028   4.0002
     4.0224   4.1241   4.1801   4.2438   4.2473   4.2702   4.3016   4.3971
     4.4719   4.4972   4.5208   4.5647   4.6630   4.8051   4.8114   4.8409
     4.8497   4.8522   4.8938   4.9669   4.9888   5.0739   5.0906   5.1943
     5.2012   5.2117   5.2378   5.2617   5.3013   5.4403   5.4933   5.5254
     5.5325   5.5329   5.5443   5.6497   5.6731   5.7195   5.7316   5.8365
     5.8521   5.8738   5.8956   5.9063   5.9063   5.9801   5.9911   6.0158
     6.0171   6.0264   6.0329   6.0421   6.0869   6.1380   6.1418   6.1476
     6.1656   6.2220   6.2292   6.3071   6.4015   6.4092   6.4469   6.4472
     6.4738   6.5147   6.5236   6.5726   6.5876   6.6321   6.6407   6.6538
     6.6609   6.6906   6.7353   6.7481   6.7689   6.8237   6.8288   6.9307
     6.9365   6.9722   6.9726   6.9987   7.0273   7.0635   7.1003   7.1088
     7.1282   7.1636   7.1905   7.1920   7.1997   7.2022   7.2794   7.2910
     7.3066   7.3546   7.3590   7.4024   7.4171   7.4340   7.4641   7.5085
     7.5606   7.5674   7.6061   7.6175   7.6582   7.6583   7.6666   7.6692
     7.6931   7.6937   7.7179   7.7227   7.7376   7.7418   7.7924   7.8309
     7.8578   7.8670   7.8739   7.9407   7.9893   7.9902   8.0015   8.0251

     the Fermi energy is     0.7843 ev

!    total energy              =  -11427.09402124 Ry
     estimated scf accuracy    <       0.00000085 Ry
     smearing contrib. (-TS)   =       0.06309946 Ry
     internal energy E=F+TS    =  -11427.15712070 Ry

     The total energy is F=E-TS. E is the sum of the following terms:
     one-electron contribution = -129707.84306544 Ry
     hartree contribution      =   65678.02815209 Ry
     xc contribution           =   -5523.82472561 Ry
     ewald contribution        =   58126.48251826 Ry

     convergence has been achieved in  21 iterations
 
     init_run     :     32.54s CPU     38.53s WALL (       1 calls)
     electrons    :   1379.20s CPU   1452.98s WALL (       1 calls)

     Called by init_run:
     wfcinit      :     17.89s CPU     21.44s WALL (       1 calls)
     potinit      :      1.77s CPU      2.03s WALL (       1 calls)
     hinit0       :      4.80s CPU      4.88s WALL (       1 calls)

     Called by electrons:
     c_bands      :   1121.25s CPU   1143.44s WALL (      22 calls)
     sum_band     :     75.33s CPU    103.40s WALL (      22 calls)
     v_of_rho     :     27.70s CPU     28.54s WALL (      22 calls)
     newd         :    155.13s CPU    179.21s WALL (      22 calls)
     mix_rho      :      5.42s CPU      5.41s WALL (      22 calls)

     Called by c_bands:
     init_us_2    :     50.14s CPU     60.66s WALL (      90 calls)
     init_us_2:cp :     47.27s CPU     47.26s WALL (      90 calls)
     cegterg      :    809.04s CPU    827.49s WALL (      44 calls)

     Called by *egterg:
     cdiaghg      :    526.42s CPU    523.45s WALL (     268 calls)
     h_psi        :    107.01s CPU     74.14s WALL (     272 calls)
     s_psi_omp    :      3.93s CPU      3.96s WALL (     272 calls)
     g_psi        :     25.48s CPU     25.31s WALL (     226 calls)

     Called by h_psi:
     h_psi:calbec :     27.09s CPU     19.61s WALL (     272 calls)
     vloc_psi     :     49.69s CPU     33.02s WALL (     272 calls)
     add_vuspsi   :      3.83s CPU      4.83s WALL (     272 calls)

     General routines
     calbec_omp   :     36.79s CPU     24.79s WALL (     316 calls)
     fft          :     14.60s CPU     17.64s WALL (     285 calls)
     ffts         :      0.98s CPU      1.02s WALL (      44 calls)
     fftw         :     44.29s CPU     28.28s WALL (   45790 calls)
     interpolate  :      2.17s CPU      2.22s WALL (      22 calls)
 
     Parallel routines
 
     PWSCF        :  23m31.84s CPU  24m59.59s WALL

 
   This run was terminated on:  17:49:14  13Nov2023            

=------------------------------------------------------------------------------=
   JOB DONE.
=------------------------------------------------------------------------------=
