JobId=4905747 JobName=submit.job
   UserId=bellenta(327000822) GroupId=pepr_bellenta(327000822) MCS_label=N/A
   Priority=516 Nice=0 Account=project_465000641 QOS=normal
   JobState=RUNNING Reason=None Dependency=(null)
   Requeue=1 Restarts=0 BatchFlag=1 Reboot=0 ExitCode=0:0
   DerivedExitCode=0:0
   RunTime=00:00:13 TimeLimit=01:00:00 TimeMin=N/A
   SubmitTime=2023-11-13T17:23:57 EligibleTime=2023-11-13T17:23:57
   AccrueTime=2023-11-13T17:23:57
   StartTime=2023-11-13T17:23:59 EndTime=2023-11-13T18:23:59 Deadline=N/A
   SuspendTime=None SecsPreSuspend=0 LastSchedEval=2023-11-13T17:23:59 Scheduler=Main
   Partition=standard-g AllocNode:Sid=ln02-nmn:180506
   ReqNodeList=(null) ExcNodeList=(null)
   NodeList=nid006163
   BatchHost=nid006163
   NumNodes=1 NumCPUs=112 NumTasks=2 CPUs/Task=1 ReqB:S:C:T=0:0:*:1
   TRES=cpu=112,node=1,billing=112,gres/gpu:mi250=8
   Socks/Node=* NtasksPerN:B:S:C=2:0:*:1 CoreSpec=*
   JOB_GRES=gpu:mi250:8
     Nodes=nid006163 CPU_IDs=2-15,18-31,34-47,50-63,66-79,82-95,98-111,114-127 Mem=0 GRES=gpu:mi250:8(IDX:0-7)
   MinCPUsNode=2 MinMemoryCPU=0 MinTmpDiskNode=0
   Features=(null) DelayBoot=00:00:00
   OverSubscribe=NO Contiguous=0 Licenses=(null) Network=(null)
   Command=/pfs/lustrep2/projappl/project_465000641/ausurf/benchmark/bench_lumi_gpua_fixed_allsteps/000000/000016_submit_N1np2/work/submit.job
   WorkDir=/pfs/lustrep2/projappl/project_465000641/ausurf/benchmark/bench_lumi_gpua_fixed_allsteps/000000/000016_submit_N1np2/work
   StdErr=/pfs/lustrep2/projappl/project_465000641/ausurf/benchmark/bench_lumi_gpua_fixed_allsteps/000000/000016_submit_N1np2/work/slurm-4905747.out
   StdIn=/dev/null
   StdOut=/pfs/lustrep2/projappl/project_465000641/ausurf/benchmark/bench_lumi_gpua_fixed_allsteps/000000/000016_submit_N1np2/work/slurm-4905747.out
   Power=
   TresPerNode=gres:gpu:8
   

