JobID        JobIDRaw        JobName  Partition  MaxVMSize  MaxVMSizeNode  MaxVMSizeTask  AveVMSize     MaxRSS MaxRSSNode MaxRSSTask     AveRSS MaxPages MaxPagesNode   MaxPagesTask   AvePages     MinCPU MinCPUNode MinCPUTask     AveCPU   NTasks  AllocCPUS    Elapsed      State ExitCode AveCPUFreq ReqCPUFreqMin ReqCPUFreqMax ReqCPUFreqGov     ReqMem ConsumedEnergy  MaxDiskRead MaxDiskReadNode MaxDiskReadTask    AveDiskRead MaxDiskWrite MaxDiskWriteNode MaxDiskWriteTask   AveDiskWrite    ReqTRES  AllocTRES TRESUsageInAve TRESUsageInMax TRESUsageInMaxNode TRESUsageInMaxTask TRESUsageInMin TRESUsageInMinNode TRESUsageInMinTask TRESUsageInTot TRESUsageOutMax TRESUsageOutMaxNode TRESUsageOutMaxTask TRESUsageOutAve TRESUsageOutTot 
------------ ------------ ---------- ---------- ---------- -------------- -------------- ---------- ---------- ---------- ---------- ---------- -------- ------------ -------------- ---------- ---------- ---------- ---------- ---------- -------- ---------- ---------- ---------- -------- ---------- ------------- ------------- ------------- ---------- -------------- ------------ --------------- --------------- -------------- ------------ ---------------- ---------------- -------------- ---------- ---------- -------------- -------------- ------------------ ------------------ -------------- ------------------ ------------------ -------------- --------------- ------------------- ------------------- --------------- --------------- 
155732       155732       CovidWeak+ normal-x86                                                                                                                                                                                                             256   00:43:22    RUNNING      0:0                  Unknown       Unknown       Unknown       484G                                                                                                                                          billing=2+ billing=2+                                                                                                                                                                                                                                 
155732.batch 155732.batch      batch                                                                                                                                                                                                               1        128   00:43:22    RUNNING      0:0          0             0             0             0                         0                                                                                                                                      cpu=128,m+                                                                                                                                                                                                                                 
155732.exte+ 155732.exte+     extern                                                                                                                                                                                                               2        256   00:43:22    RUNNING      0:0          0             0             0             0                         0                                                                                                                                      billing=2+                                                                                                                                                                                                                                 
155732.0     155732.0          orted             57326132K         cnx150              0  57326132K  56302868K     cnx150          0  56302868K      660       cnx150              0        660 3-19:29:24     cnx150          0 3-19:29:24        1        256   00:43:22  COMPLETED      0:0        10K             0             0             0                               2731.33M          cnx150               0       2731.33M      527.26M           cnx150                0        527.26M            billing=2+ cpu=3-19:29:2+ cpu=3-19:29:2+ cpu=cnx150,energy+ cpu=0,fs/disk=0,m+ cpu=3-19:29:2+ cpu=cnx150,energy+ cpu=0,fs/disk=0,m+ cpu=3-19:29:2+ energy=0,fs/di+ energy=cnx150,fs/d+           fs/disk=0 energy=0,fs/di+ energy=0,fs/di+ 
