{
 "global_section": { "_calls": 1, "_time":     2587.002, "_%":   100.00,
   "siesta": { "_calls": 1, "_time":     2587.002, "_%":   100.00,
     "Setup": { "_calls": 1, "_time":        1.807, "_%":     0.07,
       "bands": { "_calls": 1, "_time":        0.003, "_%":     0.00},
       "KSV_init": { "_calls": 1, "_time":        0.001, "_%":     0.00}
     },
     "IterGeom": { "_calls": 1, "_time":     2584.942, "_%":    99.92,
       "geom_init": { "_calls": 1, "_time":        6.002, "_%":     0.23,
         "state_init": { "_calls": 1, "_time":        0.472, "_%":     0.02,
           "hsparse": { "_calls": 1, "_time":        0.127, "_%":     0.00},
           "overlap": { "_calls": 1, "_time":        0.049, "_%":     0.00}
         },
         "Setup_H0": { "_calls": 1, "_time":        5.528, "_%":     0.21,
           "naefs": { "_calls": 1, "_time":        0.023, "_%":     0.00},
           "MolMec": { "_calls": 1, "_time":        0.000, "_%":     0.00},
           "kinefsm": { "_calls": 1, "_time":        0.047, "_%":     0.00},
           "nlefsm": { "_calls": 1, "_time":        0.156, "_%":     0.01},
           "DHSCF_Init": { "_calls": 1, "_time":        5.287, "_%":     0.20,
             "DHSCF1": { "_calls": 1, "_time":        0.059, "_%":     0.00,
               "INITMESH": { "_calls": 1, "_time":        0.000, "_%":     0.00}
             },
             "DHSCF2": { "_calls": 1, "_time":        5.209, "_%":     0.20,
               "REMESH": { "_calls": 1, "_time":        0.169, "_%":     0.01,
                 "INITMESH": { "_calls": 2, "_time":        0.151, "_%":     0.01,
                   "SPLOAD": { "_calls": 2, "_time":        0.120, "_%":     0.00}
                 }
               },
               "REORD": { "_calls": 2, "_time":        0.027, "_%":     0.00},
               "PHION": { "_calls": 1, "_time":        0.152, "_%":     0.01},
               "COMM_BSC": { "_calls": 1, "_time":        0.087, "_%":     0.00},
               "POISON": { "_calls": 1, "_time":        4.287, "_%":     0.17,
                 "fft": { "_calls": 2, "_time":        4.120, "_%":     0.16}
               }
             }
           }
         }
       },
       "IterSCF": { "_calls": 5, "_time":     2578.860, "_%":    99.69,
         "setup_H": { "_calls": 5, "_time":       37.476, "_%":     1.45,
           "DHSCF": { "_calls": 5, "_time":       37.439, "_%":     1.45,
             "DHSCF3": { "_calls": 5, "_time":       37.439, "_%":     1.45,
               "rhoofd": { "_calls": 5, "_time":        0.214, "_%":     0.01},
               "COMM_BSC": { "_calls": 10, "_time":        4.088, "_%":     0.16},
               "POISON": { "_calls": 5, "_time":       21.134, "_%":     0.82,
                 "fft": { "_calls": 10, "_time":       20.178, "_%":     0.78}
               },
               "XC": { "_calls": 5, "_time":        8.968, "_%":     0.35,
                 "COMM_BSC": { "_calls": 10, "_time":        0.990, "_%":     0.04},
                 "GXC-CellXC": { "_calls": 5, "_time":        7.717, "_%":     0.30,
                   "gridxc@cellXC": { "_calls": 5, "_time":        7.717, "_%":     0.30}
                 }
               },
               "vmat": { "_calls": 5, "_time":        0.240, "_%":     0.01}
             }
           }
         },
         "compute_dm": { "_calls": 5, "_time":     2541.288, "_%":    98.23,
           "diagon": { "_calls": 5, "_time":     2541.279, "_%":    98.23,
             "c-eigval": { "_calls": 10, "_time":     1153.427, "_%":    44.59,
               "c-buildHS": { "_calls": 10, "_time":        0.569, "_%":     0.02},
               "cdiag": { "_calls": 10, "_time":     1152.858, "_%":    44.56,
                 "cdiag1": { "_calls": 10, "_time":       39.756, "_%":     1.54},
                 "cdiag2": { "_calls": 10, "_time":      116.401, "_%":     4.50},
                 "cdiag3": { "_calls": 10, "_time":      990.215, "_%":    38.28}
               }
             },
             "c-eigvec": { "_calls": 10, "_time":     1224.724, "_%":    47.34,
               "cdiag": { "_calls": 10, "_time":     1224.221, "_%":    47.32,
                 "cdiag1": { "_calls": 10, "_time":       39.261, "_%":     1.52},
                 "cdiag2": { "_calls": 10, "_time":      115.743, "_%":     4.47},
                 "cdiag3": { "_calls": 10, "_time":      988.094, "_%":    38.19},
                 "cdiag4": { "_calls": 10, "_time":       75.055, "_%":     2.90}
               }
             },
             "c-buildD": { "_calls": 10, "_time":      162.368, "_%":     6.28}
           }
         },
         "MIXER": { "_calls": 5, "_time":        0.025, "_%":     0.00}
       },
       "state_analysis": { "_calls": 1, "_time":        0.069, "_%":     0.00},
       "siesta_move": { "_calls": 1, "_time":        0.000, "_%":     0.00}
     },
     "Analysis": { "_calls": 1, "_time":        0.236, "_%":     0.01,
       "optical": { "_calls": 1, "_time":        0.001, "_%":     0.00}
     }
   }
 }}
