JobID        JobIDRaw        JobName  Partition  MaxVMSize  MaxVMSizeNode  MaxVMSizeTask  AveVMSize     MaxRSS MaxRSSNode MaxRSSTask     AveRSS MaxPages MaxPagesNode   MaxPagesTask   AvePages     MinCPU MinCPUNode MinCPUTask     AveCPU   NTasks  AllocCPUS    Elapsed      State ExitCode AveCPUFreq ReqCPUFreqMin ReqCPUFreqMax ReqCPUFreqGov     ReqMem ConsumedEnergy  MaxDiskRead MaxDiskReadNode MaxDiskReadTask    AveDiskRead MaxDiskWrite MaxDiskWriteNode MaxDiskWriteTask   AveDiskWrite    ReqTRES  AllocTRES TRESUsageInAve TRESUsageInMax TRESUsageInMaxNode TRESUsageInMaxTask TRESUsageInMin TRESUsageInMinNode TRESUsageInMinTask TRESUsageInTot TRESUsageOutMax TRESUsageOutMaxNode TRESUsageOutMaxTask TRESUsageOutAve TRESUsageOutTot 
------------ ------------ ---------- ---------- ---------- -------------- -------------- ---------- ---------- ---------- ---------- ---------- -------- ------------ -------------- ---------- ---------- ---------- ---------- ---------- -------- ---------- ---------- ---------- -------- ---------- ------------- ------------- ------------- ---------- -------------- ------------ --------------- --------------- -------------- ------------ ---------------- ---------------- -------------- ---------- ---------- -------------- -------------- ------------------ ------------------ -------------- ------------------ ------------------ -------------- --------------- ------------------- ------------------- --------------- --------------- 
159675       159675        CovidWeak normal-x86                                                                                                                                                                                                            4096   00:36:36    RUNNING      0:0                  Unknown       Unknown       Unknown      7744G                                                                                                                                          billing=4+ billing=4+                                                                                                                                                                                                                                 
159675.batch 159675.batch      batch                                                                                                                                                                                                               1        128   00:36:36    RUNNING      0:0          0             0             0             0                         0                                                                                                                                      cpu=128,m+                                                                                                                                                                                                                                 
159675.exte+ 159675.exte+     extern                                                                                                                                                                                                              32       4096   00:36:36    RUNNING      0:0          0             0             0             0                         0                                                                                                                                      billing=4+                                                                                                                                                                                                                                 
159675.0     159675.0          orted             37455604K         cnx361             25 368192497+  36242164K     cnx341          5 355844809+      660       cnx342              6        552 3-05:08:52     cnx347         11 3-05:12:15       31       4096   00:36:36  COMPLETED      0:0       205K             0             0             0                               2846.56M          cnx343               7       2626.52M      535.01M           cnx336                0        535.00M            billing=4+ cpu=3-05:12:1+ cpu=3-05:14:3+ cpu=cnx341,energy+ cpu=5,fs/disk=7,m+ cpu=3-05:08:5+ cpu=cnx347,energy+ cpu=11,fs/disk=22+ cpu=99-17:20:+ energy=0,fs/di+ energy=cnx338,fs/d+           fs/disk=0 energy=0,fs/di+ energy=0,fs/di+ 
