JobID        JobIDRaw        JobName  Partition  MaxVMSize  MaxVMSizeNode  MaxVMSizeTask  AveVMSize     MaxRSS MaxRSSNode MaxRSSTask     AveRSS MaxPages MaxPagesNode   MaxPagesTask   AvePages     MinCPU MinCPUNode MinCPUTask     AveCPU   NTasks  AllocCPUS    Elapsed      State ExitCode AveCPUFreq ReqCPUFreqMin ReqCPUFreqMax ReqCPUFreqGov     ReqMem ConsumedEnergy  MaxDiskRead MaxDiskReadNode MaxDiskReadTask    AveDiskRead MaxDiskWrite MaxDiskWriteNode MaxDiskWriteTask   AveDiskWrite    ReqTRES  AllocTRES TRESUsageInAve TRESUsageInMax TRESUsageInMaxNode TRESUsageInMaxTask TRESUsageInMin TRESUsageInMinNode TRESUsageInMinTask TRESUsageInTot TRESUsageOutMax TRESUsageOutMaxNode TRESUsageOutMaxTask TRESUsageOutAve TRESUsageOutTot 
------------ ------------ ---------- ---------- ---------- -------------- -------------- ---------- ---------- ---------- ---------- ---------- -------- ------------ -------------- ---------- ---------- ---------- ---------- ---------- -------- ---------- ---------- ---------- -------- ---------- ------------- ------------- ------------- ---------- -------------- ------------ --------------- --------------- -------------- ------------ ---------------- ---------------- -------------- ---------- ---------- -------------- -------------- ------------------ ------------------ -------------- ------------------ ------------------ -------------- --------------- ------------------- ------------------- --------------- --------------- 
7464825      7464825      submit.job dcgp_usr_+                                                                                                                                                                                                             112   00:17:27    RUNNING      0:0                  Unknown       Unknown       Unknown    492800M                                                                                                                                          billing=1+ billing=1+                                                                                                                                                                                                                                 
7464825.bat+ 7464825.bat+      batch                                                                                                                                                                                                               1        112   00:17:27    RUNNING      0:0          0             0             0             0                         0                                                                                                                                      cpu=112,g+                                                                                                                                                                                                                                 
7464825.ext+ 7464825.ext+     extern                                                                                                                                                                                                               1        112   00:17:27    RUNNING      0:0          0             0             0             0                         0                                                                                                                                      billing=1+                                                                                                                                                                                                                                 
7464825.0    7464825.0          pw.x              8715484K       lrdn4419              0 8588915785   8683316K   lrdn4419         18 8573663305      233     lrdn4419              0         65   00:33:30   lrdn4419         52   00:33:49       56        112   00:17:23  COMPLETED      0:0     61.08M       Unknown       Unknown       Unknown                         0        4.61M        lrdn4419               0          2.34M        0.34M         lrdn4419                0          0.31M            cpu=112,g+ cpu=00:33:49,+ cpu=00:33:56,+ cpu=lrdn4419,ener+ cpu=26,fs/disk=0,+ cpu=00:33:30,+ cpu=lrdn4419,ener+ cpu=52,fs/disk=3,+ cpu=1-07:34:2+ energy=0,fs/di+ energy=lrdn4419,fs+           fs/disk=0 energy=0,fs/di+ energy=0,fs/di+ 
