Unloading profile/base
  ERROR: Module evaluation aborted
Loading quantum-espresso/7.3.1--intel-oneapi-mpi--2021.10.0--intel--2021.10.0-mkl
  Loading requirement: intel-oneapi-mpi/2021.10.0 intel-oneapi-tbb/2021.10.0
    intel-oneapi-mkl/2023.2.0--intel-oneapi-mpi--2021.10.0-scalapack-openmp-qkfqalj libxc/5.2.3--intel--2021.10.0-hf2rg24
