{
 "global_section": { "_calls": 1, "_time":      471.067, "_%":   100.00,
   "siesta": { "_calls": 1, "_time":      471.067, "_%":   100.00,
     "Setup": { "_calls": 1, "_time":        0.724, "_%":     0.15,
       "bands": { "_calls": 1, "_time":        0.001, "_%":     0.00},
       "KSV_init": { "_calls": 1, "_time":        0.000, "_%":     0.00}
     },
     "IterGeom": { "_calls": 1, "_time":      470.254, "_%":    99.83,
       "geom_init": { "_calls": 1, "_time":       20.303, "_%":     4.31,
         "state_init": { "_calls": 1, "_time":        0.258, "_%":     0.05,
           "hsparse": { "_calls": 1, "_time":        0.091, "_%":     0.02},
           "overlap": { "_calls": 1, "_time":        0.042, "_%":     0.01}
         },
         "Setup_H0": { "_calls": 1, "_time":       20.019, "_%":     4.25,
           "naefs": { "_calls": 1, "_time":        0.018, "_%":     0.00},
           "MolMec": { "_calls": 1, "_time":        0.000, "_%":     0.00},
           "kinefsm": { "_calls": 1, "_time":        0.040, "_%":     0.01},
           "nlefsm": { "_calls": 1, "_time":        0.109, "_%":     0.02},
           "DHSCF_Init": { "_calls": 1, "_time":       19.842, "_%":     4.21,
             "DHSCF1": { "_calls": 1, "_time":        0.045, "_%":     0.01,
               "INITMESH": { "_calls": 1, "_time":        0.000, "_%":     0.00}
             },
             "DHSCF2": { "_calls": 1, "_time":       19.784, "_%":     4.20,
               "REMESH": { "_calls": 1, "_time":        0.120, "_%":     0.03,
                 "INITMESH": { "_calls": 2, "_time":        0.065, "_%":     0.01,
                   "SPLOAD": { "_calls": 2, "_time":        0.064, "_%":     0.01}
                 }
               },
               "REORD": { "_calls": 2, "_time":        0.089, "_%":     0.02},
               "PHION": { "_calls": 1, "_time":        1.359, "_%":     0.29},
               "COMM_BSC": { "_calls": 1, "_time":        0.458, "_%":     0.10},
               "POISON": { "_calls": 1, "_time":       16.229, "_%":     3.45,
                 "fft": { "_calls": 2, "_time":       15.565, "_%":     3.30}
               }
             }
           }
         }
       },
       "IterSCF": { "_calls": 5, "_time":      449.920, "_%":    95.51,
         "setup_H": { "_calls": 5, "_time":      146.818, "_%":    31.17,
           "DHSCF": { "_calls": 5, "_time":      146.638, "_%":    31.13,
             "DHSCF3": { "_calls": 5, "_time":      146.638, "_%":    31.13,
               "rhoofd": { "_calls": 5, "_time":        0.941, "_%":     0.20},
               "COMM_BSC": { "_calls": 10, "_time":        3.994, "_%":     0.85},
               "POISON": { "_calls": 5, "_time":       77.069, "_%":    16.36,
                 "fft": { "_calls": 10, "_time":       72.918, "_%":    15.48}
               },
               "XC": { "_calls": 5, "_time":       55.957, "_%":    11.88,
                 "COMM_BSC": { "_calls": 10, "_time":        7.369, "_%":     1.56},
                 "GXC-CellXC": { "_calls": 5, "_time":       47.558, "_%":    10.10,
                   "gridxc@cellXC": { "_calls": 5, "_time":       47.558, "_%":    10.10}
                 }
               },
               "vmat": { "_calls": 5, "_time":        2.012, "_%":     0.43}
             }
           }
         },
         "compute_dm": { "_calls": 5, "_time":      302.877, "_%":    64.30,
           "elsi": { "_calls": 5, "_time":      302.842, "_%":    64.29,
             "find nnz_g": { "_calls": 5, "_time":        0.000, "_%":     0.00},
             "elsi-solver": { "_calls": 5, "_time":      302.832, "_%":    64.29}
           }
         },
         "MIXER": { "_calls": 5, "_time":        0.012, "_%":     0.00}
       },
       "state_analysis": { "_calls": 1, "_time":        0.023, "_%":     0.00},
       "siesta_move": { "_calls": 1, "_time":        0.000, "_%":     0.00}
     },
     "Analysis": { "_calls": 1, "_time":        0.081, "_%":     0.02,
       "optical": { "_calls": 1, "_time":        0.000, "_%":     0.00}
     }
   }
 }}
