{
 "global_section": { "_calls": 1, "_time":      615.085, "_%":   100.00,
   "siesta": { "_calls": 1, "_time":      615.085, "_%":   100.00,
     "Setup": { "_calls": 1, "_time":        1.710, "_%":     0.28,
       "bands": { "_calls": 1, "_time":        0.002, "_%":     0.00},
       "KSV_init": { "_calls": 1, "_time":        0.001, "_%":     0.00}
     },
     "IterGeom": { "_calls": 1, "_time":      613.215, "_%":    99.70,
       "geom_init": { "_calls": 1, "_time":       25.466, "_%":     4.14,
         "state_init": { "_calls": 1, "_time":        0.342, "_%":     0.06,
           "hsparse": { "_calls": 1, "_time":        0.120, "_%":     0.02},
           "overlap": { "_calls": 1, "_time":        0.063, "_%":     0.01}
         },
         "Setup_H0": { "_calls": 1, "_time":       25.123, "_%":     4.08,
           "naefs": { "_calls": 1, "_time":        0.020, "_%":     0.00},
           "MolMec": { "_calls": 1, "_time":        0.000, "_%":     0.00},
           "kinefsm": { "_calls": 1, "_time":        0.060, "_%":     0.01},
           "nlefsm": { "_calls": 1, "_time":        0.242, "_%":     0.04},
           "DHSCF_Init": { "_calls": 1, "_time":       24.787, "_%":     4.03,
             "DHSCF1": { "_calls": 1, "_time":        0.131, "_%":     0.02,
               "INITMESH": { "_calls": 1, "_time":        0.000, "_%":     0.00}
             },
             "DHSCF2": { "_calls": 1, "_time":       24.640, "_%":     4.01,
               "REMESH": { "_calls": 1, "_time":        0.203, "_%":     0.03,
                 "INITMESH": { "_calls": 2, "_time":        0.112, "_%":     0.02,
                   "SPLOAD": { "_calls": 2, "_time":        0.109, "_%":     0.02}
                 }
               },
               "REORD": { "_calls": 2, "_time":        0.116, "_%":     0.02},
               "PHION": { "_calls": 1, "_time":        1.157, "_%":     0.19},
               "COMM_BSC": { "_calls": 1, "_time":        0.293, "_%":     0.05},
               "POISON": { "_calls": 1, "_time":       21.188, "_%":     3.44,
                 "fft": { "_calls": 2, "_time":       20.304, "_%":     3.30}
               }
             }
           }
         }
       },
       "IterSCF": { "_calls": 5, "_time":      587.287, "_%":    95.48,
         "setup_H": { "_calls": 5, "_time":      174.398, "_%":    28.35,
           "DHSCF": { "_calls": 5, "_time":      173.737, "_%":    28.25,
             "DHSCF3": { "_calls": 5, "_time":      173.737, "_%":    28.25,
               "rhoofd": { "_calls": 5, "_time":        1.061, "_%":     0.17},
               "COMM_BSC": { "_calls": 10, "_time":        2.915, "_%":     0.47},
               "POISON": { "_calls": 5, "_time":      104.145, "_%":    16.93,
                 "fft": { "_calls": 10, "_time":       99.136, "_%":    16.12}
               },
               "XC": { "_calls": 5, "_time":       56.188, "_%":     9.13,
                 "COMM_BSC": { "_calls": 10, "_time":        6.696, "_%":     1.09},
                 "GXC-CellXC": { "_calls": 5, "_time":       48.481, "_%":     7.88,
                   "gridxc@cellXC": { "_calls": 5, "_time":       48.481, "_%":     7.88}
                 }
               },
               "vmat": { "_calls": 5, "_time":        1.283, "_%":     0.21}
             }
           }
         },
         "compute_dm": { "_calls": 5, "_time":      412.722, "_%":    67.10,
           "elsi": { "_calls": 5, "_time":      412.562, "_%":    67.07,
             "find nnz_g": { "_calls": 5, "_time":        0.000, "_%":     0.00},
             "elsi-solver": { "_calls": 5, "_time":      412.464, "_%":    67.06}
           }
         },
         "MIXER": { "_calls": 5, "_time":        0.136, "_%":     0.02}
       },
       "state_analysis": { "_calls": 1, "_time":        0.046, "_%":     0.01},
       "siesta_move": { "_calls": 1, "_time":        0.000, "_%":     0.00}
     },
     "Analysis": { "_calls": 1, "_time":        0.148, "_%":     0.02,
       "optical": { "_calls": 1, "_time":        0.001, "_%":     0.00}
     }
   }
 }}
