JobID        JobIDRaw        JobName  Partition  MaxVMSize  MaxVMSizeNode  MaxVMSizeTask  AveVMSize     MaxRSS MaxRSSNode MaxRSSTask     AveRSS MaxPages MaxPagesNode   MaxPagesTask   AvePages     MinCPU MinCPUNode MinCPUTask     AveCPU   NTasks  AllocCPUS    Elapsed      State ExitCode AveCPUFreq ReqCPUFreqMin ReqCPUFreqMax ReqCPUFreqGov     ReqMem ConsumedEnergy  MaxDiskRead MaxDiskReadNode MaxDiskReadTask    AveDiskRead MaxDiskWrite MaxDiskWriteNode MaxDiskWriteTask   AveDiskWrite    ReqTRES  AllocTRES TRESUsageInAve TRESUsageInMax TRESUsageInMaxNode TRESUsageInMaxTask TRESUsageInMin TRESUsageInMinNode TRESUsageInMinTask TRESUsageInTot TRESUsageOutMax TRESUsageOutMaxNode TRESUsageOutMaxTask TRESUsageOutAve TRESUsageOutTot 
------------ ------------ ---------- ---------- ---------- -------------- -------------- ---------- ---------- ---------- ---------- ---------- -------- ------------ -------------- ---------- ---------- ---------- ---------- ---------- -------- ---------- ---------- ---------- -------- ---------- ------------- ------------- ------------- ---------- -------------- ------------ --------------- --------------- -------------- ------------ ---------------- ---------------- -------------- ---------- ---------- -------------- -------------- ------------------ ------------------ -------------- ------------------ ------------------ -------------- --------------- ------------------- ------------------- --------------- --------------- 
4905742      4905742      submit.job standard-g                                                                                                                                                                                                             112   00:25:14    RUNNING      0:0                  Unknown       Unknown       Unknown       480G                                                                                                                                          billing=2+ billing=1+                                                                                                                                                                                                                                 
4905742.bat+ 4905742.bat+      batch                                                                                                                                                                                                               1        112   00:25:14    RUNNING      0:0          0             0             0             0                         0                                                                                                                                      cpu=112,g+                                                                                                                                                                                                                                 
4905742.0    4905742.0    select_gpu            136692036K      nid006072              1 133175018K  95408584K  nid006072          1  92347604K     6199    nid006072              1       5244   00:26:33  nid006072          0   00:26:35        2        112   00:25:04  COMPLETED      0:0      1.41M       Unknown       Unknown       Unknown                     1.07M      131.27M       nid006072               0        129.99M        2.90M        nid006072                0          2.90M            cpu=112,g+ cpu=00:26:35,+ cpu=00:26:36,+ cpu=nid006072,ene+ cpu=1,fs/disk=0,m+ cpu=00:26:33,+ cpu=nid006072,ene+ cpu=0,fs/disk=1,m+ cpu=00:53:10,+ energy=1082,fs+ energy=nid006072,f+           fs/disk=0 energy=338,fs/+ energy=677,fs/+ 
