JobID        JobIDRaw        JobName  Partition  MaxVMSize  MaxVMSizeNode  MaxVMSizeTask  AveVMSize     MaxRSS MaxRSSNode MaxRSSTask     AveRSS MaxPages MaxPagesNode   MaxPagesTask   AvePages     MinCPU MinCPUNode MinCPUTask     AveCPU   NTasks  AllocCPUS    Elapsed      State ExitCode AveCPUFreq ReqCPUFreqMin ReqCPUFreqMax ReqCPUFreqGov     ReqMem ConsumedEnergy  MaxDiskRead MaxDiskReadNode MaxDiskReadTask    AveDiskRead MaxDiskWrite MaxDiskWriteNode MaxDiskWriteTask   AveDiskWrite    ReqTRES  AllocTRES TRESUsageInAve TRESUsageInMax TRESUsageInMaxNode TRESUsageInMaxTask TRESUsageInMin TRESUsageInMinNode TRESUsageInMinTask TRESUsageInTot TRESUsageOutMax TRESUsageOutMaxNode TRESUsageOutMaxTask TRESUsageOutAve TRESUsageOutTot 
------------ ------------ ---------- ---------- ---------- -------------- -------------- ---------- ---------- ---------- ---------- ---------- -------- ------------ -------------- ---------- ---------- ---------- ---------- ---------- -------- ---------- ---------- ---------- -------- ---------- ------------- ------------- ------------- ---------- -------------- ------------ --------------- --------------- -------------- ------------ ---------------- ---------------- -------------- ---------- ---------- -------------- -------------- ------------------ ------------------ -------------- ------------------ ------------------ -------------- --------------- ------------------- ------------------- --------------- --------------- 
7756667      7756667      submit.job boost_usr+                                                                                                                                                                                                             256   00:10:10    RUNNING      0:0                  Unknown       Unknown       Unknown      3850G                                                                                                                                          billing=2+ billing=2+                                                                                                                                                                                                                                 
7756667.bat+ 7756667.bat+      batch                                                                                                                                                                                                               1         32   00:10:10    RUNNING      0:0          0             0             0             0                         0                                                                                                                                      cpu=32,gr+                                                                                                                                                                                                                                 
7756667.ext+ 7756667.ext+     extern                                                                                                                                                                                                               8        256   00:10:10    RUNNING      0:0          0             0             0             0                         0                                                                                                                                      billing=2+                                                                                                                                                                                                                                 
7756667.0    7756667.0    leonardo-+              2615272K       lrdn3169             29  328081056   2574656K   lrdn3169         29  322657504      742     lrdn3169             14         40   00:09:47   lrdn3272        129   00:09:50      256        256   00:10:04  COMPLETED      0:0    954.59M       Unknown       Unknown       Unknown                         0        2.31M        lrdn3169               0          1.36M       38.30M         lrdn3169                0          5.04M            cpu=256,g+ cpu=00:09:50,+ cpu=00:09:55,+ cpu=lrdn3317,ener+ cpu=192,fs/disk=0+ cpu=00:09:47,+ cpu=lrdn3272,ener+ cpu=129,fs/disk=1+ cpu=1-17:58:5+ energy=0,fs/di+ energy=lrdn3322,fs+           fs/disk=0 energy=0,fs/di+ energy=0,fs/di+ 
