{
 "global_section": { "_calls": 1, "_time":      596.948, "_%":   100.00,
   "siesta": { "_calls": 1, "_time":      596.948, "_%":   100.00,
     "Setup": { "_calls": 1, "_time":        2.079, "_%":     0.35,
       "bands": { "_calls": 1, "_time":        0.002, "_%":     0.00},
       "KSV_init": { "_calls": 1, "_time":        0.001, "_%":     0.00}
     },
     "IterGeom": { "_calls": 1, "_time":      588.691, "_%":    98.62,
       "geom_init": { "_calls": 1, "_time":        4.819, "_%":     0.81,
         "state_init": { "_calls": 1, "_time":        1.804, "_%":     0.30,
           "hsparse": { "_calls": 1, "_time":        1.207, "_%":     0.20},
           "overlap": { "_calls": 1, "_time":        0.095, "_%":     0.02}
         },
         "Setup_H0": { "_calls": 1, "_time":        3.014, "_%":     0.50,
           "naefs": { "_calls": 1, "_time":        0.102, "_%":     0.02},
           "MolMec": { "_calls": 1, "_time":        0.000, "_%":     0.00},
           "kinefsm": { "_calls": 1, "_time":        0.089, "_%":     0.01},
           "nlefsm": { "_calls": 1, "_time":        0.378, "_%":     0.06},
           "DHSCF_Init": { "_calls": 1, "_time":        2.390, "_%":     0.40,
             "DHSCF1": { "_calls": 1, "_time":        0.020, "_%":     0.00,
               "INITMESH": { "_calls": 1, "_time":        0.000, "_%":     0.00}
             },
             "DHSCF2": { "_calls": 1, "_time":        2.363, "_%":     0.40,
               "REMESH": { "_calls": 1, "_time":        0.704, "_%":     0.12,
                 "INITMESH": { "_calls": 2, "_time":        0.680, "_%":     0.11,
                   "SPLOAD": { "_calls": 2, "_time":        0.635, "_%":     0.11}
                 }
               },
               "REORD": { "_calls": 2, "_time":        0.003, "_%":     0.00},
               "PHION": { "_calls": 1, "_time":        0.270, "_%":     0.05},
               "COMM_BSC": { "_calls": 1, "_time":        0.028, "_%":     0.00},
               "POISON": { "_calls": 1, "_time":        0.594, "_%":     0.10,
                 "fft": { "_calls": 2, "_time":        0.560, "_%":     0.09}
               }
             }
           }
         }
       },
       "IterSCF": { "_calls": 5, "_time":      583.695, "_%":    97.78,
         "setup_H": { "_calls": 5, "_time":       11.158, "_%":     1.87,
           "DHSCF": { "_calls": 5, "_time":       11.144, "_%":     1.87,
             "DHSCF3": { "_calls": 5, "_time":       11.144, "_%":     1.87,
               "rhoofd": { "_calls": 5, "_time":        0.196, "_%":     0.03},
               "COMM_BSC": { "_calls": 10, "_time":        1.494, "_%":     0.25},
               "POISON": { "_calls": 5, "_time":        2.996, "_%":     0.50,
                 "fft": { "_calls": 10, "_time":        2.889, "_%":     0.48}
               },
               "XC": { "_calls": 5, "_time":        6.075, "_%":     1.02,
                 "COMM_BSC": { "_calls": 10, "_time":        0.250, "_%":     0.04},
                 "GXC-CellXC": { "_calls": 5, "_time":        5.806, "_%":     0.97,
                   "gridxc@cellXC": { "_calls": 5, "_time":        5.806, "_%":     0.97}
                 }
               },
               "vmat": { "_calls": 5, "_time":        0.211, "_%":     0.04}
             }
           }
         },
         "compute_dm": { "_calls": 5, "_time":      572.500, "_%":    95.90,
           "elsi": { "_calls": 5, "_time":      570.393, "_%":    95.55,
             "find nnz_g": { "_calls": 5, "_time":        0.000, "_%":     0.00},
             "elsi-solver": { "_calls": 5, "_time":      570.372, "_%":    95.55}
           }
         },
         "MIXER": { "_calls": 5, "_time":        0.013, "_%":     0.00}
       },
       "state_analysis": { "_calls": 1, "_time":        0.072, "_%":     0.01},
       "siesta_move": { "_calls": 1, "_time":        0.000, "_%":     0.00}
     },
     "Analysis": { "_calls": 1, "_time":        5.692, "_%":     0.95,
       "optical": { "_calls": 1, "_time":        0.001, "_%":     0.00}
     }
   }
 }}
