JobId=34683761 JobName=CovidWeakKPoints
   UserId=eufedericop(1977552410) GroupId=eufedericop(1977552410) MCS_label=N/A
   Priority=66049402 Nice=0 Account=b2024b06-053-users QOS=normal
   JobState=RUNNING Reason=None Dependency=(null)
   Requeue=1 Restarts=0 BatchFlag=1 Reboot=0 ExitCode=0:0
   DerivedExitCode=0:0
   RunTime=00:00:05 TimeLimit=1-00:00:00 TimeMin=N/A
   SubmitTime=2024-09-13T08:58:37 EligibleTime=2024-09-13T08:58:37
   AccrueTime=2024-09-13T08:58:37
   StartTime=2024-09-14T20:54:52 EndTime=2024-09-15T20:54:52 Deadline=N/A
   SuspendTime=None SecsPreSuspend=0 LastSchedEval=2024-09-14T20:54:52 Scheduler=Main
   Partition=gpu AllocNode:Sid=login0002-dmz:4095111
   ReqNodeList=(null) ExcNodeList=(null)
   NodeList=gn57
   BatchHost=gn57
   NumNodes=1 NumCPUs=256 NumTasks=64 CPUs/Task=2 ReqB:S:C:T=0:0:*:1
   ReqTRES=cpu=128,mem=125G,node=1,billing=256,gres/gpu=4
   AllocTRES=cpu=256,mem=125G,node=1,billing=256,gres/gpu=4
   Socks/Node=* NtasksPerN:B:S:C=64:0:*:* CoreSpec=*
   JOB_GRES=gpu:4
     Nodes=gn57 CPU_IDs=0-255 Mem=128000 GRES=gpu:4(IDX:0-3)
   MinCPUsNode=128 MinMemoryCPU=1000M MinTmpDiskNode=0
   Features=(null) DelayBoot=00:00:00
   OverSubscribe=NO Contiguous=0 Licenses=(null) Network=(null)
   Command=/ceph/hpc/home/eufedericop/JUBE4MaX-GPU/max-inputs/interface/siesta/_CovidWeakKPoints/000002/000000_submit/work/submit.job
   WorkDir=/ceph/hpc/home/eufedericop/JUBE4MaX-GPU/max-inputs/interface/siesta/_CovidWeakKPoints/000002/000000_submit/work
   StdErr=/ceph/hpc/home/eufedericop/JUBE4MaX-GPU/max-inputs/interface/siesta/_CovidWeakKPoints/000002/000000_submit/work/slurm-34683761.out
   StdIn=/dev/null
   StdOut=/ceph/hpc/home/eufedericop/JUBE4MaX-GPU/max-inputs/interface/siesta/_CovidWeakKPoints/000002/000000_submit/work/slurm-34683761.out
   Power=
   TresPerNode=gres/gpu:4
   TresPerTask=cpu:2
   

