{
 "global_section": { "_calls": 1, "_time":     3638.306, "_%":   100.00,
   "siesta": { "_calls": 1, "_time":     3638.306, "_%":   100.00,
     "Setup": { "_calls": 1, "_time":        1.837, "_%":     0.05,
       "bands": { "_calls": 1, "_time":        0.002, "_%":     0.00},
       "KSV_init": { "_calls": 1, "_time":        0.001, "_%":     0.00}
     },
     "IterGeom": { "_calls": 1, "_time":     3636.196, "_%":    99.94,
       "geom_init": { "_calls": 1, "_time":       12.521, "_%":     0.34,
         "state_init": { "_calls": 1, "_time":        2.089, "_%":     0.06,
           "hsparse": { "_calls": 1, "_time":        0.137, "_%":     0.00},
           "overlap": { "_calls": 1, "_time":        0.765, "_%":     0.02}
         },
         "Setup_H0": { "_calls": 1, "_time":       10.430, "_%":     0.29,
           "naefs": { "_calls": 1, "_time":        0.022, "_%":     0.00},
           "MolMec": { "_calls": 1, "_time":        0.000, "_%":     0.00},
           "kinefsm": { "_calls": 1, "_time":        0.763, "_%":     0.02},
           "nlefsm": { "_calls": 1, "_time":        1.729, "_%":     0.05},
           "DHSCF_Init": { "_calls": 1, "_time":        7.901, "_%":     0.22,
             "DHSCF1": { "_calls": 1, "_time":        0.060, "_%":     0.00,
               "INITMESH": { "_calls": 1, "_time":        0.000, "_%":     0.00}
             },
             "DHSCF2": { "_calls": 1, "_time":        7.819, "_%":     0.21,
               "REMESH": { "_calls": 1, "_time":        2.386, "_%":     0.07,
                 "INITMESH": { "_calls": 2, "_time":        2.356, "_%":     0.06,
                   "SPLOAD": { "_calls": 2, "_time":        2.325, "_%":     0.06}
                 }
               },
               "REORD": { "_calls": 2, "_time":        0.028, "_%":     0.00},
               "PHION": { "_calls": 1, "_time":        0.506, "_%":     0.01},
               "COMM_BSC": { "_calls": 1, "_time":        0.117, "_%":     0.00},
               "POISON": { "_calls": 1, "_time":        4.251, "_%":     0.12,
                 "fft": { "_calls": 2, "_time":        4.098, "_%":     0.11}
               }
             }
           }
         }
       },
       "IterSCF": { "_calls": 5, "_time":     3623.577, "_%":    99.60,
         "setup_H": { "_calls": 5, "_time":       33.724, "_%":     0.93,
           "DHSCF": { "_calls": 5, "_time":       33.648, "_%":     0.92,
             "DHSCF3": { "_calls": 5, "_time":       33.648, "_%":     0.92,
               "rhoofd": { "_calls": 5, "_time":        0.319, "_%":     0.01},
               "COMM_BSC": { "_calls": 10, "_time":        1.265, "_%":     0.03},
               "POISON": { "_calls": 5, "_time":       21.096, "_%":     0.58,
                 "fft": { "_calls": 10, "_time":       20.169, "_%":     0.55}
               },
               "XC": { "_calls": 5, "_time":        8.761, "_%":     0.24,
                 "COMM_BSC": { "_calls": 10, "_time":        0.960, "_%":     0.03},
                 "GXC-CellXC": { "_calls": 5, "_time":        7.540, "_%":     0.21,
                   "gridxc@cellXC": { "_calls": 5, "_time":        7.540, "_%":     0.21}
                 }
               },
               "vmat": { "_calls": 5, "_time":        0.349, "_%":     0.01}
             }
           }
         },
         "compute_dm": { "_calls": 5, "_time":     3589.767, "_%":    98.67,
           "elsi": { "_calls": 5, "_time":     3589.294, "_%":    98.65,
             "find nnz_g": { "_calls": 5, "_time":        0.000, "_%":     0.00},
             "elsi-solver": { "_calls": 5, "_time":     3589.274, "_%":    98.65}
           }
         },
         "MIXER": { "_calls": 5, "_time":        0.048, "_%":     0.00}
       },
       "state_analysis": { "_calls": 1, "_time":        0.072, "_%":     0.00},
       "siesta_move": { "_calls": 1, "_time":        0.000, "_%":     0.00}
     },
     "Analysis": { "_calls": 1, "_time":        0.252, "_%":     0.01,
       "optical": { "_calls": 1, "_time":        0.001, "_%":     0.00}
     }
   }
 }}
