JobId=244985 JobName=CovidStrong
   UserId=fpedron(5340) GroupId=fpedron(5340) MCS_label=N/A
   Priority=1 Nice=0 Account=ehpc-ben-2024b06-053 QOS=ehpc-ben-2024b06-053
   JobState=RUNNING Reason=None Dependency=(null)
   Requeue=1 Restarts=0 BatchFlag=1 Reboot=0 ExitCode=0:0
   DerivedExitCode=0:0
   RunTime=00:00:01 TimeLimit=12:00:00 TimeMin=N/A
   SubmitTime=2024-09-12T12:16:48 EligibleTime=2024-09-12T12:16:48
   AccrueTime=2024-09-12T12:16:48
   StartTime=2024-09-12T13:16:33 EndTime=2024-09-13T01:16:33 Deadline=N/A
   SuspendTime=None SecsPreSuspend=0 LastSchedEval=2024-09-12T13:16:33
   Partition=cn AllocNode:Sid=login1:4193870
   ReqNodeList=(null) ExcNodeList=(null)
   NodeList=cn[0161-0166,0172,0175,0529-0540,0554-0555,0557-0558,0560-0561,0563-0564,0569-0570,0575-0576]
   BatchHost=cn0161
   NumNodes=32 NumCPUs=4096 NumTasks=4096 CPUs/Task=1 ReqB:S:C:T=0:0:*:*
   TRES=cpu=4096,mem=4T,node=32,billing=4096
   Socks/Node=* NtasksPerN:B:S:C=128:0:*:* CoreSpec=*
   JOB_GRES=(null)
     Nodes=cn[0161-0166,0172,0175,0529-0540,0554-0555,0557-0558,0560-0561,0563-0564,0569-0570,0575-0576] CPU_IDs=0-127 Mem=131072 GRES=
   MinCPUsNode=128 MinMemoryCPU=1G MinTmpDiskNode=0
   Features=(null) DelayBoot=00:00:00
   OverSubscribe=OK Contiguous=0 Licenses=(null) Network=(null)
   Command=/home/fpedron/JUBE4MaX/max-inputs/interface/siesta/_CovidStrong/000001/000003_submit/work/submit.job
   WorkDir=/home/fpedron/JUBE4MaX/max-inputs/interface/siesta/_CovidStrong/000001/000003_submit/work
   StdErr=/home/fpedron/JUBE4MaX/max-inputs/interface/siesta/_CovidStrong/000001/000003_submit/work/slurm-244985.out
   StdIn=/dev/null
   StdOut=/home/fpedron/JUBE4MaX/max-inputs/interface/siesta/_CovidStrong/000001/000003_submit/work/slurm-244985.out
   Power=
   MailUser=fpedron MailType=NONE

