{
 "global_section": { "_calls": 1, "_time":      835.946, "_%":   100.00,
   "siesta": { "_calls": 1, "_time":      835.946, "_%":   100.00,
     "Setup": { "_calls": 1, "_time":        1.351, "_%":     0.16,
       "bands": { "_calls": 1, "_time":        0.002, "_%":     0.00},
       "KSV_init": { "_calls": 1, "_time":        0.001, "_%":     0.00}
     },
     "IterGeom": { "_calls": 1, "_time":      834.377, "_%":    99.81,
       "geom_init": { "_calls": 1, "_time":        9.724, "_%":     1.16,
         "state_init": { "_calls": 1, "_time":        1.339, "_%":     0.16,
           "hsparse": { "_calls": 1, "_time":        0.129, "_%":     0.02},
           "overlap": { "_calls": 1, "_time":        0.620, "_%":     0.07}
         },
         "Setup_H0": { "_calls": 1, "_time":        8.383, "_%":     1.00,
           "naefs": { "_calls": 1, "_time":        0.023, "_%":     0.00},
           "MolMec": { "_calls": 1, "_time":        0.000, "_%":     0.00},
           "kinefsm": { "_calls": 1, "_time":        0.613, "_%":     0.07},
           "nlefsm": { "_calls": 1, "_time":        1.390, "_%":     0.17},
           "DHSCF_Init": { "_calls": 1, "_time":        6.343, "_%":     0.76,
             "DHSCF1": { "_calls": 1, "_time":        0.043, "_%":     0.01,
               "INITMESH": { "_calls": 1, "_time":        0.000, "_%":     0.00}
             },
             "DHSCF2": { "_calls": 1, "_time":        6.270, "_%":     0.75,
               "REMESH": { "_calls": 1, "_time":        4.798, "_%":     0.57,
                 "INITMESH": { "_calls": 2, "_time":        4.339, "_%":     0.52,
                   "SPLOAD": { "_calls": 2, "_time":        1.651, "_%":     0.20}
                 }
               },
               "REORD": { "_calls": 2, "_time":        0.001, "_%":     0.00},
               "PHION": { "_calls": 1, "_time":        0.067, "_%":     0.01},
               "COMM_BSC": { "_calls": 1, "_time":        0.026, "_%":     0.00},
               "POISON": { "_calls": 1, "_time":        0.546, "_%":     0.07,
                 "fft": { "_calls": 2, "_time":        0.532, "_%":     0.06}
               }
             }
           }
         }
       },
       "IterSCF": { "_calls": 5, "_time":      824.567, "_%":    98.64,
         "setup_H": { "_calls": 5, "_time":        5.390, "_%":     0.64,
           "DHSCF": { "_calls": 5, "_time":        5.349, "_%":     0.64,
             "DHSCF3": { "_calls": 5, "_time":        5.349, "_%":     0.64,
               "rhoofd": { "_calls": 5, "_time":        0.181, "_%":     0.02},
               "COMM_BSC": { "_calls": 10, "_time":        0.260, "_%":     0.03},
               "POISON": { "_calls": 5, "_time":        2.493, "_%":     0.30,
                 "fft": { "_calls": 10, "_time":        2.374, "_%":     0.28}
               },
               "XC": { "_calls": 5, "_time":        1.802, "_%":     0.22,
                 "COMM_BSC": { "_calls": 10, "_time":        0.450, "_%":     0.05},
                 "GXC-CellXC": { "_calls": 5, "_time":        1.330, "_%":     0.16,
                   "gridxc@cellXC": { "_calls": 5, "_time":        1.330, "_%":     0.16}
                 }
               },
               "vmat": { "_calls": 5, "_time":        0.159, "_%":     0.02}
             }
           }
         },
         "compute_dm": { "_calls": 5, "_time":      818.885, "_%":    97.96,
           "elsi": { "_calls": 5, "_time":      818.124, "_%":    97.87,
             "find nnz_g": { "_calls": 5, "_time":        0.000, "_%":     0.00},
             "elsi-solver": { "_calls": 5, "_time":      818.087, "_%":    97.86}
           }
         },
         "MIXER": { "_calls": 5, "_time":        0.165, "_%":     0.02}
       },
       "state_analysis": { "_calls": 1, "_time":        0.052, "_%":     0.01},
       "siesta_move": { "_calls": 1, "_time":        0.000, "_%":     0.00}
     },
     "Analysis": { "_calls": 1, "_time":        0.200, "_%":     0.02,
       "optical": { "_calls": 1, "_time":        0.001, "_%":     0.00}
     }
   }
 }}
