JobID        JobIDRaw        JobName  Partition  MaxVMSize  MaxVMSizeNode  MaxVMSizeTask  AveVMSize     MaxRSS MaxRSSNode MaxRSSTask     AveRSS MaxPages MaxPagesNode   MaxPagesTask   AvePages     MinCPU MinCPUNode MinCPUTask     AveCPU   NTasks  AllocCPUS    Elapsed      State ExitCode AveCPUFreq ReqCPUFreqMin ReqCPUFreqMax ReqCPUFreqGov     ReqMem ConsumedEnergy  MaxDiskRead MaxDiskReadNode MaxDiskReadTask    AveDiskRead MaxDiskWrite MaxDiskWriteNode MaxDiskWriteTask   AveDiskWrite    ReqTRES  AllocTRES TRESUsageInAve TRESUsageInMax TRESUsageInMaxNode TRESUsageInMaxTask TRESUsageInMin TRESUsageInMinNode TRESUsageInMinTask TRESUsageInTot TRESUsageOutMax TRESUsageOutMaxNode TRESUsageOutMaxTask TRESUsageOutAve TRESUsageOutTot 
------------ ------------ ---------- ---------- ---------- -------------- -------------- ---------- ---------- ---------- ---------- ---------- -------- ------------ -------------- ---------- ---------- ---------- ---------- ---------- -------- ---------- ---------- ---------- -------- ---------- ------------- ------------- ------------- ---------- -------------- ------------ --------------- --------------- -------------- ------------ ---------------- ---------------- -------------- ---------- ---------- -------------- -------------- ------------------ ------------------ -------------- ------------------ ------------------ -------------- --------------- ------------------- ------------------- --------------- --------------- 
151857       151857        CovidWeak normal-x86                                                                                                                                                                                                             256   00:09:28    RUNNING      0:0                  Unknown       Unknown       Unknown       484G                                                                                                                                          billing=2+ billing=2+                                                                                                                                                                                                                                 
151857.batch 151857.batch      batch                                                                                                                                                                                                               1        128   00:09:28    RUNNING      0:0          0             0             0             0                         0                                                                                                                                      cpu=128,m+                                                                                                                                                                                                                                 
151857.exte+ 151857.exte+     extern                                                                                                                                                                                                               2        256   00:09:28    RUNNING      0:0          0             0             0             0                         0                                                                                                                                      billing=2+                                                                                                                                                                                                                                 
151857.0     151857.0          orted             70344468K         cnx331              0  70344468K  68642064K     cnx331          0  68642064K      594       cnx331              0        594   19:42:15     cnx331          0   19:42:15        1        256   00:09:28  COMPLETED      0:0         4K             0             0             0                               2611.52M          cnx331               0       2611.52M      527.51M           cnx331                0        527.51M            billing=2+ cpu=19:42:15,+ cpu=19:42:15,+ cpu=cnx331,energy+ cpu=0,fs/disk=0,m+ cpu=19:42:15,+ cpu=cnx331,energy+ cpu=0,fs/disk=0,m+ cpu=19:42:15,+ energy=0,fs/di+ energy=cnx331,fs/d+           fs/disk=0 energy=0,fs/di+ energy=0,fs/di+ 
