{
 "global_section": { "_calls": 1, "_time":      554.823, "_%":   100.00,
   "siesta": { "_calls": 1, "_time":      554.823, "_%":   100.00,
     "Setup": { "_calls": 1, "_time":        1.761, "_%":     0.32,
       "bands": { "_calls": 1, "_time":        0.002, "_%":     0.00},
       "KSV_init": { "_calls": 1, "_time":        0.001, "_%":     0.00}
     },
     "IterGeom": { "_calls": 1, "_time":      552.809, "_%":    99.64,
       "geom_init": { "_calls": 1, "_time":        6.394, "_%":     1.15,
         "state_init": { "_calls": 1, "_time":        0.486, "_%":     0.09,
           "hsparse": { "_calls": 1, "_time":        0.135, "_%":     0.02},
           "overlap": { "_calls": 1, "_time":        0.084, "_%":     0.02}
         },
         "Setup_H0": { "_calls": 1, "_time":        5.907, "_%":     1.06,
           "naefs": { "_calls": 1, "_time":        0.023, "_%":     0.00},
           "MolMec": { "_calls": 1, "_time":        0.000, "_%":     0.00},
           "kinefsm": { "_calls": 1, "_time":        0.082, "_%":     0.01},
           "nlefsm": { "_calls": 1, "_time":        0.294, "_%":     0.05},
           "DHSCF_Init": { "_calls": 1, "_time":        5.492, "_%":     0.99,
             "DHSCF1": { "_calls": 1, "_time":        0.061, "_%":     0.01,
               "INITMESH": { "_calls": 1, "_time":        0.000, "_%":     0.00}
             },
             "DHSCF2": { "_calls": 1, "_time":        5.410, "_%":     0.98,
               "REMESH": { "_calls": 1, "_time":        0.307, "_%":     0.06,
                 "INITMESH": { "_calls": 2, "_time":        0.290, "_%":     0.05,
                   "SPLOAD": { "_calls": 2, "_time":        0.260, "_%":     0.05}
                 }
               },
               "REORD": { "_calls": 2, "_time":        0.024, "_%":     0.00},
               "PHION": { "_calls": 1, "_time":        0.211, "_%":     0.04},
               "COMM_BSC": { "_calls": 1, "_time":        0.075, "_%":     0.01},
               "POISON": { "_calls": 1, "_time":        4.285, "_%":     0.77,
                 "fft": { "_calls": 2, "_time":        4.162, "_%":     0.75}
               }
             }
           }
         }
       },
       "IterSCF": { "_calls": 5, "_time":      546.330, "_%":    98.47,
         "setup_H": { "_calls": 5, "_time":       33.564, "_%":     6.05,
           "DHSCF": { "_calls": 5, "_time":       33.523, "_%":     6.04,
             "DHSCF3": { "_calls": 5, "_time":       33.523, "_%":     6.04,
               "rhoofd": { "_calls": 5, "_time":        0.238, "_%":     0.04},
               "COMM_BSC": { "_calls": 10, "_time":        0.894, "_%":     0.16},
               "POISON": { "_calls": 5, "_time":       21.149, "_%":     3.81,
                 "fft": { "_calls": 10, "_time":       20.206, "_%":     3.64}
               },
               "XC": { "_calls": 5, "_time":        9.015, "_%":     1.62,
                 "COMM_BSC": { "_calls": 10, "_time":        0.986, "_%":     0.18},
                 "GXC-CellXC": { "_calls": 5, "_time":        7.768, "_%":     1.40,
                   "gridxc@cellXC": { "_calls": 5, "_time":        7.768, "_%":     1.40}
                 }
               },
               "vmat": { "_calls": 5, "_time":        0.341, "_%":     0.06}
             }
           }
         },
         "compute_dm": { "_calls": 5, "_time":      512.698, "_%":    92.41,
           "elsi": { "_calls": 5, "_time":      512.402, "_%":    92.35,
             "find nnz_g": { "_calls": 5, "_time":        0.000, "_%":     0.00},
             "elsi-solver": { "_calls": 5, "_time":      512.382, "_%":    92.35}
           }
         },
         "MIXER": { "_calls": 5, "_time":        0.016, "_%":     0.00}
       },
       "state_analysis": { "_calls": 1, "_time":        0.075, "_%":     0.01},
       "siesta_move": { "_calls": 1, "_time":        0.000, "_%":     0.00}
     },
     "Analysis": { "_calls": 1, "_time":        0.222, "_%":     0.04,
       "optical": { "_calls": 1, "_time":        0.001, "_%":     0.00}
     }
   }
 }}
