JobId=9551462 JobName=CovidStrong
   UserId=icn2553284(51005) GroupId=icn2(50004) MCS_label=N/A
   Priority=67429 Nice=0 Account=icn85 QOS=gp_resa
   JobState=RUNNING Reason=Prolog Dependency=(null)
   Requeue=0 Restarts=0 BatchFlag=1 Reboot=0 ExitCode=0:0
   RunTime=00:00:04 TimeLimit=02:00:00 TimeMin=N/A
   SubmitTime=2024-09-30T11:13:50 EligibleTime=2024-09-30T11:13:50
   AccrueTime=2024-09-30T11:13:50
   StartTime=2024-09-30T11:15:15 EndTime=2024-09-30T13:15:15 Deadline=N/A
   SuspendTime=None SecsPreSuspend=0 LastSchedEval=2024-09-30T11:15:15 Scheduler=Backfill
   Partition=gpp AllocNode:Sid=glogin1:2011625
   ReqNodeList=(null) ExcNodeList=(null)
   NodeList=gs08r2b[17-18,61-66]
   BatchHost=gs08r2b17
   NumNodes=8 NumCPUs=1792 NumTasks=896 CPUs/Task=1 ReqB:S:C:T=0:0:*:1
   ReqTRES=cpu=896,mem=1750G,node=8,billing=896
   AllocTRES=cpu=1792,mem=1750G,node=8,billing=1792
   Socks/Node=* NtasksPerN:B:S:C=112:0:*:* CoreSpec=*
   MinCPUsNode=112 MinMemoryCPU=2000M MinTmpDiskNode=0
   Features=(null) DelayBoot=00:00:00
   OverSubscribe=NO Contiguous=0 Licenses=(null) Network=(null)
   Command=/gpfs/home/icn2/icn2553284/jube4max/max-inputs/interface/siesta/_CovidStrong/000001/000011_submit/work/submit.job
   WorkDir=/gpfs/home/icn2/icn2553284/jube4max/max-inputs/interface/siesta/_CovidStrong/000001/000011_submit/work
   StdErr=/gpfs/home/icn2/icn2553284/jube4max/max-inputs/interface/siesta/_CovidStrong/000001/000011_submit/work/job_9551462.err
   StdIn=/dev/null
   StdOut=/gpfs/home/icn2/icn2553284/jube4max/max-inputs/interface/siesta/_CovidStrong/000001/000011_submit/work/job_9551462.out
   Power=
   

