JobID        JobIDRaw        JobName  Partition  MaxVMSize  MaxVMSizeNode  MaxVMSizeTask  AveVMSize     MaxRSS MaxRSSNode MaxRSSTask     AveRSS MaxPages MaxPagesNode   MaxPagesTask   AvePages     MinCPU MinCPUNode MinCPUTask     AveCPU   NTasks  AllocCPUS    Elapsed      State ExitCode AveCPUFreq ReqCPUFreqMin ReqCPUFreqMax ReqCPUFreqGov     ReqMem ConsumedEnergy  MaxDiskRead MaxDiskReadNode MaxDiskReadTask    AveDiskRead MaxDiskWrite MaxDiskWriteNode MaxDiskWriteTask   AveDiskWrite    ReqTRES  AllocTRES TRESUsageInAve TRESUsageInMax TRESUsageInMaxNode TRESUsageInMaxTask TRESUsageInMin TRESUsageInMinNode TRESUsageInMinTask TRESUsageInTot TRESUsageOutMax TRESUsageOutMaxNode TRESUsageOutMaxTask TRESUsageOutAve TRESUsageOutTot 
------------ ------------ ---------- ---------- ---------- -------------- -------------- ---------- ---------- ---------- ---------- ---------- -------- ------------ -------------- ---------- ---------- ---------- ---------- ---------- -------- ---------- ---------- ---------- -------- ---------- ------------- ------------- ------------- ---------- -------------- ------------ --------------- --------------- -------------- ------------ ---------------- ---------------- -------------- ---------- ---------- -------------- -------------- ------------------ ------------------ -------------- ------------------ ------------------ -------------- --------------- ------------------- ------------------- --------------- --------------- 
4905765      4905765      submit.job standard-g                                                                                                                                                                                                             112   00:14:46    RUNNING      0:0                  Unknown       Unknown       Unknown       480G                                                                                                                                          billing=8+ billing=1+                                                                                                                                                                                                                                 
4905765.bat+ 4905765.bat+      batch                                                                                                                                                                                                               1        112   00:14:46    RUNNING      0:0          0             0             0             0                         0                                                                                                                                      cpu=112,g+                                                                                                                                                                                                                                 
4905765.0    4905765.0    select_gpu             47580156K      nid006880              4 44643363.+  26630504K  nid006880          2  24119217K    15452    nid006880              3      14688   00:14:48  nid006880          6   00:14:52        8        112   00:14:34  COMPLETED      0:0     24.12M       Unknown       Unknown       Unknown                   730.31K      131.27M       nid006880               0        129.02M        2.90M        nid006880                0          2.89M            cpu=112,g+ cpu=00:14:52,+ cpu=00:14:56,+ cpu=nid006880,ene+ cpu=3,fs/disk=0,m+ cpu=00:14:48,+ cpu=nid006880,ene+ cpu=6,fs/disk=5,m+ cpu=01:59:00,+ energy=1563,fs+ energy=nid006880,f+           fs/disk=0 energy=97,fs/d+ energy=778,fs/+ 
