JobId=1618186 JobName=CovidWeakSize
   UserId=it4i-fpedron(9897) GroupId=it4i-fpedron(11979) MCS_label=N/A
   Priority=202150670 Nice=0 Account=dd-24-70 QOS=2820_4663
   JobState=RUNNING Reason=None Dependency=(null)
   Requeue=1 Restarts=0 BatchFlag=1 Reboot=0 ExitCode=0:0
   DerivedExitCode=0:0
   RunTime=00:00:03 TimeLimit=00:59:00 TimeMin=N/A
   SubmitTime=2024-09-12T09:48:04 EligibleTime=2024-09-12T09:48:04
   AccrueTime=2024-09-12T09:48:04
   StartTime=2024-09-12T09:52:23 EndTime=2024-09-12T10:51:23 Deadline=N/A
   PreemptEligibleTime=2024-09-12T09:52:23 PreemptTime=None
   SuspendTime=None SecsPreSuspend=0 LastSchedEval=2024-09-12T09:52:23 Scheduler=Main
   Partition=qcpu AllocNode:Sid=login1.karolina.it4i.cz:1828684
   ReqNodeList=(null) ExcNodeList=(null)
   NodeList=cn[063,210,228,707]
   BatchHost=cn063
   NumNodes=4 NumCPUs=512 NumTasks=512 CPUs/Task=1 ReqB:S:C:T=0:0:*:*
   ReqTRES=cpu=512,mem=920G,node=4,billing=4
   AllocTRES=cpu=512,mem=920G,node=4,billing=4
   Socks/Node=* NtasksPerN:B:S:C=128:0:*:* CoreSpec=*
   JOB_GRES=(null)
     Nodes=cn[063,210,228,707] CPU_IDs=0-127 Mem=235520 GRES=
   MinCPUsNode=128 MinMemoryNode=230G MinTmpDiskNode=0
   Features=(null) DelayBoot=00:00:00
   OverSubscribe=NO Contiguous=0 Licenses=(null) Network=(null)
   Command=/home/it4i-fpedron/JUBE4MaX/max-inputs/interface/siesta/_CovidWeakSize/000000/000009_submit/work/submit.job
   WorkDir=/home/it4i-fpedron/JUBE4MaX/max-inputs/interface/siesta/_CovidWeakSize/000000/000009_submit/work
   StdErr=/home/it4i-fpedron/JUBE4MaX/max-inputs/interface/siesta/_CovidWeakSize/000000/000009_submit/work/slurm-1618186.out
   StdIn=/dev/null
   StdOut=/home/it4i-fpedron/JUBE4MaX/max-inputs/interface/siesta/_CovidWeakSize/000000/000009_submit/work/slurm-1618186.out
   Power=
   TresPerTask=cpu:1
   

