JobID        JobIDRaw        JobName  Partition  MaxVMSize  MaxVMSizeNode  MaxVMSizeTask  AveVMSize     MaxRSS MaxRSSNode MaxRSSTask     AveRSS MaxPages MaxPagesNode   MaxPagesTask   AvePages     MinCPU MinCPUNode MinCPUTask     AveCPU   NTasks  AllocCPUS    Elapsed      State ExitCode AveCPUFreq ReqCPUFreqMin ReqCPUFreqMax ReqCPUFreqGov     ReqMem ConsumedEnergy  MaxDiskRead MaxDiskReadNode MaxDiskReadTask    AveDiskRead MaxDiskWrite MaxDiskWriteNode MaxDiskWriteTask   AveDiskWrite    ReqTRES  AllocTRES TRESUsageInAve TRESUsageInMax TRESUsageInMaxNode TRESUsageInMaxTask TRESUsageInMin TRESUsageInMinNode TRESUsageInMinTask TRESUsageInTot TRESUsageOutMax TRESUsageOutMaxNode TRESUsageOutMaxTask TRESUsageOutAve TRESUsageOutTot 
------------ ------------ ---------- ---------- ---------- -------------- -------------- ---------- ---------- ---------- ---------- ---------- -------- ------------ -------------- ---------- ---------- ---------- ---------- ---------- -------- ---------- ---------- ---------- -------- ---------- ------------- ------------- ------------- ---------- -------------- ------------ --------------- --------------- -------------- ------------ ---------------- ---------------- -------------- ---------- ---------- -------------- -------------- ------------------ ------------------ -------------- ------------------ ------------------ -------------- --------------- ------------------- ------------------- --------------- --------------- 
4905748      4905748      submit.job standard-g                                                                                                                                                                                                             112   00:25:08    RUNNING      0:0                  Unknown       Unknown       Unknown       480G                                                                                                                                          billing=2+ billing=1+                                                                                                                                                                                                                                 
4905748.bat+ 4905748.bat+      batch                                                                                                                                                                                                               1        112   00:25:08    RUNNING      0:0          0             0             0             0                         0                                                                                                                                      cpu=112,g+                                                                                                                                                                                                                                 
4905748.0    4905748.0    select_gpu            134730596K      nid006165              0 130840122K  93562284K  nid006165          0  90125974K     5263    nid006165              1       5174   00:25:56  nid006165          1   00:26:08        2        112   00:24:52  COMPLETED      0:0      5.27M       Unknown       Unknown       Unknown                     1.10M      131.27M       nid006165               0        129.99M        2.90M        nid006165                0          2.89M            cpu=112,g+ cpu=00:26:08,+ cpu=00:26:20,+ cpu=nid006165,ene+ cpu=0,fs/disk=0,m+ cpu=00:25:56,+ cpu=nid006165,ene+ cpu=1,fs/disk=1,m+ cpu=00:52:17,+ energy=1043,fs+ energy=nid006165,f+           fs/disk=0 energy=343,fs/+ energy=687,fs/+ 
