JobID        JobIDRaw        JobName  Partition  MaxVMSize  MaxVMSizeNode  MaxVMSizeTask  AveVMSize     MaxRSS MaxRSSNode MaxRSSTask     AveRSS MaxPages MaxPagesNode   MaxPagesTask   AvePages     MinCPU MinCPUNode MinCPUTask     AveCPU   NTasks  AllocCPUS    Elapsed      State ExitCode AveCPUFreq ReqCPUFreqMin ReqCPUFreqMax ReqCPUFreqGov     ReqMem ConsumedEnergy  MaxDiskRead MaxDiskReadNode MaxDiskReadTask    AveDiskRead MaxDiskWrite MaxDiskWriteNode MaxDiskWriteTask   AveDiskWrite    ReqTRES  AllocTRES TRESUsageInAve TRESUsageInMax TRESUsageInMaxNode TRESUsageInMaxTask TRESUsageInMin TRESUsageInMinNode TRESUsageInMinTask TRESUsageInTot TRESUsageOutMax TRESUsageOutMaxNode TRESUsageOutMaxTask TRESUsageOutAve TRESUsageOutTot 
------------ ------------ ---------- ---------- ---------- -------------- -------------- ---------- ---------- ---------- ---------- ---------- -------- ------------ -------------- ---------- ---------- ---------- ---------- ---------- -------- ---------- ---------- ---------- -------- ---------- ------------- ------------- ------------- ---------- -------------- ------------ --------------- --------------- -------------- ------------ ---------------- ---------------- -------------- ---------- ---------- -------------- -------------- ------------------ ------------------ -------------- ------------------ ------------------ -------------- --------------- ------------------- ------------------- --------------- --------------- 
2265027      2265027      submit.job boost_usr+                                                                                                                                                                                                            1600   00:01:35    RUNNING      0:0                  Unknown       Unknown       Unknown  24062.50G                                                                                                                                          billing=1+ billing=1+                                                                                                                                                                                                                                 
2265027.bat+ 2265027.bat+      batch                                                                                                                                                                                                               1         32   00:01:35    RUNNING      0:0          0             0             0             0                         0                                                                                                                                      cpu=32,gr+                                                                                                                                                                                                                                 
2265027.ext+ 2265027.ext+     extern                                                                                                                                                                                                              50       1600   00:01:35    RUNNING      0:0          0             0             0             0                         0                                                                                                                                      billing=1+                                                                                                                                                                                                                                 
2265027.0    2265027.0         orted              8925340K       lrdn0203              0  186521391   7416352K   lrdn0203          0  154986621     9132     lrdn0203              0        186   00:05:53   lrdn3328         40   00:05:54       49       1568   00:01:32  COMPLETED      0:0    283.18M       Unknown       Unknown       Unknown                         0        0.29M        lrdn3177              26          0.29M        0.01M         lrdn0203                0          0.01M            cpu=1568,+ cpu=00:05:54,+ cpu=00:05:55,+ cpu=lrdn1821,ener+ cpu=6,fs/disk=26,+ cpu=00:05:53,+ cpu=lrdn3328,ener+ cpu=40,fs/disk=8,+ cpu=04:49:50,+ energy=0,fs/di+ energy=lrdn3194,fs+           fs/disk=0 energy=0,fs/di+ energy=0,fs/di+ 
