{
 "global_section": { "_calls": 1, "_time":      712.248, "_%":   100.00,
   "siesta": { "_calls": 1, "_time":      712.248, "_%":   100.00,
     "Setup": { "_calls": 1, "_time":        1.172, "_%":     0.16,
       "bands": { "_calls": 1, "_time":        0.002, "_%":     0.00},
       "KSV_init": { "_calls": 1, "_time":        0.001, "_%":     0.00}
     },
     "IterGeom": { "_calls": 1, "_time":      710.886, "_%":    99.81,
       "geom_init": { "_calls": 1, "_time":        9.029, "_%":     1.27,
         "state_init": { "_calls": 1, "_time":        1.700, "_%":     0.24,
           "hsparse": { "_calls": 1, "_time":        0.118, "_%":     0.02},
           "overlap": { "_calls": 1, "_time":        0.683, "_%":     0.10}
         },
         "Setup_H0": { "_calls": 1, "_time":        7.329, "_%":     1.03,
           "naefs": { "_calls": 1, "_time":        0.020, "_%":     0.00},
           "MolMec": { "_calls": 1, "_time":        0.000, "_%":     0.00},
           "kinefsm": { "_calls": 1, "_time":        0.675, "_%":     0.09},
           "nlefsm": { "_calls": 1, "_time":        1.506, "_%":     0.21},
           "DHSCF_Init": { "_calls": 1, "_time":        5.114, "_%":     0.72,
             "DHSCF1": { "_calls": 1, "_time":        0.047, "_%":     0.01,
               "INITMESH": { "_calls": 1, "_time":        0.000, "_%":     0.00}
             },
             "DHSCF2": { "_calls": 1, "_time":        5.051, "_%":     0.71,
               "REMESH": { "_calls": 1, "_time":        2.807, "_%":     0.39,
                 "INITMESH": { "_calls": 2, "_time":        2.773, "_%":     0.39,
                   "SPLOAD": { "_calls": 2, "_time":        2.353, "_%":     0.33}
                 }
               },
               "REORD": { "_calls": 2, "_time":        0.009, "_%":     0.00},
               "PHION": { "_calls": 1, "_time":        0.234, "_%":     0.03},
               "COMM_BSC": { "_calls": 1, "_time":        0.057, "_%":     0.01},
               "POISON": { "_calls": 1, "_time":        1.489, "_%":     0.21,
                 "fft": { "_calls": 2, "_time":        1.425, "_%":     0.20}
               }
             }
           }
         }
       },
       "IterSCF": { "_calls": 5, "_time":      701.248, "_%":    98.46,
         "setup_H": { "_calls": 5, "_time":       10.847, "_%":     1.52,
           "DHSCF": { "_calls": 5, "_time":       10.798, "_%":     1.52,
             "DHSCF3": { "_calls": 5, "_time":       10.798, "_%":     1.52,
               "rhoofd": { "_calls": 5, "_time":        0.141, "_%":     0.02},
               "COMM_BSC": { "_calls": 10, "_time":        0.497, "_%":     0.07},
               "POISON": { "_calls": 5, "_time":        5.716, "_%":     0.80,
                 "fft": { "_calls": 10, "_time":        5.415, "_%":     0.76}
               },
               "XC": { "_calls": 5, "_time":        3.744, "_%":     0.53,
                 "COMM_BSC": { "_calls": 10, "_time":        0.370, "_%":     0.05},
                 "GXC-CellXC": { "_calls": 5, "_time":        3.294, "_%":     0.46,
                   "gridxc@cellXC": { "_calls": 5, "_time":        3.294, "_%":     0.46}
                 }
               },
               "vmat": { "_calls": 5, "_time":        0.153, "_%":     0.02}
             }
           }
         },
         "compute_dm": { "_calls": 5, "_time":      690.042, "_%":    96.88,
           "elsi": { "_calls": 5, "_time":      689.710, "_%":    96.84,
             "find nnz_g": { "_calls": 5, "_time":        0.000, "_%":     0.00},
             "elsi-solver": { "_calls": 5, "_time":      689.678, "_%":    96.83}
           }
         },
         "MIXER": { "_calls": 5, "_time":        0.182, "_%":     0.03}
       },
       "state_analysis": { "_calls": 1, "_time":        0.046, "_%":     0.01},
       "siesta_move": { "_calls": 1, "_time":        0.000, "_%":     0.00}
     },
     "Analysis": { "_calls": 1, "_time":        0.178, "_%":     0.03,
       "optical": { "_calls": 1, "_time":        0.001, "_%":     0.00}
     }
   }
 }}
