JobId=2261457 JobName=submit.job
   UserId=nspallan(25378) GroupId=interactive(25200) MCS_label=N/A
   Priority=155696 Nice=0 Account=euhpc_e01_022 QOS=normal
   JobState=RUNNING Reason=None Dependency=(null)
   Requeue=0 Restarts=0 BatchFlag=1 Reboot=0 ExitCode=0:0
   DerivedExitCode=0:0
   RunTime=00:00:02 TimeLimit=03:00:00 TimeMin=N/A
   SubmitTime=2023-12-04T12:21:35 EligibleTime=2023-12-04T12:21:35
   AccrueTime=2023-12-04T12:21:35
   StartTime=2023-12-04T12:21:37 EndTime=2023-12-04T15:21:37 Deadline=N/A
   SuspendTime=None SecsPreSuspend=0 LastSchedEval=2023-12-04T12:21:37 Scheduler=Main
   Partition=boost_usr_prod AllocNode:Sid=10-99-0-7:2872168
   ReqNodeList=(null) ExcNodeList=(null)
   NodeList=lrdn[1289,1498,1500,1513,1528,1530,1544,1557,1560,1574,1588-1589,1604,1618-1619,1628,1646,1649,1694,1700,1707,1723,1729,1735,1748]
   BatchHost=lrdn1289
   NumNodes=25 NumCPUs=800 NumTasks=100 CPUs/Task=8 ReqB:S:C:T=0:0:*:*
   TRES=cpu=800,mem=12320000M,node=25,billing=800,gres/gpu=100
   Socks/Node=* NtasksPerN:B:S:C=4:0:*:* CoreSpec=*
   JOB_GRES=gpu:a100:100
     Nodes=lrdn[1289,1498,1500,1513,1528,1530,1544,1557,1560,1574,1588-1589,1604,1618-1619,1628,1646,1649,1694,1700,1707,1723,1729,1735,1748] CPU_IDs=0-31 Mem=492800 GRES=gpu:a100:4(IDX:0-3)
   MinCPUsNode=32 MinMemoryCPU=15400M MinTmpDiskNode=0
   Features=(null) DelayBoot=00:00:00
   OverSubscribe=NO Contiguous=0 Licenses=(null) Network=(null)
   Command=/leonardo_work/Max3_devel_2/nspallan/jube-benchmarks/run_yambo_7k/000000/000005_submit/work/submit.job
   WorkDir=/leonardo_work/Max3_devel_2/nspallan/jube-benchmarks/run_yambo_7k/000000/000005_submit/work
   StdErr=/leonardo_work/Max3_devel_2/nspallan/jube-benchmarks/run_yambo_7k/000000/000005_submit/work/slurm-2261457.out
   StdIn=/dev/null
   StdOut=/leonardo_work/Max3_devel_2/nspallan/jube-benchmarks/run_yambo_7k/000000/000005_submit/work/slurm-2261457.out
   Power=
   TresPerNode=gres:gpu:4
   

