JobId=7326592 JobName=submit.job
   UserId=nspallan(25378) GroupId=interactive(25200) MCS_label=N/A
   Priority=199738 Nice=0 Account=euhpc_e01_022 QOS=boost_qos_bprod
   JobState=RUNNING Reason=None Dependency=(null)
   Requeue=0 Restarts=0 BatchFlag=1 Reboot=0 ExitCode=0:0
   DerivedExitCode=0:0
   RunTime=00:00:05 TimeLimit=03:00:00 TimeMin=N/A
   SubmitTime=2024-08-30T11:56:08 EligibleTime=2024-08-30T11:56:08
   AccrueTime=2024-08-30T11:56:08
   StartTime=2024-08-30T14:44:33 EndTime=2024-08-30T17:44:34 Deadline=N/A
   SuspendTime=None SecsPreSuspend=0 LastSchedEval=2024-08-30T14:44:33 Scheduler=Main
   Partition=boost_usr_prod AllocNode:Sid=slurm-controller:2033042
   ReqNodeList=(null) ExcNodeList=(null)
   NodeList=lrdn[0834,0840,0852,0877,0882,0898,0927,0947,0957,0973,0987,0997,1010,1016,1045,1057,1069,1076,1091,1107,1118,1136,1140,1150,1161,1172,1179,1186,1202,1212,1223,1232,2379,2437,2488,2582,2589,2601,2616,2635,2639,2643,2651,2668,2672,2701,2718,2723,2733,2746-2747,2765,2772,2784,2794,2799,2805,2850,2867,2872,2880,2910,2934,2936,2968,2998,3088,3107,3142,3192,3201,3217,3264,3268-3270,3285,3288,3367,3397]
   BatchHost=lrdn0834
   NumNodes=80 NumCPUs=2560 NumTasks=320 CPUs/Task=8 ReqB:S:C:T=0:0:*:*
   TRES=cpu=2560,mem=38500G,node=80,billing=2560,gres/gpu=320
   Socks/Node=* NtasksPerN:B:S:C=4:0:*:* CoreSpec=*
   JOB_GRES=gpu:a100:320
     Nodes=lrdn[0834,0840,0852,0877,0882,0898,0927,0947,0957,0973,0987,0997,1010,1016,1045,1057,1069,1076,1091,1107,1118,1136,1140,1150,1161,1172,1179,1186,1202,1212,1223,1232,2379,2437,2488,2582,2589,2601,2616,2635,2639,2643,2651,2668,2672,2701,2718,2723,2733,2746-2747,2765,2772,2784,2794,2799,2805,2850,2867,2872,2880,2910,2934,2936,2968,2998,3088,3107,3142,3192,3201,3217,3264,3268-3270,3285,3288,3367,3397] CPU_IDs=0-31 Mem=492800 GRES=gpu:a100:4(IDX:0-3)
   MinCPUsNode=32 MinMemoryCPU=15400M MinTmpDiskNode=0
   Features=(null) DelayBoot=00:00:00
   OverSubscribe=NO Contiguous=0 Licenses=(null) Network=(null)
   Command=/leonardo_work/EUHPC_E01_022/nspallan/benchmarks/run_workflow_dft/000004/000003_submit/work/submit.job
   WorkDir=/leonardo_work/EUHPC_E01_022/nspallan/benchmarks/run_workflow_dft/000004/000003_submit/work
   StdErr=/leonardo_work/EUHPC_E01_022/nspallan/benchmarks/run_workflow_dft/000004/000003_submit/work/slurm-7326592.out
   StdIn=/dev/null
   StdOut=/leonardo_work/EUHPC_E01_022/nspallan/benchmarks/run_workflow_dft/000004/000003_submit/work/slurm-7326592.out
   Power=
   TresPerNode=gres:gpu:4
   

