Unloading profile/base
  ERROR: Module evaluation aborted
[0] MPI startup(): Intel(R) MPI Library, Version 2021.10  Build 20230619 (id: c2e19c2f3e)
[0] MPI startup(): Copyright (C) 2003-2023 Intel Corporation.  All rights reserved.
[0] MPI startup(): library kind: release
[0] MPI startup(): libfabric version: 1.18.0-impi
[0] MPI startup(): libfabric provider: mlx
[0] MPI startup(): File "/leonardo/prod/spack/05/install/0.21/linux-rhel8-icelake/gcc-8.5.0/intel-oneapi-mpi-2021.10.0-6ff7efudnkj4xa7o4j67mxatygwzfwqc/mpi/2021.10.0/etc/tuning_spr_shm-ofi_mlx_100.dat" not found
[0] MPI startup(): Load tuning file: "/leonardo/prod/spack/05/install/0.21/linux-rhel8-icelake/gcc-8.5.0/intel-oneapi-mpi-2021.10.0-6ff7efudnkj4xa7o4j67mxatygwzfwqc/mpi/2021.10.0/etc/tuning_spr_shm-ofi.dat"
[0] MPI startup(): Rank    Pid      Node name                Pin cpu
[0] MPI startup(): 0       281993   lrdn3905.leonardo.local  {0,1,2,3,4,5,6,7,8,9,10,11,12,13}
[0] MPI startup(): 1       281994   lrdn3905.leonardo.local  {14,15,16,17,18,19,20,21,22,23,24,25,26,27}
[0] MPI startup(): 2       281995   lrdn3905.leonardo.local  {28,29,30,31,32,33,34,35,36,37,38,39,40,41}
[0] MPI startup(): 3       281996   lrdn3905.leonardo.local  {42,43,44,45,46,47,48,49,50,51,52,53,54,55}
[0] MPI startup(): 4       281997   lrdn3905.leonardo.local  {56,57,58,59,60,61,62,63,64,65,66,67,68,69}
[0] MPI startup(): 5       281998   lrdn3905.leonardo.local  {70,71,72,73,74,75,76,77,78,79,80,81,82,83}
[0] MPI startup(): 6       281999   lrdn3905.leonardo.local  {84,85,86,87,88,89,90,91,92,93,94,95,96,97}
[0] MPI startup(): 7       282000   lrdn3905.leonardo.local  {98,99,100,101,102,103,104,105,106,107,108,109,110,111}
[0] MPI startup(): 8       266081   lrdn3906.leonardo.local  {0,1,2,3,4,5,6,7,8,9,10,11,12,13}
[0] MPI startup(): 9       266082   lrdn3906.leonardo.local  {14,15,16,17,18,19,20,21,22,23,24,25,26,27}
[0] MPI startup(): 10      266083   lrdn3906.leonardo.local  {28,29,30,31,32,33,34,35,36,37,38,39,40,41}
[0] MPI startup(): 11      266084   lrdn3906.leonardo.local  {42,43,44,45,46,47,48,49,50,51,52,53,54,55}
[0] MPI startup(): 12      266085   lrdn3906.leonardo.local  {56,57,58,59,60,61,62,63,64,65,66,67,68,69}
[0] MPI startup(): 13      266086   lrdn3906.leonardo.local  {70,71,72,73,74,75,76,77,78,79,80,81,82,83}
[0] MPI startup(): 14      266087   lrdn3906.leonardo.local  {84,85,86,87,88,89,90,91,92,93,94,95,96,97}
[0] MPI startup(): 15      266088   lrdn3906.leonardo.local  {98,99,100,101,102,103,104,105,106,107,108,109,110,111}
[0] MPI startup(): 16      265640   lrdn3907.leonardo.local  {0,1,2,3,4,5,6,7,8,9,10,11,12,13}
[0] MPI startup(): 17      265641   lrdn3907.leonardo.local  {14,15,16,17,18,19,20,21,22,23,24,25,26,27}
[0] MPI startup(): 18      265642   lrdn3907.leonardo.local  {28,29,30,31,32,33,34,35,36,37,38,39,40,41}
[0] MPI startup(): 19      265643   lrdn3907.leonardo.local  {42,43,44,45,46,47,48,49,50,51,52,53,54,55}
[0] MPI startup(): 20      265644   lrdn3907.leonardo.local  {56,57,58,59,60,61,62,63,64,65,66,67,68,69}
[0] MPI startup(): 21      265645   lrdn3907.leonardo.local  {70,71,72,73,74,75,76,77,78,79,80,81,82,83}
[0] MPI startup(): 22      265646   lrdn3907.leonardo.local  {84,85,86,87,88,89,90,91,92,93,94,95,96,97}
[0] MPI startup(): 23      265647   lrdn3907.leonardo.local  {98,99,100,101,102,103,104,105,106,107,108,109,110,111}
[0] MPI startup(): 24      303943   lrdn3908.leonardo.local  {0,1,2,3,4,5,6,7,8,9,10,11,12,13}
[0] MPI startup(): 25      303944   lrdn3908.leonardo.local  {14,15,16,17,18,19,20,21,22,23,24,25,26,27}
[0] MPI startup(): 26      303945   lrdn3908.leonardo.local  {28,29,30,31,32,33,34,35,36,37,38,39,40,41}
[0] MPI startup(): 27      303946   lrdn3908.leonardo.local  {42,43,44,45,46,47,48,49,50,51,52,53,54,55}
[0] MPI startup(): 28      303947   lrdn3908.leonardo.local  {56,57,58,59,60,61,62,63,64,65,66,67,68,69}
[0] MPI startup(): 29      303948   lrdn3908.leonardo.local  {70,71,72,73,74,75,76,77,78,79,80,81,82,83}
[0] MPI startup(): 30      303949   lrdn3908.leonardo.local  {84,85,86,87,88,89,90,91,92,93,94,95,96,97}
[0] MPI startup(): 31      303950   lrdn3908.leonardo.local  {98,99,100,101,102,103,104,105,106,107,108,109,110,111}
[0] MPI startup(): 32      312401   lrdn3909.leonardo.local  {0,1,2,3,4,5,6,7,8,9,10,11,12,13}
[0] MPI startup(): 33      312402   lrdn3909.leonardo.local  {14,15,16,17,18,19,20,21,22,23,24,25,26,27}
[0] MPI startup(): 34      312403   lrdn3909.leonardo.local  {28,29,30,31,32,33,34,35,36,37,38,39,40,41}
[0] MPI startup(): 35      312404   lrdn3909.leonardo.local  {42,43,44,45,46,47,48,49,50,51,52,53,54,55}
[0] MPI startup(): 36      312405   lrdn3909.leonardo.local  {56,57,58,59,60,61,62,63,64,65,66,67,68,69}
[0] MPI startup(): 37      312406   lrdn3909.leonardo.local  {70,71,72,73,74,75,76,77,78,79,80,81,82,83}
[0] MPI startup(): 38      312407   lrdn3909.leonardo.local  {84,85,86,87,88,89,90,91,92,93,94,95,96,97}
[0] MPI startup(): 39      312408   lrdn3909.leonardo.local  {98,99,100,101,102,103,104,105,106,107,108,109,110,111}
[0] MPI startup(): 40      324830   lrdn3910.leonardo.local  {0,1,2,3,4,5,6,7,8,9,10,11,12,13}
[0] MPI startup(): 41      324831   lrdn3910.leonardo.local  {14,15,16,17,18,19,20,21,22,23,24,25,26,27}
[0] MPI startup(): 42      324832   lrdn3910.leonardo.local  {28,29,30,31,32,33,34,35,36,37,38,39,40,41}
[0] MPI startup(): 43      324833   lrdn3910.leonardo.local  {42,43,44,45,46,47,48,49,50,51,52,53,54,55}
[0] MPI startup(): 44      324834   lrdn3910.leonardo.local  {56,57,58,59,60,61,62,63,64,65,66,67,68,69}
[0] MPI startup(): 45      324835   lrdn3910.leonardo.local  {70,71,72,73,74,75,76,77,78,79,80,81,82,83}
[0] MPI startup(): 46      324836   lrdn3910.leonardo.local  {84,85,86,87,88,89,90,91,92,93,94,95,96,97}
[0] MPI startup(): 47      324837   lrdn3910.leonardo.local  {98,99,100,101,102,103,104,105,106,107,108,109,110,111}
[0] MPI startup(): I_MPI_ROOT=/leonardo/prod/spack/05/install/0.21/linux-rhel8-icelake/gcc-8.5.0/intel-oneapi-mpi-2021.10.0-6ff7efudnkj4xa7o4j67mxatygwzfwqc/mpi/2021.10.0
[0] MPI startup(): I_MPI_MPIRUN=mpirun
[0] MPI startup(): I_MPI_BIND_WIN_ALLOCATE=localalloc
[0] MPI startup(): I_MPI_HYDRA_TOPOLIB=hwloc
[0] MPI startup(): I_MPI_JOB_RESPECT_PROCESS_PLACEMENT=0
[0] MPI startup(): I_MPI_HYDRA_BOOTSTRAP=slurm
[0] MPI startup(): I_MPI_RETURN_WIN_MEM_NUMA=0
[0] MPI startup(): I_MPI_PIN_CELL=core
[0] MPI startup(): I_MPI_PIN_DOMAIN=14
[0] MPI startup(): I_MPI_PIN_ORDER=range
[0] MPI startup(): I_MPI_INTERNAL_MEM_POLICY=default
[0] MPI startup(): I_MPI_DEBUG=5
      Welcome to FLEUR        (www.flapw.de)   
      MaX-Release 7.0          (www.max-centre.eu)
 Running on           48  PE
           1  jobs are distributed on           48  unassigned PE
 Now copying inp_dump.xml
 
 ========== k-point set info ==========
 Selected k-point list: default
 k-point list type: unspecified
 Number of k points: 1
 
 --------------------------------------------------------
 Number of MPI-tasks:            48
 Number of PE/node  :             8
 Number of OMP-threads:          12
 k-points in parallel:            1
 pe's per k-point:               48
 # of k-point loops:              1
 --------------------------------------------------------
 Signal           11  detected on PE:           0
 This might be due to either:
  - A bug
  - Your job running out of memory
  - Your job got killed externally (e.g. no cpu-time left)
  - ....
 Please check and report if you believe you found a bug
 Signal           11  detected on PE:           1
 This might be due to either:
  - A bug
  - Your job running out of memory
  - Your job got killed externally (e.g. no cpu-time left)
  - ....
 Please check and report if you believe you found a bug
 Signal           11  detected on PE:           7
 This might be due to either:
  - A bug
  - Your job running out of memory
  - Your job got killed externally (e.g. no cpu-time left)
  - ....
 Please check and report if you believe you found a bug
 Signal           11  detected on PE:           3
 Signal           11  detected on PE:           2
 This might be due to either:
  - A bug
  - Your job running out of memory
  - Your job got killed externally (e.g. no cpu-time left)
  - ....
 Please check and report if you believe you found a bug
 This might be due to either:
  - A bug
  - Your job running out of memory
  - Your job got killed externally (e.g. no cpu-time left)
  - ....
 Please check and report if you believe you found a bug
 Signal           11  detected on PE:           4
 This might be due to either:
  - A bug
  - Your job running out of memory
  - Your job got killed externally (e.g. no cpu-time left)
  - ....
 Please check and report if you believe you found a bug
 Signal           11  detected on PE:           5
 This might be due to either:
  - A bug
  - Your job running out of memory
  - Your job got killed externally (e.g. no cpu-time left)
  - ....
 Please check and report if you believe you found a bug
 Signal           11  detected on PE:           6
 This might be due to either:
  - A bug
  - Your job running out of memory
  - Your job got killed externally (e.g. no cpu-time left)
  - ....
 Please check and report if you believe you found a bug
 Signal           11  detected on PE:          32
 Signal           11  detected on PE:          36
 This might be due to either:
  - A bug
  - Your job running out of memory
  - Your job got killed externally (e.g. no cpu-time left)
  - ....
 Please check and report if you believe you found a bug
 This might be due to either:
  - A bug
  - Your job running out of memory
  - Your job got killed externally (e.g. no cpu-time left)
  - ....
 Please check and report if you believe you found a bug
 Signal           11  detected on PE:          33
 This might be due to either:
  - A bug
  - Your job running out of memory
  - Your job got killed externally (e.g. no cpu-time left)
  - ....
 Please check and report if you believe you found a bug
 Signal           11  detected on PE:          34
 This might be due to either:
  - A bug
  - Your job running out of memory
  - Your job got killed externally (e.g. no cpu-time left)
  - ....
 Please check and report if you believe you found a bug
 Signal           11  detected on PE:          37
 This might be due to either:
  - A bug
  - Your job running out of memory
  - Your job got killed externally (e.g. no cpu-time left)
  - ....
 Please check and report if you believe you found a bug
 Signal           11  detected on PE:          39
 This might be due to either:
  - A bug
  - Your job running out of memory
  - Your job got killed externally (e.g. no cpu-time left)
  - ....
 Please check and report if you believe you found a bug
 Signal           11  detected on PE:          43
 Signal           11  detected on PE:          24
 Signal           11  detected on PE:          44
 This might be due to either:
  - A bug
  - Your job running out of memory
  - Your job got killed externally (e.g. no cpu-time left)
  - ....
 Please check and report if you believe you found a bug
 Signal           11  detected on PE:          45
 This might be due to either:
  - A bug
  - Your job running out of memory
  - Your job got killed externally (e.g. no cpu-time left)
  - ....
 Please check and report if you believe you found a bug
 Signal           11  detected on PE:          46
 This might be due to either:
  - A bug
  - Your job running out of memory
  - Your job got killed externally (e.g. no cpu-time left)
  - ....
 Please check and report if you believe you found a bug
 Signal           11  detected on PE:          25
 This might be due to either:
  - A bug
  - Your job running out of memory
  - Your job got killed externally (e.g. no cpu-time left)
  - ....
 Please check and report if you believe you found a bug
 Signal           11  detected on PE:          47
 This might be due to either:
  - A bug
  - Your job running out of memory
  - Your job got killed externally (e.g. no cpu-time left)
  - ....
 Please check and report if you believe you found a bug
 Signal           11  detected on PE:          26
 This might be due to either:
  - A bug
  - Your job running out of memory
  - Your job got killed externally (e.g. no cpu-time left)
  - ....
 Please check and report if you believe you found a bug
 Signal           11  detected on PE:          40
 This might be due to either:
  - A bug
  - Your job running out of memory
  - Your job got killed externally (e.g. no cpu-time left)
  - ....
 Please check and report if you believe you found a bug
 Signal           11  detected on PE:          27
 This might be due to either:
  - A bug
  - Your job running out of memory
  - Your job got killed externally (e.g. no cpu-time left)
  - ....
 Please check and report if you believe you found a bug
 Signal           11  detected on PE:          41
 This might be due to either:
  - A bug
  - Your job running out of memory
  - Your job got killed externally (e.g. no cpu-time left)
  - ....
 Please check and report if you believe you found a bug
 Signal           11  detected on PE:          28
 This might be due to either:
  - A bug
  - Your job running out of memory
  - Your job got killed externally (e.g. no cpu-time left)
  - ....
 Please check and report if you believe you found a bug
 Signal           11  detected on PE:           8
 Signal           11  detected on PE:          42
 This might be due to either:
  - A bug
  - Your job running out of memory
  - Your job got killed externally (e.g. no cpu-time left)
  - ....
 Please check and report if you believe you found a bug
 Signal           11  detected on PE:          19
 Signal           11  detected on PE:          29
 This might be due to either:
  - A bug
  - Your job running out of memory
  - Your job got killed externally (e.g. no cpu-time left)
  - ....
 Please check and report if you believe you found a bug
 Signal           11  detected on PE:          12
 This might be due to either:
  - A bug
  - Your job running out of memory
  - Your job got killed externally (e.g. no cpu-time left)
  - ....
 Please check and report if you believe you found a bug
 This might be due to either:
  - A bug
  - Your job running out of memory
  - Your job got killed externally (e.g. no cpu-time left)
  - ....
 Please check and report if you believe you found a bug
 Signal           11  detected on PE:          30
 This might be due to either:
  - A bug
  - Your job running out of memory
  - Your job got killed externally (e.g. no cpu-time left)
  - ....
 Please check and report if you believe you found a bug
 Signal           11  detected on PE:          13
 This might be due to either:
  - A bug
  - Your job running out of memory
  - Your job got killed externally (e.g. no cpu-time left)
  - ....
 Please check and report if you believe you found a bug
 Signal           11  detected on PE:          31
 This might be due to either:
  - A bug
  - Your job running out of memory
  - Your job got killed externally (e.g. no cpu-time left)
  - ....
 Please check and report if you believe you found a bug
 Signal           11  detected on PE:          15
 This might be due to either:
  - A bug
  - Your job running out of memory
  - Your job got killed externally (e.g. no cpu-time left)
  - ....
 Please check and report if you believe you found a bug
 Signal           11  detected on PE:          23
 This might be due to either:
  - A bug
  - Your job running out of memory
  - Your job got killed externally (e.g. no cpu-time left)
  - ....
 Please check and report if you believe you found a bug
 This might be due to either:
  - A bug
  - Your job running out of memory
  - Your job got killed externally (e.g. no cpu-time left)
  - ....
 Please check and report if you believe you found a bug
 This might be due to either:
  - A bug
  - Your job running out of memory
  - Your job got killed externally (e.g. no cpu-time left)
  - ....
 Please check and report if you believe you found a bug
 Signal           11  detected on PE:          16
 This might be due to either:
  - A bug
  - Your job running out of memory
  - Your job got killed externally (e.g. no cpu-time left)
  - ....
 Please check and report if you believe you found a bug
 Signal           11  detected on PE:           9
 This might be due to either:
  - A bug
  - Your job running out of memory
  - Your job got killed externally (e.g. no cpu-time left)
  - ....
 Please check and report if you believe you found a bug
 Signal           11  detected on PE:          17
 This might be due to either:
  - A bug
  - Your job running out of memory
  - Your job got killed externally (e.g. no cpu-time left)
  - ....
 Please check and report if you believe you found a bug
 Signal           11  detected on PE:          10
 This might be due to either:
  - A bug
  - Your job running out of memory
  - Your job got killed externally (e.g. no cpu-time left)
  - ....
 Please check and report if you believe you found a bug
 Signal           11  detected on PE:          18
 This might be due to either:
  - A bug
  - Your job running out of memory
  - Your job got killed externally (e.g. no cpu-time left)
  - ....
 Please check and report if you believe you found a bug
 Signal           11  detected on PE:          11
 This might be due to either:
  - A bug
  - Your job running out of memory
  - Your job got killed externally (e.g. no cpu-time left)
  - ....
 Please check and report if you believe you found a bug
 This might be due to either:
  - A bug
  - Your job running out of memory
  - Your job got killed externally (e.g. no cpu-time left)
  - ....
 Please check and report if you believe you found a bug
 Signal           11  detected on PE:          14
 This might be due to either:
  - A bug
  - Your job running out of memory
  - Your job got killed externally (e.g. no cpu-time left)
  - ....
 Please check and report if you believe you found a bug
 Signal           11  detected on PE:          20
 This might be due to either:
  - A bug
  - Your job running out of memory
  - Your job got killed externally (e.g. no cpu-time left)
  - ....
 Please check and report if you believe you found a bug
 Signal           11  detected on PE:          21
 This might be due to either:
  - A bug
  - Your job running out of memory
  - Your job got killed externally (e.g. no cpu-time left)
  - ....
 Please check and report if you believe you found a bug
 Signal           11  detected on PE:          22
 This might be due to either:
  - A bug
  - Your job running out of memory
  - Your job got killed externally (e.g. no cpu-time left)
  - ....
 Please check and report if you believe you found a bug
Abort(0) on node 1 (rank 1 in comm 0): application called MPI_Abort(MPI_COMM_WORLD, 0) - process 1
Abort(0) on node 3 (rank 3 in comm 0): application called MPI_Abort(MPI_COMM_WORLD, 0) - process 3
Abort(0) on node 7 (rank 7 in comm 0): application called MPI_Abort(MPI_COMM_WORLD, 0) - process 7
Abort(0) on node 32 (rank 32 in comm 0): application called MPI_Abort(MPI_COMM_WORLD, 0) - process 32
Abort(0) on node 33 (rank 33 in comm 0): application called MPI_Abort(MPI_COMM_WORLD, 0) - process 33
Abort(0) on node 34 (rank 34 in comm 0): application called MPI_Abort(MPI_COMM_WORLD, 0) - process 34
Abort(0) on node 36 (rank 36 in comm 0): application called MPI_Abort(MPI_COMM_WORLD, 0) - process 36
Abort(0) on node 39 (rank 39 in comm 0): application called MPI_Abort(MPI_COMM_WORLD, 0) - process 39
Abort(0) on node 2 (rank 2 in comm 0): application called MPI_Abort(MPI_COMM_WORLD, 0) - process 2
Abort(0) on node 4 (rank 4 in comm 0): application called MPI_Abort(MPI_COMM_WORLD, 0) - process 4
Abort(0) on node 5 (rank 5 in comm 0): application called MPI_Abort(MPI_COMM_WORLD, 0) - process 5
Abort(0) on node 6 (rank 6 in comm 0): application called MPI_Abort(MPI_COMM_WORLD, 0) - process 6
Abort(0) on node 37 (rank 37 in comm 0): application called MPI_Abort(MPI_COMM_WORLD, 0) - process 37
