JobID        JobIDRaw        JobName  Partition  MaxVMSize  MaxVMSizeNode  MaxVMSizeTask  AveVMSize     MaxRSS MaxRSSNode MaxRSSTask     AveRSS MaxPages MaxPagesNode   MaxPagesTask   AvePages     MinCPU MinCPUNode MinCPUTask     AveCPU   NTasks  AllocCPUS    Elapsed      State ExitCode AveCPUFreq ReqCPUFreqMin ReqCPUFreqMax ReqCPUFreqGov     ReqMem ConsumedEnergy  MaxDiskRead MaxDiskReadNode MaxDiskReadTask    AveDiskRead MaxDiskWrite MaxDiskWriteNode MaxDiskWriteTask   AveDiskWrite    ReqTRES  AllocTRES TRESUsageInAve TRESUsageInMax TRESUsageInMaxNode TRESUsageInMaxTask TRESUsageInMin TRESUsageInMinNode TRESUsageInMinTask TRESUsageInTot TRESUsageOutMax TRESUsageOutMaxNode TRESUsageOutMaxTask TRESUsageOutAve TRESUsageOutTot 
------------ ------------ ---------- ---------- ---------- -------------- -------------- ---------- ---------- ---------- ---------- ---------- -------- ------------ -------------- ---------- ---------- ---------- ---------- ---------- -------- ---------- ---------- ---------- -------- ---------- ------------- ------------- ------------- ---------- -------------- ------------ --------------- --------------- -------------- ------------ ---------------- ---------------- -------------- ---------- ---------- -------------- -------------- ------------------ ------------------ -------------- ------------------ ------------------ -------------- --------------- ------------------- ------------------- --------------- --------------- 
2261461      2261461      submit.job boost_usr+                                                                                                                                                                                                            1120   00:02:05    RUNNING      0:0                  Unknown       Unknown       Unknown  17248000M                                                                                                                                          billing=1+ billing=1+                                                                                                                                                                                                                                 
2261461.bat+ 2261461.bat+      batch                                                                                                                                                                                                               1         32   00:02:05    RUNNING      0:0          0             0             0             0                         0                                                                                                                                      cpu=32,gr+                                                                                                                                                                                                                                 
2261461.ext+ 2261461.ext+     extern                                                                                                                                                                                                              35       1120   00:02:05    RUNNING      0:0          0             0             0             0                         0                                                                                                                                      billing=1+                                                                                                                                                                                                                                 
2261461.0    2261461.0         orted              8457500K       lrdn0800              0    248750K   7007284K   lrdn0800          0  211042906     9280     lrdn0800              0        272   00:07:43   lrdn1316         25   00:07:46       34       1088   00:02:01  COMPLETED      0:0    178.83M       Unknown       Unknown       Unknown                         0        0.28M        lrdn0973               8          0.28M        0.01M         lrdn0800                0          0.01M            cpu=1088,+ cpu=00:07:46,+ cpu=00:07:47,+ cpu=lrdn1158,ener+ cpu=16,fs/disk=8,+ cpu=00:07:43,+ cpu=lrdn1316,ener+ cpu=25,fs/disk=29+ cpu=04:24:14,+ energy=0,fs/di+ energy=lrdn0921,fs+           fs/disk=0 energy=0,fs/di+ energy=0,fs/di+ 
