Unloading profile/base
  ERROR: Module evaluation aborted
Loading yambo/5.2.0--openmpi--4.1.4--nvhpc--23.1
  Loading requirement: zlib/1.2.13--gcc--11.3.0
    openmpi/4.1.4--nvhpc--23.1-cuda-11.8
    fftw/3.3.10--openmpi--4.1.4--nvhpc--23.1
    hdf5/1.12.2--openmpi--4.1.4--nvhpc--23.1 libxc/5.2.3--nvhpc--23.1
    parallel-netcdf/1.12.3--openmpi--4.1.4--nvhpc--23.1
    netcdf-c/4.9.0--openmpi--4.1.4--nvhpc--23.1
    netcdf-fortran/4.6.0--openmpi--4.1.4--nvhpc--23.1
    openblas/0.3.21--nvhpc--23.1
    netlib-scalapack/2.2.0--openmpi--4.1.4--nvhpc--23.1
    petsc/3.18.1--openmpi--4.1.4--nvhpc--23.1-complex
    slepc/3.18.1--openmpi--4.1.4--nvhpc--23.1
