JobID        JobIDRaw        JobName  Partition  MaxVMSize  MaxVMSizeNode  MaxVMSizeTask  AveVMSize     MaxRSS MaxRSSNode MaxRSSTask     AveRSS MaxPages MaxPagesNode   MaxPagesTask   AvePages     MinCPU MinCPUNode MinCPUTask     AveCPU   NTasks  AllocCPUS    Elapsed      State ExitCode AveCPUFreq ReqCPUFreqMin ReqCPUFreqMax ReqCPUFreqGov     ReqMem ConsumedEnergy  MaxDiskRead MaxDiskReadNode MaxDiskReadTask    AveDiskRead MaxDiskWrite MaxDiskWriteNode MaxDiskWriteTask   AveDiskWrite    ReqTRES  AllocTRES TRESUsageInAve TRESUsageInMax TRESUsageInMaxNode TRESUsageInMaxTask TRESUsageInMin TRESUsageInMinNode TRESUsageInMinTask TRESUsageInTot TRESUsageOutMax TRESUsageOutMaxNode TRESUsageOutMaxTask TRESUsageOutAve TRESUsageOutTot 
------------ ------------ ---------- ---------- ---------- -------------- -------------- ---------- ---------- ---------- ---------- ---------- -------- ------------ -------------- ---------- ---------- ---------- ---------- ---------- -------- ---------- ---------- ---------- -------- ---------- ------------- ------------- ------------- ---------- -------------- ------------ --------------- --------------- -------------- ------------ ---------------- ---------------- -------------- ---------- ---------- -------------- -------------- ------------------ ------------------ -------------- ------------------ ------------------ -------------- --------------- ------------------- ------------------- --------------- --------------- 
8210834      8210834       CovidWeak standard-g                                                                                                                                                                                                             448   00:06:45    RUNNING      0:0                  Unknown       Unknown       Unknown      1920G                                                                                                                                          billing=1+ billing=4+                                                                                                                                                                                                                                 
8210834.bat+ 8210834.bat+      batch                                                                                                                                                                                                               1        112   00:06:45    RUNNING      0:0          0             0             0             0                         0                                                                                                                                      cpu=112,g+                                                                                                                                                                                                                                 
8210834.0    8210834.0    lumi-gpu-+             21893028K      nid005409             59 200237549+   4025248K  nid005408         14   3586643K     2902    nid005408             10       2290   00:07:22  nid005410         70   00:07:55      128        448   00:06:39  COMPLETED      0:0    142.77M       Unknown       Unknown       Unknown                   792.38K      331.46M       nid005408               0        329.20M       16.75M        nid005408                0          3.69M            cpu=448,g+ cpu=00:07:55,+ cpu=00:08:08,+ cpu=nid005408,ene+ cpu=30,fs/disk=0,+ cpu=00:07:22,+ cpu=nid005410,ene+ cpu=70,fs/disk=26+ cpu=16:53:21,+ energy=1593,fs+ energy=nid005408,f+           fs/disk=0 energy=34,fs/d+ energy=4456,fs+ 
