JobId=7331698 JobName=submit.job
   UserId=nspallan(25378) GroupId=interactive(25200) MCS_label=N/A
   Priority=200794 Nice=0 Account=euhpc_e01_022 QOS=boost_qos_bprod
   JobState=RUNNING Reason=None Dependency=(null)
   Requeue=0 Restarts=0 BatchFlag=1 Reboot=0 ExitCode=0:0
   DerivedExitCode=0:0
   RunTime=00:00:05 TimeLimit=03:00:00 TimeMin=N/A
   SubmitTime=2024-08-30T17:10:17 EligibleTime=2024-08-30T17:10:17
   AccrueTime=2024-08-30T17:10:17
   StartTime=2024-08-30T23:49:06 EndTime=2024-08-31T02:49:06 Deadline=N/A
   SuspendTime=None SecsPreSuspend=0 LastSchedEval=2024-08-30T23:49:06 Scheduler=Main
   Partition=boost_usr_prod AllocNode:Sid=slurm-controller:2033042
   ReqNodeList=(null) ExcNodeList=(null)
   NodeList=lrdn[0006,0010,0040,0045,0061,0072,0084,0098,0114,0127,0138,0147,0156,0188,0197,0214,0219,0236,0258,0265,0271,0287,0293,0304,0320,0323,0337,0350,0356,0374,0387,0390,0398,0402,0439,0444,0459,0463,0476,0498,0518,0536,0540,0547,0557,0566,0573,0589,0595,0607,0620,0624,0637,0657,0660,0662,0677,0686,0695,0700,0712,0742,0752,0760,0783,0800,0802,0812,0822,0837,0846,0852,0862,0877,0882,0886,0902,0924,0937,0947,0957,0967,0983,0998,1001,1025,1030,1035,1053,1060,1066,1169,1172,1179,1186,1202,1209,1221,1231,1239,1255,1263,1270,1284,1295,1310,1326,1338,1347,1352,1360,1365,1383,1404,1411,1419,1433,1441,1451,1455,1474,1485,1490,1502,1509,1515,1534,1540,1545,1561,1569,1584,1593,1601,1606,1626,1632,1651,1659,1673,1683,1698,1702,1714,1731,1741,1750,1756,1774,1779,1796,1805,1811,1815,1832,1839,1851,1867,1877,1887]
   BatchHost=lrdn0006
   NumNodes=160 NumCPUs=5120 NumTasks=640 CPUs/Task=8 ReqB:S:C:T=0:0:*:*
   TRES=cpu=5120,mem=77000G,node=160,billing=5120,gres/gpu=640
   Socks/Node=* NtasksPerN:B:S:C=4:0:*:* CoreSpec=*
   JOB_GRES=gpu:a100:640
     Nodes=lrdn[0006,0010,0040,0045,0061,0072,0084,0098,0114,0127,0138,0147,0156,0188,0197,0214,0219,0236,0258,0265,0271,0287,0293,0304,0320,0323,0337,0350,0356,0374,0387,0390,0398,0402,0439,0444,0459,0463,0476,0498,0518,0536,0540,0547,0557,0566,0573,0589,0595,0607,0620,0624,0637,0657,0660,0662,0677,0686,0695,0700,0712,0742,0752,0760,0783,0800,0802,0812,0822,0837,0846,0852,0862,0877,0882,0886,0902,0924,0937,0947,0957,0967,0983,0998,1001,1025,1030,1035,1053,1060,1066,1169,1172,1179,1186,1202,1209,1221,1231,1239,1255,1263,1270,1284,1295,1310,1326,1338,1347,1352,1360,1365,1383,1404,1411,1419,1433,1441,1451,1455,1474,1485,1490,1502,1509,1515,1534,1540,1545,1561,1569,1584,1593,1601,1606,1626,1632,1651,1659,1673,1683,1698,1702,1714,1731,1741,1750,1756,1774,1779,1796,1805,1811,1815,1832,1839,1851,1867,1877,1887] CPU_IDs=0-31 Mem=492800 GRES=gpu:a100:4(IDX:0-3)
   MinCPUsNode=32 MinMemoryCPU=15400M MinTmpDiskNode=0
   Features=(null) DelayBoot=00:00:00
   OverSubscribe=NO Contiguous=0 Licenses=(null) Network=(null)
   Command=/leonardo_work/EUHPC_E01_022/nspallan/benchmarks/strongscaling_gpu_523_61k/000000/000003_submit/work/submit.job
   WorkDir=/leonardo_work/EUHPC_E01_022/nspallan/benchmarks/strongscaling_gpu_523_61k/000000/000003_submit/work
   StdErr=/leonardo_work/EUHPC_E01_022/nspallan/benchmarks/strongscaling_gpu_523_61k/000000/000003_submit/work/slurm-7331698.out
   StdIn=/dev/null
   StdOut=/leonardo_work/EUHPC_E01_022/nspallan/benchmarks/strongscaling_gpu_523_61k/000000/000003_submit/work/slurm-7331698.out
   Power=
   TresPerNode=gres:gpu:4
   

