{
 "global_section": { "_calls": 1, "_time":       58.673, "_%":   100.00,
   "siesta": { "_calls": 1, "_time":       58.673, "_%":   100.00,
     "Setup": { "_calls": 1, "_time":        1.201, "_%":     2.05,
       "bands": { "_calls": 1, "_time":        0.002, "_%":     0.00},
       "KSV_init": { "_calls": 1, "_time":        0.001, "_%":     0.00}
     },
     "IterGeom": { "_calls": 1, "_time":       57.309, "_%":    97.68,
       "geom_init": { "_calls": 1, "_time":       13.077, "_%":    22.29,
         "state_init": { "_calls": 1, "_time":        1.981, "_%":     3.38,
           "hsparse": { "_calls": 1, "_time":        0.138, "_%":     0.24},
           "overlap": { "_calls": 1, "_time":        0.765, "_%":     1.30}
         },
         "Setup_H0": { "_calls": 1, "_time":       11.094, "_%":    18.91,
           "naefs": { "_calls": 1, "_time":        0.023, "_%":     0.04},
           "MolMec": { "_calls": 1, "_time":        0.000, "_%":     0.00},
           "kinefsm": { "_calls": 1, "_time":        0.761, "_%":     1.30},
           "nlefsm": { "_calls": 1, "_time":        1.700, "_%":     2.90},
           "DHSCF_Init": { "_calls": 1, "_time":        8.596, "_%":    14.65,
             "DHSCF1": { "_calls": 1, "_time":        0.062, "_%":     0.11,
               "INITMESH": { "_calls": 1, "_time":        0.000, "_%":     0.00}
             },
             "DHSCF2": { "_calls": 1, "_time":        8.513, "_%":    14.51,
               "REMESH": { "_calls": 1, "_time":        2.747, "_%":     4.68,
                 "INITMESH": { "_calls": 2, "_time":        2.717, "_%":     4.63,
                   "SPLOAD": { "_calls": 2, "_time":        2.683, "_%":     4.57}
                 }
               },
               "REORD": { "_calls": 2, "_time":        0.035, "_%":     0.06},
               "PHION": { "_calls": 1, "_time":        0.537, "_%":     0.92},
               "COMM_BSC": { "_calls": 1, "_time":        0.078, "_%":     0.13},
               "POISON": { "_calls": 1, "_time":        4.335, "_%":     7.39,
                 "fft": { "_calls": 2, "_time":        4.153, "_%":     7.08}
               }
             }
           }
         }
       },
       "IterSCF": { "_calls": 5, "_time":       44.156, "_%":    75.26,
         "setup_H": { "_calls": 5, "_time":       34.002, "_%":    57.95,
           "DHSCF": { "_calls": 5, "_time":       33.982, "_%":    57.92,
             "DHSCF3": { "_calls": 5, "_time":       33.982, "_%":    57.92,
               "rhoofd": { "_calls": 5, "_time":        0.395, "_%":     0.67},
               "COMM_BSC": { "_calls": 10, "_time":        0.785, "_%":     1.34},
               "POISON": { "_calls": 5, "_time":       21.418, "_%":    36.50,
                 "fft": { "_calls": 10, "_time":       20.409, "_%":    34.78}
               },
               "XC": { "_calls": 5, "_time":        8.864, "_%":    15.11,
                 "COMM_BSC": { "_calls": 10, "_time":        0.941, "_%":     1.60},
                 "GXC-CellXC": { "_calls": 5, "_time":        7.656, "_%":    13.05,
                   "gridxc@cellXC": { "_calls": 5, "_time":        7.656, "_%":    13.05}
                 }
               },
               "vmat": { "_calls": 5, "_time":        0.350, "_%":     0.60}
             }
           }
         },
         "compute_dm": { "_calls": 5, "_time":       10.119, "_%":    17.25,
           "elsi": { "_calls": 5, "_time":       10.118, "_%":    17.24,
             "find nnz_g": { "_calls": 5, "_time":        0.000, "_%":     0.00},
             "elsi-solver": { "_calls": 5, "_time":       10.094, "_%":    17.20}
           }
         },
         "MIXER": { "_calls": 5, "_time":        0.008, "_%":     0.01}
       },
       "state_analysis": { "_calls": 1, "_time":        0.050, "_%":     0.09},
       "siesta_move": { "_calls": 1, "_time":        0.000, "_%":     0.00}
     },
     "Analysis": { "_calls": 1, "_time":        0.160, "_%":     0.27,
       "optical": { "_calls": 1, "_time":        0.001, "_%":     0.00}
     }
   }
 }}
