{
 "global_section": { "_calls": 1, "_time":     3956.081, "_%":   100.00,
   "siesta": { "_calls": 1, "_time":     3956.081, "_%":   100.00,
     "Setup": { "_calls": 1, "_time":        2.086, "_%":     0.05,
       "bands": { "_calls": 1, "_time":        0.006, "_%":     0.00},
       "KSV_init": { "_calls": 1, "_time":        0.001, "_%":     0.00}
     },
     "IterGeom": { "_calls": 1, "_time":     3953.746, "_%":    99.94,
       "geom_init": { "_calls": 1, "_time":      243.164, "_%":     6.15,
         "state_init": { "_calls": 1, "_time":        1.317, "_%":     0.03,
           "hsparse": { "_calls": 1, "_time":        0.171, "_%":     0.00},
           "overlap": { "_calls": 1, "_time":        0.043, "_%":     0.00}
         },
         "Setup_H0": { "_calls": 1, "_time":      241.847, "_%":     6.11,
           "naefs": { "_calls": 1, "_time":        0.032, "_%":     0.00},
           "MolMec": { "_calls": 1, "_time":        0.000, "_%":     0.00},
           "kinefsm": { "_calls": 1, "_time":        0.028, "_%":     0.00},
           "nlefsm": { "_calls": 1, "_time":        0.152, "_%":     0.00},
           "DHSCF_Init": { "_calls": 1, "_time":      241.616, "_%":     6.11,
             "DHSCF1": { "_calls": 1, "_time":        0.054, "_%":     0.00,
               "INITMESH": { "_calls": 1, "_time":        0.001, "_%":     0.00}
             },
             "DHSCF2": { "_calls": 1, "_time":      241.526, "_%":     6.11,
               "REMESH": { "_calls": 1, "_time":      216.269, "_%":     5.47,
                 "INITMESH": { "_calls": 2, "_time":      202.607, "_%":     5.12,
                   "SPLOAD": { "_calls": 2, "_time":        9.739, "_%":     0.25}
                 }
               },
               "REORD": { "_calls": 2, "_time":        0.000, "_%":     0.00},
               "PHION": { "_calls": 1, "_time":        0.007, "_%":     0.00},
               "COMM_BSC": { "_calls": 1, "_time":        0.005, "_%":     0.00},
               "POISON": { "_calls": 1, "_time":        0.201, "_%":     0.01,
                 "fft": { "_calls": 2, "_time":        0.191, "_%":     0.00}
               }
             }
           }
         }
       },
       "IterSCF": { "_calls": 5, "_time":     3710.456, "_%":    93.79,
         "setup_H": { "_calls": 5, "_time":        2.218, "_%":     0.06,
           "DHSCF": { "_calls": 5, "_time":        2.212, "_%":     0.06,
             "DHSCF3": { "_calls": 5, "_time":        2.212, "_%":     0.06,
               "rhoofd": { "_calls": 5, "_time":        0.043, "_%":     0.00},
               "COMM_BSC": { "_calls": 10, "_time":        0.073, "_%":     0.00},
               "POISON": { "_calls": 5, "_time":        0.954, "_%":     0.02,
                 "fft": { "_calls": 10, "_time":        0.901, "_%":     0.02}
               },
               "XC": { "_calls": 5, "_time":        0.938, "_%":     0.02,
                 "COMM_BSC": { "_calls": 10, "_time":        0.079, "_%":     0.00},
                 "GXC-CellXC": { "_calls": 5, "_time":        0.837, "_%":     0.02,
                   "gridxc@cellXC": { "_calls": 5, "_time":        0.837, "_%":     0.02}
                 }
               },
               "vmat": { "_calls": 5, "_time":        0.046, "_%":     0.00}
             }
           }
         },
         "compute_dm": { "_calls": 5, "_time":     3708.168, "_%":    93.73,
           "redist_orbs_fwd": { "_calls": 320, "_time":     3659.317, "_%":    92.50},
           "elsi-complex-solver": { "_calls": 5, "_time":       24.449, "_%":     0.62,
             "elsi-solver": { "_calls": 5, "_time":       23.347, "_%":     0.59}
           },
           "redist_dm-edm_bck": { "_calls": 5, "_time":       24.141, "_%":     0.61}
         },
         "MIXER": { "_calls": 5, "_time":        0.049, "_%":     0.00}
       },
       "state_analysis": { "_calls": 1, "_time":        0.094, "_%":     0.00},
       "siesta_move": { "_calls": 1, "_time":        0.000, "_%":     0.00}
     },
     "Analysis": { "_calls": 1, "_time":        0.238, "_%":     0.01,
       "optical": { "_calls": 1, "_time":        0.001, "_%":     0.00}
     }
   }
 }}
