JobId=6738112 JobName=submit.job
   UserId=bellenta(327000822) GroupId=pepr_bellenta(327000822) MCS_label=N/A
   Priority=384 Nice=0 Account=project_465000641 QOS=normal
   JobState=RUNNING Reason=None Dependency=(null)
   Requeue=1 Restarts=0 BatchFlag=1 Reboot=0 ExitCode=0:0
   DerivedExitCode=0:0
   RunTime=00:00:01 TimeLimit=03:00:00 TimeMin=N/A
   SubmitTime=2024-03-29T10:03:56 EligibleTime=2024-03-29T10:03:56
   AccrueTime=2024-03-29T10:03:56
   StartTime=2024-03-29T10:53:42 EndTime=2024-03-29T13:53:42 Deadline=N/A
   SuspendTime=None SecsPreSuspend=0 LastSchedEval=2024-03-29T10:53:42 Scheduler=Backfill
   Partition=ju-standard AllocNode:Sid=ln04-nmn:126809
   ReqNodeList=(null) ExcNodeList=(null)
   NodeList=nid[002275-002278]
   BatchHost=nid002275
   NumNodes=4 NumCPUs=1024 NumTasks=256 CPUs/Task=1 ReqB:S:C:T=0:0:*:1
   TRES=cpu=1024,node=4,billing=1024
   Socks/Node=* NtasksPerN:B:S:C=64:0:*:1 CoreSpec=*
   JOB_GRES=(null)
     Nodes=nid[002275-002278] CPU_IDs=0-255 Mem=0 GRES=
   MinCPUsNode=64 MinMemoryCPU=0 MinTmpDiskNode=0
   Features=(null) DelayBoot=00:00:00
   OverSubscribe=NO Contiguous=0 Licenses=(null) Network=(null)
   Command=/pfs/lustrep2/scratch/project_465000641/bellenta/quantumespresso/cnt10por8/lumi-c/bench_lumi-c-prova/000002/000000_submit_N4np256/work/submit.job
   WorkDir=/pfs/lustrep2/scratch/project_465000641/bellenta/quantumespresso/cnt10por8/lumi-c/bench_lumi-c-prova/000002/000000_submit_N4np256/work
   StdErr=/pfs/lustrep2/scratch/project_465000641/bellenta/quantumespresso/cnt10por8/lumi-c/bench_lumi-c-prova/000002/000000_submit_N4np256/work/slurm-6738112.out
   StdIn=/dev/null
   StdOut=/pfs/lustrep2/scratch/project_465000641/bellenta/quantumespresso/cnt10por8/lumi-c/bench_lumi-c-prova/000002/000000_submit_N4np256/work/slurm-6738112.out
   Power=
   

