{
 "global_section": { "_calls": 1, "_time":    85401.323, "_%":   100.00,
   "siesta": { "_calls": 1, "_time":    85401.323, "_%":   100.00,
     "Setup": { "_calls": 1, "_time":        8.248, "_%":     0.01,
       "bands": { "_calls": 1, "_time":        0.003, "_%":     0.00},
       "KSV_init": { "_calls": 1, "_time":        0.001, "_%":     0.00}
     },
     "IterGeom": { "_calls": 1, "_time":    85231.791, "_%":    99.80,
       "geom_init": { "_calls": 1, "_time":      234.314, "_%":     0.27,
         "state_init": { "_calls": 1, "_time":       10.451, "_%":     0.01,
           "hsparse": { "_calls": 1, "_time":        0.644, "_%":     0.00},
           "overlap": { "_calls": 1, "_time":        4.200, "_%":     0.00}
         },
         "Setup_H0": { "_calls": 1, "_time":      223.830, "_%":     0.26,
           "naefs": { "_calls": 1, "_time":        0.094, "_%":     0.00},
           "MolMec": { "_calls": 1, "_time":        0.000, "_%":     0.00},
           "kinefsm": { "_calls": 1, "_time":        4.384, "_%":     0.01},
           "nlefsm": { "_calls": 1, "_time":       10.114, "_%":     0.01},
           "DHSCF_Init": { "_calls": 1, "_time":      209.154, "_%":     0.24,
             "DHSCF1": { "_calls": 1, "_time":        0.207, "_%":     0.00,
               "INITMESH": { "_calls": 1, "_time":        0.000, "_%":     0.00}
             },
             "DHSCF2": { "_calls": 1, "_time":      208.887, "_%":     0.24,
               "REMESH": { "_calls": 1, "_time":      132.082, "_%":     0.15,
                 "INITMESH": { "_calls": 2, "_time":      131.794, "_%":     0.15,
                   "SPLOAD": { "_calls": 2, "_time":      130.490, "_%":     0.15}
                 }
               },
               "REORD": { "_calls": 2, "_time":        0.040, "_%":     0.00},
               "PHION": { "_calls": 1, "_time":        1.323, "_%":     0.00},
               "COMM_BSC": { "_calls": 1, "_time":        6.550, "_%":     0.01},
               "POISON": { "_calls": 1, "_time":       60.369, "_%":     0.07,
                 "fft": { "_calls": 2, "_time":       60.233, "_%":     0.07}
               }
             }
           }
         }
       },
       "IterSCF": { "_calls": 5, "_time":    84997.156, "_%":    99.53,
         "setup_H": { "_calls": 5, "_time":      474.647, "_%":     0.56,
           "DHSCF": { "_calls": 5, "_time":      471.860, "_%":     0.55,
             "DHSCF3": { "_calls": 5, "_time":      471.860, "_%":     0.55,
               "rhoofd": { "_calls": 5, "_time":        3.371, "_%":     0.00},
               "COMM_BSC": { "_calls": 10, "_time":       59.094, "_%":     0.07},
               "POISON": { "_calls": 5, "_time":      238.810, "_%":     0.28,
                 "fft": { "_calls": 10, "_time":      238.452, "_%":     0.28}
               },
               "XC": { "_calls": 5, "_time":      134.159, "_%":     0.16,
                 "COMM_BSC": { "_calls": 10, "_time":       51.778, "_%":     0.06},
                 "GXC-CellXC": { "_calls": 5, "_time":       82.250, "_%":     0.10,
                   "gridxc@cellXC": { "_calls": 5, "_time":       82.249, "_%":     0.10}
                 }
               },
               "vmat": { "_calls": 5, "_time":       17.193, "_%":     0.02}
             }
           }
         },
         "compute_dm": { "_calls": 5, "_time":    84514.690, "_%":    98.96,
           "elsi": { "_calls": 5, "_time":    84511.554, "_%":    98.96,
             "find nnz_g": { "_calls": 5, "_time":        0.000, "_%":     0.00},
             "elsi-solver": { "_calls": 5, "_time":    84510.602, "_%":    98.96}
           }
         },
         "MIXER": { "_calls": 5, "_time":        1.951, "_%":     0.00}
       },
       "state_analysis": { "_calls": 1, "_time":        0.226, "_%":     0.00},
       "siesta_move": { "_calls": 1, "_time":        0.000, "_%":     0.00}
     },
     "Analysis": { "_calls": 1, "_time":      158.975, "_%":     0.19,
       "optical": { "_calls": 1, "_time":        0.001, "_%":     0.00}
     }
   }
 }}
