JobID        JobIDRaw        JobName  Partition  MaxVMSize  MaxVMSizeNode  MaxVMSizeTask  AveVMSize     MaxRSS MaxRSSNode MaxRSSTask     AveRSS MaxPages MaxPagesNode   MaxPagesTask   AvePages     MinCPU MinCPUNode MinCPUTask     AveCPU   NTasks  AllocCPUS    Elapsed      State ExitCode AveCPUFreq ReqCPUFreqMin ReqCPUFreqMax ReqCPUFreqGov     ReqMem ConsumedEnergy  MaxDiskRead MaxDiskReadNode MaxDiskReadTask    AveDiskRead MaxDiskWrite MaxDiskWriteNode MaxDiskWriteTask   AveDiskWrite    ReqTRES  AllocTRES TRESUsageInAve TRESUsageInMax TRESUsageInMaxNode TRESUsageInMaxTask TRESUsageInMin TRESUsageInMinNode TRESUsageInMinTask TRESUsageInTot TRESUsageOutMax TRESUsageOutMaxNode TRESUsageOutMaxTask TRESUsageOutAve TRESUsageOutTot 
------------ ------------ ---------- ---------- ---------- -------------- -------------- ---------- ---------- ---------- ---------- ---------- -------- ------------ -------------- ---------- ---------- ---------- ---------- ---------- -------- ---------- ---------- ---------- -------- ---------- ------------- ------------- ------------- ---------- -------------- ------------ --------------- --------------- -------------- ------------ ---------------- ---------------- -------------- ---------- ---------- -------------- -------------- ------------------ ------------------ -------------- ------------------ ------------------ -------------- --------------- ------------------- ------------------- --------------- --------------- 
7682236      7682236      submit.job dcgp_usr_+                                                                                                                                                                                                            1792   01:24:58    RUNNING      0:0                  Unknown       Unknown       Unknown      7700G                                                                                                                                          billing=1+ billing=1+                                                                                                                                                                                                                                 
7682236.bat+ 7682236.bat+      batch                                                                                                                                                                                                               1        112   01:24:58    RUNNING      0:0          0             0             0             0                         0                                                                                                                                      cpu=112,g+                                                                                                                                                                                                                                 
7682236.ext+ 7682236.ext+     extern                                                                                                                                                                                                              16       1792   01:24:58    RUNNING      0:0          0             0             0             0                         0                                                                                                                                      billing=1+                                                                                                                                                                                                                                 
7682236.0    7682236.0        siesta               356656K       lrdn4310              0   17053840    308176K   lrdn4310          0   15525805      450     lrdn4310              0          1   01:20:08   lrdn4784       1014   01:21:25     1792       1792   01:24:54  COMPLETED      0:0    798.65M       Unknown       Unknown       Unknown                         0        2.36M        lrdn4310               0          1.39M       18.47M         lrdn4310                0          6.50M            cpu=1792,+ cpu=01:21:25,+ cpu=01:24:10,+ cpu=lrdn4522,ener+ cpu=521,fs/disk=0+ cpu=01:20:08,+ cpu=lrdn4784,ener+ cpu=1014,fs/disk=+ cpu=101-08:00+ energy=0,fs/di+ energy=lrdn4325,fs+           fs/disk=0 energy=0,fs/di+ energy=0,fs/di+ 
