JobId=155328 JobName=CovidStrong
   UserId=aalcaraz(30093) GroupId=aalcaraz(40093) MCS_label=N/A
   Priority=1 Nice=0 Account=eehpc-ben-2024b07-051g QOS=normal
   JobState=RUNNING Reason=None Dependency=(null)
   Requeue=1 Restarts=0 BatchFlag=1 Reboot=0 ExitCode=0:0
   DerivedExitCode=0:0
   RunTime=00:00:02 TimeLimit=00:59:00 TimeMin=N/A
   SubmitTime=2024-10-03T13:08:31 EligibleTime=2024-10-03T13:08:31
   AccrueTime=2024-10-03T13:08:31
   StartTime=2024-10-03T14:50:04 EndTime=2024-10-03T15:49:04 Deadline=N/A
   SuspendTime=None SecsPreSuspend=0 LastSchedEval=2024-10-03T14:50:04 Scheduler=Main
   Partition=normal-a100-40 AllocNode:Sid=ln02-x86:969421
   ReqNodeList=(null) ExcNodeList=(null)
   NodeList=gnx[502,510-511,513]
   BatchHost=gnx502
   NumNodes=4 NumCPUs=512 NumTasks=128 CPUs/Task=1 ReqB:S:C:T=0:0:*:1
   ReqTRES=cpu=128,mem=1936G,node=4,billing=128
   AllocTRES=cpu=512,mem=1936G,node=4,billing=512
   Socks/Node=* NtasksPerN:B:S:C=32:0:*:* CoreSpec=*
   JOB_GRES=(null)
     Nodes=gnx[502,510-511,513] CPU_IDs=0-127 Mem=495616 GRES=
   MinCPUsNode=32 MinMemoryNode=0 MinTmpDiskNode=0
   Features=(null) DelayBoot=00:00:00
   OverSubscribe=NO Contiguous=0 Licenses=(null) Network=(null)
   Command=/projects/EEHPC-BEN-2024B07-051/JUBE4MaX_GPU/max-inputs/interface/siesta/_CovidStrong/000000/000002_submit/work/submit.job
   WorkDir=/projects/EEHPC-BEN-2024B07-051/JUBE4MaX_GPU/max-inputs/interface/siesta/_CovidStrong/000000/000002_submit/work
   StdErr=/projects/EEHPC-BEN-2024B07-051/JUBE4MaX_GPU/max-inputs/interface/siesta/_CovidStrong/000000/000002_submit/work/slurm-155328.out
   StdIn=/dev/null
   StdOut=/projects/EEHPC-BEN-2024B07-051/JUBE4MaX_GPU/max-inputs/interface/siesta/_CovidStrong/000000/000002_submit/work/slurm-155328.out
   Power=
   

