JobID        JobIDRaw        JobName  Partition  MaxVMSize  MaxVMSizeNode  MaxVMSizeTask  AveVMSize     MaxRSS MaxRSSNode MaxRSSTask     AveRSS MaxPages MaxPagesNode   MaxPagesTask   AvePages     MinCPU MinCPUNode MinCPUTask     AveCPU   NTasks  AllocCPUS    Elapsed      State ExitCode AveCPUFreq ReqCPUFreqMin ReqCPUFreqMax ReqCPUFreqGov     ReqMem ConsumedEnergy  MaxDiskRead MaxDiskReadNode MaxDiskReadTask    AveDiskRead MaxDiskWrite MaxDiskWriteNode MaxDiskWriteTask   AveDiskWrite    ReqTRES  AllocTRES TRESUsageInAve TRESUsageInMax TRESUsageInMaxNode TRESUsageInMaxTask TRESUsageInMin TRESUsageInMinNode TRESUsageInMinTask TRESUsageInTot TRESUsageOutMax TRESUsageOutMaxNode TRESUsageOutMaxTask TRESUsageOutAve TRESUsageOutTot 
------------ ------------ ---------- ---------- ---------- -------------- -------------- ---------- ---------- ---------- ---------- ---------- -------- ------------ -------------- ---------- ---------- ---------- ---------- ---------- -------- ---------- ---------- ---------- -------- ---------- ------------- ------------- ------------- ---------- -------------- ------------ --------------- --------------- -------------- ------------ ---------------- ---------------- -------------- ---------- ---------- -------------- -------------- ------------------ ------------------ -------------- ------------------ ------------------ -------------- --------------- ------------------- ------------------- --------------- --------------- 
8404882      8404882      submit.job boost_usr+                                                                                                                                                                                                             160   00:08:57    RUNNING      0:0                  Unknown       Unknown       Unknown   2464000M                                                                                                                                          billing=1+ billing=1+                                                                                                                                                                                                                                 
8404882.bat+ 8404882.bat+      batch                                                                                                                                                                                                               1         32   00:08:57    RUNNING      0:0          0             0             0             0                         0                                                                                                                                      cpu=32,gr+                                                                                                                                                                                                                                 
8404882.ext+ 8404882.ext+     extern                                                                                                                                                                                                               5        160   00:08:57    RUNNING      0:0          0             0             0             0                         0                                                                                                                                      billing=1+                                                                                                                                                                                                                                 
8404882.0    8404882.0         orted              8090904K       lrdn0412              0   2022726K   7228356K   lrdn0412          0   1807089K     9441     lrdn0412              0       2360   01:44:42   lrdn2790          2   01:45:58        4        128   00:08:54  COMPLETED      0:0       398K       Unknown       Unknown       Unknown                         0        0.33M        lrdn2807               3          0.33M        0.01M         lrdn0412                0          0.01M            cpu=128,g+ cpu=01:45:58,+ cpu=01:47:02,+ cpu=lrdn0412,ener+ cpu=0,fs/disk=3,m+ cpu=01:44:42,+ cpu=lrdn2790,ener+ cpu=2,fs/disk=2,m+ cpu=07:03:53,+ energy=0,fs/di+ energy=lrdn0412,fs+           fs/disk=0 energy=0,fs/di+ energy=0,fs/di+ 
