Version;Nodes;Tasks;electrons; c_bands; mix_rho; sum_band;h_psi;walltime
7.2;8;32;1550.15;743.56;654.07;147.94;434.44;1575.82
7.3;8;32;911.90;725.02;29.03;152.53;433.39;936.32
7.4;8;32;895.37;716.63;27.13;147.16;425.19;915.87

