JobID        JobIDRaw        JobName  Partition  MaxVMSize  MaxVMSizeNode  MaxVMSizeTask  AveVMSize     MaxRSS MaxRSSNode MaxRSSTask     AveRSS MaxPages MaxPagesNode   MaxPagesTask   AvePages     MinCPU MinCPUNode MinCPUTask     AveCPU   NTasks  AllocCPUS    Elapsed      State ExitCode AveCPUFreq ReqCPUFreqMin ReqCPUFreqMax ReqCPUFreqGov     ReqMem ConsumedEnergy  MaxDiskRead MaxDiskReadNode MaxDiskReadTask    AveDiskRead MaxDiskWrite MaxDiskWriteNode MaxDiskWriteTask   AveDiskWrite    ReqTRES  AllocTRES TRESUsageInAve TRESUsageInMax TRESUsageInMaxNode TRESUsageInMaxTask TRESUsageInMin TRESUsageInMinNode TRESUsageInMinTask TRESUsageInTot TRESUsageOutMax TRESUsageOutMaxNode TRESUsageOutMaxTask TRESUsageOutAve TRESUsageOutTot 
------------ ------------ ---------- ---------- ---------- -------------- -------------- ---------- ---------- ---------- ---------- ---------- -------- ------------ -------------- ---------- ---------- ---------- ---------- ---------- -------- ---------- ---------- ---------- -------- ---------- ------------- ------------- ------------- ---------- -------------- ------------ --------------- --------------- -------------- ------------ ---------------- ---------------- -------------- ---------- ---------- -------------- -------------- ------------------ ------------------ -------------- ------------------ ------------------ -------------- --------------- ------------------- ------------------- --------------- --------------- 
1422906      1422906      CovidStro+        cpu                                                                                                                                                                                                            1024   00:45:46    RUNNING      0:0                  Unknown       Unknown       Unknown      1920G                                                                                                                                          billing=5+ billing=1+                                                                                                                                                                                                                                 
1422906.bat+ 1422906.bat+      batch                                                                                                                                                                                                               1        256   00:45:46    RUNNING      0:0          0             0             0             0                         0                                                                                                                                      cpu=256,g+                                                                                                                                                                                                                                 
1422906.0    1422906.0        siesta              2149092K        mel0104              0 1491918448    703236K    mel0454        388  576457150   561982      mel0162            221       4302   00:44:54    mel0104         54   00:45:09      512        512   00:45:41  COMPLETED      0:0      1.33T       Unknown       Unknown       Unknown                     7.01M     2921.64M         mel0226             367         22.81M      526.45M          mel0162              128          4.14M            cpu=512,m+ cpu=00:45:09,+ cpu=00:44:54,+ energy=mel0162,fs+ fs/disk=367,mem=3+ cpu=00:44:54,+ cpu=mel0104,energ+             cpu=54 cpu=16-01:24:+ energy=730,fs/+ energy=mel0104,fs/+         fs/disk=128 energy=1,fs/di+ energy=1000,fs+ 
