JobId=1422906 JobName=CovidStrong
   UserId=u102010(102010) GroupId=hpcusers(555) MCS_label=N/A
   Priority=267577 Nice=0 Account=p200521 QOS=default
   JobState=RUNNING Reason=None Dependency=(null)
   Requeue=0 Restarts=0 BatchFlag=1 Reboot=0 ExitCode=0:0
   DerivedExitCode=0:0
   RunTime=00:00:05 TimeLimit=00:59:00 TimeMin=N/A
   SubmitTime=2024-10-01T11:43:38 EligibleTime=2024-10-01T11:43:38
   AccrueTime=2024-10-01T11:43:38
   StartTime=2024-10-01T11:45:12 EndTime=2024-10-01T12:44:14 Deadline=N/A
   PreemptEligibleTime=2024-10-01T11:45:12 PreemptTime=None
   SuspendTime=None SecsPreSuspend=0 LastSchedEval=2024-10-01T11:45:12 Scheduler=Main
   Partition=cpu AllocNode:Sid=login02.meluxina.lxp.lu:2161051
   ReqNodeList=(null) ExcNodeList=(null)
   NodeList=mel[0104,0162,0226,0454]
   BatchHost=mel0104
   NumNodes=4 NumCPUs=1024 NumTasks=512 CPUs/Task=2 ReqB:S:C:T=0:0:*:*
   ReqTRES=cpu=512,mem=1920G,node=4,billing=512
   AllocTRES=cpu=1024,mem=1920G,node=4,billing=1024,gres/cpun=4
   Socks/Node=* NtasksPerN:B:S:C=128:0:*:* CoreSpec=*
   JOB_GRES=cpuN:4
     Nodes=mel[0104,0162,0226,0454] CPU_IDs=0-255 Mem=491520 GRES=cpuN(CNT:1)
   MinCPUsNode=256 MinMemoryNode=0 MinTmpDiskNode=0
   Features=(null) DelayBoot=00:00:00
   OverSubscribe=NO Contiguous=0 Licenses=(null) Network=(null)
   Command=/mnt/tier2/users/u102010/JUBE4MaX/max-inputs/interface/siesta/_CovidStrong/000000/000002_submit/work/submit.job
   WorkDir=/mnt/tier2/users/u102010/JUBE4MaX/max-inputs/interface/siesta/_CovidStrong/000000/000002_submit/work
   StdErr=/mnt/tier2/users/u102010/JUBE4MaX/max-inputs/interface/siesta/_CovidStrong/000000/000002_submit/work/slurm-1422906.out
   StdIn=/dev/null
   StdOut=/mnt/tier2/users/u102010/JUBE4MaX/max-inputs/interface/siesta/_CovidStrong/000000/000002_submit/work/slurm-1422906.out
   Power=
   TresPerTask=cpu:1
   

