JobId=34389354 JobName=CovidWeakKPoints
   UserId=eufedericop(1977552410) GroupId=eufedericop(1977552410) MCS_label=N/A
   Priority=66976133 Nice=0 Account=b2024b06-053-users QOS=normal
   JobState=RUNNING Reason=None Dependency=(null)
   Requeue=1 Restarts=0 BatchFlag=1 Reboot=0 ExitCode=0:0
   DerivedExitCode=0:0
   RunTime=00:00:01 TimeLimit=1-00:00:00 TimeMin=N/A
   SubmitTime=2024-09-09T15:58:23 EligibleTime=2024-09-09T15:58:23
   AccrueTime=2024-09-09T15:58:23
   StartTime=2024-09-09T15:58:25 EndTime=2024-09-10T15:58:25 Deadline=N/A
   SuspendTime=None SecsPreSuspend=0 LastSchedEval=2024-09-09T15:58:25 Scheduler=Main
   Partition=cpu AllocNode:Sid=login0002-dmz:2816680
   ReqNodeList=(null) ExcNodeList=(null)
   NodeList=cn[0888-0889,0892,0895,0898,0903,0906,0909]
   BatchHost=cn0888
   NumNodes=8 NumCPUs=2048 NumTasks=1024 CPUs/Task=1 ReqB:S:C:T=0:0:*:1
   ReqTRES=cpu=1024,mem=1000G,node=8,billing=1024
   AllocTRES=cpu=2048,mem=1000G,node=8,billing=2048
   Socks/Node=* NtasksPerN:B:S:C=128:0:*:* CoreSpec=*
   JOB_GRES=(null)
     Nodes=cn[0888-0889,0892,0895,0898,0903,0906,0909] CPU_IDs=0-255 Mem=128000 GRES=
   MinCPUsNode=128 MinMemoryCPU=1000M MinTmpDiskNode=0
   Features=(null) DelayBoot=00:00:00
   OverSubscribe=NO Contiguous=0 Licenses=(null) Network=(null)
   Command=/ceph/hpc/home/eufedericop/JUBE4MaX/max-inputs/interface/siesta/_CovidWeakKPoints/000000/000010_submit/work/submit.job
   WorkDir=/ceph/hpc/home/eufedericop/JUBE4MaX/max-inputs/interface/siesta/_CovidWeakKPoints/000000/000010_submit/work
   StdErr=/ceph/hpc/home/eufedericop/JUBE4MaX/max-inputs/interface/siesta/_CovidWeakKPoints/000000/000010_submit/work/slurm-34389354.out
   StdIn=/dev/null
   StdOut=/ceph/hpc/home/eufedericop/JUBE4MaX/max-inputs/interface/siesta/_CovidWeakKPoints/000000/000010_submit/work/slurm-34389354.out
   Power=
   TresPerTask=cpu:1
   

