{
 "global_section": { "_calls": 1, "_time":      203.355, "_%":   100.00,
   "siesta": { "_calls": 1, "_time":      203.355, "_%":   100.00,
     "Setup": { "_calls": 1, "_time":        2.388, "_%":     1.17,
       "bands": { "_calls": 1, "_time":        0.004, "_%":     0.00},
       "KSV_init": { "_calls": 1, "_time":        0.001, "_%":     0.00}
     },
     "IterGeom": { "_calls": 1, "_time":      200.745, "_%":    98.72,
       "geom_init": { "_calls": 1, "_time":       33.535, "_%":    16.49,
         "state_init": { "_calls": 1, "_time":        3.188, "_%":     1.57,
           "hsparse": { "_calls": 1, "_time":        0.185, "_%":     0.09},
           "overlap": { "_calls": 1, "_time":        2.069, "_%":     1.02}
         },
         "Setup_H0": { "_calls": 1, "_time":       30.346, "_%":    14.92,
           "naefs": { "_calls": 1, "_time":        0.031, "_%":     0.02},
           "MolMec": { "_calls": 1, "_time":        0.000, "_%":     0.00},
           "kinefsm": { "_calls": 1, "_time":        2.072, "_%":     1.02},
           "nlefsm": { "_calls": 1, "_time":        4.788, "_%":     2.35},
           "DHSCF_Init": { "_calls": 1, "_time":       23.436, "_%":    11.52,
             "DHSCF1": { "_calls": 1, "_time":        0.097, "_%":     0.05,
               "INITMESH": { "_calls": 1, "_time":        0.000, "_%":     0.00}
             },
             "DHSCF2": { "_calls": 1, "_time":       23.307, "_%":    11.46,
               "REMESH": { "_calls": 1, "_time":        1.149, "_%":     0.57,
                 "INITMESH": { "_calls": 2, "_time":        1.062, "_%":     0.52,
                   "SPLOAD": { "_calls": 2, "_time":        1.044, "_%":     0.51}
                 }
               },
               "REORD": { "_calls": 2, "_time":        0.107, "_%":     0.05},
               "PHION": { "_calls": 1, "_time":        1.603, "_%":     0.79},
               "COMM_BSC": { "_calls": 1, "_time":        0.287, "_%":     0.14},
               "POISON": { "_calls": 1, "_time":       18.722, "_%":     9.21,
                 "fft": { "_calls": 2, "_time":       18.027, "_%":     8.87}
               }
             }
           }
         }
       },
       "IterSCF": { "_calls": 5, "_time":      167.097, "_%":    82.17,
         "setup_H": { "_calls": 5, "_time":      136.927, "_%":    67.33,
           "DHSCF": { "_calls": 5, "_time":      136.840, "_%":    67.29,
             "DHSCF3": { "_calls": 5, "_time":      136.840, "_%":    67.29,
               "rhoofd": { "_calls": 5, "_time":        1.056, "_%":     0.52},
               "COMM_BSC": { "_calls": 10, "_time":        3.588, "_%":     1.76},
               "POISON": { "_calls": 5, "_time":       93.180, "_%":    45.82,
                 "fft": { "_calls": 10, "_time":       89.021, "_%":    43.78}
               },
               "XC": { "_calls": 5, "_time":       29.110, "_%":    14.31,
                 "COMM_BSC": { "_calls": 10, "_time":        4.295, "_%":     2.11},
                 "GXC-CellXC": { "_calls": 5, "_time":       23.604, "_%":    11.61,
                   "gridxc@cellXC": { "_calls": 5, "_time":       23.604, "_%":    11.61}
                 }
               },
               "vmat": { "_calls": 5, "_time":        0.971, "_%":     0.48}
             }
           }
         },
         "compute_dm": { "_calls": 5, "_time":       30.118, "_%":    14.81,
           "elsi": { "_calls": 5, "_time":       30.114, "_%":    14.81,
             "find nnz_g": { "_calls": 5, "_time":        0.000, "_%":     0.00},
             "elsi-solver": { "_calls": 5, "_time":       30.048, "_%":    14.78}
           }
         },
         "MIXER": { "_calls": 5, "_time":        0.010, "_%":     0.01}
       },
       "state_analysis": { "_calls": 1, "_time":        0.082, "_%":     0.04},
       "siesta_move": { "_calls": 1, "_time":        0.000, "_%":     0.00}
     },
     "Analysis": { "_calls": 1, "_time":        0.214, "_%":     0.11,
       "optical": { "_calls": 1, "_time":        0.001, "_%":     0.00}
     }
   }
 }}
