JobID        JobIDRaw        JobName  Partition  MaxVMSize  MaxVMSizeNode  MaxVMSizeTask  AveVMSize     MaxRSS MaxRSSNode MaxRSSTask     AveRSS MaxPages MaxPagesNode   MaxPagesTask   AvePages     MinCPU MinCPUNode MinCPUTask     AveCPU   NTasks  AllocCPUS    Elapsed      State ExitCode AveCPUFreq ReqCPUFreqMin ReqCPUFreqMax ReqCPUFreqGov     ReqMem ConsumedEnergy  MaxDiskRead MaxDiskReadNode MaxDiskReadTask    AveDiskRead MaxDiskWrite MaxDiskWriteNode MaxDiskWriteTask   AveDiskWrite    ReqTRES  AllocTRES TRESUsageInAve TRESUsageInMax TRESUsageInMaxNode TRESUsageInMaxTask TRESUsageInMin TRESUsageInMinNode TRESUsageInMinTask TRESUsageInTot TRESUsageOutMax TRESUsageOutMaxNode TRESUsageOutMaxTask TRESUsageOutAve TRESUsageOutTot 
------------ ------------ ---------- ---------- ---------- -------------- -------------- ---------- ---------- ---------- ---------- ---------- -------- ------------ -------------- ---------- ---------- ---------- ---------- ---------- -------- ---------- ---------- ---------- -------- ---------- ------------- ------------- ------------- ---------- -------------- ------------ --------------- --------------- -------------- ------------ ---------------- ---------------- -------------- ---------- ---------- -------------- -------------- ------------------ ------------------ -------------- ------------------ ------------------ -------------- --------------- ------------------- ------------------- --------------- --------------- 
1428390      1428390       CovidWeak        gpu                                                                                                                                                                                                            4096   00:16:38    RUNNING      0:0                  Unknown       Unknown       Unknown        15T                                                                                                                                          billing=1+ billing=4+                                                                                                                                                                                                                                 
1428390.bat+ 1428390.bat+      batch                                                                                                                                                                                                               1        128   00:16:38    RUNNING      0:0          0             0             0             0                         0                                                                                                                                      cpu=128,g+                                                                                                                                                                                                                                 
1428390.0    1428390.0    meluxina-+                                                                                                                                                                                                            1024       4096   00:16:28    RUNNING      0:0          0       Unknown       Unknown       Unknown                         0                                                                                                                                      cpu=4096,+                                                                                                                                                                                                                                 
