JobID        JobIDRaw        JobName  Partition  MaxVMSize  MaxVMSizeNode  MaxVMSizeTask  AveVMSize     MaxRSS MaxRSSNode MaxRSSTask     AveRSS MaxPages MaxPagesNode   MaxPagesTask   AvePages     MinCPU MinCPUNode MinCPUTask     AveCPU   NTasks  AllocCPUS    Elapsed      State ExitCode AveCPUFreq ReqCPUFreqMin ReqCPUFreqMax ReqCPUFreqGov     ReqMem ConsumedEnergy  MaxDiskRead MaxDiskReadNode MaxDiskReadTask    AveDiskRead MaxDiskWrite MaxDiskWriteNode MaxDiskWriteTask   AveDiskWrite    ReqTRES  AllocTRES TRESUsageInAve TRESUsageInMax TRESUsageInMaxNode TRESUsageInMaxTask TRESUsageInMin TRESUsageInMinNode TRESUsageInMinTask TRESUsageInTot TRESUsageOutMax TRESUsageOutMaxNode TRESUsageOutMaxTask TRESUsageOutAve TRESUsageOutTot 
------------ ------------ ---------- ---------- ---------- -------------- -------------- ---------- ---------- ---------- ---------- ---------- -------- ------------ -------------- ---------- ---------- ---------- ---------- ---------- -------- ---------- ---------- ---------- -------- ---------- ------------- ------------- ------------- ---------- -------------- ------------ --------------- --------------- -------------- ------------ ---------------- ---------------- -------------- ---------- ---------- -------------- -------------- ------------------ ------------------ -------------- ------------------ ------------------ -------------- --------------- ------------------- ------------------- --------------- --------------- 
4905778      4905778      submit.job standard-g                                                                                                                                                                                                             224   00:13:20    RUNNING      0:0                  Unknown       Unknown       Unknown       960G                                                                                                                                          billing=1+ billing=2+                                                                                                                                                                                                                                 
4905778.bat+ 4905778.bat+      batch                                                                                                                                                                                                               1        112   00:13:20    RUNNING      0:0          0             0             0             0                         0                                                                                                                                      cpu=112,g+                                                                                                                                                                                                                                 
4905778.0    4905778.0    select_gpu             31888840K      nid005835             14 303787957+  16624992K  nid005835          8 153182440+    16674    nid005834              0      15506   00:13:17  nid005834          0   00:13:24       16        224   00:13:11  COMPLETED      0:0     15.21M       Unknown       Unknown       Unknown                     1.27M      131.78M       nid005834               0        129.00M        3.15M        nid005835                8          3.07M            cpu=224,g+ cpu=00:13:24,+ cpu=00:13:30,+ cpu=nid005834,ene+ cpu=3,fs/disk=0,m+ cpu=00:13:17,+ cpu=nid005834,ene+ cpu=0,fs/disk=5,m+ cpu=03:34:34,+ energy=1491,fs+ energy=nid005834,f+           fs/disk=8 energy=102,fs/+ energy=1638,fs+ 
