{
 "global_section": { "_calls": 1, "_time":     6826.813, "_%":   100.00,
   "siesta": { "_calls": 1, "_time":     6826.813, "_%":   100.00,
     "Setup": { "_calls": 1, "_time":        2.148, "_%":     0.03,
       "bands": { "_calls": 1, "_time":        0.004, "_%":     0.00},
       "KSV_init": { "_calls": 1, "_time":        0.001, "_%":     0.00}
     },
     "IterGeom": { "_calls": 1, "_time":     6824.226, "_%":    99.96,
       "geom_init": { "_calls": 1, "_time":       21.986, "_%":     0.32,
         "state_init": { "_calls": 1, "_time":        3.186, "_%":     0.05,
           "hsparse": { "_calls": 1, "_time":        0.182, "_%":     0.00},
           "overlap": { "_calls": 1, "_time":        1.271, "_%":     0.02}
         },
         "Setup_H0": { "_calls": 1, "_time":       18.798, "_%":     0.28,
           "naefs": { "_calls": 1, "_time":        0.030, "_%":     0.00},
           "MolMec": { "_calls": 1, "_time":        0.000, "_%":     0.00},
           "kinefsm": { "_calls": 1, "_time":        1.268, "_%":     0.02},
           "nlefsm": { "_calls": 1, "_time":        3.070, "_%":     0.04},
           "DHSCF_Init": { "_calls": 1, "_time":       14.411, "_%":     0.21,
             "DHSCF1": { "_calls": 1, "_time":        0.072, "_%":     0.00,
               "INITMESH": { "_calls": 1, "_time":        0.000, "_%":     0.00}
             },
             "DHSCF2": { "_calls": 1, "_time":       14.305, "_%":     0.21,
               "REMESH": { "_calls": 1, "_time":        3.700, "_%":     0.05,
                 "INITMESH": { "_calls": 2, "_time":        3.648, "_%":     0.05,
                   "SPLOAD": { "_calls": 2, "_time":        3.597, "_%":     0.05}
                 }
               },
               "REORD": { "_calls": 2, "_time":        0.056, "_%":     0.00},
               "PHION": { "_calls": 1, "_time":        0.806, "_%":     0.01},
               "COMM_BSC": { "_calls": 1, "_time":        0.217, "_%":     0.00},
               "POISON": { "_calls": 1, "_time":        8.636, "_%":     0.13,
                 "fft": { "_calls": 2, "_time":        8.248, "_%":     0.12}
               }
             }
           }
         }
       },
       "IterSCF": { "_calls": 5, "_time":     6802.117, "_%":    99.64,
         "setup_H": { "_calls": 5, "_time":       65.614, "_%":     0.96,
           "DHSCF": { "_calls": 5, "_time":       65.592, "_%":     0.96,
             "DHSCF3": { "_calls": 5, "_time":       65.592, "_%":     0.96,
               "rhoofd": { "_calls": 5, "_time":        0.623, "_%":     0.01},
               "COMM_BSC": { "_calls": 10, "_time":        1.776, "_%":     0.03},
               "POISON": { "_calls": 5, "_time":       43.400, "_%":     0.64,
                 "fft": { "_calls": 10, "_time":       41.356, "_%":     0.61}
               },
               "XC": { "_calls": 5, "_time":       15.506, "_%":     0.23,
                 "COMM_BSC": { "_calls": 10, "_time":        2.112, "_%":     0.03},
                 "GXC-CellXC": { "_calls": 5, "_time":       12.784, "_%":     0.19,
                   "gridxc@cellXC": { "_calls": 5, "_time":       12.784, "_%":     0.19}
                 }
               },
               "vmat": { "_calls": 5, "_time":        0.624, "_%":     0.01}
             }
           }
         },
         "compute_dm": { "_calls": 5, "_time":     6736.194, "_%":    98.67,
           "elsi": { "_calls": 5, "_time":     6735.238, "_%":    98.66,
             "find nnz_g": { "_calls": 5, "_time":        0.000, "_%":     0.00},
             "elsi-solver": { "_calls": 5, "_time":     6735.182, "_%":    98.66}
           }
         },
         "MIXER": { "_calls": 5, "_time":        0.009, "_%":     0.00}
       },
       "state_analysis": { "_calls": 1, "_time":        0.092, "_%":     0.00},
       "siesta_move": { "_calls": 1, "_time":        0.000, "_%":     0.00}
     },
     "Analysis": { "_calls": 1, "_time":        0.431, "_%":     0.01,
       "optical": { "_calls": 1, "_time":        0.001, "_%":     0.00}
     }
   }
 }}
