JobID        JobIDRaw        JobName  Partition  MaxVMSize  MaxVMSizeNode  MaxVMSizeTask  AveVMSize     MaxRSS MaxRSSNode MaxRSSTask     AveRSS MaxPages MaxPagesNode   MaxPagesTask   AvePages     MinCPU MinCPUNode MinCPUTask     AveCPU   NTasks  AllocCPUS    Elapsed      State ExitCode AveCPUFreq ReqCPUFreqMin ReqCPUFreqMax ReqCPUFreqGov     ReqMem ConsumedEnergy  MaxDiskRead MaxDiskReadNode MaxDiskReadTask    AveDiskRead MaxDiskWrite MaxDiskWriteNode MaxDiskWriteTask   AveDiskWrite    ReqTRES  AllocTRES TRESUsageInAve TRESUsageInMax TRESUsageInMaxNode TRESUsageInMaxTask TRESUsageInMin TRESUsageInMinNode TRESUsageInMinTask TRESUsageInTot TRESUsageOutMax TRESUsageOutMaxNode TRESUsageOutMaxTask TRESUsageOutAve TRESUsageOutTot 
------------ ------------ ---------- ---------- ---------- -------------- -------------- ---------- ---------- ---------- ---------- ---------- -------- ------------ -------------- ---------- ---------- ---------- ---------- ---------- -------- ---------- ---------- ---------- -------- ---------- ------------- ------------- ------------- ---------- -------------- ------------ --------------- --------------- -------------- ------------ ---------------- ---------------- -------------- ---------- ---------- -------------- -------------- ------------------ ------------------ -------------- ------------------ ------------------ -------------- --------------- ------------------- ------------------- --------------- --------------- 
9551690      9551690      CovidStro+        gpp                                                                                                                                                                                                             448   00:27:26    RUNNING      0:0                  Unknown       Unknown       Unknown   2016000M                                                                                                                                          billing=2+ billing=4+                                                                                                                                                                                                                                 
9551690.bat+ 9551690.bat+      batch                                                                                                                                                                                                               1        224   00:27:26    RUNNING      0:0          0             0             0             0                         0                                                                                                                                      cpu=224,m+                                                                                                                                                                                                                                 
9551690.ext+ 9551690.ext+     extern                                                                                                                                                                                                               2        448   00:27:26    RUNNING      0:0          0             0             0             0                         0                                                                                                                                      billing=4+                                                                                                                                                                                                                                 
9551690.0    9551690.0        siesta              7740744K      gs01r3b19             63 7502524379   2248172K  gs01r3b26        192 2047499483       29    gs01r3b26            158          2   00:26:39  gs01r3b19         64   00:26:51      224        448   00:27:19  COMPLETED      0:0    126.63M       Unknown       Unknown       Unknown                     3.16M       12.33M       gs01r3b19               0         10.05M       19.97M        gs01r3b19                0          4.21M            cpu=448,m+ cpu=00:26:51,+ cpu=00:26:55,+ cpu=gs01r3b26,ene+ cpu=211,fs/disk=0+ cpu=00:26:39,+ cpu=gs01r3b19,ene+ cpu=64,fs/disk=22+ cpu=4-04:15:1+ energy=1118,fs+ energy=gs01r3b26,f+           fs/disk=0 energy=3,fs/di+ energy=804,fs/+ 
