JobId=9551690 JobName=CovidStrong
   UserId=icn2553284(51005) GroupId=icn2(50004) MCS_label=N/A
   Priority=73436 Nice=0 Account=icn85 QOS=gp_resa
   JobState=RUNNING Reason=None Dependency=(null)
   Requeue=0 Restarts=0 BatchFlag=1 Reboot=0 ExitCode=0:0
   RunTime=00:00:03 TimeLimit=02:00:00 TimeMin=N/A
   SubmitTime=2024-09-30T11:16:33 EligibleTime=2024-09-30T11:16:33
   AccrueTime=2024-09-30T11:16:33
   StartTime=2024-10-01T01:55:57 EndTime=2024-10-01T03:55:57 Deadline=N/A
   SuspendTime=None SecsPreSuspend=0 LastSchedEval=2024-10-01T01:55:57 Scheduler=Backfill
   Partition=gpp AllocNode:Sid=glogin1:2011625
   ReqNodeList=(null) ExcNodeList=(null)
   NodeList=gs01r3b[19,26]
   BatchHost=gs01r3b19
   NumNodes=2 NumCPUs=448 NumTasks=224 CPUs/Task=1 ReqB:S:C:T=0:0:*:1
   ReqTRES=cpu=224,mem=2016000M,node=2,billing=224
   AllocTRES=cpu=448,mem=2016000M,node=2,billing=448
   Socks/Node=* NtasksPerN:B:S:C=112:0:*:* CoreSpec=*
   MinCPUsNode=112 MinMemoryCPU=9000M MinTmpDiskNode=0
   Features=highmem DelayBoot=00:00:00
   OverSubscribe=NO Contiguous=0 Licenses=(null) Network=(null)
   Command=/gpfs/home/icn2/icn2553284/jube4max/max-inputs/interface/siesta/_CovidStrong/000001/000001_submit/work/submit.job
   WorkDir=/gpfs/home/icn2/icn2553284/jube4max/max-inputs/interface/siesta/_CovidStrong/000001/000001_submit/work
   StdErr=/gpfs/home/icn2/icn2553284/jube4max/max-inputs/interface/siesta/_CovidStrong/000001/000001_submit/work/job_9551690.err
   StdIn=/dev/null
   StdOut=/gpfs/home/icn2/icn2553284/jube4max/max-inputs/interface/siesta/_CovidStrong/000001/000001_submit/work/job_9551690.out
   Power=
   

