JobID        JobIDRaw        JobName  Partition  MaxVMSize  MaxVMSizeNode  MaxVMSizeTask  AveVMSize     MaxRSS MaxRSSNode MaxRSSTask     AveRSS MaxPages MaxPagesNode   MaxPagesTask   AvePages     MinCPU MinCPUNode MinCPUTask     AveCPU   NTasks  AllocCPUS    Elapsed      State ExitCode AveCPUFreq ReqCPUFreqMin ReqCPUFreqMax ReqCPUFreqGov     ReqMem ConsumedEnergy  MaxDiskRead MaxDiskReadNode MaxDiskReadTask    AveDiskRead MaxDiskWrite MaxDiskWriteNode MaxDiskWriteTask   AveDiskWrite    ReqTRES  AllocTRES TRESUsageInAve TRESUsageInMax TRESUsageInMaxNode TRESUsageInMaxTask TRESUsageInMin TRESUsageInMinNode TRESUsageInMinTask TRESUsageInTot TRESUsageOutMax TRESUsageOutMaxNode TRESUsageOutMaxTask TRESUsageOutAve TRESUsageOutTot 
------------ ------------ ---------- ---------- ---------- -------------- -------------- ---------- ---------- ---------- ---------- ---------- -------- ------------ -------------- ---------- ---------- ---------- ---------- ---------- -------- ---------- ---------- ---------- -------- ---------- ------------- ------------- ------------- ---------- -------------- ------------ --------------- --------------- -------------- ------------ ---------------- ---------------- -------------- ---------- ---------- -------------- -------------- ------------------ ------------------ -------------- ------------------ ------------------ -------------- --------------- ------------------- ------------------- --------------- --------------- 
8022750      8022750      CovidStro+   standard                                                                                                                                                                                                            4096   00:15:47    RUNNING      0:0                  Unknown       Unknown       Unknown      3.50T                                                                                                                                          billing=2+ billing=4+                                                                                                                                                                                                                                 
8022750.bat+ 8022750.bat+      batch                                                                                                                                                                                                               1        256   00:15:47    RUNNING      0:0          0             0             0             0                         0                                                                                                                                      cpu=256,m+                                                                                                                                                                                                                                 
8022750.0    8022750.0        siesta             14189000K      nid002095            640 5312212080    624996K  nid001213          7  390509504      887    nid001213            105        311   00:14:47  nid002185       1408   00:15:18     2048       4096   00:15:43  COMPLETED      0:0      4.57G       Unknown       Unknown       Unknown                     9.76M        1.96M       nid001213               0          0.21M       16.23M        nid001213                0          1.27M            cpu=4096,+ cpu=00:15:18,+ cpu=00:15:39,+ cpu=nid001505,ene+ cpu=259,fs/disk=0+ cpu=00:14:47,+ cpu=nid002185,ene+ cpu=1408,fs/disk=+ cpu=21-18:44:+ energy=716,fs/+ energy=nid001504,f+           fs/disk=0 energy=2,fs/di+ energy=6008,fs+ 
