JobID        JobIDRaw        JobName  Partition  MaxVMSize  MaxVMSizeNode  MaxVMSizeTask  AveVMSize     MaxRSS MaxRSSNode MaxRSSTask     AveRSS MaxPages MaxPagesNode   MaxPagesTask   AvePages     MinCPU MinCPUNode MinCPUTask     AveCPU   NTasks  AllocCPUS    Elapsed      State ExitCode AveCPUFreq ReqCPUFreqMin ReqCPUFreqMax ReqCPUFreqGov     ReqMem ConsumedEnergy  MaxDiskRead MaxDiskReadNode MaxDiskReadTask    AveDiskRead MaxDiskWrite MaxDiskWriteNode MaxDiskWriteTask   AveDiskWrite    ReqTRES  AllocTRES TRESUsageInAve TRESUsageInMax TRESUsageInMaxNode TRESUsageInMaxTask TRESUsageInMin TRESUsageInMinNode TRESUsageInMinTask TRESUsageInTot TRESUsageOutMax TRESUsageOutMaxNode TRESUsageOutMaxTask TRESUsageOutAve TRESUsageOutTot 
------------ ------------ ---------- ---------- ---------- -------------- -------------- ---------- ---------- ---------- ---------- ---------- -------- ------------ -------------- ---------- ---------- ---------- ---------- ---------- -------- ---------- ---------- ---------- -------- ---------- ------------- ------------- ------------- ---------- -------------- ------------ --------------- --------------- -------------- ------------ ---------------- ---------------- -------------- ---------- ---------- -------------- -------------- ------------------ ------------------ -------------- ------------------ ------------------ -------------- --------------- ------------------- ------------------- --------------- --------------- 
4905770      4905770      submit.job standard-g                                                                                                                                                                                                             112   00:14:28    RUNNING      0:0                  Unknown       Unknown       Unknown       480G                                                                                                                                          billing=8+ billing=1+                                                                                                                                                                                                                                 
4905770.bat+ 4905770.bat+      batch                                                                                                                                                                                                               1        112   00:14:28    RUNNING      0:0          0             0             0             0                         0                                                                                                                                      cpu=112,g+                                                                                                                                                                                                                                 
4905770.0    4905770.0    select_gpu             46858528K      nid007333              0  44798395K  25599388K  nid007333          7 24582581.+    15241    nid007333              3      14901   00:14:27  nid007333          6   00:14:40        8        112   00:14:18  COMPLETED      0:0     13.37M       Unknown       Unknown       Unknown                   637.62K      131.27M       nid007333               0        129.02M        2.90M        nid007333                0          2.89M            cpu=112,g+ cpu=00:14:40,+ cpu=00:14:49,+ cpu=nid007333,ene+ cpu=7,fs/disk=0,m+ cpu=00:14:27,+ cpu=nid007333,ene+ cpu=6,fs/disk=5,m+ cpu=01:57:21,+ energy=1734,fs+ energy=nid007333,f+           fs/disk=0 energy=81,fs/d+ energy=655,fs/+ 
