JobID        JobIDRaw        JobName  Partition  MaxVMSize  MaxVMSizeNode  MaxVMSizeTask  AveVMSize     MaxRSS MaxRSSNode MaxRSSTask     AveRSS MaxPages MaxPagesNode   MaxPagesTask   AvePages     MinCPU MinCPUNode MinCPUTask     AveCPU   NTasks  AllocCPUS    Elapsed      State ExitCode AveCPUFreq ReqCPUFreqMin ReqCPUFreqMax ReqCPUFreqGov     ReqMem ConsumedEnergy  MaxDiskRead MaxDiskReadNode MaxDiskReadTask    AveDiskRead MaxDiskWrite MaxDiskWriteNode MaxDiskWriteTask   AveDiskWrite    ReqTRES  AllocTRES TRESUsageInAve TRESUsageInMax TRESUsageInMaxNode TRESUsageInMaxTask TRESUsageInMin TRESUsageInMinNode TRESUsageInMinTask TRESUsageInTot TRESUsageOutMax TRESUsageOutMaxNode TRESUsageOutMaxTask TRESUsageOutAve TRESUsageOutTot 
------------ ------------ ---------- ---------- ---------- -------------- -------------- ---------- ---------- ---------- ---------- ---------- -------- ------------ -------------- ---------- ---------- ---------- ---------- ---------- -------- ---------- ---------- ---------- -------- ---------- ------------- ------------- ------------- ---------- -------------- ------------ --------------- --------------- -------------- ------------ ---------------- ---------------- -------------- ---------- ---------- -------------- -------------- ------------------ ------------------ -------------- ------------------ ------------------ -------------- --------------- ------------------- ------------------- --------------- --------------- 
10741642     10741642     submit.job boost_usr+                                                                                                                                                                                                              96   00:07:28    RUNNING      0:0                  Unknown       Unknown       Unknown   1478400M                                                                                                                                          billing=9+ billing=9+                                                                                                                                                                                                                                 
10741642.ba+ 10741642.ba+      batch                                                                                                                                                                                                               1         32   00:07:28    RUNNING      0:0          0             0             0             0                         0                                                                                                                                      cpu=32,gr+                                                                                                                                                                                                                                 
10741642.ex+ 10741642.ex+     extern                                                                                                                                                                                                               3         96   00:07:28    RUNNING      0:0          0             0             0             0                         0                                                                                                                                      billing=9+                                                                                                                                                                                                                                 
10741642.0   10741642.0        orted              8148240K       lrdn1985              0   4074120K   7259324K   lrdn1985          0   3629662K     9601     lrdn1985              0       4800   00:54:37   lrdn1998          1   00:55:06        2         64   00:07:25  COMPLETED      0:0        80K       Unknown       Unknown       Unknown                         0        0.32M        lrdn1998               1          0.32M        0.01M         lrdn1985                0          0.01M            cpu=64,gr+ cpu=00:55:06,+ cpu=00:55:35,+ cpu=lrdn1985,ener+ cpu=0,fs/disk=1,m+ cpu=00:54:37,+ cpu=lrdn1998,ener+ cpu=1,fs/disk=0,m+ cpu=01:50:13,+ energy=0,fs/di+ energy=lrdn1985,fs+           fs/disk=0 energy=0,fs/di+ energy=0,fs/di+ 
