JobId=155340 JobName=CovidStrong
   UserId=aalcaraz(30093) GroupId=aalcaraz(40093) MCS_label=N/A
   Priority=1 Nice=0 Account=eehpc-ben-2024b07-051x QOS=normal
   JobState=RUNNING Reason=None Dependency=(null)
   Requeue=1 Restarts=0 BatchFlag=1 Reboot=0 ExitCode=0:0
   DerivedExitCode=0:0
   RunTime=00:00:02 TimeLimit=01:59:00 TimeMin=N/A
   SubmitTime=2024-10-03T13:23:36 EligibleTime=2024-10-03T13:23:37
   AccrueTime=2024-10-03T13:23:37
   StartTime=2024-10-03T22:22:08 EndTime=2024-10-04T00:21:08 Deadline=N/A
   SuspendTime=None SecsPreSuspend=0 LastSchedEval=2024-10-03T22:22:08 Scheduler=Main
   Partition=normal-x86 AllocNode:Sid=ln02-x86:969421
   ReqNodeList=(null) ExcNodeList=(null)
   NodeList=cnx[096-097]
   BatchHost=cnx096
   NumNodes=2 NumCPUs=256 NumTasks=256 CPUs/Task=1 ReqB:S:C:T=0:0:*:1
   ReqTRES=cpu=256,mem=484G,node=2,billing=256
   AllocTRES=cpu=256,mem=484G,node=2,billing=256
   Socks/Node=* NtasksPerN:B:S:C=128:0:*:* CoreSpec=*
   JOB_GRES=(null)
     Nodes=cnx[096-097] CPU_IDs=0-127 Mem=247808 GRES=
   MinCPUsNode=128 MinMemoryNode=0 MinTmpDiskNode=0
   Features=(null) DelayBoot=00:00:00
   OverSubscribe=NO Contiguous=0 Licenses=(null) Network=(null)
   Command=/projects/EEHPC-BEN-2024B07-051/JUBE4MaX/max-inputs/interface/siesta/_CovidStrong/000000/000001_submit/work/submit.job
   WorkDir=/projects/EEHPC-BEN-2024B07-051/JUBE4MaX/max-inputs/interface/siesta/_CovidStrong/000000/000001_submit/work
   StdErr=/projects/EEHPC-BEN-2024B07-051/JUBE4MaX/max-inputs/interface/siesta/_CovidStrong/000000/000001_submit/work/slurm-155340.out
   StdIn=/dev/null
   StdOut=/projects/EEHPC-BEN-2024B07-051/JUBE4MaX/max-inputs/interface/siesta/_CovidStrong/000000/000001_submit/work/slurm-155340.out
   Power=
   TresPerTask=cpu:1
   

