       JobID     JobIDRaw    JobName  Partition  MaxVMSize  MaxVMSizeNode  MaxVMSizeTask  AveVMSize     MaxRSS MaxRSSNode MaxRSSTask     AveRSS MaxPages MaxPagesNode   MaxPagesTask   AvePages     MinCPU MinCPUNode MinCPUTask     AveCPU   NTasks  AllocCPUS    Elapsed      State ExitCode AveCPUFreq ReqCPUFreqMin ReqCPUFreqMax ReqCPUFreqGov     ReqMem ConsumedEnergy  MaxDiskRead MaxDiskReadNode MaxDiskReadTask    AveDiskRead MaxDiskWrite MaxDiskWriteNode MaxDiskWriteTask   AveDiskWrite    AllocGRES      ReqGRES    ReqTRES  AllocTRES TRESUsageInAve TRESUsageInMax TRESUsageInMaxNode TRESUsageInMaxTask TRESUsageInMin TRESUsageInMinNode TRESUsageInMinTask TRESUsageInTot TRESUsageOutMax TRESUsageOutMaxNode TRESUsageOutMaxTask TRESUsageOutAve TRESUsageOutTot 
------------ ------------ ---------- ---------- ---------- -------------- -------------- ---------- ---------- ---------- ---------- ---------- -------- ------------ -------------- ---------- ---------- ---------- ---------- ---------- -------- ---------- ---------- ---------- -------- ---------- ------------- ------------- ------------- ---------- -------------- ------------ --------------- --------------- -------------- ------------ ---------------- ---------------- -------------- ------------ ------------ ---------- ---------- -------------- -------------- ------------------ ------------------ -------------- ------------------ ------------------ -------------- --------------- ------------------- ------------------- --------------- --------------- 
248102       248102        CovidWeak         cn                                                                                                                                                                                                             512   00:22:14    RUNNING      0:0                  Unknown       Unknown       Unknown        1Gc                                                                                                                                                                    billing=5+ billing=5+                                                                                                                                                                                                                                 
248102.batch 248102.batch      batch                                                                                                                                                                                                               1        128   00:22:14    RUNNING      0:0          0             0             0             0        1Gc              0                                                                                                                                                                cpu=128,m+                                                                                                                                                                                                                                 
248102.0     248102.0         siesta              1604004K         cn0673              0 1333253912    461592K     cn0673         19  396659816      111       cn0673              0         27   00:21:44     cn0673         21   00:21:55      512        512   00:22:12  COMPLETED      0:0      1.49M       Unknown       Unknown       Unknown        1Gc              0       10.51M          cn0673               0          8.30M       17.91M           cn0673                0          4.77M                                      cpu=512,m+ cpu=00:21:55,+ cpu=00:21:57,+ cpu=cn0675,energy+ cpu=329,fs/disk=0+ cpu=00:21:44,+ cpu=cn0673,energy+ cpu=21,fs/disk=51+ cpu=7-19:09:2+ energy=0,fs/di+ energy=cn0675,fs/d+           fs/disk=0 energy=0,fs/di+ energy=0,fs/di+ 
