JobID        JobIDRaw        JobName  Partition  MaxVMSize  MaxVMSizeNode  MaxVMSizeTask  AveVMSize     MaxRSS MaxRSSNode MaxRSSTask     AveRSS MaxPages MaxPagesNode   MaxPagesTask   AvePages     MinCPU MinCPUNode MinCPUTask     AveCPU   NTasks  AllocCPUS    Elapsed      State ExitCode AveCPUFreq ReqCPUFreqMin ReqCPUFreqMax ReqCPUFreqGov     ReqMem ConsumedEnergy  MaxDiskRead MaxDiskReadNode MaxDiskReadTask    AveDiskRead MaxDiskWrite MaxDiskWriteNode MaxDiskWriteTask   AveDiskWrite    ReqTRES  AllocTRES TRESUsageInAve TRESUsageInMax TRESUsageInMaxNode TRESUsageInMaxTask TRESUsageInMin TRESUsageInMinNode TRESUsageInMinTask TRESUsageInTot TRESUsageOutMax TRESUsageOutMaxNode TRESUsageOutMaxTask TRESUsageOutAve TRESUsageOutTot 
------------ ------------ ---------- ---------- ---------- -------------- -------------- ---------- ---------- ---------- ---------- ---------- -------- ------------ -------------- ---------- ---------- ---------- ---------- ---------- -------- ---------- ---------- ---------- -------- ---------- ------------- ------------- ------------- ---------- -------------- ------------ --------------- --------------- -------------- ------------ ---------------- ---------------- -------------- ---------- ---------- -------------- -------------- ------------------ ------------------ -------------- ------------------ ------------------ -------------- --------------- ------------------- ------------------- --------------- --------------- 
7209603      7209603      submit.job dcgp_usr_+                                                                                                                                                                                                             896   00:40:56    RUNNING      0:0                  Unknown       Unknown       Unknown      3850G                                                                                                                                          billing=8+ billing=8+                                                                                                                                                                                                                                 
7209603.bat+ 7209603.bat+      batch                                                                                                                                                                                                               1        112   00:40:56    RUNNING      0:0          0             0             0             0                         0                                                                                                                                      cpu=112,g+                                                                                                                                                                                                                                 
7209603.ext+ 7209603.ext+     extern                                                                                                                                                                                                               8        896   00:40:56    RUNNING      0:0          0             0             0             0                         0                                                                                                                                      billing=8+                                                                                                                                                                                                                                 
7209603.0    7209603.0    hydra_bst+             27249964K       lrdn4685              0 3406245.5+  24799936K   lrdn4685          0   3099992K     4012     lrdn4685              0        501 1-14:43:17   lrdn4722          7 2-02:32:00        8        896   00:40:52  COMPLETED      0:0        87K       Unknown       Unknown       Unknown                         0        0.40M        lrdn4688               1          0.40M        0.02M         lrdn4706                3          0.02M            cpu=896,g+ cpu=2-02:32:0+ cpu=2-14:00:2+ cpu=lrdn4719,ener+ cpu=5,fs/disk=1,m+ cpu=1-14:43:1+ cpu=lrdn4722,ener+ cpu=7,fs/disk=0,m+ cpu=16-20:16:+ energy=0,fs/di+ energy=lrdn4706,fs+           fs/disk=3 energy=0,fs/di+ energy=0,fs/di+ 
