JobId=7209603 JobName=submit.job
   UserId=nspallan(25378) GroupId=interactive(25200) MCS_label=N/A
   Priority=136164 Nice=0 Account=euhpc_b12_044 QOS=normal
   JobState=RUNNING Reason=None Dependency=(null)
   Requeue=0 Restarts=0 BatchFlag=1 Reboot=0 ExitCode=0:0
   DerivedExitCode=0:0
   RunTime=00:00:04 TimeLimit=06:00:00 TimeMin=N/A
   SubmitTime=2024-08-23T14:33:55 EligibleTime=2024-08-23T14:33:55
   AccrueTime=2024-08-23T14:33:55
   StartTime=2024-08-23T14:34:16 EndTime=2024-08-23T20:34:17 Deadline=N/A
   SuspendTime=None SecsPreSuspend=0 LastSchedEval=2024-08-23T14:34:16 Scheduler=Main
   Partition=dcgp_usr_prod AllocNode:Sid=slurm-controller:938051
   ReqNodeList=(null) ExcNodeList=(null)
   NodeList=lrdn[4685,4688,4690,4706,4708,4719,4721-4722]
   BatchHost=lrdn4685
   NumNodes=8 NumCPUs=896 NumTasks=64 CPUs/Task=14 ReqB:S:C:T=0:0:*:*
   TRES=cpu=896,mem=3850G,node=8,billing=896,gres/tmpfs=26388279066624
   Socks/Node=* NtasksPerN:B:S:C=8:0:4:* CoreSpec=*
   JOB_GRES=tmpfs:26388279066624
     Nodes=lrdn[4685,4688,4690,4706,4708,4719,4721-4722] CPU_IDs=0-111 Mem=492800 GRES=tmpfs(CNT:3298534883328)
   MinCPUsNode=112 MinMemoryCPU=4400M MinTmpDiskNode=0
   Features=(null) DelayBoot=00:00:00
   OverSubscribe=NO Contiguous=0 Licenses=(null) Network=(null)
   Command=/leonardo_work/EUHPC_E01_022/nspallan/benchmarks/strongscaling_dcgp_7k_8tpn/000000/000007_submit/work/submit.job
   WorkDir=/leonardo_work/EUHPC_E01_022/nspallan/benchmarks/strongscaling_dcgp_7k_8tpn/000000/000007_submit/work
   StdErr=/leonardo_work/EUHPC_E01_022/nspallan/benchmarks/strongscaling_dcgp_7k_8tpn/000000/000007_submit/work/slurm-7209603.out
   StdIn=/dev/null
   StdOut=/leonardo_work/EUHPC_E01_022/nspallan/benchmarks/strongscaling_dcgp_7k_8tpn/000000/000007_submit/work/slurm-7209603.out
   Power=
   TresPerNode=gres:tmpfs:10g
   

