sacct: error: slurm_persist_conn_open_without_init: failed to open persistent connection to host:r000u18l02-se:6819: Network is unreachable
sacct: error: Sending PersistInit msg: Network is unreachable
sacct: error: Problem talking to the database: Network is unreachable
