Unloading profile/base
  ERROR: Module evaluation aborted
[0] MPI startup(): Intel(R) MPI Library, Version 2021.10  Build 20230619 (id: c2e19c2f3e)
[0] MPI startup(): Copyright (C) 2003-2023 Intel Corporation.  All rights reserved.
[0] MPI startup(): library kind: release
[0] MPI startup(): libfabric version: 1.18.0-impi
[0] MPI startup(): libfabric provider: mlx
[0] MPI startup(): File "/leonardo/prod/spack/05/install/0.21/linux-rhel8-icelake/gcc-8.5.0/intel-oneapi-mpi-2021.10.0-6ff7efudnkj4xa7o4j67mxatygwzfwqc/mpi/2021.10.0/etc/tuning_spr_shm-ofi_mlx_100.dat" not found
[0] MPI startup(): Load tuning file: "/leonardo/prod/spack/05/install/0.21/linux-rhel8-icelake/gcc-8.5.0/intel-oneapi-mpi-2021.10.0-6ff7efudnkj4xa7o4j67mxatygwzfwqc/mpi/2021.10.0/etc/tuning_spr_shm-ofi.dat"
[0] MPI startup(): Rank    Pid      Node name                Pin cpu
[0] MPI startup(): 0       458242   lrdn4299.leonardo.local  {0,1,2,3}
[0] MPI startup(): 1       458243   lrdn4299.leonardo.local  {4,5,6,7}
[0] MPI startup(): 2       458244   lrdn4299.leonardo.local  {8,9,10,11}
[0] MPI startup(): 3       458245   lrdn4299.leonardo.local  {12,13,14,15}
[0] MPI startup(): 4       458246   lrdn4299.leonardo.local  {16,17,18,19}
[0] MPI startup(): 5       458247   lrdn4299.leonardo.local  {20,21,22,23}
[0] MPI startup(): 6       458248   lrdn4299.leonardo.local  {24,25,26,27}
[0] MPI startup(): 7       458249   lrdn4299.leonardo.local  {28,29,30,31}
[0] MPI startup(): 8       458250   lrdn4299.leonardo.local  {32,33,34,35}
[0] MPI startup(): 9       458251   lrdn4299.leonardo.local  {36,37,38,39}
[0] MPI startup(): 10      458252   lrdn4299.leonardo.local  {40,41,42,43}
[0] MPI startup(): 11      458253   lrdn4299.leonardo.local  {44,45,46,47}
[0] MPI startup(): 12      458254   lrdn4299.leonardo.local  {48,49,50,51}
[0] MPI startup(): 13      458255   lrdn4299.leonardo.local  {52,53,54,55}
[0] MPI startup(): 14      458256   lrdn4299.leonardo.local  {56,57,58,59}
[0] MPI startup(): 15      458257   lrdn4299.leonardo.local  {60,61,62,63}
[0] MPI startup(): 16      458258   lrdn4299.leonardo.local  {64,65,66,67}
[0] MPI startup(): 17      458259   lrdn4299.leonardo.local  {68,69,70,71}
[0] MPI startup(): 18      458260   lrdn4299.leonardo.local  {72,73,74,75}
[0] MPI startup(): 19      458261   lrdn4299.leonardo.local  {76,77,78,79}
[0] MPI startup(): 20      458262   lrdn4299.leonardo.local  {80,81,82,83}
[0] MPI startup(): 21      458263   lrdn4299.leonardo.local  {84,85,86,87}
[0] MPI startup(): 22      458264   lrdn4299.leonardo.local  {88,89,90,91}
[0] MPI startup(): 23      458265   lrdn4299.leonardo.local  {92,93,94,95}
[0] MPI startup(): 24      458266   lrdn4299.leonardo.local  {96,97,98,99}
[0] MPI startup(): 25      458267   lrdn4299.leonardo.local  {100,101,102,103}
[0] MPI startup(): 26      458268   lrdn4299.leonardo.local  {104,105,106,107}
[0] MPI startup(): 27      458269   lrdn4299.leonardo.local  {108,109,110,111}
[0] MPI startup(): 28      469229   lrdn4300.leonardo.local  {0,1,2,3}
[0] MPI startup(): 29      469230   lrdn4300.leonardo.local  {4,5,6,7}
[0] MPI startup(): 30      469231   lrdn4300.leonardo.local  {8,9,10,11}
[0] MPI startup(): 31      469232   lrdn4300.leonardo.local  {12,13,14,15}
[0] MPI startup(): 32      469233   lrdn4300.leonardo.local  {16,17,18,19}
[0] MPI startup(): 33      469234   lrdn4300.leonardo.local  {20,21,22,23}
[0] MPI startup(): 34      469235   lrdn4300.leonardo.local  {24,25,26,27}
[0] MPI startup(): 35      469236   lrdn4300.leonardo.local  {28,29,30,31}
[0] MPI startup(): 36      469237   lrdn4300.leonardo.local  {32,33,34,35}
[0] MPI startup(): 37      469238   lrdn4300.leonardo.local  {36,37,38,39}
[0] MPI startup(): 38      469239   lrdn4300.leonardo.local  {40,41,42,43}
[0] MPI startup(): 39      469240   lrdn4300.leonardo.local  {44,45,46,47}
[0] MPI startup(): 40      469241   lrdn4300.leonardo.local  {48,49,50,51}
[0] MPI startup(): 41      469242   lrdn4300.leonardo.local  {52,53,54,55}
[0] MPI startup(): 42      469243   lrdn4300.leonardo.local  {56,57,58,59}
[0] MPI startup(): 43      469244   lrdn4300.leonardo.local  {60,61,62,63}
[0] MPI startup(): 44      469245   lrdn4300.leonardo.local  {64,65,66,67}
[0] MPI startup(): 45      469246   lrdn4300.leonardo.local  {68,69,70,71}
[0] MPI startup(): 46      469247   lrdn4300.leonardo.local  {72,73,74,75}
[0] MPI startup(): 47      469248   lrdn4300.leonardo.local  {76,77,78,79}
[0] MPI startup(): 48      469249   lrdn4300.leonardo.local  {80,81,82,83}
[0] MPI startup(): 49      469250   lrdn4300.leonardo.local  {84,85,86,87}
[0] MPI startup(): 50      469251   lrdn4300.leonardo.local  {88,89,90,91}
[0] MPI startup(): 51      469252   lrdn4300.leonardo.local  {92,93,94,95}
[0] MPI startup(): 52      469253   lrdn4300.leonardo.local  {96,97,98,99}
[0] MPI startup(): 53      469254   lrdn4300.leonardo.local  {100,101,102,103}
[0] MPI startup(): 54      469255   lrdn4300.leonardo.local  {104,105,106,107}
[0] MPI startup(): 55      469256   lrdn4300.leonardo.local  {108,109,110,111}
[0] MPI startup(): 56      471074   lrdn4301.leonardo.local  {0,1,2,3}
[0] MPI startup(): 57      471075   lrdn4301.leonardo.local  {4,5,6,7}
[0] MPI startup(): 58      471076   lrdn4301.leonardo.local  {8,9,10,11}
[0] MPI startup(): 59      471077   lrdn4301.leonardo.local  {12,13,14,15}
[0] MPI startup(): 60      471078   lrdn4301.leonardo.local  {16,17,18,19}
[0] MPI startup(): 61      471079   lrdn4301.leonardo.local  {20,21,22,23}
[0] MPI startup(): 62      471080   lrdn4301.leonardo.local  {24,25,26,27}
[0] MPI startup(): 63      471081   lrdn4301.leonardo.local  {28,29,30,31}
[0] MPI startup(): 64      471082   lrdn4301.leonardo.local  {32,33,34,35}
[0] MPI startup(): 65      471083   lrdn4301.leonardo.local  {36,37,38,39}
[0] MPI startup(): 66      471084   lrdn4301.leonardo.local  {40,41,42,43}
[0] MPI startup(): 67      471085   lrdn4301.leonardo.local  {44,45,46,47}
[0] MPI startup(): 68      471086   lrdn4301.leonardo.local  {48,49,50,51}
[0] MPI startup(): 69      471087   lrdn4301.leonardo.local  {52,53,54,55}
[0] MPI startup(): 70      471088   lrdn4301.leonardo.local  {56,57,58,59}
[0] MPI startup(): 71      471089   lrdn4301.leonardo.local  {60,61,62,63}
[0] MPI startup(): 72      471090   lrdn4301.leonardo.local  {64,65,66,67}
[0] MPI startup(): 73      471091   lrdn4301.leonardo.local  {68,69,70,71}
[0] MPI startup(): 74      471092   lrdn4301.leonardo.local  {72,73,74,75}
[0] MPI startup(): 75      471093   lrdn4301.leonardo.local  {76,77,78,79}
[0] MPI startup(): 76      471094   lrdn4301.leonardo.local  {80,81,82,83}
[0] MPI startup(): 77      471095   lrdn4301.leonardo.local  {84,85,86,87}
[0] MPI startup(): 78      471096   lrdn4301.leonardo.local  {88,89,90,91}
[0] MPI startup(): 79      471097   lrdn4301.leonardo.local  {92,93,94,95}
[0] MPI startup(): 80      471098   lrdn4301.leonardo.local  {96,97,98,99}
[0] MPI startup(): 81      471099   lrdn4301.leonardo.local  {100,101,102,103}
[0] MPI startup(): 82      471100   lrdn4301.leonardo.local  {104,105,106,107}
[0] MPI startup(): 83      471101   lrdn4301.leonardo.local  {108,109,110,111}
[0] MPI startup(): 84      462774   lrdn4302.leonardo.local  {0,1,2,3}
[0] MPI startup(): 85      462775   lrdn4302.leonardo.local  {4,5,6,7}
[0] MPI startup(): 86      462776   lrdn4302.leonardo.local  {8,9,10,11}
[0] MPI startup(): 87      462777   lrdn4302.leonardo.local  {12,13,14,15}
[0] MPI startup(): 88      462778   lrdn4302.leonardo.local  {16,17,18,19}
[0] MPI startup(): 89      462779   lrdn4302.leonardo.local  {20,21,22,23}
[0] MPI startup(): 90      462780   lrdn4302.leonardo.local  {24,25,26,27}
[0] MPI startup(): 91      462781   lrdn4302.leonardo.local  {28,29,30,31}
[0] MPI startup(): 92      462782   lrdn4302.leonardo.local  {32,33,34,35}
[0] MPI startup(): 93      462783   lrdn4302.leonardo.local  {36,37,38,39}
[0] MPI startup(): 94      462784   lrdn4302.leonardo.local  {40,41,42,43}
[0] MPI startup(): 95      462785   lrdn4302.leonardo.local  {44,45,46,47}
[0] MPI startup(): 96      462786   lrdn4302.leonardo.local  {48,49,50,51}
[0] MPI startup(): 97      462787   lrdn4302.leonardo.local  {52,53,54,55}
[0] MPI startup(): 98      462788   lrdn4302.leonardo.local  {56,57,58,59}
[0] MPI startup(): 99      462789   lrdn4302.leonardo.local  {60,61,62,63}
[0] MPI startup(): 100     462790   lrdn4302.leonardo.local  {64,65,66,67}
[0] MPI startup(): 101     462791   lrdn4302.leonardo.local  {68,69,70,71}
[0] MPI startup(): 102     462792   lrdn4302.leonardo.local  {72,73,74,75}
[0] MPI startup(): 103     462793   lrdn4302.leonardo.local  {76,77,78,79}
[0] MPI startup(): 104     462794   lrdn4302.leonardo.local  {80,81,82,83}
[0] MPI startup(): 105     462795   lrdn4302.leonardo.local  {84,85,86,87}
[0] MPI startup(): 106     462796   lrdn4302.leonardo.local  {88,89,90,91}
[0] MPI startup(): 107     462797   lrdn4302.leonardo.local  {92,93,94,95}
[0] MPI startup(): 108     462798   lrdn4302.leonardo.local  {96,97,98,99}
[0] MPI startup(): 109     462799   lrdn4302.leonardo.local  {100,101,102,103}
[0] MPI startup(): 110     462800   lrdn4302.leonardo.local  {104,105,106,107}
[0] MPI startup(): 111     462801   lrdn4302.leonardo.local  {108,109,110,111}
[0] MPI startup(): 112     441234   lrdn4305.leonardo.local  {0,1,2,3}
[0] MPI startup(): 113     441235   lrdn4305.leonardo.local  {4,5,6,7}
[0] MPI startup(): 114     441236   lrdn4305.leonardo.local  {8,9,10,11}
[0] MPI startup(): 115     441237   lrdn4305.leonardo.local  {12,13,14,15}
[0] MPI startup(): 116     441238   lrdn4305.leonardo.local  {16,17,18,19}
[0] MPI startup(): 117     441239   lrdn4305.leonardo.local  {20,21,22,23}
[0] MPI startup(): 118     441240   lrdn4305.leonardo.local  {24,25,26,27}
[0] MPI startup(): 119     441241   lrdn4305.leonardo.local  {28,29,30,31}
[0] MPI startup(): 120     441242   lrdn4305.leonardo.local  {32,33,34,35}
[0] MPI startup(): 121     441243   lrdn4305.leonardo.local  {36,37,38,39}
[0] MPI startup(): 122     441244   lrdn4305.leonardo.local  {40,41,42,43}
[0] MPI startup(): 123     441245   lrdn4305.leonardo.local  {44,45,46,47}
[0] MPI startup(): 124     441246   lrdn4305.leonardo.local  {48,49,50,51}
[0] MPI startup(): 125     441247   lrdn4305.leonardo.local  {52,53,54,55}
[0] MPI startup(): 126     441248   lrdn4305.leonardo.local  {56,57,58,59}
[0] MPI startup(): 127     441249   lrdn4305.leonardo.local  {60,61,62,63}
[0] MPI startup(): 128     441250   lrdn4305.leonardo.local  {64,65,66,67}
[0] MPI startup(): 129     441251   lrdn4305.leonardo.local  {68,69,70,71}
[0] MPI startup(): 130     441252   lrdn4305.leonardo.local  {72,73,74,75}
[0] MPI startup(): 131     441253   lrdn4305.leonardo.local  {76,77,78,79}
[0] MPI startup(): 132     441254   lrdn4305.leonardo.local  {80,81,82,83}
[0] MPI startup(): 133     441255   lrdn4305.leonardo.local  {84,85,86,87}
[0] MPI startup(): 134     441256   lrdn4305.leonardo.local  {88,89,90,91}
[0] MPI startup(): 135     441257   lrdn4305.leonardo.local  {92,93,94,95}
[0] MPI startup(): 136     441258   lrdn4305.leonardo.local  {96,97,98,99}
[0] MPI startup(): 137     441259   lrdn4305.leonardo.local  {100,101,102,103}
[0] MPI startup(): 138     441260   lrdn4305.leonardo.local  {104,105,106,107}
[0] MPI startup(): 139     441261   lrdn4305.leonardo.local  {108,109,110,111}
[0] MPI startup(): 140     416390   lrdn4306.leonardo.local  {0,1,2,3}
[0] MPI startup(): 141     416391   lrdn4306.leonardo.local  {4,5,6,7}
[0] MPI startup(): 142     416392   lrdn4306.leonardo.local  {8,9,10,11}
[0] MPI startup(): 143     416393   lrdn4306.leonardo.local  {12,13,14,15}
[0] MPI startup(): 144     416394   lrdn4306.leonardo.local  {16,17,18,19}
[0] MPI startup(): 145     416395   lrdn4306.leonardo.local  {20,21,22,23}
[0] MPI startup(): 146     416396   lrdn4306.leonardo.local  {24,25,26,27}
[0] MPI startup(): 147     416397   lrdn4306.leonardo.local  {28,29,30,31}
[0] MPI startup(): 148     416398   lrdn4306.leonardo.local  {32,33,34,35}
[0] MPI startup(): 149     416399   lrdn4306.leonardo.local  {36,37,38,39}
[0] MPI startup(): 150     416400   lrdn4306.leonardo.local  {40,41,42,43}
[0] MPI startup(): 151     416401   lrdn4306.leonardo.local  {44,45,46,47}
[0] MPI startup(): 152     416402   lrdn4306.leonardo.local  {48,49,50,51}
[0] MPI startup(): 153     416403   lrdn4306.leonardo.local  {52,53,54,55}
[0] MPI startup(): 154     416404   lrdn4306.leonardo.local  {56,57,58,59}
[0] MPI startup(): 155     416405   lrdn4306.leonardo.local  {60,61,62,63}
[0] MPI startup(): 156     416406   lrdn4306.leonardo.local  {64,65,66,67}
[0] MPI startup(): 157     416407   lrdn4306.leonardo.local  {68,69,70,71}
[0] MPI startup(): 158     416408   lrdn4306.leonardo.local  {72,73,74,75}
[0] MPI startup(): 159     416409   lrdn4306.leonardo.local  {76,77,78,79}
[0] MPI startup(): 160     416410   lrdn4306.leonardo.local  {80,81,82,83}
[0] MPI startup(): 161     416411   lrdn4306.leonardo.local  {84,85,86,87}
[0] MPI startup(): 162     416412   lrdn4306.leonardo.local  {88,89,90,91}
[0] MPI startup(): 163     416413   lrdn4306.leonardo.local  {92,93,94,95}
[0] MPI startup(): 164     416414   lrdn4306.leonardo.local  {96,97,98,99}
[0] MPI startup(): 165     416415   lrdn4306.leonardo.local  {100,101,102,103}
[0] MPI startup(): 166     416416   lrdn4306.leonardo.local  {104,105,106,107}
[0] MPI startup(): 167     416417   lrdn4306.leonardo.local  {108,109,110,111}
[0] MPI startup(): I_MPI_ROOT=/leonardo/prod/spack/05/install/0.21/linux-rhel8-icelake/gcc-8.5.0/intel-oneapi-mpi-2021.10.0-6ff7efudnkj4xa7o4j67mxatygwzfwqc/mpi/2021.10.0
[0] MPI startup(): I_MPI_MPIRUN=mpirun
[0] MPI startup(): I_MPI_BIND_WIN_ALLOCATE=localalloc
[0] MPI startup(): I_MPI_HYDRA_TOPOLIB=hwloc
[0] MPI startup(): I_MPI_JOB_RESPECT_PROCESS_PLACEMENT=0
[0] MPI startup(): I_MPI_HYDRA_BOOTSTRAP=slurm
[0] MPI startup(): I_MPI_RETURN_WIN_MEM_NUMA=0
[0] MPI startup(): I_MPI_PIN_CELL=core
[0] MPI startup(): I_MPI_PIN_DOMAIN=4
[0] MPI startup(): I_MPI_PIN_ORDER=range
[0] MPI startup(): I_MPI_INTERNAL_MEM_POLICY=default
[0] MPI startup(): I_MPI_DEBUG=5
      Welcome to FLEUR        (www.flapw.de)   
      MaX-Release 7.0          (www.max-centre.eu)
 Running on          168  PE
           1  jobs are distributed on          168  unassigned PE
 Now copying inp_dump.xml
 
 ========== k-point set info ==========
 Selected k-point list: default
 k-point list type: unspecified
 Number of k points: 1
 
 --------------------------------------------------------
 Number of MPI-tasks:           168
 Number of PE/node  :            28
 Number of OMP-threads:           4
 k-points in parallel:            1
 pe's per k-point:              168
 # of k-point loops:              1
 --------------------------------------------------------
 Signal           11  detected on PE:          86
 Signal           11  detected on PE:          85
 This might be due to either:
  - A bug
  - Your job running out of memory
  - Your job got killed externally (e.g. no cpu-time left)
  - ....
 Please check and report if you believe you found a bug
 Signal           11  detected on PE:         111
 Signal           11  detected on PE:          90
 Signal           11  detected on PE:          59
 This might be due to either:
  - A bug
  - Your job running out of memory
  - Your job got killed externally (e.g. no cpu-time left)
  - ....
 Please check and report if you believe you found a bug
 This might be due to either:
  - A bug
  - Your job running out of memory
  - Your job got killed externally (e.g. no cpu-time left)
  - ....
 Please check and report if you believe you found a bug
 Signal           11  detected on PE:          60
 This might be due to either:
  - A bug
  - Your job running out of memory
  - Your job got killed externally (e.g. no cpu-time left)
  - ....
 Please check and report if you believe you found a bug
 Signal           11  detected on PE:          62
 This might be due to either:
  - A bug
  - Your job running out of memory
  - Your job got killed externally (e.g. no cpu-time left)
  - ....
 Please check and report if you believe you found a bug
 Signal           11  detected on PE:          29
 This might be due to either:
  - A bug
  - Your job running out of memory
  - Your job got killed externally (e.g. no cpu-time left)
  - ....
 Please check and report if you believe you found a bug
 Signal           11  detected on PE:          71
 This might be due to either:
  - A bug
  - Your job running out of memory
  - Your job got killed externally (e.g. no cpu-time left)
  - ....
 Please check and report if you believe you found a bug
 Signal           11  detected on PE:          31
 This might be due to either:
  - A bug
  - Your job running out of memory
  - Your job got killed externally (e.g. no cpu-time left)
  - ....
 Please check and report if you believe you found a bug
 Signal           11  detected on PE:          89
 This might be due to either:
  - A bug
  - Your job running out of memory
  - Your job got killed externally (e.g. no cpu-time left)
  - ....
 Please check and report if you believe you found a bug
 Signal           11  detected on PE:         124
 This might be due to either:
  - A bug
  - Your job running out of memory
  - Your job got killed externally (e.g. no cpu-time left)
  - ....
 Please check and report if you believe you found a bug
 Signal           11  detected on PE:          75
 This might be due to either:
  - A bug
  - Your job running out of memory
  - Your job got killed externally (e.g. no cpu-time left)
  - ....
 Please check and report if you believe you found a bug
 Signal           11  detected on PE:          34
 This might be due to either:
  - A bug
  - Your job running out of memory
  - Your job got killed externally (e.g. no cpu-time left)
  - ....
 Please check and report if you believe you found a bug
 This might be due to either:
  - A bug
  - Your job running out of memory
  - Your job got killed externally (e.g. no cpu-time left)
  - ....
 Please check and report if you believe you found a bug
 Signal           11  detected on PE:          77
 This might be due to either:
  - A bug
  - Your job running out of memory
  - Your job got killed externally (e.g. no cpu-time left)
  - ....
 Please check and report if you believe you found a bug
 Signal           11  detected on PE:          36
 This might be due to either:
  - A bug
  - Your job running out of memory
  - Your job got killed externally (e.g. no cpu-time left)
  - ....
 Please check and report if you believe you found a bug
 Signal           11  detected on PE:          91
 This might be due to either:
  - A bug
  - Your job running out of memory
  - Your job got killed externally (e.g. no cpu-time left)
  - ....
 Please check and report if you believe you found a bug
 Signal           11  detected on PE:         125
 This might be due to either:
  - A bug
  - Your job running out of memory
  - Your job got killed externally (e.g. no cpu-time left)
  - ....
 Please check and report if you believe you found a bug
 Signal           11  detected on PE:          56
 Signal           11  detected on PE:          39
 This might be due to either:
  - A bug
  - Your job running out of memory
  - Your job got killed externally (e.g. no cpu-time left)
  - ....
 Please check and report if you believe you found a bug
 Signal           11  detected on PE:          95
 This might be due to either:
  - A bug
  - Your job running out of memory
  - Your job got killed externally (e.g. no cpu-time left)
  - ....
 Please check and report if you believe you found a bug
 Signal           11  detected on PE:         126
 This might be due to either:
  - A bug
  - Your job running out of memory
  - Your job got killed externally (e.g. no cpu-time left)
  - ....
 Please check and report if you believe you found a bug
 Signal           11  detected on PE:          68
 This might be due to either:
  - A bug
  - Your job running out of memory
  - Your job got killed externally (e.g. no cpu-time left)
  - ....
 Please check and report if you believe you found a bug
 Signal           11  detected on PE:          41
 This might be due to either:
  - A bug
  - Your job running out of memory
  - Your job got killed externally (e.g. no cpu-time left)
  - ....
 Please check and report if you believe you found a bug
 Signal           11  detected on PE:         143
 This might be due to either:
  - A bug
  - Your job running out of memory
  - Your job got killed externally (e.g. no cpu-time left)
  - ....
 Please check and report if you believe you found a bug
 Signal           11  detected on PE:         101
 This might be due to either:
  - A bug
  - Your job running out of memory
  - Your job got killed externally (e.g. no cpu-time left)
  - ....
 Please check and report if you believe you found a bug
 Signal           11  detected on PE:         127
 This might be due to either:
  - A bug
  - Your job running out of memory
  - Your job got killed externally (e.g. no cpu-time left)
  - ....
 Please check and report if you believe you found a bug
 Signal           11  detected on PE:          72
 Signal           11  detected on PE:          43
 This might be due to either:
  - A bug
  - Your job running out of memory
  - Your job got killed externally (e.g. no cpu-time left)
  - ....
 Please check and report if you believe you found a bug
 Signal           11  detected on PE:         144
 This might be due to either:
  - A bug
  - Your job running out of memory
  - Your job got killed externally (e.g. no cpu-time left)
  - ....
 Please check and report if you believe you found a bug
 This might be due to either:
  - A bug
  - Your job running out of memory
  - Your job got killed externally (e.g. no cpu-time left)
  - ....
 Please check and report if you believe you found a bug
 Signal           11  detected on PE:         132
 This might be due to either:
  - A bug
  - Your job running out of memory
  - Your job got killed externally (e.g. no cpu-time left)
  - ....
 Please check and report if you believe you found a bug
 Signal           11  detected on PE:          76
 This might be due to either:
  - A bug
  - Your job running out of memory
  - Your job got killed externally (e.g. no cpu-time left)
  - ....
 Please check and report if you believe you found a bug
 Signal           11  detected on PE:          52
 This might be due to either:
  - A bug
  - Your job running out of memory
  - Your job got killed externally (e.g. no cpu-time left)
  - ....
 Please check and report if you believe you found a bug
 Signal           11  detected on PE:         146
 This might be due to either:
  - A bug
  - Your job running out of memory
  - Your job got killed externally (e.g. no cpu-time left)
  - ....
 Please check and report if you believe you found a bug
 Signal           11  detected on PE:          92
 This might be due to either:
  - A bug
  - Your job running out of memory
  - Your job got killed externally (e.g. no cpu-time left)
  - ....
 Please check and report if you believe you found a bug
 Signal           11  detected on PE:         134
 This might be due to either:
 Signal           11  detected on PE:          73
 Signal           11  detected on PE:          53
 This might be due to either:
  - A bug
  - Your job running out of memory
  - Your job got killed externally (e.g. no cpu-time left)
  - ....
 Please check and report if you believe you found a bug
 Signal           11  detected on PE:         150
 This might be due to either:
  - A bug
  - Your job running out of memory
  - Your job got killed externally (e.g. no cpu-time left)
  - ....
 Please check and report if you believe you found a bug
 Signal           11  detected on PE:         135
 This might be due to either:
  - A bug
  - Your job running out of memory
  - Your job got killed externally (e.g. no cpu-time left)
  - ....
 Please check and report if you believe you found a bug
 Signal           11  detected on PE:          74
 This might be due to either:
  - A bug
  - Your job running out of memory
  - Your job got killed externally (e.g. no cpu-time left)
  - ....
 Please check and report if you believe you found a bug
 Signal           11  detected on PE:          54
 This might be due to either:
  - A bug
  - Your job running out of memory
  - Your job got killed externally (e.g. no cpu-time left)
  - ....
 Please check and report if you believe you found a bug
 Signal           11  detected on PE:         151
 This might be due to either:
  - A bug
  - Your job running out of memory
  - Your job got killed externally (e.g. no cpu-time left)
  - ....
 Please check and report if you believe you found a bug
 Signal           11  detected on PE:         136
 This might be due to either:
  - A bug
  - Your job running out of memory
  - Your job got killed externally (e.g. no cpu-time left)
  - ....
 Please check and report if you believe you found a bug
 Signal           11  detected on PE:           0
 This might be due to either:
  - A bug
  - Your job running out of memory
  - Your job got killed externally (e.g. no cpu-time left)
  - ....
 Please check and report if you believe you found a bug
 This might be due to either:
  - A bug
  - Your job running out of memory
  - Your job got killed externally (e.g. no cpu-time left)
  - ....
 Please check and report if you believe you found a bug
 Signal           11  detected on PE:          38
 This might be due to either:
  - A bug
  - Your job running out of memory
  - Your job got killed externally (e.g. no cpu-time left)
  - ....
 Please check and report if you believe you found a bug
 Signal           11  detected on PE:         152
 This might be due to either:
  - A bug
  - Your job running out of memory
  - Your job got killed externally (e.g. no cpu-time left)
  - ....
 Please check and report if you believe you found a bug
 Signal           11  detected on PE:         137
 This might be due to either:
  - A bug
  - Your job running out of memory
  - Your job got killed externally (e.g. no cpu-time left)
  - ....
 Please check and report if you believe you found a bug
 Signal           11  detected on PE:           1
 This might be due to either:
  - A bug
  - Your job running out of memory
  - Your job got killed externally (e.g. no cpu-time left)
  - ....
 Please check and report if you believe you found a bug
 This might be due to either:
  - A bug
  - Your job running out of memory
  - Your job got killed externally (e.g. no cpu-time left)
  - ....
 Please check and report if you believe you found a bug
 Signal           11  detected on PE:          40
 This might be due to either:
  - A bug
  - Your job running out of memory
  - Your job got killed externally (e.g. no cpu-time left)
  - ....
 Please check and report if you believe you found a bug
 Signal           11  detected on PE:         163
 This might be due to either:
  - A bug
  - Your job running out of memory
  - Your job got killed externally (e.g. no cpu-time left)
  - ....
 Please check and report if you believe you found a bug
 Signal           11  detected on PE:         138
 This might be due to either:
  - A bug
  - Your job running out of memory
  - Your job got killed externally (e.g. no cpu-time left)
  - ....
 Please check and report if you believe you found a bug
 Signal           11  detected on PE:           2
 This might be due to either:
  - A bug
  - Your job running out of memory
  - Your job got killed externally (e.g. no cpu-time left)
  - ....
 Please check and report if you believe you found a bug
 This might be due to either:
  - A bug
  - Your job running out of memory
  - Your job got killed externally (e.g. no cpu-time left)
  - ....
 Please check and report if you believe you found a bug
 Signal           11  detected on PE:          44
 This might be due to either:
  - A bug
  - Your job running out of memory
  - Your job got killed externally (e.g. no cpu-time left)
  - ....
 Please check and report if you believe you found a bug
 Signal           11  detected on PE:         164
 This might be due to either:
  - A bug
  - Your job running out of memory
  - Your job got killed externally (e.g. no cpu-time left)
  - ....
 Please check and report if you believe you found a bug
 Signal           11  detected on PE:          84
 This might be due to either:
  - A bug
  - Your job running out of memory
  - Your job got killed externally (e.g. no cpu-time left)
  - ....
 Please check and report if you believe you found a bug
 Signal           11  detected on PE:         112
 This might be due to either:
  - A bug
  - Your job running out of memory
  - Your job got killed externally (e.g. no cpu-time left)
  - ....
 Please check and report if you believe you found a bug
 Signal           11  detected on PE:           3
 This might be due to either:
  - A bug
  - Your job running out of memory
  - Your job got killed externally (e.g. no cpu-time left)
  - ....
 Please check and report if you believe you found a bug
 Signal           11  detected on PE:          80
 Signal           11  detected on PE:          46
 This might be due to either:
  - A bug
  - Your job running out of memory
  - Your job got killed externally (e.g. no cpu-time left)
  - ....
 Please check and report if you believe you found a bug
 Signal           11  detected on PE:         165
 This might be due to either:
  - A bug
  - Your job running out of memory
  - Your job got killed externally (e.g. no cpu-time left)
  - ....
 Please check and report if you believe you found a bug
 Signal           11  detected on PE:          93
 This might be due to either:
  - A bug
  - Your job running out of memory
  - Your job got killed externally (e.g. no cpu-time left)
  - ....
 Please check and report if you believe you found a bug
 Signal           11  detected on PE:         118
 This might be due to either:
  - A bug
  - Your job running out of memory
  - Your job got killed externally (e.g. no cpu-time left)
  - ....
 Please check and report if you believe you found a bug
 Signal           11  detected on PE:           4
 This might be due to either:
  - A bug
  - Your job running out of memory
  - Your job got killed externally (e.g. no cpu-time left)
  - ....
 Please check and report if you believe you found a bug
 Signal           11  detected on PE:          82
 This might be due to either:
  - A bug
  - Your job running out of memory
 Signal           11  detected on PE:          50
 This might be due to either:
  - A bug
  - Your job running out of memory
  - Your job got killed externally (e.g. no cpu-time left)
  - ....
 Please check and report if you believe you found a bug
 Signal           11  detected on PE:         167
 Signal           11  detected on PE:          96
 This might be due to either:
  - A bug
  - Your job running out of memory
  - Your job got killed externally (e.g. no cpu-time left)
  - ....
 Please check and report if you believe you found a bug
 Signal           11  detected on PE:         122
 This might be due to either:
  - A bug
  - Your job running out of memory
  - Your job got killed externally (e.g. no cpu-time left)
  - ....
 Please check and report if you believe you found a bug
 Signal           11  detected on PE:           5
 This might be due to either:
  - A bug
  - Your job running out of memory
  - Your job got killed externally (e.g. no cpu-time left)
  - ....
 Please check and report if you believe you found a bug
 Signal           11  detected on PE:          69
 This might be due to either:
  - A bug
  - Your job running out of memory
  - Your job got killed externally (e.g. no cpu-time left)
  - ....
 Please check and report if you believe you found a bug
 Signal           11  detected on PE:          51
 Signal           11  detected on PE:         140
 This might be due to either:
  - A bug
  - Your job running out of memory
  - Your job got killed externally (e.g. no cpu-time left)
  - ....
 Please check and report if you believe you found a bug
 Signal           11  detected on PE:         102
 This might be due to either:
  - A bug
  - Your job running out of memory
  - Your job got killed externally (e.g. no cpu-time left)
  - ....
 Please check and report if you believe you found a bug
 Signal           11  detected on PE:         123
 Signal           11  detected on PE:           6
 This might be due to either:
  - A bug
  - Your job running out of memory
  - Your job got killed externally (e.g. no cpu-time left)
  - ....
 Please check and report if you believe you found a bug
  - Your job got killed externally (e.g. no cpu-time left)
  - ....
 Please check and report if you believe you found a bug
 Signal           11  detected on PE:          35
 Signal           11  detected on PE:         141
 This might be due to either:
  - A bug
  - Your job running out of memory
  - Your job got killed externally (e.g. no cpu-time left)
  - ....
 Signal           11  detected on PE:         106
 This might be due to either:
  - A bug
  - Your job running out of memory
  - Your job got killed externally (e.g. no cpu-time left)
  - ....
 Please check and report if you believe you found a bug
  - A bug
  - Your job running out of memory
  - Your job got killed externally (e.g. no cpu-time left)
  - ....
 Please check and report if you believe you found a bug
 Signal           11  detected on PE:           7
 This might be due to either:
  - A bug
  - Your job running out of memory
  - Your job got killed externally (e.g. no cpu-time left)
  - ....
 Please check and report if you believe you found a bug
 Signal           11  detected on PE:          63
 This might be due to either:
  - A bug
  - Your job running out of memory
  - Your job got killed externally (e.g. no cpu-time left)
  - ....
 Please check and report if you believe you found a bug
 Signal           11  detected on PE:         142
 This might be due to either:
  - A bug
  - Your job running out of memory
  - Your job got killed externally (e.g. no cpu-time left)
  - ....
 Please check and report if you believe you found a bug
 Signal           11  detected on PE:         109
 This might be due to either:
  - A bug
  - Your job running out of memory
  - Your job got killed externally (e.g. no cpu-time left)
  - ....
 Please check and report if you believe you found a bug
 Signal           11  detected on PE:         120
 Signal           11  detected on PE:           8
 This might be due to either:
  - A bug
  - Your job running out of memory
  - Your job got killed externally (e.g. no cpu-time left)
  - ....
 Please check and report if you believe you found a bug
 This might be due to either:
  - A bug
  - Your job running out of memory
  - Your job got killed externally (e.g. no cpu-time left)
  - ....
 Please check and report if you believe you found a bug
 Signal           11  detected on PE:          30
 Signal           11  detected on PE:         145
 This might be due to either:
  - A bug
  - Your job running out of memory
  - Your job got killed externally (e.g. no cpu-time left)
  - ....
 Please check and report if you believe you found a bug
 Signal           11  detected on PE:          87
 Signal           11  detected on PE:         139
 Signal           11  detected on PE:           9
 This might be due to either:
  - A bug
  - Your job running out of memory
  - Your job got killed externally (e.g. no cpu-time left)
  - ....
 Please check and report if you believe you found a bug
 Signal           11  detected on PE:          58
 This might be due to either:
  - A bug
  - Your job running out of memory
  - Your job got killed externally (e.g. no cpu-time left)
  - ....
 Please check and report if you believe you found a bug
 This might be due to either:
  - A bug
  - Your job running out of memory
  - Your job got killed externally (e.g. no cpu-time left)
  - ....
 Please check and report if you believe you found a bug
 Signal           11  detected on PE:         157
 This might be due to either:
  - A bug
  - Your job running out of memory
  - Your job got killed externally (e.g. no cpu-time left)
  - ....
 Please check and report if you believe you found a bug
 Signal           11  detected on PE:          88
 This might be due to either:
  - A bug
  - Your job running out of memory
  - Your job got killed externally (e.g. no cpu-time left)
  - ....
 Please check and report if you believe you found a bug
 Signal           11  detected on PE:         133
 Signal           11  detected on PE:          10
 This might be due to either:
  - A bug
  - Your job running out of memory
  - Your job got killed externally (e.g. no cpu-time left)
  - ....
 Please check and report if you believe you found a bug
 This might be due to either:
  - A bug
  - Your job running out of memory
  - Your job got killed externally (e.g. no cpu-time left)
  - ....
 Please check and report if you believe you found a bug
 This might be due to either:
  - A bug
  - Your job running out of memory
  - Your job got killed externally (e.g. no cpu-time left)
  - ....
 Please check and report if you believe you found a bug
 Signal           11  detected on PE:         160
 Signal           11  detected on PE:          94
 This might be due to either:
  - A bug
  - Your job running out of memory
  - Your job got killed externally (e.g. no cpu-time left)
  - ....
 Please check and report if you believe you found a bug
 This might be due to either:
  - A bug
  - Your job running out of memory
  - Your job got killed externally (e.g. no cpu-time left)
  - ....
 Please check and report if you believe you found a bug
 Signal           11  detected on PE:          11
 This might be due to either:
  - A bug
  - Your job running out of memory
  - Your job got killed externally (e.g. no cpu-time left)
  - ....
 Please check and report if you believe you found a bug
 Signal           11  detected on PE:          70
 This might be due to either:
  - A bug
  - Your job running out of memory
  - Your job got killed externally (e.g. no cpu-time left)
  - ....
 Please check and report if you believe you found a bug
 Signal           11  detected on PE:          42
 This might be due to either:
  - A bug
  - Your job running out of memory
  - Your job got killed externally (e.g. no cpu-time left)
  - ....
 Please check and report if you believe you found a bug
 Signal           11  detected on PE:         161
 This might be due to either:
  - A bug
  - Your job running out of memory
  - Your job got killed externally (e.g. no cpu-time left)
  - ....
 Please check and report if you believe you found a bug
 Signal           11  detected on PE:          97
 This might be due to either:
  - A bug
  - Your job running out of memory
  - Your job got killed externally (e.g. no cpu-time left)
  - ....
 Please check and report if you believe you found a bug
 This might be due to either:
  - A bug
  - Your job running out of memory
  - Your job got killed externally (e.g. no cpu-time left)
  - ....
 Please check and report if you believe you found a bug
 Signal           11  detected on PE:          12
 This might be due to either:
  - A bug
  - Your job running out of memory
  - Your job got killed externally (e.g. no cpu-time left)
  - ....
 Please check and report if you believe you found a bug
 Signal           11  detected on PE:          83
 This might be due to either:
  - A bug
  - Your job running out of memory
  - Your job got killed externally (e.g. no cpu-time left)
  - ....
 Please check and report if you believe you found a bug
 Signal           11  detected on PE:          55
 This might be due to either:
  - A bug
  - Your job running out of memory
  - Your job got killed externally (e.g. no cpu-time left)
  - ....
 Please check and report if you believe you found a bug
 This might be due to either:
  - A bug
  - Your job running out of memory
  - Your job got killed externally (e.g. no cpu-time left)
  - ....
 Please check and report if you believe you found a bug
 Signal           11  detected on PE:         100
 This might be due to either:
  - A bug
  - Your job running out of memory
  - Your job got killed externally (e.g. no cpu-time left)
  - ....
 Please check and report if you believe you found a bug
 Signal           11  detected on PE:         121
 Signal           11  detected on PE:          13
 This might be due to either:
  - A bug
  - Your job running out of memory
  - Your job got killed externally (e.g. no cpu-time left)
  - ....
 Please check and report if you believe you found a bug
 Signal           11  detected on PE:          57
 Signal           11  detected on PE:          32
 This might be due to either:
  - A bug
  - Your job running out of memory
  - Your job got killed externally (e.g. no cpu-time left)
  - ....
 Please check and report if you believe you found a bug
 Please check and report if you believe you found a bug
 Signal           11  detected on PE:         104
 This might be due to either:
  - A bug
  - Your job running out of memory
  - Your job got killed externally (e.g. no cpu-time left)
  - ....
 Please check and report if you believe you found a bug
 This might be due to either:
  - A bug
  - Your job running out of memory
  - Your job got killed externally (e.g. no cpu-time left)
  - ....
 Please check and report if you believe you found a bug
 Signal           11  detected on PE:          14
 This might be due to either:
  - A bug
  - Your job running out of memory
  - Your job got killed externally (e.g. no cpu-time left)
  - ....
 Please check and report if you believe you found a bug
 Signal           11  detected on PE:          64
 Signal           11  detected on PE:          37
 This might be due to either:
  - A bug
  - Your job running out of memory
  - Your job got killed externally (e.g. no cpu-time left)
  - ....
 Please check and report if you believe you found a bug
 Signal           11  detected on PE:         156
 This might be due to either:
  - A bug
 Signal           11  detected on PE:         107
 This might be due to either:
  - A bug
  - Your job running out of memory
  - Your job got killed externally (e.g. no cpu-time left)
  - ....
 Please check and report if you believe you found a bug
 Signal           11  detected on PE:         114
 Signal           11  detected on PE:          15
 This might be due to either:
  - A bug
  - Your job running out of memory
  - Your job got killed externally (e.g. no cpu-time left)
  - ....
 Please check and report if you believe you found a bug
 Signal           11  detected on PE:          61
 Signal           11  detected on PE:          45
 Signal           11  detected on PE:         154
 Signal           11  detected on PE:         108
 This might be due to either:
  - A bug
  - Your job running out of memory
  - Your job got killed externally (e.g. no cpu-time left)
  - ....
 Please check and report if you believe you found a bug
 This might be due to either:
  - A bug
  - Your job running out of memory
  - Your job got killed externally (e.g. no cpu-time left)
  - ....
 Please check and report if you believe you found a bug
 Signal           11  detected on PE:          16
 This might be due to either:
  - A bug
  - Your job running out of memory
  - Your job got killed externally (e.g. no cpu-time left)
  - ....
 Please check and report if you believe you found a bug
 This might be due to either:
  - A bug
  - Your job running out of memory
  - Your job got killed externally (e.g. no cpu-time left)
  - ....
 Please check and report if you believe you found a bug
 Signal           11  detected on PE:          47
 This might be due to either:
  - A bug
  - Your job running out of memory
  - Your job got killed externally (e.g. no cpu-time left)
  - ....
 Please check and report if you believe you found a bug
  - Your job running out of memory
  - Your job got killed externally (e.g. no cpu-time left)
  - ....
 Please check and report if you believe you found a bug
 Signal           11  detected on PE:         110
 This might be due to either:
  - A bug
  - Your job running out of memory
  - Your job got killed externally (e.g. no cpu-time left)
  - ....
 Please check and report if you believe you found a bug
 Signal           11  detected on PE:         128
 Signal           11  detected on PE:          17
 This might be due to either:
  - A bug
  - Your job running out of memory
  - Your job got killed externally (e.g. no cpu-time left)
  - ....
 Please check and report if you believe you found a bug
 This might be due to either:
  - A bug
  - Your job running out of memory
 This might be due to either:
  - A bug
  - Your job running out of memory
  - Your job got killed externally (e.g. no cpu-time left)
  - ....
 Please check and report if you believe you found a bug
 This might be due to either:
  - A bug
  - Your job running out of memory
  - Your job got killed externally (e.g. no cpu-time left)
  - ....
 Please check and report if you believe you found a bug
 This might be due to either:
  - A bug
  - Your job running out of memory
  - Your job got killed externally (e.g. no cpu-time left)
  - ....
 Please check and report if you believe you found a bug
 Signal           11  detected on PE:         130
 This might be due to either:
  - A bug
  - Your job running out of memory
  - Your job got killed externally (e.g. no cpu-time left)
  - ....
 Please check and report if you believe you found a bug
 Signal           11  detected on PE:          18
 This might be due to either:
  - A bug
  - Your job running out of memory
  - Your job got killed externally (e.g. no cpu-time left)
  - ....
 Please check and report if you believe you found a bug
 This might be due to either:
  - A bug
  - Your job running out of memory
  - Your job got killed externally (e.g. no cpu-time left)
  - ....
 Signal           11  detected on PE:          49
 This might be due to either:
  - A bug
  - Your job running out of memory
  - Your job got killed externally (e.g. no cpu-time left)
  - ....
 Please check and report if you believe you found a bug
 Signal           11  detected on PE:         149
 Signal           11  detected on PE:          99
 This might be due to either:
  - A bug
  - Your job running out of memory
  - Your job got killed externally (e.g. no cpu-time left)
  - ....
 Please check and report if you believe you found a bug
 Signal           11  detected on PE:          19
 This might be due to either:
  - A bug
  - Your job running out of memory
  - Your job got killed externally (e.g. no cpu-time left)
  - ....
 Please check and report if you believe you found a bug
  - Your job got killed externally (e.g. no cpu-time left)
  - ....
 Please check and report if you believe you found a bug
 Signal           11  detected on PE:          28
 This might be due to either:
  - A bug
  - Your job running out of memory
  - Your job got killed externally (e.g. no cpu-time left)
  - ....
 Please check and report if you believe you found a bug
 Signal           11  detected on PE:         148
 Signal           11  detected on PE:         103
 This might be due to either:
  - A bug
  - Your job running out of memory
  - Your job got killed externally (e.g. no cpu-time left)
  - ....
 Please check and report if you believe you found a bug
 Signal           11  detected on PE:         113
 This might be due to either:
  - A bug
  - Your job running out of memory
  - Your job got killed externally (e.g. no cpu-time left)
  - ....
 Please check and report if you believe you found a bug
 Signal           11  detected on PE:          20
 This might be due to either:
  - A bug
  - Your job running out of memory
  - Your job got killed externally (e.g. no cpu-time left)
  - ....
 Please check and report if you believe you found a bug
 Signal           11  detected on PE:          66
 Signal           11  detected on PE:          33
 This might be due to either:
  - A bug
  - Your job running out of memory
  - Your job got killed externally (e.g. no cpu-time left)
  - ....
 Please check and report if you believe you found a bug
 This might be due to either:
  - A bug
  - Your job running out of memory
  - Your job got killed externally (e.g. no cpu-time left)
  - ....
 Signal           11  detected on PE:         105
 This might be due to either:
  - A bug
  - Your job running out of memory
  - Your job got killed externally (e.g. no cpu-time left)
  - ....
 Please check and report if you believe you found a bug
 Signal           11  detected on PE:         117
 This might be due to either:
 Signal           11  detected on PE:          21
 This might be due to either:
  - A bug
  - Your job running out of memory
  - Your job got killed externally (e.g. no cpu-time left)
  - ....
 Please check and report if you believe you found a bug
 Signal           11  detected on PE:          81
 Signal           11  detected on PE:          48
 This might be due to either:
  - A bug
  - Your job running out of memory
 This might be due to either:
  - A bug
  - Your job running out of memory
  - Your job got killed externally (e.g. no cpu-time left)
  - ....
 Please check and report if you believe you found a bug
 Signal           11  detected on PE:          98
 This might be due to either:
  - A bug
  - Your job running out of memory
  - Your job got killed externally (e.g. no cpu-time left)
  - ....
 Please check and report if you believe you found a bug
 This might be due to either:
  - A bug
  - Your job running out of memory
  - Your job got killed externally (e.g. no cpu-time left)
  - ....
 Please check and report if you believe you found a bug
 Signal           11  detected on PE:          22
 This might be due to either:
  - A bug
  - Your job running out of memory
  - Your job got killed externally (e.g. no cpu-time left)
  - ....
 Please check and report if you believe you found a bug
 Please check and report if you believe you found a bug
  - Your job got killed externally (e.g. no cpu-time left)
  - ....
 Please check and report if you believe you found a bug
 Signal           11  detected on PE:         153
 This might be due to either:
  - A bug
  - Your job running out of memory
  - Your job got killed externally (e.g. no cpu-time left)
  - ....
 Please check and report if you believe you found a bug
 Signal           11  detected on PE:         131
 This might be due to either:
  - A bug
  - Your job running out of memory
  - Your job got killed externally (e.g. no cpu-time left)
  - ....
 Please check and report if you believe you found a bug
 Signal           11  detected on PE:          23
 This might be due to either:
  - A bug
  - Your job running out of memory
  - Your job got killed externally (e.g. no cpu-time left)
  - ....
 Please check and report if you believe you found a bug
 Signal           11  detected on PE:          78
 Please check and report if you believe you found a bug
  - A bug
  - Your job running out of memory
  - Your job got killed externally (e.g. no cpu-time left)
  - ....
 Please check and report if you believe you found a bug
 Signal           11  detected on PE:          24
 This might be due to either:
  - A bug
  - Your job running out of memory
  - Your job got killed externally (e.g. no cpu-time left)
  - ....
 Please check and report if you believe you found a bug
 This might be due to either:
  - A bug
  - Your job running out of memory
  - Your job got killed externally (e.g. no cpu-time left)
  - ....
 Please check and report if you believe you found a bug
 Signal           11  detected on PE:         155
 This might be due to either:
 This might be due to either:
  - A bug
  - Your job running out of memory
  - Your job got killed externally (e.g. no cpu-time left)
  - ....
 Please check and report if you believe you found a bug
 Signal           11  detected on PE:          25
 This might be due to either:
  - A bug
  - Your job running out of memory
  - Your job got killed externally (e.g. no cpu-time left)
  - ....
 Please check and report if you believe you found a bug
 This might be due to either:
  - A bug
  - Your job running out of memory
  - Your job got killed externally (e.g. no cpu-time left)
  - ....
 Please check and report if you believe you found a bug
 Signal           11  detected on PE:         159
 This might be due to either:
  - A bug
  - Your job running out of memory
  - Your job got killed externally (e.g. no cpu-time left)
  - ....
 Please check and report if you believe you found a bug
 Signal           11  detected on PE:         115
 Signal           11  detected on PE:          26
 This might be due to either:
  - A bug
  - Your job running out of memory
  - Your job got killed externally (e.g. no cpu-time left)
  - ....
 Please check and report if you believe you found a bug
 Signal           11  detected on PE:          67
Abort(0) on node 34 (rank 34 in comm 0): application called MPI_Abort(MPI_COMM_WORLD, 0) - process 34
 Signal           11  detected on PE:         162
Abort(0) on node 85 (rank 85 in comm 0): application called MPI_Abort(MPI_COMM_WORLD, 0) - process 85
 Signal           11  detected on PE:         119
 Signal           11  detected on PE:          27
 This might be due to either:
  - A bug
  - Your job running out of memory
  - Your job got killed externally (e.g. no cpu-time left)
  - ....
 Please check and report if you believe you found a bug
 This might be due to either:
  - A bug
  - Your job running out of memory
  - Your job got killed externally (e.g. no cpu-time left)
  - ....
 Please check and report if you believe you found a bug
Abort(0) on node 36 (rank 36 in comm 0): application called MPI_Abort(MPI_COMM_WORLD, 0) - process 36
  - A bug
  - Your job running out of memory
  - Your job got killed externally (e.g. no cpu-time left)
  - ....
 Please check and report if you believe you found a bug
Abort(0) on node 90 (rank 90 in comm 0): application called MPI_Abort(MPI_COMM_WORLD, 0) - process 90
 This might be due to either:
  - A bug
  - Your job running out of memory
Abort(0) on node 12 (rank 12 in comm 0): application called MPI_Abort(MPI_COMM_WORLD, 0) - process 12
 This might be due to either:
  - A bug
  - Your job running out of memory
  - Your job got killed externally (e.g. no cpu-time left)
  - ....
 Please check and report if you believe you found a bug
Abort(0) on node 41 (rank 41 in comm 0): application called MPI_Abort(MPI_COMM_WORLD, 0) - process 41
 Signal           11  detected on PE:         166
Abort(0) on node 102 (rank 102 in comm 0): application called MPI_Abort(MPI_COMM_WORLD, 0) - process 102
  - Your job got killed externally (e.g. no cpu-time left)
  - ....
 Please check and report if you believe you found a bug
Abort(0) on node 19 (rank 19 in comm 0): application called MPI_Abort(MPI_COMM_WORLD, 0) - process 19
 Signal           11  detected on PE:          79
Abort(0) on node 53 (rank 53 in comm 0): application called MPI_Abort(MPI_COMM_WORLD, 0) - process 53
 This might be due to either:
  - A bug
  - Your job running out of memory
  - Your job got killed externally (e.g. no cpu-time left)
  - ....
 Please check and report if you believe you found a bug
Abort(0) on node 111 (rank 111 in comm 0): application called MPI_Abort(MPI_COMM_WORLD, 0) - process 111
 Signal           11  detected on PE:         116
Abort(0) on node 21 (rank 21 in comm 0): application called MPI_Abort(MPI_COMM_WORLD, 0) - process 21
 This might be due to either:
  - A bug
  - Your job running out of memory
  - Your job got killed externally (e.g. no cpu-time left)
  - ....
 Please check and report if you believe you found a bug
 This might be due to either:
  - A bug
  - Your job running out of memory
  - Your job got killed externally (e.g. no cpu-time left)
  - ....
 Please check and report if you believe you found a bug
 This might be due to either:
  - A bug
  - Your job running out of memory
  - Your job got killed externally (e.g. no cpu-time left)
  - ....
 Please check and report if you believe you found a bug
Abort(0) on node 58 (rank 58 in comm 0): application called MPI_Abort(MPI_COMM_WORLD, 0) - process 58
 This might be due to either:
  - A bug
  - Your job running out of memory
  - Your job got killed externally (e.g. no cpu-time left)
  - ....
 Please check and report if you believe you found a bug
 This might be due to either:
  - A bug
  - Your job running out of memory
  - Your job got killed externally (e.g. no cpu-time left)
  - ....
 Please check and report if you believe you found a bug
Abort(0) on node 62 (rank 62 in comm 0): application called MPI_Abort(MPI_COMM_WORLD, 0) - process 62
 Signal           11  detected on PE:         147
 Signal           11  detected on PE:         129
 This might be due to either:
  - A bug
 This might be due to either:
  - A bug
  - Your job running out of memory
  - Your job got killed externally (e.g. no cpu-time left)
  - ....
 Please check and report if you believe you found a bug
  - Your job running out of memory
  - Your job got killed externally (e.g. no cpu-time left)
  - ....
 Please check and report if you believe you found a bug
 This might be due to either:
  - A bug
  - Your job running out of memory
  - Your job got killed externally (e.g. no cpu-time left)
  - ....
 Please check and report if you believe you found a bug
Abort(0) on node 124 (rank 124 in comm 0): application called MPI_Abort(MPI_COMM_WORLD, 0) - process 124
 Signal           11  detected on PE:         158
 This might be due to either:
  - A bug
  - Your job running out of memory
  - Your job got killed externally (e.g. no cpu-time left)
  - ....
 Please check and report if you believe you found a bug
Abort(0) on node 144 (rank 144 in comm 0): application called MPI_Abort(MPI_COMM_WORLD, 0) - process 144
Abort(0) on node 146 (rank 146 in comm 0): application called MPI_Abort(MPI_COMM_WORLD, 0) - process 146
Abort(0) on node 148 (rank 148 in comm 0): application called MPI_Abort(MPI_COMM_WORLD, 0) - process 148
Abort(0) on node 152 (rank 152 in comm 0): application called MPI_Abort(MPI_COMM_WORLD, 0) - process 152
Abort(0) on node 140 (rank 140 in comm 0): application called MPI_Abort(MPI_COMM_WORLD, 0) - process 140
Abort(0) on node 143 (rank 143 in comm 0): application called MPI_Abort(MPI_COMM_WORLD, 0) - process 143
Abort(0) on node 145 (rank 145 in comm 0): application called MPI_Abort(MPI_COMM_WORLD, 0) - process 145
Abort(0) on node 147 (rank 147 in comm 0): application called MPI_Abort(MPI_COMM_WORLD, 0) - process 147
Abort(0) on node 153 (rank 153 in comm 0): application called MPI_Abort(MPI_COMM_WORLD, 0) - process 153
Abort(0) on node 154 (rank 154 in comm 0): application called MPI_Abort(MPI_COMM_WORLD, 0) - process 154
Abort(0) on node 156 (rank 156 in comm 0): application called MPI_Abort(MPI_COMM_WORLD, 0) - process 156
Abort(0) on node 157 (rank 157 in comm 0): application called MPI_Abort(MPI_COMM_WORLD, 0) - process 157
Abort(0) on node 159 (rank 159 in comm 0): application called MPI_Abort(MPI_COMM_WORLD, 0) - process 159
Abort(0) on node 160 (rank 160 in comm 0): application called MPI_Abort(MPI_COMM_WORLD, 0) - process 160
Abort(0) on node 161 (rank 161 in comm 0): application called MPI_Abort(MPI_COMM_WORLD, 0) - process 161
Abort(0) on node 162 (rank 162 in comm 0): application called MPI_Abort(MPI_COMM_WORLD, 0) - process 162
Abort(0) on node 163 (rank 163 in comm 0): application called MPI_Abort(MPI_COMM_WORLD, 0) - process 163
Abort(0) on node 165 (rank 165 in comm 0): application called MPI_Abort(MPI_COMM_WORLD, 0) - process 165
Abort(0) on node 166 (rank 166 in comm 0): application called MPI_Abort(MPI_COMM_WORLD, 0) - process 166
Abort(0) on node 167 (rank 167 in comm 0): application called MPI_Abort(MPI_COMM_WORLD, 0) - process 167
Abort(0) on node 141 (rank 141 in comm 0): application called MPI_Abort(MPI_COMM_WORLD, 0) - process 141
Abort(0) on node 142 (rank 142 in comm 0): application called MPI_Abort(MPI_COMM_WORLD, 0) - process 142
Abort(0) on node 150 (rank 150 in comm 0): application called MPI_Abort(MPI_COMM_WORLD, 0) - process 150
Abort(0) on node 132 (rank 132 in comm 0): application called MPI_Abort(MPI_COMM_WORLD, 0) - process 132
Abort(0) on node 151 (rank 151 in comm 0): application called MPI_Abort(MPI_COMM_WORLD, 0) - process 151
Abort(0) on node 155 (rank 155 in comm 0): application called MPI_Abort(MPI_COMM_WORLD, 0) - process 155
Abort(0) on node 158 (rank 158 in comm 0): application called MPI_Abort(MPI_COMM_WORLD, 0) - process 158
Abort(0) on node 2 (rank 2 in comm 0): application called MPI_Abort(MPI_COMM_WORLD, 0) - process 2
Abort(0) on node 112 (rank 112 in comm 0): application called MPI_Abort(MPI_COMM_WORLD, 0) - process 112
Abort(0) on node 4 (rank 4 in comm 0): application called MPI_Abort(MPI_COMM_WORLD, 0) - process 4
Abort(0) on node 164 (rank 164 in comm 0): application called MPI_Abort(MPI_COMM_WORLD, 0) - process 164
Abort(0) on node 113 (rank 113 in comm 0): application called MPI_Abort(MPI_COMM_WORLD, 0) - process 113
Abort(0) on node 5 (rank 5 in comm 0): application called MPI_Abort(MPI_COMM_WORLD, 0) - process 5
Abort(0) on node 114 (rank 114 in comm 0): application called MPI_Abort(MPI_COMM_WORLD, 0) - process 114
Abort(0) on node 6 (rank 6 in comm 0): application called MPI_Abort(MPI_COMM_WORLD, 0) - process 6
Abort(0) on node 84 (rank 84 in comm 0): application called MPI_Abort(MPI_COMM_WORLD, 0) - process 84
Abort(0) on node 115 (rank 115 in comm 0): application called MPI_Abort(MPI_COMM_WORLD, 0) - process 115
Abort(0) on node 7 (rank 7 in comm 0): application called MPI_Abort(MPI_COMM_WORLD, 0) - process 7
Abort(0) on node 116 (rank 116 in comm 0): application called MPI_Abort(MPI_COMM_WORLD, 0) - process 116
Abort(0) on node 9 (rank 9 in comm 0): application called MPI_Abort(MPI_COMM_WORLD, 0) - process 9
Abort(0) on node 86 (rank 86 in comm 0): application called MPI_Abort(MPI_COMM_WORLD, 0) - process 86
Abort(0) on node 61 (rank 61 in comm 0): application called MPI_Abort(MPI_COMM_WORLD, 0) - process 61
Abort(0) on node 117 (rank 117 in comm 0): application called MPI_Abort(MPI_COMM_WORLD, 0) - process 117
Abort(0) on node 10 (rank 10 in comm 0): application called MPI_Abort(MPI_COMM_WORLD, 0) - process 10
Abort(0) on node 88 (rank 88 in comm 0): application called MPI_Abort(MPI_COMM_WORLD, 0) - process 88
Abort(0) on node 67 (rank 67 in comm 0): application called MPI_Abort(MPI_COMM_WORLD, 0) - process 67
Abort(0) on node 118 (rank 118 in comm 0): application called MPI_Abort(MPI_COMM_WORLD, 0) - process 118
Abort(0) on node 11 (rank 11 in comm 0): application called MPI_Abort(MPI_COMM_WORLD, 0) - process 11
Abort(0) on node 89 (rank 89 in comm 0): application called MPI_Abort(MPI_COMM_WORLD, 0) - process 89
Abort(0) on node 75 (rank 75 in comm 0): application called MPI_Abort(MPI_COMM_WORLD, 0) - process 75
Abort(0) on node 119 (rank 119 in comm 0): application called MPI_Abort(MPI_COMM_WORLD, 0) - process 119
Abort(0) on node 15 (rank 15 in comm 0): application called MPI_Abort(MPI_COMM_WORLD, 0) - process 15
Abort(0) on node 81 (rank 81 in comm 0): application called MPI_Abort(MPI_COMM_WORLD, 0) - process 81
Abort(0) on node 91 (rank 91 in comm 0): application called MPI_Abort(MPI_COMM_WORLD, 0) - process 91
Abort(0) on node 120 (rank 120 in comm 0): application called MPI_Abort(MPI_COMM_WORLD, 0) - process 120
Abort(0) on node 16 (rank 16 in comm 0): application called MPI_Abort(MPI_COMM_WORLD, 0) - process 16
Abort(0) on node 56 (rank 56 in comm 0): application called MPI_Abort(MPI_COMM_WORLD, 0) - process 56
Abort(0) on node 92 (rank 92 in comm 0): application called MPI_Abort(MPI_COMM_WORLD, 0) - process 92
Abort(0) on node 121 (rank 121 in comm 0): application called MPI_Abort(MPI_COMM_WORLD, 0) - process 121
Abort(0) on node 17 (rank 17 in comm 0): application called MPI_Abort(MPI_COMM_WORLD, 0) - process 17
Abort(0) on node 59 (rank 59 in comm 0): application called MPI_Abort(MPI_COMM_WORLD, 0) - process 59
Abort(0) on node 93 (rank 93 in comm 0): application called MPI_Abort(MPI_COMM_WORLD, 0) - process 93
Abort(0) on node 122 (rank 122 in comm 0): application called MPI_Abort(MPI_COMM_WORLD, 0) - process 122
Abort(0) on node 18 (rank 18 in comm 0): application called MPI_Abort(MPI_COMM_WORLD, 0) - process 18
Abort(0) on node 60 (rank 60 in comm 0): application called MPI_Abort(MPI_COMM_WORLD, 0) - process 60
Abort(0) on node 28 (rank 28 in comm 0): application called MPI_Abort(MPI_COMM_WORLD, 0) - process 28
Abort(0) on node 94 (rank 94 in comm 0): application called MPI_Abort(MPI_COMM_WORLD, 0) - process 94
Abort(0) on node 123 (rank 123 in comm 0): application called MPI_Abort(MPI_COMM_WORLD, 0) - process 123
Abort(0) on node 63 (rank 63 in comm 0): application called MPI_Abort(MPI_COMM_WORLD, 0) - process 63
Abort(0) on node 35 (rank 35 in comm 0): application called MPI_Abort(MPI_COMM_WORLD, 0) - process 35
Abort(0) on node 95 (rank 95 in comm 0): application called MPI_Abort(MPI_COMM_WORLD, 0) - process 95
Abort(0) on node 23 (rank 23 in comm 0): application called MPI_Abort(MPI_COMM_WORLD, 0) - process 23
Abort(0) on node 64 (rank 64 in comm 0): application called MPI_Abort(MPI_COMM_WORLD, 0) - process 64
Abort(0) on node 125 (rank 125 in comm 0): application called MPI_Abort(MPI_COMM_WORLD, 0) - process 125
Abort(0) on node 96 (rank 96 in comm 0): application called MPI_Abort(MPI_COMM_WORLD, 0) - process 96
Abort(0) on node 25 (rank 25 in comm 0): application called MPI_Abort(MPI_COMM_WORLD, 0) - process 25
Abort(0) on node 66 (rank 66 in comm 0): application called MPI_Abort(MPI_COMM_WORLD, 0) - process 66
Abort(0) on node 37 (rank 37 in comm 0): application called MPI_Abort(MPI_COMM_WORLD, 0) - process 37
Abort(0) on node 126 (rank 126 in comm 0): application called MPI_Abort(MPI_COMM_WORLD, 0) - process 126
Abort(0) on node 98 (rank 98 in comm 0): application called MPI_Abort(MPI_COMM_WORLD, 0) - process 98
Abort(0) on node 26 (rank 26 in comm 0): application called MPI_Abort(MPI_COMM_WORLD, 0) - process 26
Abort(0) on node 38 (rank 38 in comm 0): application called MPI_Abort(MPI_COMM_WORLD, 0) - process 38
Abort(0) on node 127 (rank 127 in comm 0): application called MPI_Abort(MPI_COMM_WORLD, 0) - process 127
Abort(0) on node 68 (rank 68 in comm 0): application called MPI_Abort(MPI_COMM_WORLD, 0) - process 68
Abort(0) on node 99 (rank 99 in comm 0): application called MPI_Abort(MPI_COMM_WORLD, 0) - process 99
Abort(0) on node 27 (rank 27 in comm 0): application called MPI_Abort(MPI_COMM_WORLD, 0) - process 27
Abort(0) on node 128 (rank 128 in comm 0): application called MPI_Abort(MPI_COMM_WORLD, 0) - process 128
Abort(0) on node 69 (rank 69 in comm 0): application called MPI_Abort(MPI_COMM_WORLD, 0) - process 69
Abort(0) on node 42 (rank 42 in comm 0): application called MPI_Abort(MPI_COMM_WORLD, 0) - process 42
Abort(0) on node 1 (rank 1 in comm 0): application called MPI_Abort(MPI_COMM_WORLD, 0) - process 1
Abort(0) on node 104 (rank 104 in comm 0): application called MPI_Abort(MPI_COMM_WORLD, 0) - process 104
Abort(0) on node 129 (rank 129 in comm 0): application called MPI_Abort(MPI_COMM_WORLD, 0) - process 129
Abort(0) on node 70 (rank 70 in comm 0): application called MPI_Abort(MPI_COMM_WORLD, 0) - process 70
Abort(0) on node 43 (rank 43 in comm 0): application called MPI_Abort(MPI_COMM_WORLD, 0) - process 43
Abort(0) on node 3 (rank 3 in comm 0): application called MPI_Abort(MPI_COMM_WORLD, 0) - process 3
Abort(0) on node 44 (rank 44 in comm 0): application called MPI_Abort(MPI_COMM_WORLD, 0) - process 44
Abort(0) on node 105 (rank 105 in comm 0): application called MPI_Abort(MPI_COMM_WORLD, 0) - process 105
Abort(0) on node 131 (rank 131 in comm 0): application called MPI_Abort(MPI_COMM_WORLD, 0) - process 131
Abort(0) on node 71 (rank 71 in comm 0): application called MPI_Abort(MPI_COMM_WORLD, 0) - process 71
Abort(0) on node 106 (rank 106 in comm 0): application called MPI_Abort(MPI_COMM_WORLD, 0) - process 106
Abort(0) on node 8 (rank 8 in comm 0): application called MPI_Abort(MPI_COMM_WORLD, 0) - process 8
Abort(0) on node 46 (rank 46 in comm 0): application called MPI_Abort(MPI_COMM_WORLD, 0) - process 46
Abort(0) on node 133 (rank 133 in comm 0): application called MPI_Abort(MPI_COMM_WORLD, 0) - process 133
Abort(0) on node 72 (rank 72 in comm 0): application called MPI_Abort(MPI_COMM_WORLD, 0) - process 72
Abort(0) on node 107 (rank 107 in comm 0): application called MPI_Abort(MPI_COMM_WORLD, 0) - process 107
Abort(0) on node 14 (rank 14 in comm 0): application called MPI_Abort(MPI_COMM_WORLD, 0) - process 14
Abort(0) on node 134 (rank 134 in comm 0): application called MPI_Abort(MPI_COMM_WORLD, 0) - process 134
Abort(0) on node 73 (rank 73 in comm 0): application called MPI_Abort(MPI_COMM_WORLD, 0) - process 73
Abort(0) on node 54 (rank 54 in comm 0): application called MPI_Abort(MPI_COMM_WORLD, 0) - process 54
Abort(0) on node 108 (rank 108 in comm 0): application called MPI_Abort(MPI_COMM_WORLD, 0) - process 108
Abort(0) on node 135 (rank 135 in comm 0): application called MPI_Abort(MPI_COMM_WORLD, 0) - process 135
Abort(0) on node 20 (rank 20 in comm 0): application called MPI_Abort(MPI_COMM_WORLD, 0) - process 20
Abort(0) on node 74 (rank 74 in comm 0): application called MPI_Abort(MPI_COMM_WORLD, 0) - process 74
Abort(0) on node 55 (rank 55 in comm 0): application called MPI_Abort(MPI_COMM_WORLD, 0) - process 55
Abort(0) on node 109 (rank 109 in comm 0): application called MPI_Abort(MPI_COMM_WORLD, 0) - process 109
Abort(0) on node 136 (rank 136 in comm 0): application called MPI_Abort(MPI_COMM_WORLD, 0) - process 136
Abort(0) on node 22 (rank 22 in comm 0): application called MPI_Abort(MPI_COMM_WORLD, 0) - process 22
Abort(0) on node 76 (rank 76 in comm 0): application called MPI_Abort(MPI_COMM_WORLD, 0) - process 76
Abort(0) on node 30 (rank 30 in comm 0): application called MPI_Abort(MPI_COMM_WORLD, 0) - process 30
Abort(0) on node 110 (rank 110 in comm 0): application called MPI_Abort(MPI_COMM_WORLD, 0) - process 110
Abort(0) on node 137 (rank 137 in comm 0): application called MPI_Abort(MPI_COMM_WORLD, 0) - process 137
Abort(0) on node 24 (rank 24 in comm 0): application called MPI_Abort(MPI_COMM_WORLD, 0) - process 24
Abort(0) on node 78 (rank 78 in comm 0): application called MPI_Abort(MPI_COMM_WORLD, 0) - process 78
Abort(0) on node 31 (rank 31 in comm 0): application called MPI_Abort(MPI_COMM_WORLD, 0) - process 31
Abort(0) on node 87 (rank 87 in comm 0): application called MPI_Abort(MPI_COMM_WORLD, 0) - process 87
Abort(0) on node 138 (rank 138 in comm 0): application called MPI_Abort(MPI_COMM_WORLD, 0) - process 138
Abort(0) on node 79 (rank 79 in comm 0): application called MPI_Abort(MPI_COMM_WORLD, 0) - process 79
Abort(0) on node 33 (rank 33 in comm 0): application called MPI_Abort(MPI_COMM_WORLD, 0) - process 33
Abort(0) on node 97 (rank 97 in comm 0): application called MPI_Abort(MPI_COMM_WORLD, 0) - process 97
Abort(0) on node 139 (rank 139 in comm 0): application called MPI_Abort(MPI_COMM_WORLD, 0) - process 139
Abort(0) on node 80 (rank 80 in comm 0): application called MPI_Abort(MPI_COMM_WORLD, 0) - process 80
Abort(0) on node 39 (rank 39 in comm 0): application called MPI_Abort(MPI_COMM_WORLD, 0) - process 39
Abort(0) on node 100 (rank 100 in comm 0): application called MPI_Abort(MPI_COMM_WORLD, 0) - process 100
Abort(0) on node 40 (rank 40 in comm 0): application called MPI_Abort(MPI_COMM_WORLD, 0) - process 40
Abort(0) on node 82 (rank 82 in comm 0): application called MPI_Abort(MPI_COMM_WORLD, 0) - process 82
Abort(0) on node 101 (rank 101 in comm 0): application called MPI_Abort(MPI_COMM_WORLD, 0) - process 101
Abort(0) on node 83 (rank 83 in comm 0): application called MPI_Abort(MPI_COMM_WORLD, 0) - process 83
Abort(0) on node 45 (rank 45 in comm 0): application called MPI_Abort(MPI_COMM_WORLD, 0) - process 45
Abort(0) on node 47 (rank 47 in comm 0): application called MPI_Abort(MPI_COMM_WORLD, 0) - process 47
Abort(0) on node 48 (rank 48 in comm 0): application called MPI_Abort(MPI_COMM_WORLD, 0) - process 48
Abort(0) on node 49 (rank 49 in comm 0): application called MPI_Abort(MPI_COMM_WORLD, 0) - process 49
Abort(0) on node 50 (rank 50 in comm 0): application called MPI_Abort(MPI_COMM_WORLD, 0) - process 50
Abort(0) on node 51 (rank 51 in comm 0): application called MPI_Abort(MPI_COMM_WORLD, 0) - process 51
Abort(0) on node 52 (rank 52 in comm 0): application called MPI_Abort(MPI_COMM_WORLD, 0) - process 52
