{
 "global_section": { "_calls": 1, "_time":     6700.824, "_%":   100.00,
   "siesta": { "_calls": 1, "_time":     6700.824, "_%":   100.00,
     "Setup": { "_calls": 1, "_time":        3.161, "_%":     0.05,
       "bands": { "_calls": 1, "_time":        0.004, "_%":     0.00},
       "KSV_init": { "_calls": 1, "_time":        0.001, "_%":     0.00}
     },
     "IterGeom": { "_calls": 1, "_time":     6695.720, "_%":    99.92,
       "geom_init": { "_calls": 1, "_time":      731.259, "_%":    10.91,
         "state_init": { "_calls": 1, "_time":        1.919, "_%":     0.03,
           "hsparse": { "_calls": 1, "_time":        0.697, "_%":     0.01},
           "overlap": { "_calls": 1, "_time":        0.155, "_%":     0.00}
         },
         "Setup_H0": { "_calls": 1, "_time":      729.338, "_%":    10.88,
           "naefs": { "_calls": 1, "_time":        0.116, "_%":     0.00},
           "MolMec": { "_calls": 1, "_time":        0.000, "_%":     0.00},
           "kinefsm": { "_calls": 1, "_time":        0.136, "_%":     0.00},
           "nlefsm": { "_calls": 1, "_time":        0.237, "_%":     0.00},
           "DHSCF_Init": { "_calls": 1, "_time":      728.771, "_%":    10.88,
             "DHSCF1": { "_calls": 1, "_time":        0.155, "_%":     0.00,
               "INITMESH": { "_calls": 1, "_time":        0.001, "_%":     0.00}
             },
             "DHSCF2": { "_calls": 1, "_time":      728.501, "_%":    10.87,
               "REMESH": { "_calls": 1, "_time":      702.834, "_%":    10.49,
                 "INITMESH": { "_calls": 2, "_time":      689.086, "_%":    10.28,
                   "SPLOAD": { "_calls": 2, "_time":       20.038, "_%":     0.30}
                 }
               },
               "REORD": { "_calls": 2, "_time":        0.002, "_%":     0.00},
               "PHION": { "_calls": 1, "_time":        0.027, "_%":     0.00},
               "COMM_BSC": { "_calls": 1, "_time":        0.038, "_%":     0.00},
               "POISON": { "_calls": 1, "_time":        1.356, "_%":     0.02,
                 "fft": { "_calls": 2, "_time":        1.300, "_%":     0.02}
               }
             }
           }
         }
       },
       "IterSCF": { "_calls": 5, "_time":     5964.140, "_%":    89.01,
         "setup_H": { "_calls": 5, "_time":        9.507, "_%":     0.14,
           "DHSCF": { "_calls": 5, "_time":        9.483, "_%":     0.14,
             "DHSCF3": { "_calls": 5, "_time":        9.483, "_%":     0.14,
               "rhoofd": { "_calls": 5, "_time":        0.094, "_%":     0.00},
               "COMM_BSC": { "_calls": 10, "_time":        0.367, "_%":     0.01},
               "POISON": { "_calls": 5, "_time":        6.124, "_%":     0.09,
                 "fft": { "_calls": 10, "_time":        5.846, "_%":     0.09}
               },
               "XC": { "_calls": 5, "_time":        2.332, "_%":     0.03,
                 "COMM_BSC": { "_calls": 10, "_time":        0.317, "_%":     0.00},
                 "GXC-CellXC": { "_calls": 5, "_time":        1.968, "_%":     0.03,
                   "gridxc@cellXC": { "_calls": 5, "_time":        1.968, "_%":     0.03}
                 }
               },
               "vmat": { "_calls": 5, "_time":        0.086, "_%":     0.00}
             }
           }
         },
         "compute_dm": { "_calls": 5, "_time":     5954.590, "_%":    88.86,
           "diagon": { "_calls": 5, "_time":     5954.333, "_%":    88.86,
             "r-eigvec": { "_calls": 5, "_time":     2459.093, "_%":    36.70,
               "r-buildHS": { "_calls": 5, "_time":        0.214, "_%":     0.00},
               "rdiag": { "_calls": 5, "_time":     2458.879, "_%":    36.70,
                 "rdiag1": { "_calls": 5, "_time":      118.661, "_%":     1.77},
                 "rdiag2": { "_calls": 5, "_time":      375.355, "_%":     5.60},
                 "rdiag3": { "_calls": 5, "_time":     1815.669, "_%":    27.10},
                 "rdiag4": { "_calls": 5, "_time":      147.386, "_%":     2.20}
               }
             },
             "r-buildD": { "_calls": 5, "_time":     3494.376, "_%":    52.15}
           }
         },
         "MIXER": { "_calls": 5, "_time":        0.020, "_%":     0.00}
       },
       "state_analysis": { "_calls": 1, "_time":        0.308, "_%":     0.00},
       "siesta_move": { "_calls": 1, "_time":        0.000, "_%":     0.00}
     },
     "Analysis": { "_calls": 1, "_time":        1.784, "_%":     0.03,
       "optical": { "_calls": 1, "_time":        0.001, "_%":     0.00}
     }
   }
 }}
