JobID        JobIDRaw        JobName  Partition  MaxVMSize  MaxVMSizeNode  MaxVMSizeTask  AveVMSize     MaxRSS MaxRSSNode MaxRSSTask     AveRSS MaxPages MaxPagesNode   MaxPagesTask   AvePages     MinCPU MinCPUNode MinCPUTask     AveCPU   NTasks  AllocCPUS    Elapsed      State ExitCode AveCPUFreq ReqCPUFreqMin ReqCPUFreqMax ReqCPUFreqGov     ReqMem ConsumedEnergy  MaxDiskRead MaxDiskReadNode MaxDiskReadTask    AveDiskRead MaxDiskWrite MaxDiskWriteNode MaxDiskWriteTask   AveDiskWrite    ReqTRES  AllocTRES TRESUsageInAve TRESUsageInMax TRESUsageInMaxNode TRESUsageInMaxTask TRESUsageInMin TRESUsageInMinNode TRESUsageInMinTask TRESUsageInTot TRESUsageOutMax TRESUsageOutMaxNode TRESUsageOutMaxTask TRESUsageOutAve TRESUsageOutTot 
------------ ------------ ---------- ---------- ---------- -------------- -------------- ---------- ---------- ---------- ---------- ---------- -------- ------------ -------------- ---------- ---------- ---------- ---------- ---------- -------- ---------- ---------- ---------- -------- ---------- ------------- ------------- ------------- ---------- -------------- ------------ --------------- --------------- -------------- ------------ ---------------- ---------------- -------------- ---------- ---------- -------------- -------------- ------------------ ------------------ -------------- ------------------ ------------------ -------------- --------------- ------------------- ------------------- --------------- --------------- 
9552688      9552688      CovidWeak+        gpp                                                                                                                                                                                                             448   00:15:01    RUNNING      0:0                  Unknown       Unknown       Unknown    437.50G                                                                                                                                          billing=2+ billing=4+                                                                                                                                                                                                                                 
9552688.bat+ 9552688.bat+      batch                                                                                                                                                                                                               1        224   00:15:01    RUNNING      0:0          0             0             0             0                         0                                                                                                                                      cpu=224,m+                                                                                                                                                                                                                                 
9552688.ext+ 9552688.ext+     extern                                                                                                                                                                                                               2        448   00:15:01    RUNNING      0:0          0             0             0             0                         0                                                                                                                                      billing=4+                                                                                                                                                                                                                                 
9552688.0    9552688.0        siesta             10147480K      gs09r3b13             87 9321936109    850504K  gs09r3b13         45  832823524       34    gs09r3b13             18          3   00:13:40  gs09r3b14        115   00:14:19      224        448   00:14:43  COMPLETED      0:0    426.55M       Unknown       Unknown       Unknown                     1.56M       14.87M       gs09r3b13             108         13.40M       16.03M        gs09r3b13                0          4.19M            cpu=448,m+ cpu=00:14:19,+ cpu=00:14:22,+ cpu=gs09r3b13,ene+ cpu=92,fs/disk=10+ cpu=00:13:40,+ cpu=gs09r3b14,ene+ cpu=115,fs/disk=1+ cpu=2-05:28:5+ energy=979,fs/+ energy=gs09r3b14,f+           fs/disk=0 energy=4,fs/di+ energy=1113,fs+ 
