mpi: 1920
thrs: 6
thr_tot: 11520
nodes: 240
nodes_io: 1
mpi/gpu: 8
Time-Profile: 7380.0000
io_ATMPROJ_pwscf: 0.0069
io_KB_abinit: 0.0117
IO_and_Messaging_switch: 0.0008
MATRIX transfer (X_G_finite_q_X_redux_2_2): 0.2176
HF(REDUX): 2.8205
MATRIX transfer (X_G_finite_q_X_redux_1_2): 0.2636
MATRIX transfer (X_G_finite_q_X_redux_2_1): 0.1638
PP_uspp_init: 0.0058
MATRIX transfer (X_G_finite_q_X_redux_1_1): 0.1667
io_Double_Grid: 0.0473
GW(REDUX): 5.3578
HF: 0.1682
io_QINDX: 0.1191
scatter_Gamp_gpu: 0.0148
io_GROT: 0.1214
io_HF: 0.3823
io_COL_CUT: 0.3081
io_QP_and_GF: 0.0203
io_KB_pwscf: 0.9293
Coulomb Cutoff: 0.2056
FFT_setup: 0.4273
io_X: 12.9521
io_fragment: 3.4983
X (procedure): 90.3978
XC_potential_driver: 1.1254
XCo_local: 1.1353
RIM: 1.9870
X (REDUX): 93.4775
io_WF: 13.9641
GW(ppa): 14.4502
io_DIPOLES: 14.1886
DIPOLE_transverse: 24.4062
WF_load_FFT: 33.3734
Xo (REDUX): 5400.0000
Dipoles: 55.2488
SERIAL_lin_system: 88.0285
LINEAR ALGEBRA: 88.0298
Xo (procedure): 7080.0000
Xo: 7080.0000
X: 90.3978
Self energy: 14.6184
Other: 139.7350
