JobId=8028595 JobName=yambo
   UserId=spallanz(327001971) GroupId=pepr_spallanz(327001971) MCS_label=N/A
   Priority=271 Nice=0 Account=project_465001145 QOS=normal
   JobState=RUNNING Reason=None Dependency=(null)
   Requeue=1 Restarts=0 BatchFlag=1 Reboot=0 ExitCode=0:0
   DerivedExitCode=0:0
   RunTime=00:00:05 TimeLimit=04:00:00 TimeMin=N/A
   SubmitTime=2024-09-19T19:32:31 EligibleTime=2024-09-19T19:32:31
   AccrueTime=2024-09-19T19:32:31
   StartTime=2024-09-19T20:16:17 EndTime=2024-09-20T00:16:17 Deadline=N/A
   SuspendTime=None SecsPreSuspend=0 LastSchedEval=2024-09-19T20:16:17 Scheduler=Backfill
   Partition=standard-g AllocNode:Sid=ln03:174959
   ReqNodeList=(null) ExcNodeList=(null)
   NodeList=nid[005332-005357,005616-005643,005944-005968,006272-006305,006407-006443,007241-007278,007369-007397,007684-007706]
   BatchHost=nid005332
   NumNodes=240 NumCPUs=26880 NumTasks=1920 CPUs/Task=1 ReqB:S:C:T=0:0:*:1
   ReqTRES=cpu=1920,mem=112.50T,node=240,billing=1920,gres/gpu:a100=1920
   AllocTRES=cpu=26880,node=240,billing=26880,gres/gpu:mi250=1920
   Socks/Node=* NtasksPerN:B:S:C=8:0:*:1 CoreSpec=*
   JOB_GRES=gpu:mi250:1920
     Nodes=nid[005332-005357,005616-005643,005944-005968,006272-006305,006407-006443,007241-007278,007369-007397,007684-007706] CPU_IDs=2-15,18-31,34-47,50-63,66-79,82-95,98-111,114-127 Mem=0 GRES=gpu:mi250:8(IDX:0-7)
   MinCPUsNode=8 MinMemoryCPU=0 MinTmpDiskNode=0
   Features=(null) DelayBoot=00:00:00
   OverSubscribe=NO Contiguous=0 Licenses=(null) Network=(null)
   Command=/pfs/lustrep2/scratch/project_465001145/spallanz/benchmarks/strongscaling_gpu_omp_61k/000000/000006_submit/work/submit.job
   WorkDir=/pfs/lustrep2/scratch/project_465001145/spallanz/benchmarks/strongscaling_gpu_omp_61k/000000/000006_submit/work
   StdErr=/pfs/lustrep2/scratch/project_465001145/spallanz/benchmarks/strongscaling_gpu_omp_61k/000000/000006_submit/work/slurm-8028595.out
   StdIn=/dev/null
   StdOut=/pfs/lustrep2/scratch/project_465001145/spallanz/benchmarks/strongscaling_gpu_omp_61k/000000/000006_submit/work/slurm-8028595.out
   Power=
   TresPerNode=gres:gpu:8
   

