{
 "global_section": { "_calls": 1, "_time":    25203.213, "_%":   100.00,
   "siesta": { "_calls": 1, "_time":    25203.213, "_%":   100.00,
     "Setup": { "_calls": 1, "_time":        7.120, "_%":     0.03,
       "bands": { "_calls": 1, "_time":        0.003, "_%":     0.00},
       "KSV_init": { "_calls": 1, "_time":        0.001, "_%":     0.00}
     },
     "IterGeom": { "_calls": 1, "_time":    25194.516, "_%":    99.97,
       "geom_init": { "_calls": 1, "_time":      211.619, "_%":     0.84,
         "state_init": { "_calls": 1, "_time":       16.213, "_%":     0.06,
           "hsparse": { "_calls": 1, "_time":        0.576, "_%":     0.00},
           "overlap": { "_calls": 1, "_time":        0.261, "_%":     0.00}
         },
         "Setup_H0": { "_calls": 1, "_time":      195.372, "_%":     0.78,
           "naefs": { "_calls": 1, "_time":        0.095, "_%":     0.00},
           "MolMec": { "_calls": 1, "_time":        0.000, "_%":     0.00},
           "kinefsm": { "_calls": 1, "_time":        0.223, "_%":     0.00},
           "nlefsm": { "_calls": 1, "_time":        0.840, "_%":     0.00},
           "DHSCF_Init": { "_calls": 1, "_time":      194.129, "_%":     0.77,
             "DHSCF1": { "_calls": 1, "_time":        0.186, "_%":     0.00,
               "INITMESH": { "_calls": 1, "_time":        0.000, "_%":     0.00}
             },
             "DHSCF2": { "_calls": 1, "_time":      193.828, "_%":     0.77,
               "REMESH": { "_calls": 1, "_time":      117.496, "_%":     0.47,
                 "INITMESH": { "_calls": 2, "_time":      117.278, "_%":     0.47,
                   "SPLOAD": { "_calls": 2, "_time":      115.998, "_%":     0.46}
                 }
               },
               "REORD": { "_calls": 2, "_time":        0.006, "_%":     0.00},
               "PHION": { "_calls": 1, "_time":        0.341, "_%":     0.00},
               "COMM_BSC": { "_calls": 1, "_time":        5.584, "_%":     0.02},
               "POISON": { "_calls": 1, "_time":       62.562, "_%":     0.25,
                 "fft": { "_calls": 2, "_time":       62.510, "_%":     0.25}
               }
             }
           }
         }
       },
       "IterSCF": { "_calls": 5, "_time":    24982.572, "_%":    99.12,
         "setup_H": { "_calls": 5, "_time":      462.335, "_%":     1.83,
           "DHSCF": { "_calls": 5, "_time":      460.024, "_%":     1.83,
             "DHSCF3": { "_calls": 5, "_time":      460.024, "_%":     1.83,
               "rhoofd": { "_calls": 5, "_time":        1.951, "_%":     0.01},
               "COMM_BSC": { "_calls": 10, "_time":       57.547, "_%":     0.23},
               "POISON": { "_calls": 5, "_time":      231.877, "_%":     0.92,
                 "fft": { "_calls": 10, "_time":      231.614, "_%":     0.92}
               },
               "XC": { "_calls": 5, "_time":      129.300, "_%":     0.51,
                 "COMM_BSC": { "_calls": 10, "_time":       49.901, "_%":     0.20},
                 "GXC-CellXC": { "_calls": 5, "_time":       79.301, "_%":     0.31,
                   "gridxc@cellXC": { "_calls": 5, "_time":       79.300, "_%":     0.31}
                 }
               },
               "vmat": { "_calls": 5, "_time":       19.922, "_%":     0.08}
             }
           }
         },
         "compute_dm": { "_calls": 5, "_time":    24512.423, "_%":    97.26,
           "redist_orbs_fwd": { "_calls": 40, "_time":       69.761, "_%":     0.28},
           "elsi-complex-solver": { "_calls": 5, "_time":    24428.801, "_%":    96.93,
             "elsi-solver": { "_calls": 5, "_time":    24427.100, "_%":    96.92}
           },
           "redist_dm-edm_bck": { "_calls": 5, "_time":        4.167, "_%":     0.02}
         },
         "MIXER": { "_calls": 5, "_time":        1.938, "_%":     0.01}
       },
       "state_analysis": { "_calls": 1, "_time":        0.198, "_%":     0.00},
       "siesta_move": { "_calls": 1, "_time":        0.000, "_%":     0.00}
     },
     "Analysis": { "_calls": 1, "_time":        0.743, "_%":     0.00,
       "optical": { "_calls": 1, "_time":        0.001, "_%":     0.00}
     }
   }
 }}
