JobID        JobIDRaw        JobName  Partition  MaxVMSize  MaxVMSizeNode  MaxVMSizeTask  AveVMSize     MaxRSS MaxRSSNode MaxRSSTask     AveRSS MaxPages MaxPagesNode   MaxPagesTask   AvePages     MinCPU MinCPUNode MinCPUTask     AveCPU   NTasks  AllocCPUS    Elapsed      State ExitCode AveCPUFreq ReqCPUFreqMin ReqCPUFreqMax ReqCPUFreqGov     ReqMem ConsumedEnergy  MaxDiskRead MaxDiskReadNode MaxDiskReadTask    AveDiskRead MaxDiskWrite MaxDiskWriteNode MaxDiskWriteTask   AveDiskWrite    ReqTRES  AllocTRES TRESUsageInAve TRESUsageInMax TRESUsageInMaxNode TRESUsageInMaxTask TRESUsageInMin TRESUsageInMinNode TRESUsageInMinTask TRESUsageInTot TRESUsageOutMax TRESUsageOutMaxNode TRESUsageOutMaxTask TRESUsageOutAve TRESUsageOutTot 
------------ ------------ ---------- ---------- ---------- -------------- -------------- ---------- ---------- ---------- ---------- ---------- -------- ------------ -------------- ---------- ---------- ---------- ---------- ---------- -------- ---------- ---------- ---------- -------- ---------- ------------- ------------- ------------- ---------- -------------- ------------ --------------- --------------- -------------- ------------ ---------------- ---------------- -------------- ---------- ---------- -------------- -------------- ------------------ ------------------ -------------- ------------------ ------------------ -------------- --------------- ------------------- ------------------- --------------- --------------- 
4905762      4905762      submit.job standard-g                                                                                                                                                                                                             112   00:14:27    RUNNING      0:0                  Unknown       Unknown       Unknown       480G                                                                                                                                          billing=8+ billing=1+                                                                                                                                                                                                                                 
4905762.bat+ 4905762.bat+      batch                                                                                                                                                                                                               1        112   00:14:27    RUNNING      0:0          0             0             0             0                         0                                                                                                                                      cpu=112,g+                                                                                                                                                                                                                                 
4905762.0    4905762.0    select_gpu             45757832K      nid006782              3 44148091.+  25702084K  nid006782          7  24151025K    16100    nid006782              2      14961   00:14:28  nid006782          4   00:14:38        8        112   00:14:17  COMPLETED      0:0     25.48M       Unknown       Unknown       Unknown                   627.95K      131.27M       nid006782               0        129.02M        2.90M        nid006782                0          2.89M            cpu=112,g+ cpu=00:14:38,+ cpu=00:14:46,+ cpu=nid006782,ene+ cpu=1,fs/disk=0,m+ cpu=00:14:28,+ cpu=nid006782,ene+ cpu=4,fs/disk=5,m+ cpu=01:57:11,+ energy=1475,fs+ energy=nid006782,f+           fs/disk=0 energy=80,fs/d+ energy=647,fs/+ 
