{
 "global_section": { "_calls": 1, "_time":      637.407, "_%":   100.00,
   "siesta": { "_calls": 1, "_time":      637.407, "_%":   100.00,
     "Setup": { "_calls": 1, "_time":        0.701, "_%":     0.11,
       "bands": { "_calls": 1, "_time":        0.001, "_%":     0.00},
       "KSV_init": { "_calls": 1, "_time":        0.000, "_%":     0.00}
     },
     "IterGeom": { "_calls": 1, "_time":      636.624, "_%":    99.88,
       "geom_init": { "_calls": 1, "_time":       20.093, "_%":     3.15,
         "state_init": { "_calls": 1, "_time":        0.274, "_%":     0.04,
           "hsparse": { "_calls": 1, "_time":        0.092, "_%":     0.01},
           "overlap": { "_calls": 1, "_time":        0.042, "_%":     0.01}
         },
         "Setup_H0": { "_calls": 1, "_time":       19.819, "_%":     3.11,
           "naefs": { "_calls": 1, "_time":        0.018, "_%":     0.00},
           "MolMec": { "_calls": 1, "_time":        0.000, "_%":     0.00},
           "kinefsm": { "_calls": 1, "_time":        0.040, "_%":     0.01},
           "nlefsm": { "_calls": 1, "_time":        0.108, "_%":     0.02},
           "DHSCF_Init": { "_calls": 1, "_time":       19.643, "_%":     3.08,
             "DHSCF1": { "_calls": 1, "_time":        0.045, "_%":     0.01,
               "INITMESH": { "_calls": 1, "_time":        0.000, "_%":     0.00}
             },
             "DHSCF2": { "_calls": 1, "_time":       19.586, "_%":     3.07,
               "REMESH": { "_calls": 1, "_time":        0.123, "_%":     0.02,
                 "INITMESH": { "_calls": 2, "_time":        0.066, "_%":     0.01,
                   "SPLOAD": { "_calls": 2, "_time":        0.065, "_%":     0.01}
                 }
               },
               "REORD": { "_calls": 2, "_time":        0.079, "_%":     0.01},
               "PHION": { "_calls": 1, "_time":        1.067, "_%":     0.17},
               "COMM_BSC": { "_calls": 1, "_time":        0.455, "_%":     0.07},
               "POISON": { "_calls": 1, "_time":       16.250, "_%":     2.55,
                 "fft": { "_calls": 2, "_time":       15.591, "_%":     2.45}
               }
             }
           }
         }
       },
       "IterSCF": { "_calls": 5, "_time":      616.499, "_%":    96.72,
         "setup_H": { "_calls": 5, "_time":      147.709, "_%":    23.17,
           "DHSCF": { "_calls": 5, "_time":      147.398, "_%":    23.12,
             "DHSCF3": { "_calls": 5, "_time":      147.398, "_%":    23.12,
               "rhoofd": { "_calls": 5, "_time":        0.770, "_%":     0.12},
               "COMM_BSC": { "_calls": 10, "_time":        3.837, "_%":     0.60},
               "POISON": { "_calls": 5, "_time":       78.342, "_%":    12.29,
                 "fft": { "_calls": 10, "_time":       74.232, "_%":    11.65}
               },
               "XC": { "_calls": 5, "_time":       56.401, "_%":     8.85,
                 "COMM_BSC": { "_calls": 10, "_time":        8.340, "_%":     1.31},
                 "GXC-CellXC": { "_calls": 5, "_time":       47.156, "_%":     7.40,
                   "gridxc@cellXC": { "_calls": 5, "_time":       47.156, "_%":     7.40}
                 }
               },
               "vmat": { "_calls": 5, "_time":        2.178, "_%":     0.34}
             }
           }
         },
         "compute_dm": { "_calls": 5, "_time":      468.563, "_%":    73.51,
           "redist_orbs_fwd": { "_calls": 5, "_time":        0.020, "_%":     0.00},
           "elsi-complex-solver": { "_calls": 5, "_time":      468.510, "_%":    73.50,
             "elsi-solver": { "_calls": 5, "_time":      468.483, "_%":    73.50}
           },
           "redist_dm-edm_bck": { "_calls": 5, "_time":        0.014, "_%":     0.00}
         },
         "MIXER": { "_calls": 5, "_time":        0.089, "_%":     0.01}
       },
       "state_analysis": { "_calls": 1, "_time":        0.023, "_%":     0.00},
       "siesta_move": { "_calls": 1, "_time":        0.000, "_%":     0.00}
     },
     "Analysis": { "_calls": 1, "_time":        0.075, "_%":     0.01,
       "optical": { "_calls": 1, "_time":        0.001, "_%":     0.00}
     }
   }
 }}
