JobID        JobIDRaw        JobName  Partition  MaxVMSize  MaxVMSizeNode  MaxVMSizeTask  AveVMSize     MaxRSS MaxRSSNode MaxRSSTask     AveRSS MaxPages MaxPagesNode   MaxPagesTask   AvePages     MinCPU MinCPUNode MinCPUTask     AveCPU   NTasks  AllocCPUS    Elapsed      State ExitCode AveCPUFreq ReqCPUFreqMin ReqCPUFreqMax ReqCPUFreqGov     ReqMem ConsumedEnergy  MaxDiskRead MaxDiskReadNode MaxDiskReadTask    AveDiskRead MaxDiskWrite MaxDiskWriteNode MaxDiskWriteTask   AveDiskWrite    ReqTRES  AllocTRES TRESUsageInAve TRESUsageInMax TRESUsageInMaxNode TRESUsageInMaxTask TRESUsageInMin TRESUsageInMinNode TRESUsageInMinTask TRESUsageInTot TRESUsageOutMax TRESUsageOutMaxNode TRESUsageOutMaxTask TRESUsageOutAve TRESUsageOutTot 
------------ ------------ ---------- ---------- ---------- -------------- -------------- ---------- ---------- ---------- ---------- ---------- -------- ------------ -------------- ---------- ---------- ---------- ---------- ---------- -------- ---------- ---------- ---------- -------- ---------- ------------- ------------- ------------- ---------- -------------- ------------ --------------- --------------- -------------- ------------ ---------------- ---------------- -------------- ---------- ---------- -------------- -------------- ------------------ ------------------ -------------- ------------------ ------------------ -------------- --------------- ------------------- ------------------- --------------- --------------- 
7777023      7777023      submit.job dcgp_usr_+                                                                                                                                                                                                             896   00:08:22    RUNNING      0:0                  Unknown       Unknown       Unknown      3850G                                                                                                                                          billing=8+ billing=8+                                                                                                                                                                                                                                 
7777023.bat+ 7777023.bat+      batch                                                                                                                                                                                                               1        112   00:08:22    RUNNING      0:0          0             0             0             0                         0                                                                                                                                      cpu=112,g+                                                                                                                                                                                                                                 
7777023.ext+ 7777023.ext+     extern                                                                                                                                                                                                               8        896   00:08:22    RUNNING      0:0          0             0             0             0                         0                                                                                                                                      billing=8+                                                                                                                                                                                                                                 
7777023.0    7777023.0        siesta              4145576K       lrdn4318            100  518122409   4121556K   lrdn4318        108  515095259      419     lrdn4318              0          3   00:06:01   lrdn4325        245   00:06:22      896        896   00:08:17  COMPLETED      0:0      4.87G       Unknown       Unknown       Unknown                         0        2.35M        lrdn4318               0          1.39M       22.01M         lrdn4318                0          0.84M            cpu=896,g+ cpu=00:06:22,+ cpu=00:07:46,+ cpu=lrdn4324,ener+ cpu=120,fs/disk=0+ cpu=00:06:01,+ cpu=lrdn4325,ener+ cpu=245,fs/disk=7+ cpu=3-23:15:5+ energy=0,fs/di+ energy=lrdn4324,fs+           fs/disk=0 energy=0,fs/di+ energy=0,fs/di+ 
