Unloading profile/base
  ERROR: Module evaluation aborted
Loading netcdf-fortran/4.6.1--oneapi--2023.2.0
  Loading requirement: bzip2/1.0.8--oneapi--2023.2.0-775effc
    lz4/1.9.4--oneapi--2023.2.0-whwwyrc snappy/1.1.10--oneapi--2023.2.0-ta4wo5m
    zlib-ng/2.1.4--oneapi--2023.2.0 zstd/1.5.5--oneapi--2023.2.0-7fv2v7i
    c-blosc/1.21.5--oneapi--2023.2.0-e7safqx pkgconf/1.9.5-gr2lx34
    hdf5/1.14.3--oneapi--2023.2.0 libszip/2.1.1--oneapi--2023.2.0
    netcdf-c/4.9.2--oneapi--2023.2.0
Current loaded modules
----------------------
Currently Loaded Modulefiles:
 1) profile/base(default)                          
 2) intel-oneapi-compilers/2023.2.1                
 3) intel-oneapi-mkl/2023.2.0(default)             
 4) intel-oneapi-mpi/2021.10.0                     
 5) bzip2/1.0.8--oneapi--2023.2.0-775effc <aL>     
 6) lz4/1.9.4--oneapi--2023.2.0-whwwyrc <aL>       
 7) snappy/1.1.10--oneapi--2023.2.0-ta4wo5m <aL>   
 8) zlib-ng/2.1.4--oneapi--2023.2.0 <aL>           
 9) zstd/1.5.5--oneapi--2023.2.0-7fv2v7i <aL>      
10) c-blosc/1.21.5--oneapi--2023.2.0-e7safqx <aL>  
11) pkgconf/1.9.5-gr2lx34 <aL>                     
12) hdf5/1.14.3--oneapi--2023.2.0 <aL>             
13) libszip/2.1.1--oneapi--2023.2.0 <aL>           
14) netcdf-c/4.9.2--oneapi--2023.2.0 <aL>          
15) netcdf-fortran/4.6.1--oneapi--2023.2.0         

Key:
(symbolic-version)  <module-tag>  <aL>=auto-loaded  

Current environment variables
-----------------------------
__MODULES_LMINIT=module use --append /leonardo/prod/spack/03/install/0.19/linux-rhel8-icelake/gcc-8.5.0/environment-modules-5.2.0-rz47odw4phlhzhhbz7b65nv5s5othgmi/modulefiles
HDF5_INCLUDE=/leonardo/prod/spack/05/install/0.21/linux-rhel8-icelake/oneapi-2023.2.0/hdf5-1.14.3-5bitseioxglrlmf3t7h7zvfljl6pbpfo/include
SLURM_MEM_PER_CPU=4400
LD_LIBRARY_PATH=/leonardo/prod/spack/05/install/0.21/linux-rhel8-icelake/oneapi-2023.2.0/netcdf-fortran-4.6.1-uc5ktlisaqpajywr73jxtpdksb4pnkvb/lib:/leonardo/prod/spack/05/install/0.21/linux-rhel8-icelake/oneapi-2023.2.0/netcdf-c-4.9.2-tp5gawlgibsgws3lwf2rry2oqbguj7wc/lib:/leonardo/prod/spack/05/install/0.21/linux-rhel8-icelake/oneapi-2023.2.0/libszip-2.1.1-jzcn64q2iq3hni2frgtac6xwm5far4mc/lib:/leonardo/prod/spack/05/install/0.21/linux-rhel8-icelake/oneapi-2023.2.0/hdf5-1.14.3-5bitseioxglrlmf3t7h7zvfljl6pbpfo/lib:/leonardo/prod/spack/05/install/0.21/linux-rhel8-icelake/gcc-8.5.0/pkgconf-1.9.5-gr2lx34cuparz7tqcckt73neufgol7tz/lib:/leonardo/prod/spack/05/install/0.21/linux-rhel8-icelake/oneapi-2023.2.0/c-blosc-1.21.5-e7safqxk3n6c3no5pnfxk7t3dzddpigv/lib64:/leonardo/prod/spack/05/install/0.21/linux-rhel8-icelake/oneapi-2023.2.0/zstd-1.5.5-7fv2v7i5t5c6pcwn6a6y5rdvsidclp2n/lib:/leonardo/prod/spack/05/install/0.21/linux-rhel8-icelake/oneapi-2023.2.0/zlib-ng-2.1.4-qabplr6fw6rgyal5bw5fkfzrr4nhdwoq/lib:/leonardo/prod/spack/05/install/0.21/linux-rhel8-icelake/oneapi-2023.2.0/snappy-1.1.10-ta4wo5mgu3pbdxpt56sxrzvwgg3wkk5w/lib:/leonardo/prod/spack/05/install/0.21/linux-rhel8-icelake/oneapi-2023.2.0/lz4-1.9.4-whwwyrclnjqvnf5n2lxmbhkpwfycnwq6/lib:/leonardo/prod/spack/05/install/0.21/linux-rhel8-icelake/oneapi-2023.2.0/bzip2-1.0.8-775effctvwp7xnhmzloke2gsz3jkulv2/lib:/leonardo/prod/spack/05/install/0.21/linux-rhel8-icelake/gcc-8.5.0/intel-oneapi-mpi-2021.10.0-6ff7efudnkj4xa7o4j67mxatygwzfwqc/mpi/2021.10.0//libfabric/lib:/leonardo/prod/spack/05/install/0.21/linux-rhel8-icelake/gcc-8.5.0/intel-oneapi-mpi-2021.10.0-6ff7efudnkj4xa7o4j67mxatygwzfwqc/mpi/2021.10.0//lib/release:/leonardo/prod/spack/05/install/0.21/linux-rhel8-icelake/gcc-8.5.0/intel-oneapi-mpi-2021.10.0-6ff7efudnkj4xa7o4j67mxatygwzfwqc/mpi/2021.10.0//lib:/leonardo/prod/spack/05/install/0.21/linux-rhel8-icelake/gcc-8.5.0/intel-oneapi-mpi-2021.10.0-6ff7efudnkj4xa7o4j67mxatygwzfwqc/lib:/leonardo/prod/spack/05/install/0.21/linux-rhel8-icelake/gcc-8.5.0/intel-oneapi-mkl-2023.2.0-4sr2vqxowjw5hjteersaff5uzql66ybt/mkl/2023.2.0/lib/intel64:/leonardo/prod/spack/05/install/0.21/linux-rhel8-icelake/gcc-8.5.0/intel-oneapi-mkl-2023.2.0-4sr2vqxowjw5hjteersaff5uzql66ybt/lib:/leonardo/prod/spack/5.2/install/0.21/linux-rhel8-icelake/gcc-8.5.0/intel-oneapi-compilers-2023.2.1-iwg23xx5a2h5fwje4542ggaspe2iartp/compiler/2023.2.1/linux/lib:/leonardo/prod/spack/5.2/install/0.21/linux-rhel8-icelake/gcc-8.5.0/intel-oneapi-compilers-2023.2.1-iwg23xx5a2h5fwje4542ggaspe2iartp/compiler/2023.2.1/linux/lib/x64:/leonardo/prod/spack/5.2/install/0.21/linux-rhel8-icelake/gcc-8.5.0/intel-oneapi-compilers-2023.2.1-iwg23xx5a2h5fwje4542ggaspe2iartp/compiler/2023.2.1/linux/lib/oclfpga/host/linux64/lib:/leonardo/prod/spack/5.2/install/0.21/linux-rhel8-icelake/gcc-8.5.0/intel-oneapi-compilers-2023.2.1-iwg23xx5a2h5fwje4542ggaspe2iartp/compiler/2023.2.1/linux/compiler/lib/intel64_lin:/leonardo/prod/spack/5.2/install/0.21/linux-rhel8-icelake/gcc-8.5.0/intel-oneapi-compilers-2023.2.1-iwg23xx5a2h5fwje4542ggaspe2iartp/lib:/leonardo/home/userexternal/fpedron0/Siesta/elpa-gpu/lib/
LS_COLORS=rs=0:di=38;5;33:ln=38;5;51:mh=00:pi=40;38;5;11:so=38;5;13:do=38;5;5:bd=48;5;232;38;5;11:cd=48;5;232;38;5;3:or=48;5;232;38;5;9:mi=01;05;37;41:su=48;5;196;38;5;15:sg=48;5;11;38;5;16:ca=48;5;196;38;5;226:tw=48;5;10;38;5;16:ow=48;5;10;38;5;21:st=48;5;21;38;5;15:ex=38;5;40:*.tar=38;5;9:*.tgz=38;5;9:*.arc=38;5;9:*.arj=38;5;9:*.taz=38;5;9:*.lha=38;5;9:*.lz4=38;5;9:*.lzh=38;5;9:*.lzma=38;5;9:*.tlz=38;5;9:*.txz=38;5;9:*.tzo=38;5;9:*.t7z=38;5;9:*.zip=38;5;9:*.z=38;5;9:*.dz=38;5;9:*.gz=38;5;9:*.lrz=38;5;9:*.lz=38;5;9:*.lzo=38;5;9:*.xz=38;5;9:*.zst=38;5;9:*.tzst=38;5;9:*.bz2=38;5;9:*.bz=38;5;9:*.tbz=38;5;9:*.tbz2=38;5;9:*.tz=38;5;9:*.deb=38;5;9:*.rpm=38;5;9:*.jar=38;5;9:*.war=38;5;9:*.ear=38;5;9:*.sar=38;5;9:*.rar=38;5;9:*.alz=38;5;9:*.ace=38;5;9:*.zoo=38;5;9:*.cpio=38;5;9:*.7z=38;5;9:*.rz=38;5;9:*.cab=38;5;9:*.wim=38;5;9:*.swm=38;5;9:*.dwm=38;5;9:*.esd=38;5;9:*.jpg=38;5;13:*.jpeg=38;5;13:*.mjpg=38;5;13:*.mjpeg=38;5;13:*.gif=38;5;13:*.bmp=38;5;13:*.pbm=38;5;13:*.pgm=38;5;13:*.ppm=38;5;13:*.tga=38;5;13:*.xbm=38;5;13:*.xpm=38;5;13:*.tif=38;5;13:*.tiff=38;5;13:*.png=38;5;13:*.svg=38;5;13:*.svgz=38;5;13:*.mng=38;5;13:*.pcx=38;5;13:*.mov=38;5;13:*.mpg=38;5;13:*.mpeg=38;5;13:*.m2v=38;5;13:*.mkv=38;5;13:*.webm=38;5;13:*.ogm=38;5;13:*.mp4=38;5;13:*.m4v=38;5;13:*.mp4v=38;5;13:*.vob=38;5;13:*.qt=38;5;13:*.nuv=38;5;13:*.wmv=38;5;13:*.asf=38;5;13:*.rm=38;5;13:*.rmvb=38;5;13:*.flc=38;5;13:*.avi=38;5;13:*.fli=38;5;13:*.flv=38;5;13:*.gl=38;5;13:*.dl=38;5;13:*.xcf=38;5;13:*.xwd=38;5;13:*.yuv=38;5;13:*.cgm=38;5;13:*.emf=38;5;13:*.ogv=38;5;13:*.ogx=38;5;13:*.aac=38;5;45:*.au=38;5;45:*.flac=38;5;45:*.m4a=38;5;45:*.mid=38;5;45:*.midi=38;5;45:*.mka=38;5;45:*.mp3=38;5;45:*.mpc=38;5;45:*.ogg=38;5;45:*.ra=38;5;45:*.wav=38;5;45:*.oga=38;5;45:*.opus=38;5;45:*.spx=38;5;45:*.xspf=38;5;45:
J4M_ACCOUNT=Max3_devel2
SLURM_NODEID=0
SLURM_TASK_PID=1642303
NETCDF_FORTRAN_HOME=/leonardo/prod/spack/05/install/0.21/linux-rhel8-icelake/oneapi-2023.2.0/netcdf-fortran-4.6.1-uc5ktlisaqpajywr73jxtpdksb4pnkvb
FPGA_VARS_ARGS=
SSH_CONNECTION=83.46.85.124 58070 10.137.0.5 22
SLURM_PRIO_PROCESS=0
I_MPI_PMI_LIBRARY=/usr/lib64/libpmi.so
OCL_ICD_FILENAMES=libintelocl_emu.so:libalteracl.so:/leonardo/prod/spack/5.2/install/0.21/linux-rhel8-icelake/gcc-8.5.0/intel-oneapi-compilers-2023.2.1-iwg23xx5a2h5fwje4542ggaspe2iartp/compiler/2023.2.1/linux/lib/x64/libintelocl.so
GOTO_NUM_THREADS=1
INTEL_ONEAPI_MPI_INCLUDE=/leonardo/prod/spack/05/install/0.21/linux-rhel8-icelake/gcc-8.5.0/intel-oneapi-mpi-2021.10.0-6ff7efudnkj4xa7o4j67mxatygwzfwqc/include
INTEL_ONEAPI_MKL_INC=/leonardo/prod/spack/05/install/0.21/linux-rhel8-icelake/gcc-8.5.0/intel-oneapi-mkl-2023.2.0-4sr2vqxowjw5hjteersaff5uzql66ybt/include
MODULES_RUN_QUARANTINE=LD_LIBRARY_PATH LD_PRELOAD
NETCDF_C_INC=/leonardo/prod/spack/05/install/0.21/linux-rhel8-icelake/oneapi-2023.2.0/netcdf-c-4.9.2-tp5gawlgibsgws3lwf2rry2oqbguj7wc/include
LANG=C.UTF-8
SLURM_SUBMIT_DIR=/leonardo/home/userexternal/fpedron0/JUBE4MaX/max-inputs/interface/siesta/_CovidWeak/000000/000012_submit/work
LIBSZIP_HOME=/leonardo/prod/spack/05/install/0.21/linux-rhel8-icelake/oneapi-2023.2.0/libszip-2.1.1-jzcn64q2iq3hni2frgtac6xwm5far4mc
HISTCONTROL=ignoredups
ZLIB_NG_HOME=/leonardo/prod/spack/05/install/0.21/linux-rhel8-icelake/oneapi-2023.2.0/zlib-ng-2.1.4-qabplr6fw6rgyal5bw5fkfzrr4nhdwoq
ZSTD_INC=/leonardo/prod/spack/05/install/0.21/linux-rhel8-icelake/oneapi-2023.2.0/zstd-1.5.5-7fv2v7i5t5c6pcwn6a6y5rdvsidclp2n/include
HDF5_INC=/leonardo/prod/spack/05/install/0.21/linux-rhel8-icelake/oneapi-2023.2.0/hdf5-1.14.3-5bitseioxglrlmf3t7h7zvfljl6pbpfo/include
HDF5_HOME=/leonardo/prod/spack/05/install/0.21/linux-rhel8-icelake/oneapi-2023.2.0/hdf5-1.14.3-5bitseioxglrlmf3t7h7zvfljl6pbpfo
HOSTNAME=lrdn4318
OPENBLAS_NUM_THREADS=1
PUBLIC=/leonardo/pub/userexternal/fpedron0
OLDPWD=/leonardo/home/userexternal/fpedron0/JUBE4MaX/max-inputs
PKGCONF_INC=/leonardo/prod/spack/05/install/0.21/linux-rhel8-icelake/gcc-8.5.0/pkgconf-1.9.5-gr2lx34cuparz7tqcckt73neufgol7tz/include
J4M_BIN_PATH=/leonardo/home/userexternal/fpedron0/Siesta/siesta-intel/bin/
BZIP2_LIB=/leonardo/prod/spack/05/install/0.21/linux-rhel8-icelake/oneapi-2023.2.0/bzip2-1.0.8-775effctvwp7xnhmzloke2gsz3jkulv2/lib
SLURM_CPUS_PER_TASK=1
C_INCLUDE_PATH=/leonardo/prod/spack/05/install/0.21/linux-rhel8-icelake/oneapi-2023.2.0/netcdf-fortran-4.6.1-uc5ktlisaqpajywr73jxtpdksb4pnkvb/include:/leonardo/prod/spack/05/install/0.21/linux-rhel8-icelake/oneapi-2023.2.0/netcdf-c-4.9.2-tp5gawlgibsgws3lwf2rry2oqbguj7wc/include:/leonardo/prod/spack/05/install/0.21/linux-rhel8-icelake/oneapi-2023.2.0/libszip-2.1.1-jzcn64q2iq3hni2frgtac6xwm5far4mc/include:/leonardo/prod/spack/05/install/0.21/linux-rhel8-icelake/oneapi-2023.2.0/hdf5-1.14.3-5bitseioxglrlmf3t7h7zvfljl6pbpfo/include:/leonardo/prod/spack/05/install/0.21/linux-rhel8-icelake/gcc-8.5.0/pkgconf-1.9.5-gr2lx34cuparz7tqcckt73neufgol7tz/include:/leonardo/prod/spack/05/install/0.21/linux-rhel8-icelake/oneapi-2023.2.0/c-blosc-1.21.5-e7safqxk3n6c3no5pnfxk7t3dzddpigv/include:/leonardo/prod/spack/05/install/0.21/linux-rhel8-icelake/oneapi-2023.2.0/zstd-1.5.5-7fv2v7i5t5c6pcwn6a6y5rdvsidclp2n/include:/leonardo/prod/spack/05/install/0.21/linux-rhel8-icelake/oneapi-2023.2.0/zlib-ng-2.1.4-qabplr6fw6rgyal5bw5fkfzrr4nhdwoq/include:/leonardo/prod/spack/05/install/0.21/linux-rhel8-icelake/oneapi-2023.2.0/snappy-1.1.10-ta4wo5mgu3pbdxpt56sxrzvwgg3wkk5w/include:/leonardo/prod/spack/05/install/0.21/linux-rhel8-icelake/oneapi-2023.2.0/lz4-1.9.4-whwwyrclnjqvnf5n2lxmbhkpwfycnwq6/include:/leonardo/prod/spack/05/install/0.21/linux-rhel8-icelake/oneapi-2023.2.0/bzip2-1.0.8-775effctvwp7xnhmzloke2gsz3jkulv2/include:/leonardo/prod/spack/05/install/0.21/linux-rhel8-icelake/gcc-8.5.0/intel-oneapi-mpi-2021.10.0-6ff7efudnkj4xa7o4j67mxatygwzfwqc/include:/leonardo/prod/spack/05/install/0.21/linux-rhel8-icelake/gcc-8.5.0/intel-oneapi-mkl-2023.2.0-4sr2vqxowjw5hjteersaff5uzql66ybt/include
OMP_PROC_BIND=true
HDF5_LIB=/leonardo/prod/spack/05/install/0.21/linux-rhel8-icelake/oneapi-2023.2.0/hdf5-1.14.3-5bitseioxglrlmf3t7h7zvfljl6pbpfo/lib
ENVIRONMENT=BATCH
CINECA_SCRATCH=/leonardo_scratch/large/userexternal/fpedron0
IOI_JOB_ARGC=1
ACL_BOARD_VENDOR_PATH=/opt/Intel/OpenCLFPGA/oneAPI/Boards
NETCDF_FORTRAN_INC=/leonardo/prod/spack/05/install/0.21/linux-rhel8-icelake/oneapi-2023.2.0/netcdf-fortran-4.6.1-uc5ktlisaqpajywr73jxtpdksb4pnkvb/include
INTEL_ONEAPI_MPI_HOME=/leonardo/prod/spack/05/install/0.21/linux-rhel8-icelake/gcc-8.5.0/intel-oneapi-mpi-2021.10.0-6ff7efudnkj4xa7o4j67mxatygwzfwqc
ZSTD_INCLUDE=/leonardo/prod/spack/05/install/0.21/linux-rhel8-icelake/oneapi-2023.2.0/zstd-1.5.5-7fv2v7i5t5c6pcwn6a6y5rdvsidclp2n/include
SLURM_PROCID=0
ZSTD_LIB=/leonardo/prod/spack/05/install/0.21/linux-rhel8-icelake/oneapi-2023.2.0/zstd-1.5.5-7fv2v7i5t5c6pcwn6a6y5rdvsidclp2n/lib
SLURM_JOB_GID=25200
MODULES_SITECONFIG=/leonardo/prod/opt/environment/module/current/etc/siteconfig.tcl
DRES=/no/project/defined
__MODULES_LMPREREQ=c-blosc/1.21.5--oneapi--2023.2.0-e7safqx&lz4/1.9.4--oneapi--2023.2.0-whwwyrc&snappy/1.1.10--oneapi--2023.2.0-ta4wo5m&zlib-ng/2.1.4--oneapi--2023.2.0&zstd/1.5.5--oneapi--2023.2.0-7fv2v7i:hdf5/1.14.3--oneapi--2023.2.0&pkgconf/1.9.5-gr2lx34&zlib-ng/2.1.4--oneapi--2023.2.0:netcdf-c/4.9.2--oneapi--2023.2.0&bzip2/1.0.8--oneapi--2023.2.0-775effc&c-blosc/1.21.5--oneapi--2023.2.0-e7safqx&hdf5/1.14.3--oneapi--2023.2.0&libszip/2.1.1--oneapi--2023.2.0&zlib-ng/2.1.4--oneapi--2023.2.0&zstd/1.5.5--oneapi--2023.2.0-7fv2v7i:netcdf-fortran/4.6.1--oneapi--2023.2.0&netcdf-c/4.9.2--oneapi--2023.2.0
NETCDF_FORTRAN_LIB=/leonardo/prod/spack/05/install/0.21/linux-rhel8-icelake/oneapi-2023.2.0/netcdf-fortran-4.6.1-uc5ktlisaqpajywr73jxtpdksb4pnkvb/lib
SLURMD_NODENAME=lrdn4318
FI_PROVIDER_PATH=/leonardo/prod/spack/05/install/0.21/linux-rhel8-icelake/gcc-8.5.0/intel-oneapi-mpi-2021.10.0-6ff7efudnkj4xa7o4j67mxatygwzfwqc/mpi/2021.10.0//libfabric/lib/prov:/usr/lib64/libfabric
SLURM_TASKS_PER_NODE=112(x8)
INTEL_ONEAPI_MKL_INCLUDE=/leonardo/prod/spack/05/install/0.21/linux-rhel8-icelake/gcc-8.5.0/intel-oneapi-mkl-2023.2.0-4sr2vqxowjw5hjteersaff5uzql66ybt/include
S_COLORS=auto
INTEL_ONEAPI_COMPILERS_LIB=/leonardo/prod/spack/5.2/install/0.21/linux-rhel8-icelake/gcc-8.5.0/intel-oneapi-compilers-2023.2.1-iwg23xx5a2h5fwje4542ggaspe2iartp/lib
C_BLOSC_INCLUDE=/leonardo/prod/spack/05/install/0.21/linux-rhel8-icelake/oneapi-2023.2.0/c-blosc-1.21.5-e7safqxk3n6c3no5pnfxk7t3dzddpigv/include
which_declare=declare -f
HDF5_PLUGIN_PATH=/leonardo/prod/spack/05/install/0.21/linux-rhel8-icelake/oneapi-2023.2.0/netcdf-c-4.9.2-tp5gawlgibsgws3lwf2rry2oqbguj7wc/plugins
LIBSZIP_INC=/leonardo/prod/spack/05/install/0.21/linux-rhel8-icelake/oneapi-2023.2.0/libszip-2.1.1-jzcn64q2iq3hni2frgtac6xwm5far4mc/include
LIBSZIP_INCLUDE=/leonardo/prod/spack/05/install/0.21/linux-rhel8-icelake/oneapi-2023.2.0/libszip-2.1.1-jzcn64q2iq3hni2frgtac6xwm5far4mc/include
HPC_SYSTEM=leonardo
CLASSPATH=/leonardo/prod/spack/05/install/0.21/linux-rhel8-icelake/gcc-8.5.0/intel-oneapi-mpi-2021.10.0-6ff7efudnkj4xa7o4j67mxatygwzfwqc/mpi/2021.10.0//lib/mpi.jar
CC=/leonardo/prod/spack/5.2/install/0.21/linux-rhel8-icelake/gcc-8.5.0/intel-oneapi-compilers-2023.2.1-iwg23xx5a2h5fwje4542ggaspe2iartp/compiler/2023.2.1/linux/bin/icx
MPIF90=mpiifort
XDG_SESSION_ID=2321586
MODULES_CMD=/leonardo/prod/spack/03/install/0.19/linux-rhel8-icelake/gcc-8.5.0/environment-modules-5.2.0-rz47odw4phlhzhhbz7b65nv5s5othgmi/libexec/modulecmd.tcl
SLURM_NNODES=8
USER=fpedron0
FPGA_VARS_DIR=/leonardo/prod/spack/5.2/install/0.21/linux-rhel8-icelake/gcc-8.5.0/intel-oneapi-compilers-2023.2.1-iwg23xx5a2h5fwje4542ggaspe2iartp/compiler/2023.2.1/linux/lib/oclfpga
CMPLR_ROOT=/leonardo/prod/spack/5.2/install/0.21/linux-rhel8-icelake/gcc-8.5.0/intel-oneapi-compilers-2023.2.1-iwg23xx5a2h5fwje4542ggaspe2iartp/compiler/2023.2.1
__MODULES_LMTAG=bzip2/1.0.8--oneapi--2023.2.0-775effc&auto-loaded:lz4/1.9.4--oneapi--2023.2.0-whwwyrc&auto-loaded:snappy/1.1.10--oneapi--2023.2.0-ta4wo5m&auto-loaded:zlib-ng/2.1.4--oneapi--2023.2.0&auto-loaded:zstd/1.5.5--oneapi--2023.2.0-7fv2v7i&auto-loaded:c-blosc/1.21.5--oneapi--2023.2.0-e7safqx&auto-loaded:pkgconf/1.9.5-gr2lx34&auto-loaded:hdf5/1.14.3--oneapi--2023.2.0&auto-loaded:libszip/2.1.1--oneapi--2023.2.0&auto-loaded:netcdf-c/4.9.2--oneapi--2023.2.0&auto-loaded
IOI_JOB_ARGV0=/leonardo/home/userexternal/fpedron0/JUBE4MaX/max-inputs/interface/siesta/_CovidWeak/000000/000012_submit/work/submit.job
SNAPPY_INCLUDE=/leonardo/prod/spack/05/install/0.21/linux-rhel8-icelake/oneapi-2023.2.0/snappy-1.1.10-ta4wo5mgu3pbdxpt56sxrzvwgg3wkk5w/include
MPICXX=mpiicpc
SLURM_NTASKS_PER_NODE=112
SELINUX_ROLE_REQUESTED=
LZ4_INC=/leonardo/prod/spack/05/install/0.21/linux-rhel8-icelake/oneapi-2023.2.0/lz4-1.9.4-whwwyrclnjqvnf5n2lxmbhkpwfycnwq6/include
PWD=/leonardo/home/userexternal/fpedron0/JUBE4MaX/max-inputs/interface/siesta/_CovidWeak/000000/000012_submit/work
NETCDF_FORTRAN_INCLUDE=/leonardo/prod/spack/05/install/0.21/linux-rhel8-icelake/oneapi-2023.2.0/netcdf-fortran-4.6.1-uc5ktlisaqpajywr73jxtpdksb4pnkvb/include
LZ4_HOME=/leonardo/prod/spack/05/install/0.21/linux-rhel8-icelake/oneapi-2023.2.0/lz4-1.9.4-whwwyrclnjqvnf5n2lxmbhkpwfycnwq6
SLURM_JOB_NODELIST=lrdn[4318,4324-4325,4328-4329,4331-4332,4334]
HOME=/leonardo/home/userexternal/fpedron0
SLURM_CLUSTER_NAME=leonardo
CMAKE_PREFIX_PATH=/leonardo/prod/spack/05/install/0.21/linux-rhel8-icelake/oneapi-2023.2.0/netcdf-fortran-4.6.1-uc5ktlisaqpajywr73jxtpdksb4pnkvb/.:/leonardo/prod/spack/05/install/0.21/linux-rhel8-icelake/oneapi-2023.2.0/netcdf-c-4.9.2-tp5gawlgibsgws3lwf2rry2oqbguj7wc/.:/leonardo/prod/spack/05/install/0.21/linux-rhel8-icelake/oneapi-2023.2.0/libszip-2.1.1-jzcn64q2iq3hni2frgtac6xwm5far4mc/.:/leonardo/prod/spack/05/install/0.21/linux-rhel8-icelake/oneapi-2023.2.0/hdf5-1.14.3-5bitseioxglrlmf3t7h7zvfljl6pbpfo/.:/leonardo/prod/spack/05/install/0.21/linux-rhel8-icelake/gcc-8.5.0/pkgconf-1.9.5-gr2lx34cuparz7tqcckt73neufgol7tz/.:/leonardo/prod/spack/05/install/0.21/linux-rhel8-icelake/oneapi-2023.2.0/c-blosc-1.21.5-e7safqxk3n6c3no5pnfxk7t3dzddpigv/.:/leonardo/prod/spack/05/install/0.21/linux-rhel8-icelake/oneapi-2023.2.0/zstd-1.5.5-7fv2v7i5t5c6pcwn6a6y5rdvsidclp2n/.:/leonardo/prod/spack/05/install/0.21/linux-rhel8-icelake/oneapi-2023.2.0/zlib-ng-2.1.4-qabplr6fw6rgyal5bw5fkfzrr4nhdwoq/.:/leonardo/prod/spack/05/install/0.21/linux-rhel8-icelake/oneapi-2023.2.0/snappy-1.1.10-ta4wo5mgu3pbdxpt56sxrzvwgg3wkk5w/.:/leonardo/prod/spack/05/install/0.21/linux-rhel8-icelake/oneapi-2023.2.0/lz4-1.9.4-whwwyrclnjqvnf5n2lxmbhkpwfycnwq6/.:/leonardo/prod/spack/05/install/0.21/linux-rhel8-icelake/oneapi-2023.2.0/bzip2-1.0.8-775effctvwp7xnhmzloke2gsz3jkulv2/.:/leonardo/prod/spack/05/install/0.21/linux-rhel8-icelake/gcc-8.5.0/intel-oneapi-mpi-2021.10.0-6ff7efudnkj4xa7o4j67mxatygwzfwqc/.:/leonardo/prod/spack/05/install/0.21/linux-rhel8-icelake/gcc-8.5.0/intel-oneapi-mkl-2023.2.0-4sr2vqxowjw5hjteersaff5uzql66ybt/.:/leonardo/prod/spack/5.2/install/0.21/linux-rhel8-icelake/gcc-8.5.0/intel-oneapi-compilers-2023.2.1-iwg23xx5a2h5fwje4542ggaspe2iartp/compiler/2023.2.1/linux/IntelDPCPP:/leonardo/prod/spack/5.2/install/0.21/linux-rhel8-icelake/gcc-8.5.0/intel-oneapi-compilers-2023.2.1-iwg23xx5a2h5fwje4542ggaspe2iartp/.
SLURM_NODELIST=lrdn[4318,4324-4325,4328-4329,4331-4332,4334]
INTEL_ONEAPI_MKL_LIB=/leonardo/prod/spack/05/install/0.21/linux-rhel8-icelake/gcc-8.5.0/intel-oneapi-mkl-2023.2.0-4sr2vqxowjw5hjteersaff5uzql66ybt/mkl/2022.2.1/lib/intel64:/leonardo/prod/spack/05/install/0.21/linux-rhel8-icelake/gcc-8.5.0/intel-oneapi-mkl-2023.2.0-4sr2vqxowjw5hjteersaff5uzql66ybt/lib
SSH_CLIENT=83.46.85.124 58070 22
CPATH=/leonardo/prod/spack/05/install/0.21/linux-rhel8-icelake/oneapi-2023.2.0/netcdf-fortran-4.6.1-uc5ktlisaqpajywr73jxtpdksb4pnkvb/include:/leonardo/prod/spack/05/install/0.21/linux-rhel8-icelake/oneapi-2023.2.0/netcdf-c-4.9.2-tp5gawlgibsgws3lwf2rry2oqbguj7wc/include:/leonardo/prod/spack/05/install/0.21/linux-rhel8-icelake/oneapi-2023.2.0/libszip-2.1.1-jzcn64q2iq3hni2frgtac6xwm5far4mc/include:/leonardo/prod/spack/05/install/0.21/linux-rhel8-icelake/oneapi-2023.2.0/hdf5-1.14.3-5bitseioxglrlmf3t7h7zvfljl6pbpfo/include:/leonardo/prod/spack/05/install/0.21/linux-rhel8-icelake/gcc-8.5.0/pkgconf-1.9.5-gr2lx34cuparz7tqcckt73neufgol7tz/include:/leonardo/prod/spack/05/install/0.21/linux-rhel8-icelake/oneapi-2023.2.0/c-blosc-1.21.5-e7safqxk3n6c3no5pnfxk7t3dzddpigv/include:/leonardo/prod/spack/05/install/0.21/linux-rhel8-icelake/oneapi-2023.2.0/zstd-1.5.5-7fv2v7i5t5c6pcwn6a6y5rdvsidclp2n/include:/leonardo/prod/spack/05/install/0.21/linux-rhel8-icelake/oneapi-2023.2.0/zlib-ng-2.1.4-qabplr6fw6rgyal5bw5fkfzrr4nhdwoq/include:/leonardo/prod/spack/05/install/0.21/linux-rhel8-icelake/oneapi-2023.2.0/snappy-1.1.10-ta4wo5mgu3pbdxpt56sxrzvwgg3wkk5w/include:/leonardo/prod/spack/05/install/0.21/linux-rhel8-icelake/oneapi-2023.2.0/lz4-1.9.4-whwwyrclnjqvnf5n2lxmbhkpwfycnwq6/include:/leonardo/prod/spack/05/install/0.21/linux-rhel8-icelake/oneapi-2023.2.0/bzip2-1.0.8-775effctvwp7xnhmzloke2gsz3jkulv2/include:/leonardo/prod/spack/05/install/0.21/linux-rhel8-icelake/gcc-8.5.0/intel-oneapi-mpi-2021.10.0-6ff7efudnkj4xa7o4j67mxatygwzfwqc/mpi/2021.10.0//include:/leonardo/prod/spack/05/install/0.21/linux-rhel8-icelake/gcc-8.5.0/intel-oneapi-mpi-2021.10.0-6ff7efudnkj4xa7o4j67mxatygwzfwqc/include:/leonardo/prod/spack/05/install/0.21/linux-rhel8-icelake/gcc-8.5.0/intel-oneapi-mkl-2023.2.0-4sr2vqxowjw5hjteersaff5uzql66ybt/mkl/2023.2.0/include:/leonardo/prod/spack/05/install/0.21/linux-rhel8-icelake/gcc-8.5.0/intel-oneapi-mkl-2023.2.0-4sr2vqxowjw5hjteersaff5uzql66ybt/include:/leonardo/prod/spack/5.2/install/0.21/linux-rhel8-icelake/gcc-8.5.0/intel-oneapi-compilers-2023.2.1-iwg23xx5a2h5fwje4542ggaspe2iartp/compiler/2023.2.1/linux/lib/oclfpga/include
INTELFPGAOCLSDKROOT=/leonardo/prod/spack/5.2/install/0.21/linux-rhel8-icelake/gcc-8.5.0/intel-oneapi-compilers-2023.2.1-iwg23xx5a2h5fwje4542ggaspe2iartp/compiler/2023.2.1/linux/lib/oclfpga
SLURM_NTASKS=896
WORK=/leonardo_work/Max3_devel_2
F77=/leonardo/prod/spack/5.2/install/0.21/linux-rhel8-icelake/gcc-8.5.0/intel-oneapi-compilers-2023.2.1-iwg23xx5a2h5fwje4542ggaspe2iartp/compiler/2023.2.1/linux/bin/ifx
SELINUX_LEVEL_REQUESTED=
SLURM_JOB_CPUS_PER_NODE=112(x8)
I_MPI_SHM_CMA=0
SLURM_TOPOLOGY_ADDR=HeadSwitche.isw-L2-CELLG21.isw120800.lrdn4318
C_BLOSC_INC=/leonardo/prod/spack/05/install/0.21/linux-rhel8-icelake/oneapi-2023.2.0/c-blosc-1.21.5-e7safqxk3n6c3no5pnfxk7t3dzddpigv/include
INTEL_ONEAPI_MPI_LIB=/leonardo/prod/spack/05/install/0.21/linux-rhel8-icelake/gcc-8.5.0/intel-oneapi-mpi-2021.10.0-6ff7efudnkj4xa7o4j67mxatygwzfwqc/lib
NLSPATH=/leonardo/prod/spack/05/install/0.21/linux-rhel8-icelake/gcc-8.5.0/intel-oneapi-mkl-2023.2.0-4sr2vqxowjw5hjteersaff5uzql66ybt/mkl/2023.2.0/lib/intel64/locale/%l_%t/%N:/leonardo/prod/spack/5.2/install/0.21/linux-rhel8-icelake/gcc-8.5.0/intel-oneapi-compilers-2023.2.1-iwg23xx5a2h5fwje4542ggaspe2iartp/compiler/2023.2.1/linux/compiler/lib/intel64_lin/locale/%l_%t/%N
SLURM_WORKING_CLUSTER=leonardo:10.128.255.221:6817:9728:109
INTEL_ONEAPI_MPI_INC=/leonardo/prod/spack/05/install/0.21/linux-rhel8-icelake/gcc-8.5.0/intel-oneapi-mpi-2021.10.0-6ff7efudnkj4xa7o4j67mxatygwzfwqc/include
SNAPPY_LIB=/leonardo/prod/spack/05/install/0.21/linux-rhel8-icelake/oneapi-2023.2.0/snappy-1.1.10-ta4wo5mgu3pbdxpt56sxrzvwgg3wkk5w/lib
__MODULES_SHARE_MANPATH=:12
__MODULES_LMALTNAME=profile/base&profile/default&profile:intel-oneapi-compilers/2023.2.1&as|intel-oneapi-compilers/default&as|intel-oneapi-compilers/latest:intel-oneapi-mkl/2023.2.0&intel-oneapi-mkl/default&intel-oneapi-mkl:intel-oneapi-mpi/2021.10.0&as|intel-oneapi-mpi/default&as|intel-oneapi-mpi/latest:bzip2/1.0.8--oneapi--2023.2.0-775effc&as|bzip2/default&as|bzip2/latest:lz4/1.9.4--oneapi--2023.2.0-whwwyrc&as|lz4/default&as|lz4/latest:snappy/1.1.10--oneapi--2023.2.0-ta4wo5m&as|snappy/default&as|snappy/latest:zlib-ng/2.1.4--oneapi--2023.2.0&as|zlib-ng/default&as|zlib-ng/latest:zstd/1.5.5--oneapi--2023.2.0-7fv2v7i&as|zstd/default&as|zstd/latest:c-blosc/1.21.5--oneapi--2023.2.0-e7safqx&as|c-blosc/default&as|c-blosc/latest:pkgconf/1.9.5-gr2lx34&as|pkgconf/default&as|pkgconf/latest:libszip/2.1.1--oneapi--2023.2.0&as|libszip/latest
NETCDF_C_HOME=/leonardo/prod/spack/05/install/0.21/linux-rhel8-icelake/oneapi-2023.2.0/netcdf-c-4.9.2-tp5gawlgibsgws3lwf2rry2oqbguj7wc
SLURM_JOB_NAME=submit.job
TMPDIR=/tmp
LIBRARY_PATH=/leonardo/prod/spack/05/install/0.21/linux-rhel8-icelake/oneapi-2023.2.0/netcdf-fortran-4.6.1-uc5ktlisaqpajywr73jxtpdksb4pnkvb/lib:/leonardo/prod/spack/05/install/0.21/linux-rhel8-icelake/oneapi-2023.2.0/netcdf-c-4.9.2-tp5gawlgibsgws3lwf2rry2oqbguj7wc/lib:/leonardo/prod/spack/05/install/0.21/linux-rhel8-icelake/oneapi-2023.2.0/libszip-2.1.1-jzcn64q2iq3hni2frgtac6xwm5far4mc/lib:/leonardo/prod/spack/05/install/0.21/linux-rhel8-icelake/oneapi-2023.2.0/hdf5-1.14.3-5bitseioxglrlmf3t7h7zvfljl6pbpfo/lib:/leonardo/prod/spack/05/install/0.21/linux-rhel8-icelake/gcc-8.5.0/pkgconf-1.9.5-gr2lx34cuparz7tqcckt73neufgol7tz/lib:/leonardo/prod/spack/05/install/0.21/linux-rhel8-icelake/oneapi-2023.2.0/c-blosc-1.21.5-e7safqxk3n6c3no5pnfxk7t3dzddpigv/lib64:/leonardo/prod/spack/05/install/0.21/linux-rhel8-icelake/oneapi-2023.2.0/zstd-1.5.5-7fv2v7i5t5c6pcwn6a6y5rdvsidclp2n/lib:/leonardo/prod/spack/05/install/0.21/linux-rhel8-icelake/oneapi-2023.2.0/zlib-ng-2.1.4-qabplr6fw6rgyal5bw5fkfzrr4nhdwoq/lib:/leonardo/prod/spack/05/install/0.21/linux-rhel8-icelake/oneapi-2023.2.0/snappy-1.1.10-ta4wo5mgu3pbdxpt56sxrzvwgg3wkk5w/lib:/leonardo/prod/spack/05/install/0.21/linux-rhel8-icelake/oneapi-2023.2.0/lz4-1.9.4-whwwyrclnjqvnf5n2lxmbhkpwfycnwq6/lib:/leonardo/prod/spack/05/install/0.21/linux-rhel8-icelake/oneapi-2023.2.0/bzip2-1.0.8-775effctvwp7xnhmzloke2gsz3jkulv2/lib:/leonardo/prod/spack/05/install/0.21/linux-rhel8-icelake/gcc-8.5.0/intel-oneapi-mpi-2021.10.0-6ff7efudnkj4xa7o4j67mxatygwzfwqc/mpi/2021.10.0//libfabric/lib:/leonardo/prod/spack/05/install/0.21/linux-rhel8-icelake/gcc-8.5.0/intel-oneapi-mpi-2021.10.0-6ff7efudnkj4xa7o4j67mxatygwzfwqc/mpi/2021.10.0//lib/release:/leonardo/prod/spack/05/install/0.21/linux-rhel8-icelake/gcc-8.5.0/intel-oneapi-mpi-2021.10.0-6ff7efudnkj4xa7o4j67mxatygwzfwqc/mpi/2021.10.0//lib:/leonardo/prod/spack/05/install/0.21/linux-rhel8-icelake/gcc-8.5.0/intel-oneapi-mpi-2021.10.0-6ff7efudnkj4xa7o4j67mxatygwzfwqc/lib:/leonardo/prod/spack/05/install/0.21/linux-rhel8-icelake/gcc-8.5.0/intel-oneapi-mkl-2023.2.0-4sr2vqxowjw5hjteersaff5uzql66ybt/mkl/2023.2.0/lib/intel64:/leonardo/prod/spack/05/install/0.21/linux-rhel8-icelake/gcc-8.5.0/intel-oneapi-mkl-2023.2.0-4sr2vqxowjw5hjteersaff5uzql66ybt/lib:/leonardo/prod/spack/5.2/install/0.21/linux-rhel8-icelake/gcc-8.5.0/intel-oneapi-compilers-2023.2.1-iwg23xx5a2h5fwje4542ggaspe2iartp/compiler/2023.2.1/linux/compiler/lib/intel64_lin:/leonardo/prod/spack/5.2/install/0.21/linux-rhel8-icelake/gcc-8.5.0/intel-oneapi-compilers-2023.2.1-iwg23xx5a2h5fwje4542ggaspe2iartp/compiler/2023.2.1/linux/lib:/leonardo/prod/spack/5.2/install/0.21/linux-rhel8-icelake/gcc-8.5.0/intel-oneapi-compilers-2023.2.1-iwg23xx5a2h5fwje4542ggaspe2iartp/lib:/leonardo/home/userexternal/fpedron0/Siesta/elpa-gpu/lib/
SNAPPY_INC=/leonardo/prod/spack/05/install/0.21/linux-rhel8-icelake/oneapi-2023.2.0/snappy-1.1.10-ta4wo5mgu3pbdxpt56sxrzvwgg3wkk5w/include
SLURM_JOBID=7777023
SLURM_CONF=/var/spool/slurmd/conf-cache/slurm.conf
ZLIB_NG_INCLUDE=/leonardo/prod/spack/05/install/0.21/linux-rhel8-icelake/oneapi-2023.2.0/zlib-ng-2.1.4-qabplr6fw6rgyal5bw5fkfzrr4nhdwoq/include
LOADEDMODULES=profile/base:intel-oneapi-compilers/2023.2.1:intel-oneapi-mkl/2023.2.0:intel-oneapi-mpi/2021.10.0:bzip2/1.0.8--oneapi--2023.2.0-775effc:lz4/1.9.4--oneapi--2023.2.0-whwwyrc:snappy/1.1.10--oneapi--2023.2.0-ta4wo5m:zlib-ng/2.1.4--oneapi--2023.2.0:zstd/1.5.5--oneapi--2023.2.0-7fv2v7i:c-blosc/1.21.5--oneapi--2023.2.0-e7safqx:pkgconf/1.9.5-gr2lx34:hdf5/1.14.3--oneapi--2023.2.0:libszip/2.1.1--oneapi--2023.2.0:netcdf-c/4.9.2--oneapi--2023.2.0:netcdf-fortran/4.6.1--oneapi--2023.2.0
I_MPI_HYDRA_IFACE=ib0
DIAGUTIL_PATH=/leonardo/prod/spack/5.2/install/0.21/linux-rhel8-icelake/gcc-8.5.0/intel-oneapi-compilers-2023.2.1-iwg23xx5a2h5fwje4542ggaspe2iartp/compiler/2023.2.1/sys_check/sys_check.sh
FC=/leonardo/prod/spack/5.2/install/0.21/linux-rhel8-icelake/gcc-8.5.0/intel-oneapi-compilers-2023.2.1-iwg23xx5a2h5fwje4542ggaspe2iartp/compiler/2023.2.1/linux/bin/ifx
SLURM_SPANK_IOINSTRUMENTATION_ENABLED=0
INTEL_ONEAPI_MKL_HOME=/leonardo/prod/spack/05/install/0.21/linux-rhel8-icelake/gcc-8.5.0/intel-oneapi-mkl-2023.2.0-4sr2vqxowjw5hjteersaff5uzql66ybt
SCRATCH=/leonardo_scratch/large/userexternal/fpedron0
NETCDF_C_LIB=/leonardo/prod/spack/05/install/0.21/linux-rhel8-icelake/oneapi-2023.2.0/netcdf-c-4.9.2-tp5gawlgibsgws3lwf2rry2oqbguj7wc/lib
SLURM_NODE_ALIASES=(null)
MPICC=mpiicc
SLURM_JOB_QOS=normal
SLURM_TOPOLOGY_ADDR_PATTERN=switch.switch.switch.node
SSH_TTY=/dev/pts/9
BZIP2_HOME=/leonardo/prod/spack/05/install/0.21/linux-rhel8-icelake/oneapi-2023.2.0/bzip2-1.0.8-775effctvwp7xnhmzloke2gsz3jkulv2
MAIL=/var/spool/mail/fpedron0
MPIFC=mpiifort
INTEL_ONEAPI_COMPILERS_HOME=/leonardo/prod/spack/5.2/install/0.21/linux-rhel8-icelake/gcc-8.5.0/intel-oneapi-compilers-2023.2.1-iwg23xx5a2h5fwje4542ggaspe2iartp
SLURM_CPUS_ON_NODE=112
CXX=/leonardo/prod/spack/5.2/install/0.21/linux-rhel8-icelake/gcc-8.5.0/intel-oneapi-compilers-2023.2.1-iwg23xx5a2h5fwje4542ggaspe2iartp/compiler/2023.2.1/linux/bin/icpx
SLURM_JOB_NUM_NODES=8
OMP_PLACES=cores
SHELL=/bin/bash
TERM=xterm-256color
PKGCONF_HOME=/leonardo/prod/spack/05/install/0.21/linux-rhel8-icelake/gcc-8.5.0/pkgconf-1.9.5-gr2lx34cuparz7tqcckt73neufgol7tz
J4M_LIB_PATH=/leonardo/home/userexternal/fpedron0/Siesta/elpa-gpu/lib/
BZIP2_INCLUDE=/leonardo/prod/spack/05/install/0.21/linux-rhel8-icelake/oneapi-2023.2.0/bzip2-1.0.8-775effctvwp7xnhmzloke2gsz3jkulv2/include
__MODULES_SHARE_LD_LIBRARY_PATH=/leonardo/prod/spack/05/install/0.21/linux-rhel8-icelake/oneapi-2023.2.0/hdf5-1.14.3-5bitseioxglrlmf3t7h7zvfljl6pbpfo/lib:2
SLURM_JOB_UID=126159
__MODULES_LMCONFLICT=intel-oneapi-compilers/2023.2.1&intel-oneapi-compilers:intel-oneapi-mkl/2023.2.0&intel-oneapi-mkl:intel-oneapi-mpi/2021.10.0&intel-oneapi-mpi:bzip2/1.0.8--oneapi--2023.2.0-775effc&bzip2:lz4/1.9.4--oneapi--2023.2.0-whwwyrc&lz4:snappy/1.1.10--oneapi--2023.2.0-ta4wo5m&snappy:zlib-ng/2.1.4--oneapi--2023.2.0&zlib-ng:zstd/1.5.5--oneapi--2023.2.0-7fv2v7i&zstd:c-blosc/1.21.5--oneapi--2023.2.0-e7safqx&c-blosc:pkgconf/1.9.5-gr2lx34&pkgconf:hdf5/1.14.3--oneapi--2023.2.0&hdf5:libszip/2.1.1--oneapi--2023.2.0&libszip:netcdf-c/4.9.2--oneapi--2023.2.0&netcdf-c:netcdf-fortran/4.6.1--oneapi--2023.2.0&netcdf-fortran
BZIP2_INC=/leonardo/prod/spack/05/install/0.21/linux-rhel8-icelake/oneapi-2023.2.0/bzip2-1.0.8-775effctvwp7xnhmzloke2gsz3jkulv2/include
SLURM_JOB_PARTITION=dcgp_usr_prod
ZLIB_NG_LIB=/leonardo/prod/spack/05/install/0.21/linux-rhel8-icelake/oneapi-2023.2.0/zlib-ng-2.1.4-qabplr6fw6rgyal5bw5fkfzrr4nhdwoq/lib
SLURM_SCRIPT_CONTEXT=prolog_task
FAST=/leonardo_scratch/fast/Max3_devel_2
SELINUX_USE_CURRENT_RANGE=
PKGCONF_INCLUDE=/leonardo/prod/spack/05/install/0.21/linux-rhel8-icelake/gcc-8.5.0/pkgconf-1.9.5-gr2lx34cuparz7tqcckt73neufgol7tz/include
BA_MPM_PROFILE=base
SLURM_JOB_USER=fpedron0
SLURM_NPROCS=896
SHLVL=4
SLURM_SUBMIT_HOST=login01.leonardo.local
PKGCONF_LIB=/leonardo/prod/spack/05/install/0.21/linux-rhel8-icelake/gcc-8.5.0/pkgconf-1.9.5-gr2lx34cuparz7tqcckt73neufgol7tz/lib
MPIF77=mpiifort
SLURM_JOB_ACCOUNT=max3_devel2
ACLOCAL_PATH=/leonardo/prod/spack/05/install/0.21/linux-rhel8-icelake/gcc-8.5.0/pkgconf-1.9.5-gr2lx34cuparz7tqcckt73neufgol7tz/share/aclocal
NETCDF_C_INCLUDE=/leonardo/prod/spack/05/install/0.21/linux-rhel8-icelake/oneapi-2023.2.0/netcdf-c-4.9.2-tp5gawlgibsgws3lwf2rry2oqbguj7wc/include
MANPATH=/leonardo/prod/spack/05/install/0.21/linux-rhel8-icelake/oneapi-2023.2.0/netcdf-fortran-4.6.1-uc5ktlisaqpajywr73jxtpdksb4pnkvb/share/man:/leonardo/prod/spack/05/install/0.21/linux-rhel8-icelake/oneapi-2023.2.0/netcdf-c-4.9.2-tp5gawlgibsgws3lwf2rry2oqbguj7wc/share/man:/leonardo/prod/spack/05/install/0.21/linux-rhel8-icelake/gcc-8.5.0/pkgconf-1.9.5-gr2lx34cuparz7tqcckt73neufgol7tz/share/man:/leonardo/prod/spack/05/install/0.21/linux-rhel8-icelake/oneapi-2023.2.0/zstd-1.5.5-7fv2v7i5t5c6pcwn6a6y5rdvsidclp2n/share/man:/leonardo/prod/spack/05/install/0.21/linux-rhel8-icelake/oneapi-2023.2.0/zlib-ng-2.1.4-qabplr6fw6rgyal5bw5fkfzrr4nhdwoq/share/man:/leonardo/prod/spack/05/install/0.21/linux-rhel8-icelake/oneapi-2023.2.0/lz4-1.9.4-whwwyrclnjqvnf5n2lxmbhkpwfycnwq6/share/man:/leonardo/prod/spack/05/install/0.21/linux-rhel8-icelake/oneapi-2023.2.0/bzip2-1.0.8-775effctvwp7xnhmzloke2gsz3jkulv2/man:/leonardo/prod/spack/05/install/0.21/linux-rhel8-icelake/gcc-8.5.0/intel-oneapi-mpi-2021.10.0-6ff7efudnkj4xa7o4j67mxatygwzfwqc/mpi/2021.10.0/man:/leonardo/prod/spack/5.2/install/0.21/linux-rhel8-icelake/gcc-8.5.0/intel-oneapi-compilers-2023.2.1-iwg23xx5a2h5fwje4542ggaspe2iartp/compiler/2023.2.1/documentation/en/man/common:
LIBSZIP_LIB=/leonardo/prod/spack/05/install/0.21/linux-rhel8-icelake/oneapi-2023.2.0/libszip-2.1.1-jzcn64q2iq3hni2frgtac6xwm5far4mc/lib
C_BLOSC_HOME=/leonardo/prod/spack/05/install/0.21/linux-rhel8-icelake/oneapi-2023.2.0/c-blosc-1.21.5-e7safqxk3n6c3no5pnfxk7t3dzddpigv
ZSTD_HOME=/leonardo/prod/spack/05/install/0.21/linux-rhel8-icelake/oneapi-2023.2.0/zstd-1.5.5-7fv2v7i5t5c6pcwn6a6y5rdvsidclp2n
MODULEPATH=/leonardo/prod/spack/03/install/0.19/linux-rhel8-icelake/gcc-8.5.0/environment-modules-5.2.0-rz47odw4phlhzhhbz7b65nv5s5othgmi/modulefiles:/leonardo/prod/opt/modulefiles/profiles:/leonardo/prod/opt/modulefiles/base/archive:/leonardo/prod/opt/modulefiles/base/dependencies:/leonardo/prod/opt/modulefiles/base/data:/leonardo/prod/opt/modulefiles/base/environment:/leonardo/prod/opt/modulefiles/base/libraries:/leonardo/prod/opt/modulefiles/base/tools:/leonardo/prod/opt/modulefiles/base/compilers:/leonardo/prod/opt/modulefiles/base/applications
SLURM_GTIDS=0
LZ4_LIB=/leonardo/prod/spack/05/install/0.21/linux-rhel8-icelake/oneapi-2023.2.0/lz4-1.9.4-whwwyrclnjqvnf5n2lxmbhkpwfycnwq6/lib
LOGNAME=fpedron0
DBUS_SESSION_BUS_ADDRESS=unix:path=/run/user/126159/bus
XDG_RUNTIME_DIR=/run/user/126159
MKLROOT=/leonardo/prod/spack/05/install/0.21/linux-rhel8-icelake/gcc-8.5.0/intel-oneapi-mkl-2023.2.0-4sr2vqxowjw5hjteersaff5uzql66ybt/mkl/2023.2.0
CPLUS_INCLUDE_PATH=/leonardo/prod/spack/05/install/0.21/linux-rhel8-icelake/oneapi-2023.2.0/netcdf-fortran-4.6.1-uc5ktlisaqpajywr73jxtpdksb4pnkvb/include:/leonardo/prod/spack/05/install/0.21/linux-rhel8-icelake/oneapi-2023.2.0/netcdf-c-4.9.2-tp5gawlgibsgws3lwf2rry2oqbguj7wc/include:/leonardo/prod/spack/05/install/0.21/linux-rhel8-icelake/oneapi-2023.2.0/libszip-2.1.1-jzcn64q2iq3hni2frgtac6xwm5far4mc/include:/leonardo/prod/spack/05/install/0.21/linux-rhel8-icelake/oneapi-2023.2.0/hdf5-1.14.3-5bitseioxglrlmf3t7h7zvfljl6pbpfo/include:/leonardo/prod/spack/05/install/0.21/linux-rhel8-icelake/gcc-8.5.0/pkgconf-1.9.5-gr2lx34cuparz7tqcckt73neufgol7tz/include:/leonardo/prod/spack/05/install/0.21/linux-rhel8-icelake/oneapi-2023.2.0/c-blosc-1.21.5-e7safqxk3n6c3no5pnfxk7t3dzddpigv/include:/leonardo/prod/spack/05/install/0.21/linux-rhel8-icelake/oneapi-2023.2.0/zstd-1.5.5-7fv2v7i5t5c6pcwn6a6y5rdvsidclp2n/include:/leonardo/prod/spack/05/install/0.21/linux-rhel8-icelake/oneapi-2023.2.0/zlib-ng-2.1.4-qabplr6fw6rgyal5bw5fkfzrr4nhdwoq/include:/leonardo/prod/spack/05/install/0.21/linux-rhel8-icelake/oneapi-2023.2.0/snappy-1.1.10-ta4wo5mgu3pbdxpt56sxrzvwgg3wkk5w/include:/leonardo/prod/spack/05/install/0.21/linux-rhel8-icelake/oneapi-2023.2.0/lz4-1.9.4-whwwyrclnjqvnf5n2lxmbhkpwfycnwq6/include:/leonardo/prod/spack/05/install/0.21/linux-rhel8-icelake/oneapi-2023.2.0/bzip2-1.0.8-775effctvwp7xnhmzloke2gsz3jkulv2/include:/leonardo/prod/spack/05/install/0.21/linux-rhel8-icelake/gcc-8.5.0/intel-oneapi-mpi-2021.10.0-6ff7efudnkj4xa7o4j67mxatygwzfwqc/include:/leonardo/prod/spack/05/install/0.21/linux-rhel8-icelake/gcc-8.5.0/intel-oneapi-mkl-2023.2.0-4sr2vqxowjw5hjteersaff5uzql66ybt/include
SNAPPY_HOME=/leonardo/prod/spack/05/install/0.21/linux-rhel8-icelake/oneapi-2023.2.0/snappy-1.1.10-ta4wo5mgu3pbdxpt56sxrzvwgg3wkk5w
PATH=/leonardo/prod/spack/05/install/0.21/linux-rhel8-icelake/oneapi-2023.2.0/netcdf-fortran-4.6.1-uc5ktlisaqpajywr73jxtpdksb4pnkvb/bin:/leonardo/prod/spack/05/install/0.21/linux-rhel8-icelake/oneapi-2023.2.0/netcdf-c-4.9.2-tp5gawlgibsgws3lwf2rry2oqbguj7wc/bin:/leonardo/prod/spack/05/install/0.21/linux-rhel8-icelake/oneapi-2023.2.0/hdf5-1.14.3-5bitseioxglrlmf3t7h7zvfljl6pbpfo/bin:/leonardo/prod/spack/05/install/0.21/linux-rhel8-icelake/gcc-8.5.0/pkgconf-1.9.5-gr2lx34cuparz7tqcckt73neufgol7tz/bin:/leonardo/prod/spack/05/install/0.21/linux-rhel8-icelake/oneapi-2023.2.0/zstd-1.5.5-7fv2v7i5t5c6pcwn6a6y5rdvsidclp2n/bin:/leonardo/prod/spack/05/install/0.21/linux-rhel8-icelake/oneapi-2023.2.0/lz4-1.9.4-whwwyrclnjqvnf5n2lxmbhkpwfycnwq6/bin:/leonardo/prod/spack/05/install/0.21/linux-rhel8-icelake/oneapi-2023.2.0/bzip2-1.0.8-775effctvwp7xnhmzloke2gsz3jkulv2/bin:/leonardo/prod/spack/05/install/0.21/linux-rhel8-icelake/gcc-8.5.0/intel-oneapi-mpi-2021.10.0-6ff7efudnkj4xa7o4j67mxatygwzfwqc/mpi/2021.10.0//libfabric/bin:/leonardo/prod/spack/05/install/0.21/linux-rhel8-icelake/gcc-8.5.0/intel-oneapi-mpi-2021.10.0-6ff7efudnkj4xa7o4j67mxatygwzfwqc/mpi/2021.10.0//bin:/leonardo/prod/spack/05/install/0.21/linux-rhel8-icelake/gcc-8.5.0/intel-oneapi-mpi-2021.10.0-6ff7efudnkj4xa7o4j67mxatygwzfwqc/bin:/leonardo/prod/spack/05/install/0.21/linux-rhel8-icelake/gcc-8.5.0/intel-oneapi-mkl-2023.2.0-4sr2vqxowjw5hjteersaff5uzql66ybt/mkl/2023.2.0/bin/intel64:/leonardo/prod/spack/05/install/0.21/linux-rhel8-icelake/gcc-8.5.0/binutils-2.41-gzwp3ai6qpc44qi4ajukobnetdxqd6za/bin:/leonardo/prod/spack/5.2/install/0.21/linux-rhel8-icelake/gcc-8.5.0/intel-oneapi-compilers-2023.2.1-iwg23xx5a2h5fwje4542ggaspe2iartp/compiler/2023.2.1/linux/lib/oclfpga/bin:/leonardo/prod/spack/5.2/install/0.21/linux-rhel8-icelake/gcc-8.5.0/intel-oneapi-compilers-2023.2.1-iwg23xx5a2h5fwje4542ggaspe2iartp/compiler/2023.2.1/linux/bin/intel64:/leonardo/prod/spack/5.2/install/0.21/linux-rhel8-icelake/gcc-8.5.0/intel-oneapi-compilers-2023.2.1-iwg23xx5a2h5fwje4542ggaspe2iartp/compiler/2023.2.1/linux/bin:/leonardo/home/userexternal/fpedron0/.local/bin:/leonardo/home/userexternal/fpedron0/bin:/cineca/bin:/leonardo/prod/spack/03/install/0.19/linux-rhel8-icelake/gcc-8.5.0/environment-modules-5.2.0-rz47odw4phlhzhhbz7b65nv5s5othgmi/bin:/usr/local/bin:/usr/bin:/usr/local/sbin:/usr/sbin:/leonardo/home/userexternal/fpedron0/Siesta/siesta-intel/bin/
SLURM_JOB_ID=7777023
_LMFILES_=/leonardo/prod/opt/modulefiles/profiles/profile/base:/leonardo/prod/opt/modulefiles/base/compilers/intel-oneapi-compilers/2023.2.1:/leonardo/prod/opt/modulefiles/base/libraries/intel-oneapi-mkl/2023.2.0:/leonardo/prod/opt/modulefiles/base/libraries/intel-oneapi-mpi/2021.10.0:/leonardo/prod/opt/modulefiles/base/dependencies/bzip2/1.0.8--oneapi--2023.2.0-775effc:/leonardo/prod/opt/modulefiles/base/dependencies/lz4/1.9.4--oneapi--2023.2.0-whwwyrc:/leonardo/prod/opt/modulefiles/base/dependencies/snappy/1.1.10--oneapi--2023.2.0-ta4wo5m:/leonardo/prod/opt/modulefiles/base/dependencies/zlib-ng/2.1.4--oneapi--2023.2.0:/leonardo/prod/opt/modulefiles/base/dependencies/zstd/1.5.5--oneapi--2023.2.0-7fv2v7i:/leonardo/prod/opt/modulefiles/base/dependencies/c-blosc/1.21.5--oneapi--2023.2.0-e7safqx:/leonardo/prod/opt/modulefiles/base/dependencies/pkgconf/1.9.5-gr2lx34:/leonardo/prod/opt/modulefiles/base/libraries/hdf5/1.14.3--oneapi--2023.2.0:/leonardo/prod/opt/modulefiles/base/libraries/libszip/2.1.1--oneapi--2023.2.0:/leonardo/prod/opt/modulefiles/base/libraries/netcdf-c/4.9.2--oneapi--2023.2.0:/leonardo/prod/opt/modulefiles/base/libraries/netcdf-fortran/4.6.1--oneapi--2023.2.0
LZ4_INCLUDE=/leonardo/prod/spack/05/install/0.21/linux-rhel8-icelake/oneapi-2023.2.0/lz4-1.9.4-whwwyrclnjqvnf5n2lxmbhkpwfycnwq6/include
MODULESHOME=/leonardo/prod/spack/03/install/0.19/linux-rhel8-icelake/gcc-8.5.0/environment-modules-5.2.0-rz47odw4phlhzhhbz7b65nv5s5othgmi
PKG_CONFIG_PATH=/leonardo/prod/spack/05/install/0.21/linux-rhel8-icelake/oneapi-2023.2.0/netcdf-fortran-4.6.1-uc5ktlisaqpajywr73jxtpdksb4pnkvb/lib/pkgconfig:/leonardo/prod/spack/05/install/0.21/linux-rhel8-icelake/oneapi-2023.2.0/netcdf-c-4.9.2-tp5gawlgibsgws3lwf2rry2oqbguj7wc/lib/pkgconfig:/leonardo/prod/spack/05/install/0.21/linux-rhel8-icelake/oneapi-2023.2.0/hdf5-1.14.3-5bitseioxglrlmf3t7h7zvfljl6pbpfo/lib/pkgconfig:/leonardo/prod/spack/05/install/0.21/linux-rhel8-icelake/gcc-8.5.0/pkgconf-1.9.5-gr2lx34cuparz7tqcckt73neufgol7tz/lib/pkgconfig:/leonardo/prod/spack/05/install/0.21/linux-rhel8-icelake/oneapi-2023.2.0/c-blosc-1.21.5-e7safqxk3n6c3no5pnfxk7t3dzddpigv/lib64/pkgconfig:/leonardo/prod/spack/05/install/0.21/linux-rhel8-icelake/oneapi-2023.2.0/zstd-1.5.5-7fv2v7i5t5c6pcwn6a6y5rdvsidclp2n/lib/pkgconfig:/leonardo/prod/spack/05/install/0.21/linux-rhel8-icelake/oneapi-2023.2.0/zlib-ng-2.1.4-qabplr6fw6rgyal5bw5fkfzrr4nhdwoq/lib/pkgconfig:/leonardo/prod/spack/05/install/0.21/linux-rhel8-icelake/oneapi-2023.2.0/snappy-1.1.10-ta4wo5mgu3pbdxpt56sxrzvwgg3wkk5w/lib/pkgconfig:/leonardo/prod/spack/05/install/0.21/linux-rhel8-icelake/oneapi-2023.2.0/lz4-1.9.4-whwwyrclnjqvnf5n2lxmbhkpwfycnwq6/lib/pkgconfig:/leonardo/prod/spack/05/install/0.21/linux-rhel8-icelake/oneapi-2023.2.0/bzip2-1.0.8-775effctvwp7xnhmzloke2gsz3jkulv2/lib/pkgconfig:/leonardo/prod/spack/05/install/0.21/linux-rhel8-icelake/gcc-8.5.0/intel-oneapi-mpi-2021.10.0-6ff7efudnkj4xa7o4j67mxatygwzfwqc/mpi/2021.10.0/lib/pkgconfig:/leonardo/prod/spack/05/install/0.21/linux-rhel8-icelake/gcc-8.5.0/intel-oneapi-mpi-2021.10.0-6ff7efudnkj4xa7o4j67mxatygwzfwqc/lib/pkgconfig:/leonardo/prod/spack/05/install/0.21/linux-rhel8-icelake/gcc-8.5.0/intel-oneapi-mkl-2023.2.0-4sr2vqxowjw5hjteersaff5uzql66ybt/mkl/2023.2.0/lib/pkgconfig:/leonardo/prod/spack/05/install/0.21/linux-rhel8-icelake/gcc-8.5.0/intel-oneapi-mkl-2023.2.0-4sr2vqxowjw5hjteersaff5uzql66ybt/lib/pkgconfig:/leonardo/prod/spack/5.2/install/0.21/linux-rhel8-icelake/gcc-8.5.0/intel-oneapi-compilers-2023.2.1-iwg23xx5a2h5fwje4542ggaspe2iartp/compiler/2023.2.1/lib/pkgconfig
I_MPI_ROOT=/leonardo/prod/spack/05/install/0.21/linux-rhel8-icelake/gcc-8.5.0/intel-oneapi-mpi-2021.10.0-6ff7efudnkj4xa7o4j67mxatygwzfwqc/mpi/2021.10.0
HISTSIZE=1000
ZLIB_NG_INC=/leonardo/prod/spack/05/install/0.21/linux-rhel8-icelake/oneapi-2023.2.0/zlib-ng-2.1.4-qabplr6fw6rgyal5bw5fkfzrr4nhdwoq/include
J4M_HOME=/leonardo/home/userexternal/fpedron0/JUBE4MaX/max-inputs/
C_BLOSC_LIB=/leonardo/prod/spack/05/install/0.21/linux-rhel8-icelake/oneapi-2023.2.0/c-blosc-1.21.5-e7safqxk3n6c3no5pnfxk7t3dzddpigv/lib64
SLURM_LOCALID=0
OMP_NUM_THREADS=1
LESSOPEN=||/usr/bin/lesspipe.sh %s
BASH_FUNC_which%%=() {  ( alias;
 eval ${which_declare} ) | /usr/bin/which --tty-only --read-alias --read-functions --show-tilde --show-dot $@
}
BASH_FUNC_module%%=() {  local _mlredir=1;
 if [ -n "${MODULES_REDIRECT_OUTPUT+x}" ]; then
 if [ "$MODULES_REDIRECT_OUTPUT" = '0' ]; then
 _mlredir=0;
 else
 if [ "$MODULES_REDIRECT_OUTPUT" = '1' ]; then
 _mlredir=1;
 fi;
 fi;
 fi;
 case " $@ " in 
 *' --no-redirect '*)
 _mlredir=0
 ;;
 *' --redirect '*)
 _mlredir=1
 ;;
 esac;
 if [ $_mlredir -eq 0 ]; then
 _module_raw "$@";
 else
 _module_raw "$@" 2>&1;
 fi
}
BASH_FUNC__module_raw%%=() {  eval "$(/leonardo/prod/spack/03/install/0.19/linux-rhel8-icelake/gcc-8.5.0/tcl-8.6.12-rdtv2pt4tnckxsgwtowik3sbexmxolve/bin/tclsh '/leonardo/prod/spack/03/install/0.19/linux-rhel8-icelake/gcc-8.5.0/environment-modules-5.2.0-rz47odw4phlhzhhbz7b65nv5s5othgmi/libexec/modulecmd.tcl' bash "$@")";
 _mlstatus=$?;
 return $_mlstatus
}
BASH_FUNC_ml%%=() {  module ml "$@"
}
_=/usr/bin/env

Current SIESTA linked libraries
-------------------------------
	linux-vdso.so.1 (0x00007ffc817d1000)
	libnetcdff.so.7 => /leonardo/prod/spack/05/install/0.21/linux-rhel8-icelake/oneapi-2023.2.0/netcdf-fortran-4.6.1-uc5ktlisaqpajywr73jxtpdksb4pnkvb/lib/libnetcdff.so.7 (0x000014fb9e3ed000)
	libnetcdf.so.19 => /leonardo/prod/spack/05/install/0.21/linux-rhel8-icelake/oneapi-2023.2.0/netcdf-c-4.9.2-tp5gawlgibsgws3lwf2rry2oqbguj7wc/lib/libnetcdf.so.19 (0x000014fb9e66a000)
	libm.so.6 => /lib64/libm.so.6 (0x000014fb9e06b000)
	libreadline.so.7 => /lib64/libreadline.so.7 (0x000014fb9de1c000)
	libmpifort.so.12 => /leonardo/prod/spack/05/install/0.21/linux-rhel8-icelake/gcc-8.5.0/intel-oneapi-mpi-2021.10.0-6ff7efudnkj4xa7o4j67mxatygwzfwqc/mpi/2021.10.0//lib/libmpifort.so.12 (0x000014fb9da6a000)
	libmpi.so.12 => /leonardo/prod/spack/05/install/0.21/linux-rhel8-icelake/gcc-8.5.0/intel-oneapi-mpi-2021.10.0-6ff7efudnkj4xa7o4j67mxatygwzfwqc/mpi/2021.10.0//lib/release/libmpi.so.12 (0x000014fb9bf99000)
	libdl.so.2 => /lib64/libdl.so.2 (0x000014fb9bd95000)
	librt.so.1 => /lib64/librt.so.1 (0x000014fb9bb8d000)
	libpthread.so.0 => /lib64/libpthread.so.0 (0x000014fb9b96d000)
	libmkl_scalapack_lp64.so.2 => /leonardo/prod/spack/05/install/0.21/linux-rhel8-icelake/gcc-8.5.0/intel-oneapi-mkl-2023.2.0-4sr2vqxowjw5hjteersaff5uzql66ybt/mkl/2023.2.0/lib/intel64/libmkl_scalapack_lp64.so.2 (0x000014fb9b242000)
	libmkl_blacs_intelmpi_lp64.so.2 => /leonardo/prod/spack/05/install/0.21/linux-rhel8-icelake/gcc-8.5.0/intel-oneapi-mkl-2023.2.0-4sr2vqxowjw5hjteersaff5uzql66ybt/mkl/2023.2.0/lib/intel64/libmkl_blacs_intelmpi_lp64.so.2 (0x000014fb9b1fe000)
	libmkl_intel_lp64.so.2 => /leonardo/prod/spack/05/install/0.21/linux-rhel8-icelake/gcc-8.5.0/intel-oneapi-mkl-2023.2.0-4sr2vqxowjw5hjteersaff5uzql66ybt/mkl/2023.2.0/lib/intel64/libmkl_intel_lp64.so.2 (0x000014fb99d02000)
	libmkl_sequential.so.2 => /leonardo/prod/spack/05/install/0.21/linux-rhel8-icelake/gcc-8.5.0/intel-oneapi-mkl-2023.2.0-4sr2vqxowjw5hjteersaff5uzql66ybt/mkl/2023.2.0/lib/intel64/libmkl_sequential.so.2 (0x000014fb98380000)
	libmkl_core.so.2 => /leonardo/prod/spack/05/install/0.21/linux-rhel8-icelake/gcc-8.5.0/intel-oneapi-mkl-2023.2.0-4sr2vqxowjw5hjteersaff5uzql66ybt/mkl/2023.2.0/lib/intel64/libmkl_core.so.2 (0x000014fb94008000)
	libiomp5.so => /leonardo/prod/spack/5.2/install/0.21/linux-rhel8-icelake/gcc-8.5.0/intel-oneapi-compilers-2023.2.1-iwg23xx5a2h5fwje4542ggaspe2iartp/compiler/2023.2.1/linux/compiler/lib/intel64_lin/libiomp5.so (0x000014fb93bbb000)
	libirng.so => /leonardo/prod/spack/5.2/install/0.21/linux-rhel8-icelake/gcc-8.5.0/intel-oneapi-compilers-2023.2.1-iwg23xx5a2h5fwje4542ggaspe2iartp/compiler/2023.2.1/linux/compiler/lib/intel64_lin/libirng.so (0x000014fb938a2000)
	libstdc++.so.6 => /lib64/libstdc++.so.6 (0x000014fb9350d000)
	libcilkrts.so.5 => /leonardo/prod/spack/5.2/install/0.21/linux-rhel8-icelake/gcc-8.5.0/intel-oneapi-compilers-2023.2.1-iwg23xx5a2h5fwje4542ggaspe2iartp/compiler/2023.2.1/linux/compiler/lib/intel64_lin/libcilkrts.so.5 (0x000014fb932cc000)
	libc.so.6 => /lib64/libc.so.6 (0x000014fb92f06000)
	libgcc_s.so.1 => /lib64/libgcc_s.so.1 (0x000014fb92cee000)
	libimf.so => /leonardo/prod/spack/05/install/0.21/linux-rhel8-icelake/gcc-8.5.0/intel-oneapi-compilers-2023.2.1-hlrk44gmufr6q2jyetmx7w2plesdenmx/compiler/2023.2.1/linux/compiler/lib/intel64_lin/libimf.so (0x000014fb928f5000)
	libifport.so.5 => /leonardo/prod/spack/05/install/0.21/linux-rhel8-icelake/gcc-8.5.0/intel-oneapi-compilers-2023.2.1-hlrk44gmufr6q2jyetmx7w2plesdenmx/compiler/2023.2.1/linux/compiler/lib/intel64_lin/libifport.so.5 (0x000014fb928c5000)
	libifcoremt.so.5 => /leonardo/prod/spack/05/install/0.21/linux-rhel8-icelake/gcc-8.5.0/intel-oneapi-compilers-2023.2.1-hlrk44gmufr6q2jyetmx7w2plesdenmx/compiler/2023.2.1/linux/compiler/lib/intel64_lin/libifcoremt.so.5 (0x000014fb92739000)
	libsvml.so => /leonardo/prod/spack/05/install/0.21/linux-rhel8-icelake/gcc-8.5.0/intel-oneapi-compilers-2023.2.1-hlrk44gmufr6q2jyetmx7w2plesdenmx/compiler/2023.2.1/linux/compiler/lib/intel64_lin/libsvml.so (0x000014fb9105f000)
	libintlc.so.5 => /leonardo/prod/spack/05/install/0.21/linux-rhel8-icelake/gcc-8.5.0/intel-oneapi-compilers-2023.2.1-hlrk44gmufr6q2jyetmx7w2plesdenmx/compiler/2023.2.1/linux/compiler/lib/intel64_lin/libintlc.so.5 (0x000014fb90fe2000)
	libhdf5_hl.so.310 => /leonardo/prod/spack/05/install/0.21/linux-rhel8-icelake/oneapi-2023.2.0/hdf5-1.14.3-5bitseioxglrlmf3t7h7zvfljl6pbpfo/lib/libhdf5_hl.so.310 (0x000014fb90fbb000)
	libhdf5.so.310 => /leonardo/prod/spack/05/install/0.21/linux-rhel8-icelake/oneapi-2023.2.0/hdf5-1.14.3-5bitseioxglrlmf3t7h7zvfljl6pbpfo/lib/libhdf5.so.310 (0x000014fb90b5f000)
	libz.so.1 => /leonardo/prod/spack/05/install/0.21/linux-rhel8-icelake/oneapi-2023.2.0/zlib-ng-2.1.4-qabplr6fw6rgyal5bw5fkfzrr4nhdwoq/lib/libz.so.1 (0x000014fb90b33000)
	libsz.so.2 => /leonardo/prod/spack/05/install/0.21/linux-rhel8-icelake/oneapi-2023.2.0/libszip-2.1.1-jzcn64q2iq3hni2frgtac6xwm5far4mc/lib/libsz.so.2 (0x000014fb90b17000)
	libbz2.so.1.0 => /leonardo/prod/spack/05/install/0.21/linux-rhel8-icelake/oneapi-2023.2.0/bzip2-1.0.8-775effctvwp7xnhmzloke2gsz3jkulv2/lib/libbz2.so.1.0 (0x000014fb90af9000)
	libzstd.so.1 => /leonardo/prod/spack/05/install/0.21/linux-rhel8-icelake/oneapi-2023.2.0/zstd-1.5.5-7fv2v7i5t5c6pcwn6a6y5rdvsidclp2n/lib/libzstd.so.1 (0x000014fb90a0b000)
	libblosc.so.1 => /leonardo/prod/spack/05/install/0.21/linux-rhel8-icelake/oneapi-2023.2.0/c-blosc-1.21.5-e7safqxk3n6c3no5pnfxk7t3dzddpigv/lib64/libblosc.so.1 (0x000014fb909fd000)
	/lib64/ld-linux-x86-64.so.2 (0x000014fb9e626000)
	libtinfo.so.6 => /lib64/libtinfo.so.6 (0x000014fb907d0000)
	liblz4.so.1 => /leonardo/prod/spack/05/install/0.21/linux-rhel8-icelake/oneapi-2023.2.0/lz4-1.9.4-whwwyrclnjqvnf5n2lxmbhkpwfycnwq6/lib/liblz4.so.1 (0x000014fb9079a000)

OMP: Info #277: omp_get_nested routine deprecated, please use omp_get_max_active_levels instead.
OMP: Info #277: omp_set_nested routine deprecated, please use omp_set_max_active_levels instead.
SCF_NOT_CONV: SCF did not converge  in maximum number of steps.
Geom step, scf iteration, dDmax, dHmax:    0     5   1234.657409     0.006850
Job completed
