Nodes;Tasks;electrons;cbands;diaghg;Xeterg;vloc_psi;h_psi;sum_band;walltime;vloc_calls
2;8;142.36;72.94;3.91;63.13;44.81;51.37;16.4;174.14;84
3;12;114.81;62.51;4.07;55.45;39.57;45.4;14.93;138.9;86
4;16;98.59;55.6;3.85;49.92;36.51;41.3;14.12;121.44;85
6;24;79.63;46.73;3.91;42.89;30.31;34.76;12.69;101.27000000000001;86
