Unloading profile/base
  ERROR: Module evaluation aborted
[0] MPI startup(): Intel(R) MPI Library, Version 2021.10  Build 20230619 (id: c2e19c2f3e)
[0] MPI startup(): Copyright (C) 2003-2023 Intel Corporation.  All rights reserved.
[0] MPI startup(): library kind: release
[0] MPI startup(): libfabric version: 1.18.0-impi
[0] MPI startup(): libfabric provider: mlx
[0] MPI startup(): File "/leonardo/prod/spack/05/install/0.21/linux-rhel8-icelake/gcc-8.5.0/intel-oneapi-mpi-2021.10.0-6ff7efudnkj4xa7o4j67mxatygwzfwqc/mpi/2021.10.0/etc/tuning_spr_shm-ofi_mlx_100.dat" not found
[0] MPI startup(): Load tuning file: "/leonardo/prod/spack/05/install/0.21/linux-rhel8-icelake/gcc-8.5.0/intel-oneapi-mpi-2021.10.0-6ff7efudnkj4xa7o4j67mxatygwzfwqc/mpi/2021.10.0/etc/tuning_spr_shm-ofi.dat"
[0] MPI startup(): Rank    Pid      Node name                Pin cpu
[0] MPI startup(): 0       625146   lrdn4418.leonardo.local  {0,1,2,3,4,5,6}
[0] MPI startup(): 1       625147   lrdn4418.leonardo.local  {7,8,9,10,11,12,13}
[0] MPI startup(): 2       625148   lrdn4418.leonardo.local  {14,15,16,17,18,19,20}
[0] MPI startup(): 3       625149   lrdn4418.leonardo.local  {21,22,23,24,25,26,27}
[0] MPI startup(): 4       625150   lrdn4418.leonardo.local  {28,29,30,31,32,33,34}
[0] MPI startup(): 5       625151   lrdn4418.leonardo.local  {35,36,37,38,39,40,41}
[0] MPI startup(): 6       625152   lrdn4418.leonardo.local  {42,43,44,45,46,47,48}
[0] MPI startup(): 7       625153   lrdn4418.leonardo.local  {49,50,51,52,53,54,55}
[0] MPI startup(): 8       625154   lrdn4418.leonardo.local  {56,57,58,59,60,61,62}
[0] MPI startup(): 9       625155   lrdn4418.leonardo.local  {63,64,65,66,67,68,69}
[0] MPI startup(): 10      625156   lrdn4418.leonardo.local  {70,71,72,73,74,75,76}
[0] MPI startup(): 11      625157   lrdn4418.leonardo.local  {77,78,79,80,81,82,83}
[0] MPI startup(): 12      625158   lrdn4418.leonardo.local  {84,85,86,87,88,89,90}
[0] MPI startup(): 13      625159   lrdn4418.leonardo.local  {91,92,93,94,95,96,97}
[0] MPI startup(): 14      625160   lrdn4418.leonardo.local  {98,99,100,101,102,103,104}
[0] MPI startup(): 15      625161   lrdn4418.leonardo.local  {105,106,107,108,109,110,111}
[0] MPI startup(): 16      580642   lrdn4419.leonardo.local  {0,1,2,3,4,5,6}
[0] MPI startup(): 17      580643   lrdn4419.leonardo.local  {7,8,9,10,11,12,13}
[0] MPI startup(): 18      580644   lrdn4419.leonardo.local  {14,15,16,17,18,19,20}
[0] MPI startup(): 19      580645   lrdn4419.leonardo.local  {21,22,23,24,25,26,27}
[0] MPI startup(): 20      580646   lrdn4419.leonardo.local  {28,29,30,31,32,33,34}
[0] MPI startup(): 21      580647   lrdn4419.leonardo.local  {35,36,37,38,39,40,41}
[0] MPI startup(): 22      580648   lrdn4419.leonardo.local  {42,43,44,45,46,47,48}
[0] MPI startup(): 23      580649   lrdn4419.leonardo.local  {49,50,51,52,53,54,55}
[0] MPI startup(): 24      580650   lrdn4419.leonardo.local  {56,57,58,59,60,61,62}
[0] MPI startup(): 25      580651   lrdn4419.leonardo.local  {63,64,65,66,67,68,69}
[0] MPI startup(): 26      580652   lrdn4419.leonardo.local  {70,71,72,73,74,75,76}
[0] MPI startup(): 27      580653   lrdn4419.leonardo.local  {77,78,79,80,81,82,83}
[0] MPI startup(): 28      580654   lrdn4419.leonardo.local  {84,85,86,87,88,89,90}
[0] MPI startup(): 29      580655   lrdn4419.leonardo.local  {91,92,93,94,95,96,97}
[0] MPI startup(): 30      580656   lrdn4419.leonardo.local  {98,99,100,101,102,103,104}
[0] MPI startup(): 31      580657   lrdn4419.leonardo.local  {105,106,107,108,109,110,111}
[0] MPI startup(): 32      489582   lrdn4420.leonardo.local  {0,1,2,3,4,5,6}
[0] MPI startup(): 33      489583   lrdn4420.leonardo.local  {7,8,9,10,11,12,13}
[0] MPI startup(): 34      489584   lrdn4420.leonardo.local  {14,15,16,17,18,19,20}
[0] MPI startup(): 35      489585   lrdn4420.leonardo.local  {21,22,23,24,25,26,27}
[0] MPI startup(): 36      489586   lrdn4420.leonardo.local  {28,29,30,31,32,33,34}
[0] MPI startup(): 37      489587   lrdn4420.leonardo.local  {35,36,37,38,39,40,41}
[0] MPI startup(): 38      489588   lrdn4420.leonardo.local  {42,43,44,45,46,47,48}
[0] MPI startup(): 39      489589   lrdn4420.leonardo.local  {49,50,51,52,53,54,55}
[0] MPI startup(): 40      489590   lrdn4420.leonardo.local  {56,57,58,59,60,61,62}
[0] MPI startup(): 41      489591   lrdn4420.leonardo.local  {63,64,65,66,67,68,69}
[0] MPI startup(): 42      489592   lrdn4420.leonardo.local  {70,71,72,73,74,75,76}
[0] MPI startup(): 43      489593   lrdn4420.leonardo.local  {77,78,79,80,81,82,83}
[0] MPI startup(): 44      489594   lrdn4420.leonardo.local  {84,85,86,87,88,89,90}
[0] MPI startup(): 45      489595   lrdn4420.leonardo.local  {91,92,93,94,95,96,97}
[0] MPI startup(): 46      489596   lrdn4420.leonardo.local  {98,99,100,101,102,103,104}
[0] MPI startup(): 47      489597   lrdn4420.leonardo.local  {105,106,107,108,109,110,111}
[0] MPI startup(): 48      577375   lrdn4421.leonardo.local  {0,1,2,3,4,5,6}
[0] MPI startup(): 49      577376   lrdn4421.leonardo.local  {7,8,9,10,11,12,13}
[0] MPI startup(): 50      577377   lrdn4421.leonardo.local  {14,15,16,17,18,19,20}
[0] MPI startup(): 51      577378   lrdn4421.leonardo.local  {21,22,23,24,25,26,27}
[0] MPI startup(): 52      577379   lrdn4421.leonardo.local  {28,29,30,31,32,33,34}
[0] MPI startup(): 53      577380   lrdn4421.leonardo.local  {35,36,37,38,39,40,41}
[0] MPI startup(): 54      577381   lrdn4421.leonardo.local  {42,43,44,45,46,47,48}
[0] MPI startup(): 55      577382   lrdn4421.leonardo.local  {49,50,51,52,53,54,55}
[0] MPI startup(): 56      577383   lrdn4421.leonardo.local  {56,57,58,59,60,61,62}
[0] MPI startup(): 57      577384   lrdn4421.leonardo.local  {63,64,65,66,67,68,69}
[0] MPI startup(): 58      577385   lrdn4421.leonardo.local  {70,71,72,73,74,75,76}
[0] MPI startup(): 59      577386   lrdn4421.leonardo.local  {77,78,79,80,81,82,83}
[0] MPI startup(): 60      577387   lrdn4421.leonardo.local  {84,85,86,87,88,89,90}
[0] MPI startup(): 61      577388   lrdn4421.leonardo.local  {91,92,93,94,95,96,97}
[0] MPI startup(): 62      577389   lrdn4421.leonardo.local  {98,99,100,101,102,103,104}
[0] MPI startup(): 63      577390   lrdn4421.leonardo.local  {105,106,107,108,109,110,111}
[0] MPI startup(): 64      524626   lrdn4422.leonardo.local  {0,1,2,3,4,5,6}
[0] MPI startup(): 65      524627   lrdn4422.leonardo.local  {7,8,9,10,11,12,13}
[0] MPI startup(): 66      524628   lrdn4422.leonardo.local  {14,15,16,17,18,19,20}
[0] MPI startup(): 67      524629   lrdn4422.leonardo.local  {21,22,23,24,25,26,27}
[0] MPI startup(): 68      524630   lrdn4422.leonardo.local  {28,29,30,31,32,33,34}
[0] MPI startup(): 69      524631   lrdn4422.leonardo.local  {35,36,37,38,39,40,41}
[0] MPI startup(): 70      524632   lrdn4422.leonardo.local  {42,43,44,45,46,47,48}
[0] MPI startup(): 71      524633   lrdn4422.leonardo.local  {49,50,51,52,53,54,55}
[0] MPI startup(): 72      524634   lrdn4422.leonardo.local  {56,57,58,59,60,61,62}
[0] MPI startup(): 73      524635   lrdn4422.leonardo.local  {63,64,65,66,67,68,69}
[0] MPI startup(): 74      524636   lrdn4422.leonardo.local  {70,71,72,73,74,75,76}
[0] MPI startup(): 75      524637   lrdn4422.leonardo.local  {77,78,79,80,81,82,83}
[0] MPI startup(): 76      524638   lrdn4422.leonardo.local  {84,85,86,87,88,89,90}
[0] MPI startup(): 77      524639   lrdn4422.leonardo.local  {91,92,93,94,95,96,97}
[0] MPI startup(): 78      524640   lrdn4422.leonardo.local  {98,99,100,101,102,103,104}
[0] MPI startup(): 79      524641   lrdn4422.leonardo.local  {105,106,107,108,109,110,111}
[0] MPI startup(): 80      448124   lrdn4423.leonardo.local  {0,1,2,3,4,5,6}
[0] MPI startup(): 81      448125   lrdn4423.leonardo.local  {7,8,9,10,11,12,13}
[0] MPI startup(): 82      448126   lrdn4423.leonardo.local  {14,15,16,17,18,19,20}
[0] MPI startup(): 83      448127   lrdn4423.leonardo.local  {21,22,23,24,25,26,27}
[0] MPI startup(): 84      448128   lrdn4423.leonardo.local  {28,29,30,31,32,33,34}
[0] MPI startup(): 85      448129   lrdn4423.leonardo.local  {35,36,37,38,39,40,41}
[0] MPI startup(): 86      448130   lrdn4423.leonardo.local  {42,43,44,45,46,47,48}
[0] MPI startup(): 87      448131   lrdn4423.leonardo.local  {49,50,51,52,53,54,55}
[0] MPI startup(): 88      448132   lrdn4423.leonardo.local  {56,57,58,59,60,61,62}
[0] MPI startup(): 89      448133   lrdn4423.leonardo.local  {63,64,65,66,67,68,69}
[0] MPI startup(): 90      448134   lrdn4423.leonardo.local  {70,71,72,73,74,75,76}
[0] MPI startup(): 91      448135   lrdn4423.leonardo.local  {77,78,79,80,81,82,83}
[0] MPI startup(): 92      448136   lrdn4423.leonardo.local  {84,85,86,87,88,89,90}
[0] MPI startup(): 93      448137   lrdn4423.leonardo.local  {91,92,93,94,95,96,97}
[0] MPI startup(): 94      448138   lrdn4423.leonardo.local  {98,99,100,101,102,103,104}
[0] MPI startup(): 95      448139   lrdn4423.leonardo.local  {105,106,107,108,109,110,111}
[0] MPI startup(): I_MPI_ROOT=/leonardo/prod/spack/05/install/0.21/linux-rhel8-icelake/gcc-8.5.0/intel-oneapi-mpi-2021.10.0-6ff7efudnkj4xa7o4j67mxatygwzfwqc/mpi/2021.10.0
[0] MPI startup(): I_MPI_MPIRUN=mpirun
[0] MPI startup(): I_MPI_BIND_WIN_ALLOCATE=localalloc
[0] MPI startup(): I_MPI_HYDRA_TOPOLIB=hwloc
[0] MPI startup(): I_MPI_JOB_RESPECT_PROCESS_PLACEMENT=0
[0] MPI startup(): I_MPI_HYDRA_BOOTSTRAP=slurm
[0] MPI startup(): I_MPI_RETURN_WIN_MEM_NUMA=0
[0] MPI startup(): I_MPI_PIN_CELL=core
[0] MPI startup(): I_MPI_PIN_DOMAIN=7
[0] MPI startup(): I_MPI_PIN_ORDER=range
[0] MPI startup(): I_MPI_INTERNAL_MEM_POLICY=default
[0] MPI startup(): I_MPI_DEBUG=5
      Welcome to FLEUR        (www.flapw.de)   
      MaX-Release 7.0          (www.max-centre.eu)
 Running on           96  PE
           1  jobs are distributed on           96  unassigned PE
 Now copying inp_dump.xml
 
 ========== k-point set info ==========
 Selected k-point list: default
 k-point list type: unspecified
 Number of k points: 1
 
 --------------------------------------------------------
 Number of MPI-tasks:            96
 Number of PE/node  :            16
 Number of OMP-threads:           7
 k-points in parallel:            1
 pe's per k-point:               96
 # of k-point loops:              1
 --------------------------------------------------------
 Signal           11  detected on PE:          61
 This might be due to either:
  - A bug
  - Your job running out of memory
 Signal           11  detected on PE:          49
 This might be due to either:
  - A bug
  - Your job running out of memory
  - Your job got killed externally (e.g. no cpu-time left)
  - ....
 Please check and report if you believe you found a bug
 Signal           11  detected on PE:          33
 This might be due to either:
  - A bug
  - Your job running out of memory
  - Your job got killed externally (e.g. no cpu-time left)
  - ....
 Please check and report if you believe you found a bug
 Signal           11  detected on PE:          80
 This might be due to either:
  - A bug
  - Your job running out of memory
  - Your job got killed externally (e.g. no cpu-time left)
  - ....
 Please check and report if you believe you found a bug
 Signal           11  detected on PE:          66
 This might be due to either:
  - A bug
  - Your job running out of memory
  - Your job got killed externally (e.g. no cpu-time left)
  - ....
 Please check and report if you believe you found a bug
 Signal           11  detected on PE:          50
 This might be due to either:
  - A bug
  - Your job running out of memory
  - Your job got killed externally (e.g. no cpu-time left)
  - ....
 Please check and report if you believe you found a bug
 Signal           11  detected on PE:          34
 This might be due to either:
  - A bug
  - Your job running out of memory
  - Your job got killed externally (e.g. no cpu-time left)
  - ....
 Please check and report if you believe you found a bug
 Signal           11  detected on PE:          81
 This might be due to either:
  - A bug
  - Your job running out of memory
  - Your job got killed externally (e.g. no cpu-time left)
  - ....
 Please check and report if you believe you found a bug
 Signal           11  detected on PE:          67
 This might be due to either:
  - A bug
  - Your job running out of memory
  - Your job got killed externally (e.g. no cpu-time left)
  - ....
 Please check and report if you believe you found a bug
 Signal           11  detected on PE:          53
 This might be due to either:
  - A bug
  - Your job running out of memory
  - Your job got killed externally (e.g. no cpu-time left)
  - ....
 Please check and report if you believe you found a bug
 Signal           11  detected on PE:          36
 This might be due to either:
  - A bug
  - Your job running out of memory
  - Your job got killed externally (e.g. no cpu-time left)
  - ....
 Please check and report if you believe you found a bug
 Signal           11  detected on PE:          82
 This might be due to either:
  - A bug
  - Your job running out of memory
  - Your job got killed externally (e.g. no cpu-time left)
  - ....
 Please check and report if you believe you found a bug
 Signal           11  detected on PE:          70
 This might be due to either:
  - A bug
  - Your job running out of memory
  - Your job got killed externally (e.g. no cpu-time left)
  - ....
 Please check and report if you believe you found a bug
 Signal           11  detected on PE:          54
 This might be due to either:
  - A bug
  - Your job running out of memory
  - Your job got killed externally (e.g. no cpu-time left)
  - ....
 Please check and report if you believe you found a bug
 Signal           11  detected on PE:          38
 This might be due to either:
  - A bug
  - Your job running out of memory
  - Your job got killed externally (e.g. no cpu-time left)
  - ....
 Please check and report if you believe you found a bug
 Signal           11  detected on PE:          84
 This might be due to either:
  - A bug
  - Your job running out of memory
  - Your job got killed externally (e.g. no cpu-time left)
  - ....
 Please check and report if you believe you found a bug
 Signal           11  detected on PE:          71
 This might be due to either:
  - A bug
  - Your job running out of memory
  - Your job got killed externally (e.g. no cpu-time left)
  - ....
 Please check and report if you believe you found a bug
 Signal           11  detected on PE:          55
 This might be due to either:
  - A bug
  - Your job running out of memory
  - Your job got killed externally (e.g. no cpu-time left)
  - ....
 Please check and report if you believe you found a bug
 Signal           11  detected on PE:           0
 This might be due to either:
  - A bug
  - Your job running out of memory
  - Your job got killed externally (e.g. no cpu-time left)
  - ....
 Please check and report if you believe you found a bug
 Signal           11  detected on PE:          39
 This might be due to either:
  - A bug
  - Your job running out of memory
  - Your job got killed externally (e.g. no cpu-time left)
  - ....
 Please check and report if you believe you found a bug
 Signal           11  detected on PE:          87
 This might be due to either:
  - A bug
  - Your job running out of memory
  - Your job got killed externally (e.g. no cpu-time left)
  - ....
 Please check and report if you believe you found a bug
 Signal           11  detected on PE:          72
 This might be due to either:
  - A bug
  - Your job running out of memory
  - Your job got killed externally (e.g. no cpu-time left)
  - ....
 Please check and report if you believe you found a bug
  - Your job got killed externally (e.g. no cpu-time left)
  - ....
 Please check and report if you believe you found a bug
 Signal           11  detected on PE:           1
 This might be due to either:
  - A bug
  - Your job running out of memory
  - Your job got killed externally (e.g. no cpu-time left)
  - ....
 Please check and report if you believe you found a bug
 Signal           11  detected on PE:          40
 This might be due to either:
  - A bug
  - Your job running out of memory
  - Your job got killed externally (e.g. no cpu-time left)
  - ....
 Please check and report if you believe you found a bug
 Signal           11  detected on PE:          88
 This might be due to either:
  - A bug
  - Your job running out of memory
  - Your job got killed externally (e.g. no cpu-time left)
  - ....
 Please check and report if you believe you found a bug
 Signal           11  detected on PE:          73
 This might be due to either:
  - A bug
  - Your job running out of memory
  - Your job got killed externally (e.g. no cpu-time left)
  - ....
 Please check and report if you believe you found a bug
 Signal           11  detected on PE:          63
 Signal           11  detected on PE:           2
 This might be due to either:
  - A bug
  - Your job running out of memory
  - Your job got killed externally (e.g. no cpu-time left)
  - ....
 Please check and report if you believe you found a bug
 Signal           11  detected on PE:          41
 This might be due to either:
  - A bug
  - Your job running out of memory
  - Your job got killed externally (e.g. no cpu-time left)
  - ....
 Please check and report if you believe you found a bug
 Signal           11  detected on PE:          89
 This might be due to either:
  - A bug
  - Your job running out of memory
  - Your job got killed externally (e.g. no cpu-time left)
  - ....
 Please check and report if you believe you found a bug
 Signal           11  detected on PE:          77
 This might be due to either:
  - A bug
  - Your job running out of memory
  - Your job got killed externally (e.g. no cpu-time left)
  - ....
 Please check and report if you believe you found a bug
 Signal           11  detected on PE:          48
 This might be due to either:
  - A bug
  - Your job running out of memory
  - Your job got killed externally (e.g. no cpu-time left)
  - ....
 Please check and report if you believe you found a bug
 Signal           11  detected on PE:           3
 This might be due to either:
  - A bug
  - Your job running out of memory
  - Your job got killed externally (e.g. no cpu-time left)
  - ....
 Please check and report if you believe you found a bug
 Signal           11  detected on PE:          44
 This might be due to either:
  - A bug
  - Your job running out of memory
  - Your job got killed externally (e.g. no cpu-time left)
  - ....
 Please check and report if you believe you found a bug
 Signal           11  detected on PE:          91
 This might be due to either:
  - A bug
  - Your job running out of memory
  - Your job got killed externally (e.g. no cpu-time left)
  - ....
 Please check and report if you believe you found a bug
 Signal           11  detected on PE:          79
 This might be due to either:
  - A bug
  - Your job running out of memory
  - Your job got killed externally (e.g. no cpu-time left)
  - ....
 Please check and report if you believe you found a bug
 Signal           11  detected on PE:          51
 This might be due to either:
  - A bug
  - Your job running out of memory
  - Your job got killed externally (e.g. no cpu-time left)
  - ....
 Please check and report if you believe you found a bug
 Signal           11  detected on PE:           4
 This might be due to either:
  - A bug
  - Your job running out of memory
  - Your job got killed externally (e.g. no cpu-time left)
  - ....
 Please check and report if you believe you found a bug
 Signal           11  detected on PE:          47
 This might be due to either:
  - A bug
  - Your job running out of memory
  - Your job got killed externally (e.g. no cpu-time left)
  - ....
 Please check and report if you believe you found a bug
 Signal           11  detected on PE:          92
 This might be due to either:
  - A bug
  - Your job running out of memory
  - Your job got killed externally (e.g. no cpu-time left)
  - ....
 Please check and report if you believe you found a bug
 Signal           11  detected on PE:          16
 This might be due to either:
  - A bug
  - Your job running out of memory
  - Your job got killed externally (e.g. no cpu-time left)
  - ....
 Please check and report if you believe you found a bug
 Signal           11  detected on PE:          64
 This might be due to either:
  - A bug
  - Your job running out of memory
  - Your job got killed externally (e.g. no cpu-time left)
  - ....
 Please check and report if you believe you found a bug
 Signal           11  detected on PE:          57
 This might be due to either:
  - A bug
  - Your job running out of memory
  - Your job got killed externally (e.g. no cpu-time left)
  - ....
 Please check and report if you believe you found a bug
 Signal           11  detected on PE:           5
 This might be due to either:
  - A bug
  - Your job running out of memory
  - Your job got killed externally (e.g. no cpu-time left)
  - ....
 Please check and report if you believe you found a bug
 Signal           11  detected on PE:          32
 This might be due to either:
  - A bug
  - Your job running out of memory
  - Your job got killed externally (e.g. no cpu-time left)
  - ....
 Please check and report if you believe you found a bug
 Signal           11  detected on PE:          94
 This might be due to either:
  - A bug
  - Your job running out of memory
  - Your job got killed externally (e.g. no cpu-time left)
  - ....
 Please check and report if you believe you found a bug
 Signal           11  detected on PE:          17
 This might be due to either:
  - A bug
  - Your job running out of memory
  - Your job got killed externally (e.g. no cpu-time left)
  - ....
 Please check and report if you believe you found a bug
 Signal           11  detected on PE:          65
 This might be due to either:
  - A bug
  - Your job running out of memory
  - Your job got killed externally (e.g. no cpu-time left)
  - ....
 Please check and report if you believe you found a bug
 Signal           11  detected on PE:          58
 This might be due to either:
  - A bug
  - Your job running out of memory
  - Your job got killed externally (e.g. no cpu-time left)
  - ....
 Please check and report if you believe you found a bug
 Signal           11  detected on PE:           6
 This might be due to either:
  - A bug
  - Your job running out of memory
  - Your job got killed externally (e.g. no cpu-time left)
  - ....
 Please check and report if you believe you found a bug
 Signal           11  detected on PE:          35
 This might be due to either:
  - A bug
  - Your job running out of memory
  - Your job got killed externally (e.g. no cpu-time left)
  - ....
 Please check and report if you believe you found a bug
 Signal           11  detected on PE:          85
 This might be due to either:
  - A bug
  - Your job running out of memory
  - Your job got killed externally (e.g. no cpu-time left)
  - ....
 Please check and report if you believe you found a bug
 Signal           11  detected on PE:          18
 This might be due to either:
  - A bug
  - Your job running out of memory
  - Your job got killed externally (e.g. no cpu-time left)
  - ....
 Please check and report if you believe you found a bug
 Signal           11  detected on PE:          68
 Signal           11  detected on PE:          59
 This might be due to either:
  - A bug
  - Your job running out of memory
  - Your job got killed externally (e.g. no cpu-time left)
  - ....
 Please check and report if you believe you found a bug
 Signal           11  detected on PE:           7
 This might be due to either:
  - A bug
  - Your job running out of memory
  - Your job got killed externally (e.g. no cpu-time left)
  - ....
 Please check and report if you believe you found a bug
 Signal           11  detected on PE:          37
 This might be due to either:
  - A bug
  - Your job running out of memory
  - Your job got killed externally (e.g. no cpu-time left)
  - ....
 Please check and report if you believe you found a bug
 Signal           11  detected on PE:          86
 This might be due to either:
  - A bug
  - Your job running out of memory
  - Your job got killed externally (e.g. no cpu-time left)
  - ....
 Please check and report if you believe you found a bug
 Signal           11  detected on PE:          19
 This might be due to either:
  - A bug
  - Your job running out of memory
  - Your job got killed externally (e.g. no cpu-time left)
  - ....
 Please check and report if you believe you found a bug
 Signal           11  detected on PE:          69
 This might be due to either:
  - A bug
  - Your job running out of memory
  - Your job got killed externally (e.g. no cpu-time left)
  - ....
 Please check and report if you believe you found a bug
 This might be due to either:
  - A bug
  - Your job running out of memory
  - Your job got killed externally (e.g. no cpu-time left)
  - ....
 Please check and report if you believe you found a bug
 Signal           11  detected on PE:           8
 This might be due to either:
  - A bug
  - Your job running out of memory
  - Your job got killed externally (e.g. no cpu-time left)
  - ....
 Please check and report if you believe you found a bug
 Signal           11  detected on PE:          42
 This might be due to either:
  - A bug
  - Your job running out of memory
  - Your job got killed externally (e.g. no cpu-time left)
  - ....
 Please check and report if you believe you found a bug
 Signal           11  detected on PE:          90
 This might be due to either:
  - A bug
  - Your job running out of memory
  - Your job got killed externally (e.g. no cpu-time left)
  - ....
 Please check and report if you believe you found a bug
 Signal           11  detected on PE:          20
 This might be due to either:
  - A bug
  - Your job running out of memory
  - Your job got killed externally (e.g. no cpu-time left)
  - ....
 Please check and report if you believe you found a bug
 Signal           11  detected on PE:          74
 This might be due to either:
  - A bug
  - Your job running out of memory
  - Your job got killed externally (e.g. no cpu-time left)
  - ....
 Please check and report if you believe you found a bug
 Signal           11  detected on PE:          52
 This might be due to either:
  - A bug
  - Your job running out of memory
  - Your job got killed externally (e.g. no cpu-time left)
  - ....
 Please check and report if you believe you found a bug
 Signal           11  detected on PE:           9
 This might be due to either:
  - A bug
  - Your job running out of memory
  - Your job got killed externally (e.g. no cpu-time left)
  - ....
 Please check and report if you believe you found a bug
 Signal           11  detected on PE:          43
 This might be due to either:
  - A bug
  - Your job running out of memory
  - Your job got killed externally (e.g. no cpu-time left)
  - ....
 Please check and report if you believe you found a bug
 Signal           11  detected on PE:          93
 This might be due to either:
  - A bug
  - Your job running out of memory
  - Your job got killed externally (e.g. no cpu-time left)
  - ....
 Please check and report if you believe you found a bug
 Signal           11  detected on PE:          21
 This might be due to either:
  - A bug
  - Your job running out of memory
  - Your job got killed externally (e.g. no cpu-time left)
  - ....
 Please check and report if you believe you found a bug
 Signal           11  detected on PE:          75
 This might be due to either:
  - A bug
  - Your job running out of memory
  - Your job got killed externally (e.g. no cpu-time left)
  - ....
 Please check and report if you believe you found a bug
 Signal           11  detected on PE:          60
 This might be due to either:
  - A bug
  - Your job running out of memory
  - Your job got killed externally (e.g. no cpu-time left)
  - ....
 Please check and report if you believe you found a bug
 Signal           11  detected on PE:          10
 This might be due to either:
  - A bug
  - Your job running out of memory
  - Your job got killed externally (e.g. no cpu-time left)
  - ....
 Please check and report if you believe you found a bug
 Signal           11  detected on PE:          45
 This might be due to either:
  - A bug
  - Your job running out of memory
  - Your job got killed externally (e.g. no cpu-time left)
  - ....
 Please check and report if you believe you found a bug
 Signal           11  detected on PE:          95
 This might be due to either:
  - A bug
  - Your job running out of memory
  - Your job got killed externally (e.g. no cpu-time left)
  - ....
 Please check and report if you believe you found a bug
 Signal           11  detected on PE:          22
 This might be due to either:
  - A bug
  - Your job running out of memory
  - Your job got killed externally (e.g. no cpu-time left)
  - ....
 Please check and report if you believe you found a bug
 Signal           11  detected on PE:          76
 This might be due to either:
  - A bug
  - Your job running out of memory
  - Your job got killed externally (e.g. no cpu-time left)
  - ....
 Please check and report if you believe you found a bug
 Signal           11  detected on PE:          62
 This might be due to either:
  - A bug
  - Your job running out of memory
  - Your job got killed externally (e.g. no cpu-time left)
  - ....
 Please check and report if you believe you found a bug
 Signal           11  detected on PE:          11
 This might be due to either:
  - A bug
  - Your job running out of memory
  - Your job got killed externally (e.g. no cpu-time left)
  - ....
 Please check and report if you believe you found a bug
 Signal           11  detected on PE:          46
 This might be due to either:
  - A bug
  - Your job running out of memory
  - Your job got killed externally (e.g. no cpu-time left)
  - ....
 Please check and report if you believe you found a bug
 Signal           11  detected on PE:          23
 This might be due to either:
  - A bug
  - Your job running out of memory
  - Your job got killed externally (e.g. no cpu-time left)
  - ....
 Please check and report if you believe you found a bug
 Signal           11  detected on PE:          78
 This might be due to either:
  - A bug
  - Your job running out of memory
  - Your job got killed externally (e.g. no cpu-time left)
  - ....
 Please check and report if you believe you found a bug
 Signal           11  detected on PE:          12
 This might be due to either:
  - A bug
  - Your job running out of memory
  - Your job got killed externally (e.g. no cpu-time left)
  - ....
 Please check and report if you believe you found a bug
 Signal           11  detected on PE:          24
 This might be due to either:
  - A bug
  - Your job running out of memory
  - Your job got killed externally (e.g. no cpu-time left)
  - ....
 Please check and report if you believe you found a bug
 This might be due to either:
  - A bug
  - Your job running out of memory
  - Your job got killed externally (e.g. no cpu-time left)
  - ....
 Please check and report if you believe you found a bug
 Signal           11  detected on PE:          13
 This might be due to either:
  - A bug
  - Your job running out of memory
  - Your job got killed externally (e.g. no cpu-time left)
  - ....
 Please check and report if you believe you found a bug
 Signal           11  detected on PE:          25
 This might be due to either:
  - A bug
  - Your job running out of memory
  - Your job got killed externally (e.g. no cpu-time left)
  - ....
 Please check and report if you believe you found a bug
 Signal           11  detected on PE:          14
 This might be due to either:
  - A bug
  - Your job running out of memory
  - Your job got killed externally (e.g. no cpu-time left)
  - ....
 Please check and report if you believe you found a bug
 Signal           11  detected on PE:          26
 This might be due to either:
  - A bug
  - Your job running out of memory
  - Your job got killed externally (e.g. no cpu-time left)
  - ....
 Please check and report if you believe you found a bug
 Signal           11  detected on PE:          15
 This might be due to either:
  - A bug
  - Your job running out of memory
  - Your job got killed externally (e.g. no cpu-time left)
  - ....
 Please check and report if you believe you found a bug
 Signal           11  detected on PE:          27
 This might be due to either:
  - A bug
  - Your job running out of memory
  - Your job got killed externally (e.g. no cpu-time left)
  - ....
 Please check and report if you believe you found a bug
 Signal           11  detected on PE:          28
 This might be due to either:
  - A bug
  - Your job running out of memory
  - Your job got killed externally (e.g. no cpu-time left)
  - ....
 Please check and report if you believe you found a bug
 Signal           11  detected on PE:          29
 This might be due to either:
  - A bug
  - Your job running out of memory
  - Your job got killed externally (e.g. no cpu-time left)
  - ....
 Please check and report if you believe you found a bug
 Signal           11  detected on PE:          30
 This might be due to either:
  - A bug
  - Your job running out of memory
  - Your job got killed externally (e.g. no cpu-time left)
  - ....
 Please check and report if you believe you found a bug
 Signal           11  detected on PE:          31
 This might be due to either:
  - A bug
  - Your job running out of memory
  - Your job got killed externally (e.g. no cpu-time left)
  - ....
 Please check and report if you believe you found a bug
Abort(0) on node 34 (rank 34 in comm 0): application called MPI_Abort(MPI_COMM_WORLD, 0) - process 34
Abort(0) on node 66 (rank 66 in comm 0): application called MPI_Abort(MPI_COMM_WORLD, 0) - process 66
Abort(0) on node 38 (rank 38 in comm 0): application called MPI_Abort(MPI_COMM_WORLD, 0) - process 38
Abort(0) on node 81 (rank 81 in comm 0): application called MPI_Abort(MPI_COMM_WORLD, 0) - process 81
Abort(0) on node 67 (rank 67 in comm 0): application called MPI_Abort(MPI_COMM_WORLD, 0) - process 67
Abort(0) on node 39 (rank 39 in comm 0): application called MPI_Abort(MPI_COMM_WORLD, 0) - process 39
Abort(0) on node 84 (rank 84 in comm 0): application called MPI_Abort(MPI_COMM_WORLD, 0) - process 84
Abort(0) on node 71 (rank 71 in comm 0): application called MPI_Abort(MPI_COMM_WORLD, 0) - process 71
Abort(0) on node 41 (rank 41 in comm 0): application called MPI_Abort(MPI_COMM_WORLD, 0) - process 41
Abort(0) on node 88 (rank 88 in comm 0): application called MPI_Abort(MPI_COMM_WORLD, 0) - process 88
Abort(0) on node 48 (rank 48 in comm 0): application called MPI_Abort(MPI_COMM_WORLD, 0) - process 48
Abort(0) on node 29 (rank 29 in comm 0): application called MPI_Abort(MPI_COMM_WORLD, 0) - process 29
Abort(0) on node 30 (rank 30 in comm 0): application called MPI_Abort(MPI_COMM_WORLD, 0) - process 30
Abort(0) on node 32 (rank 32 in comm 0): application called MPI_Abort(MPI_COMM_WORLD, 0) - process 32
Abort(0) on node 33 (rank 33 in comm 0): application called MPI_Abort(MPI_COMM_WORLD, 0) - process 33
Abort(0) on node 36 (rank 36 in comm 0): application called MPI_Abort(MPI_COMM_WORLD, 0) - process 36
Abort(0) on node 37 (rank 37 in comm 0): application called MPI_Abort(MPI_COMM_WORLD, 0) - process 37
Abort(0) on node 40 (rank 40 in comm 0): application called MPI_Abort(MPI_COMM_WORLD, 0) - process 40
Abort(0) on node 42 (rank 42 in comm 0): application called MPI_Abort(MPI_COMM_WORLD, 0) - process 42
Abort(0) on node 43 (rank 43 in comm 0): application called MPI_Abort(MPI_COMM_WORLD, 0) - process 43
Abort(0) on node 44 (rank 44 in comm 0): application called MPI_Abort(MPI_COMM_WORLD, 0) - process 44
Abort(0) on node 45 (rank 45 in comm 0): application called MPI_Abort(MPI_COMM_WORLD, 0) - process 45
Abort(0) on node 46 (rank 46 in comm 0): application called MPI_Abort(MPI_COMM_WORLD, 0) - process 46
Abort(0) on node 47 (rank 47 in comm 0): application called MPI_Abort(MPI_COMM_WORLD, 0) - process 47
Abort(0) on node 80 (rank 80 in comm 0): application called MPI_Abort(MPI_COMM_WORLD, 0) - process 80
Abort(0) on node 73 (rank 73 in comm 0): application called MPI_Abort(MPI_COMM_WORLD, 0) - process 73
Abort(0) on node 79 (rank 79 in comm 0): application called MPI_Abort(MPI_COMM_WORLD, 0) - process 79
Abort(0) on node 82 (rank 82 in comm 0): application called MPI_Abort(MPI_COMM_WORLD, 0) - process 82
Abort(0) on node 64 (rank 64 in comm 0): application called MPI_Abort(MPI_COMM_WORLD, 0) - process 64
Abort(0) on node 65 (rank 65 in comm 0): application called MPI_Abort(MPI_COMM_WORLD, 0) - process 65
Abort(0) on node 85 (rank 85 in comm 0): application called MPI_Abort(MPI_COMM_WORLD, 0) - process 85
Abort(0) on node 86 (rank 86 in comm 0): application called MPI_Abort(MPI_COMM_WORLD, 0) - process 86
Abort(0) on node 50 (rank 50 in comm 0): application called MPI_Abort(MPI_COMM_WORLD, 0) - process 50
Abort(0) on node 68 (rank 68 in comm 0): application called MPI_Abort(MPI_COMM_WORLD, 0) - process 68
Abort(0) on node 87 (rank 87 in comm 0): application called MPI_Abort(MPI_COMM_WORLD, 0) - process 87
Abort(0) on node 51 (rank 51 in comm 0): application called MPI_Abort(MPI_COMM_WORLD, 0) - process 51
Abort(0) on node 69 (rank 69 in comm 0): application called MPI_Abort(MPI_COMM_WORLD, 0) - process 69
Abort(0) on node 52 (rank 52 in comm 0): application called MPI_Abort(MPI_COMM_WORLD, 0) - process 52
Abort(0) on node 58 (rank 58 in comm 0): application called MPI_Abort(MPI_COMM_WORLD, 0) - process 58
Abort(0) on node 90 (rank 90 in comm 0): application called MPI_Abort(MPI_COMM_WORLD, 0) - process 90
Abort(0) on node 70 (rank 70 in comm 0): application called MPI_Abort(MPI_COMM_WORLD, 0) - process 70
Abort(0) on node 91 (rank 91 in comm 0): application called MPI_Abort(MPI_COMM_WORLD, 0) - process 91
Abort(0) on node 63 (rank 63 in comm 0): application called MPI_Abort(MPI_COMM_WORLD, 0) - process 63
Abort(0) on node 74 (rank 74 in comm 0): application called MPI_Abort(MPI_COMM_WORLD, 0) - process 74
Abort(0) on node 92 (rank 92 in comm 0): application called MPI_Abort(MPI_COMM_WORLD, 0) - process 92
Abort(0) on node 75 (rank 75 in comm 0): application called MPI_Abort(MPI_COMM_WORLD, 0) - process 75
Abort(0) on node 49 (rank 49 in comm 0): application called MPI_Abort(MPI_COMM_WORLD, 0) - process 49
Abort(0) on node 93 (rank 93 in comm 0): application called MPI_Abort(MPI_COMM_WORLD, 0) - process 93
Abort(0) on node 76 (rank 76 in comm 0): application called MPI_Abort(MPI_COMM_WORLD, 0) - process 76
Abort(0) on node 94 (rank 94 in comm 0): application called MPI_Abort(MPI_COMM_WORLD, 0) - process 94
Abort(0) on node 16 (rank 16 in comm 0): application called MPI_Abort(MPI_COMM_WORLD, 0) - process 16
Abort(0) on node 53 (rank 53 in comm 0): application called MPI_Abort(MPI_COMM_WORLD, 0) - process 53
Abort(0) on node 77 (rank 77 in comm 0): application called MPI_Abort(MPI_COMM_WORLD, 0) - process 77
Abort(0) on node 95 (rank 95 in comm 0): application called MPI_Abort(MPI_COMM_WORLD, 0) - process 95
Abort(0) on node 17 (rank 17 in comm 0): application called MPI_Abort(MPI_COMM_WORLD, 0) - process 17
Abort(0) on node 54 (rank 54 in comm 0): application called MPI_Abort(MPI_COMM_WORLD, 0) - process 54
Abort(0) on node 78 (rank 78 in comm 0): application called MPI_Abort(MPI_COMM_WORLD, 0) - process 78
Abort(0) on node 18 (rank 18 in comm 0): application called MPI_Abort(MPI_COMM_WORLD, 0) - process 18
Abort(0) on node 55 (rank 55 in comm 0): application called MPI_Abort(MPI_COMM_WORLD, 0) - process 55
Abort(0) on node 19 (rank 19 in comm 0): application called MPI_Abort(MPI_COMM_WORLD, 0) - process 19
Abort(0) on node 57 (rank 57 in comm 0): application called MPI_Abort(MPI_COMM_WORLD, 0) - process 57
Abort(0) on node 20 (rank 20 in comm 0): application called MPI_Abort(MPI_COMM_WORLD, 0) - process 20
Abort(0) on node 59 (rank 59 in comm 0): application called MPI_Abort(MPI_COMM_WORLD, 0) - process 59
Abort(0) on node 21 (rank 21 in comm 0): application called MPI_Abort(MPI_COMM_WORLD, 0) - process 21
Abort(0) on node 60 (rank 60 in comm 0): application called MPI_Abort(MPI_COMM_WORLD, 0) - process 60
Abort(0) on node 22 (rank 22 in comm 0): application called MPI_Abort(MPI_COMM_WORLD, 0) - process 22
Abort(0) on node 61 (rank 61 in comm 0): application called MPI_Abort(MPI_COMM_WORLD, 0) - process 61
Abort(0) on node 23 (rank 23 in comm 0): application called MPI_Abort(MPI_COMM_WORLD, 0) - process 23
Abort(0) on node 62 (rank 62 in comm 0): application called MPI_Abort(MPI_COMM_WORLD, 0) - process 62
Abort(0) on node 24 (rank 24 in comm 0): application called MPI_Abort(MPI_COMM_WORLD, 0) - process 24
Abort(0) on node 25 (rank 25 in comm 0): application called MPI_Abort(MPI_COMM_WORLD, 0) - process 25
Abort(0) on node 26 (rank 26 in comm 0): application called MPI_Abort(MPI_COMM_WORLD, 0) - process 26
Abort(0) on node 27 (rank 27 in comm 0): application called MPI_Abort(MPI_COMM_WORLD, 0) - process 27
Abort(0) on node 28 (rank 28 in comm 0): application called MPI_Abort(MPI_COMM_WORLD, 0) - process 28
Abort(0) on node 1 (rank 1 in comm 0): application called MPI_Abort(MPI_COMM_WORLD, 0) - process 1
Abort(0) on node 2 (rank 2 in comm 0): application called MPI_Abort(MPI_COMM_WORLD, 0) - process 2
Abort(0) on node 3 (rank 3 in comm 0): application called MPI_Abort(MPI_COMM_WORLD, 0) - process 3
Abort(0) on node 4 (rank 4 in comm 0): application called MPI_Abort(MPI_COMM_WORLD, 0) - process 4
Abort(0) on node 5 (rank 5 in comm 0): application called MPI_Abort(MPI_COMM_WORLD, 0) - process 5
Abort(0) on node 6 (rank 6 in comm 0): application called MPI_Abort(MPI_COMM_WORLD, 0) - process 6
Abort(0) on node 7 (rank 7 in comm 0): application called MPI_Abort(MPI_COMM_WORLD, 0) - process 7
Abort(0) on node 8 (rank 8 in comm 0): application called MPI_Abort(MPI_COMM_WORLD, 0) - process 8
Abort(0) on node 9 (rank 9 in comm 0): application called MPI_Abort(MPI_COMM_WORLD, 0) - process 9
Abort(0) on node 10 (rank 10 in comm 0): application called MPI_Abort(MPI_COMM_WORLD, 0) - process 10
Abort(0) on node 11 (rank 11 in comm 0): application called MPI_Abort(MPI_COMM_WORLD, 0) - process 11
Abort(0) on node 12 (rank 12 in comm 0): application called MPI_Abort(MPI_COMM_WORLD, 0) - process 12
Abort(0) on node 13 (rank 13 in comm 0): application called MPI_Abort(MPI_COMM_WORLD, 0) - process 13
Abort(0) on node 14 (rank 14 in comm 0): application called MPI_Abort(MPI_COMM_WORLD, 0) - process 14
Abort(0) on node 15 (rank 15 in comm 0): application called MPI_Abort(MPI_COMM_WORLD, 0) - process 15
