JobID        JobIDRaw        JobName  Partition  MaxVMSize  MaxVMSizeNode  MaxVMSizeTask  AveVMSize     MaxRSS MaxRSSNode MaxRSSTask     AveRSS MaxPages MaxPagesNode   MaxPagesTask   AvePages     MinCPU MinCPUNode MinCPUTask     AveCPU   NTasks  AllocCPUS    Elapsed      State ExitCode AveCPUFreq ReqCPUFreqMin ReqCPUFreqMax ReqCPUFreqGov     ReqMem ConsumedEnergy  MaxDiskRead MaxDiskReadNode MaxDiskReadTask    AveDiskRead MaxDiskWrite MaxDiskWriteNode MaxDiskWriteTask   AveDiskWrite    ReqTRES  AllocTRES TRESUsageInAve TRESUsageInMax TRESUsageInMaxNode TRESUsageInMaxTask TRESUsageInMin TRESUsageInMinNode TRESUsageInMinTask TRESUsageInTot TRESUsageOutMax TRESUsageOutMaxNode TRESUsageOutMaxTask TRESUsageOutAve TRESUsageOutTot 
------------ ------------ ---------- ---------- ---------- -------------- -------------- ---------- ---------- ---------- ---------- ---------- -------- ------------ -------------- ---------- ---------- ---------- ---------- ---------- -------- ---------- ---------- ---------- -------- ---------- ------------- ------------- ------------- ---------- -------------- ------------ --------------- --------------- -------------- ------------ ---------------- ---------------- -------------- ---------- ---------- -------------- -------------- ------------------ ------------------ -------------- ------------------ ------------------ -------------- --------------- ------------------- ------------------- --------------- --------------- 
8023672      8023672      CovidWeak+   standard                                                                                                                                                                                                            4096   01:12:19    RUNNING      0:0                  Unknown       Unknown       Unknown      3.50T                                                                                                                                          billing=2+ billing=4+                                                                                                                                                                                                                                 
8023672.bat+ 8023672.bat+      batch                                                                                                                                                                                                               1        256   01:12:19    RUNNING      0:0          0             0             0             0                         0                                                                                                                                      cpu=256,m+                                                                                                                                                                                                                                 
8023672.0    8023672.0        siesta                                                                                                                                                                                                            2048       4096   01:12:14    RUNNING      0:0          0       Unknown       Unknown       Unknown                         0                                                                                                                                      cpu=4096,+                                                                                                                                                                                                                                 
