JobID        JobIDRaw        JobName  Partition  MaxVMSize  MaxVMSizeNode  MaxVMSizeTask  AveVMSize     MaxRSS MaxRSSNode MaxRSSTask     AveRSS MaxPages MaxPagesNode   MaxPagesTask   AvePages     MinCPU MinCPUNode MinCPUTask     AveCPU   NTasks  AllocCPUS    Elapsed      State ExitCode AveCPUFreq ReqCPUFreqMin ReqCPUFreqMax ReqCPUFreqGov     ReqMem ConsumedEnergy  MaxDiskRead MaxDiskReadNode MaxDiskReadTask    AveDiskRead MaxDiskWrite MaxDiskWriteNode MaxDiskWriteTask   AveDiskWrite    ReqTRES  AllocTRES TRESUsageInAve TRESUsageInMax TRESUsageInMaxNode TRESUsageInMaxTask TRESUsageInMin TRESUsageInMinNode TRESUsageInMinTask TRESUsageInTot TRESUsageOutMax TRESUsageOutMaxNode TRESUsageOutMaxTask TRESUsageOutAve TRESUsageOutTot 
------------ ------------ ---------- ---------- ---------- -------------- -------------- ---------- ---------- ---------- ---------- ---------- -------- ------------ -------------- ---------- ---------- ---------- ---------- ---------- -------- ---------- ---------- ---------- -------- ---------- ------------- ------------- ------------- ---------- -------------- ------------ --------------- --------------- -------------- ------------ ---------------- ---------------- -------------- ---------- ---------- -------------- -------------- ------------------ ------------------ -------------- ------------------ ------------------ -------------- --------------- ------------------- ------------------- --------------- --------------- 
6873450      6873450      submit.job ju-standa+                                                                                                                                                                                                             224   00:20:50    RUNNING      0:0                  Unknown       Unknown       Unknown       960G                                                                                                                                          billing=1+ billing=2+                                                                                                                                                                                                                                 
6873450.bat+ 6873450.bat+      batch                                                                                                                                                                                                               1        112   00:20:50    RUNNING      0:0          0             0             0             0                         0                                                                                                                                      cpu=112,g+                                                                                                                                                                                                                                 
6873450.0    6873450.0    select_gpu             77322016K      nid005333             13  74060525K  34604656K  nid005332          1 352034516+     7077    nid005333             13       6337   00:20:03  nid005332          2   00:20:27       16        224   00:19:43  COMPLETED      0:0     15.31M       Unknown       Unknown       Unknown                     1.94M      131.96M       nid005332               0        129.43M        3.33M        nid005332                0          3.23M            cpu=224,g+ cpu=00:20:27,+ cpu=00:20:43,+ cpu=nid005333,ene+ cpu=12,fs/disk=0,+ cpu=00:20:03,+ cpu=nid005332,ene+ cpu=2,fs/disk=12,+ cpu=05:27:22,+ energy=2314,fs+ energy=nid005332,f+           fs/disk=0 energy=95,fs/d+ energy=1520,fs+ 
