{
 "global_section": { "_calls": 1, "_time":     1062.213, "_%":   100.00,
   "siesta": { "_calls": 1, "_time":     1062.213, "_%":   100.00,
     "Setup": { "_calls": 1, "_time":        1.403, "_%":     0.13,
       "bands": { "_calls": 1, "_time":        0.002, "_%":     0.00},
       "KSV_init": { "_calls": 1, "_time":        0.001, "_%":     0.00}
     },
     "IterGeom": { "_calls": 1, "_time":     1055.222, "_%":    99.34,
       "geom_init": { "_calls": 1, "_time":       12.822, "_%":     1.21,
         "state_init": { "_calls": 1, "_time":        2.402, "_%":     0.23,
           "hsparse": { "_calls": 1, "_time":        0.115, "_%":     0.01},
           "overlap": { "_calls": 1, "_time":        0.906, "_%":     0.09}
         },
         "Setup_H0": { "_calls": 1, "_time":       10.419, "_%":     0.98,
           "naefs": { "_calls": 1, "_time":        0.018, "_%":     0.00},
           "MolMec": { "_calls": 1, "_time":        0.000, "_%":     0.00},
           "kinefsm": { "_calls": 1, "_time":        0.904, "_%":     0.09},
           "nlefsm": { "_calls": 1, "_time":        2.408, "_%":     0.23},
           "DHSCF_Init": { "_calls": 1, "_time":        7.080, "_%":     0.67,
             "DHSCF1": { "_calls": 1, "_time":        0.034, "_%":     0.00,
               "INITMESH": { "_calls": 1, "_time":        0.000, "_%":     0.00}
             },
             "DHSCF2": { "_calls": 1, "_time":        7.033, "_%":     0.66,
               "REMESH": { "_calls": 1, "_time":        3.701, "_%":     0.35,
                 "INITMESH": { "_calls": 2, "_time":        3.676, "_%":     0.35,
                   "SPLOAD": { "_calls": 2, "_time":        3.650, "_%":     0.34}
                 }
               },
               "REORD": { "_calls": 2, "_time":        0.016, "_%":     0.00},
               "PHION": { "_calls": 1, "_time":        0.404, "_%":     0.04},
               "COMM_BSC": { "_calls": 1, "_time":        0.074, "_%":     0.01},
               "POISON": { "_calls": 1, "_time":        2.404, "_%":     0.23,
                 "fft": { "_calls": 2, "_time":        2.299, "_%":     0.22}
               }
             }
           }
         }
       },
       "IterSCF": { "_calls": 5, "_time":     1042.213, "_%":    98.12,
         "setup_H": { "_calls": 5, "_time":       21.387, "_%":     2.01,
           "DHSCF": { "_calls": 5, "_time":       21.305, "_%":     2.01,
             "DHSCF3": { "_calls": 5, "_time":       21.305, "_%":     2.01,
               "rhoofd": { "_calls": 5, "_time":        0.321, "_%":     0.03},
               "COMM_BSC": { "_calls": 10, "_time":        0.779, "_%":     0.07},
               "POISON": { "_calls": 5, "_time":       11.752, "_%":     1.11,
                 "fft": { "_calls": 10, "_time":       11.206, "_%":     1.05}
               },
               "XC": { "_calls": 5, "_time":        7.031, "_%":     0.66,
                 "COMM_BSC": { "_calls": 10, "_time":        0.775, "_%":     0.07},
                 "GXC-CellXC": { "_calls": 5, "_time":        6.030, "_%":     0.57,
                   "gridxc@cellXC": { "_calls": 5, "_time":        6.030, "_%":     0.57}
                 }
               },
               "vmat": { "_calls": 5, "_time":        0.417, "_%":     0.04}
             }
           }
         },
         "compute_dm": { "_calls": 5, "_time":     1020.752, "_%":    96.10,
           "elsi": { "_calls": 5, "_time":     1020.375, "_%":    96.06,
             "find nnz_g": { "_calls": 5, "_time":        0.000, "_%":     0.00},
             "elsi-solver": { "_calls": 5, "_time":     1020.356, "_%":    96.06}
           }
         },
         "MIXER": { "_calls": 5, "_time":        0.006, "_%":     0.00}
       },
       "state_analysis": { "_calls": 1, "_time":        0.037, "_%":     0.00},
       "siesta_move": { "_calls": 1, "_time":        0.000, "_%":     0.00}
     },
     "Analysis": { "_calls": 1, "_time":        1.527, "_%":     0.14,
       "optical": { "_calls": 1, "_time":        0.001, "_%":     0.00}
     }
   }
 }}
