JobId=9592900 JobName=CovidWeakSize
   UserId=icn2553284(51005) GroupId=icn2(50004) MCS_label=N/A
   Priority=67344 Nice=0 Account=icn85 QOS=gp_resa
   JobState=RUNNING Reason=None Dependency=(null)
   Requeue=0 Restarts=0 BatchFlag=1 Reboot=0 ExitCode=0:0
   RunTime=00:00:04 TimeLimit=02:00:00 TimeMin=N/A
   SubmitTime=2024-10-01T11:33:29 EligibleTime=2024-10-01T11:33:29
   AccrueTime=2024-10-01T11:33:29
   StartTime=2024-10-01T11:34:01 EndTime=2024-10-01T13:34:01 Deadline=N/A
   SuspendTime=None SecsPreSuspend=0 LastSchedEval=2024-10-01T11:34:01 Scheduler=Backfill
   Partition=gpp AllocNode:Sid=glogin2:170611
   ReqNodeList=(null) ExcNodeList=(null)
   NodeList=gs20r2b66
   BatchHost=gs20r2b66
   NumNodes=1 NumCPUs=224 NumTasks=112 CPUs/Task=1 ReqB:S:C:T=0:0:*:1
   ReqTRES=cpu=112,mem=224000M,node=1,billing=112
   AllocTRES=cpu=224,mem=224000M,node=1,billing=224
   Socks/Node=* NtasksPerN:B:S:C=112:0:*:* CoreSpec=*
   MinCPUsNode=112 MinMemoryCPU=2000M MinTmpDiskNode=0
   Features=(null) DelayBoot=00:00:00
   OverSubscribe=NO Contiguous=0 Licenses=(null) Network=(null)
   Command=/gpfs/home/icn2/icn2553284/jube4max/max-inputs/interface/siesta/_CovidWeakSize/000000/000006_submit/work/submit.job
   WorkDir=/gpfs/home/icn2/icn2553284/jube4max/max-inputs/interface/siesta/_CovidWeakSize/000000/000006_submit/work
   StdErr=/gpfs/home/icn2/icn2553284/jube4max/max-inputs/interface/siesta/_CovidWeakSize/000000/000006_submit/work/job_9592900.err
   StdIn=/dev/null
   StdOut=/gpfs/home/icn2/icn2553284/jube4max/max-inputs/interface/siesta/_CovidWeakSize/000000/000006_submit/work/job_9592900.out
   Power=
   

