{
 "global_section": { "_calls": 1, "_time":      307.610, "_%":   100.00,
   "siesta": { "_calls": 1, "_time":      307.610, "_%":   100.00,
     "Setup": { "_calls": 1, "_time":        2.080, "_%":     0.68,
       "bands": { "_calls": 1, "_time":        0.002, "_%":     0.00},
       "KSV_init": { "_calls": 1, "_time":        0.001, "_%":     0.00}
     },
     "IterGeom": { "_calls": 1, "_time":      305.389, "_%":    99.28,
       "geom_init": { "_calls": 1, "_time":        8.537, "_%":     2.78,
         "state_init": { "_calls": 1, "_time":        0.324, "_%":     0.11,
           "hsparse": { "_calls": 1, "_time":        0.102, "_%":     0.03},
           "overlap": { "_calls": 1, "_time":        0.036, "_%":     0.01}
         },
         "Setup_H0": { "_calls": 1, "_time":        8.213, "_%":     2.67,
           "naefs": { "_calls": 1, "_time":        0.014, "_%":     0.00},
           "MolMec": { "_calls": 1, "_time":        0.000, "_%":     0.00},
           "kinefsm": { "_calls": 1, "_time":        0.034, "_%":     0.01},
           "nlefsm": { "_calls": 1, "_time":        0.117, "_%":     0.04},
           "DHSCF_Init": { "_calls": 1, "_time":        8.039, "_%":     2.61,
             "DHSCF1": { "_calls": 1, "_time":        0.039, "_%":     0.01,
               "INITMESH": { "_calls": 1, "_time":        0.000, "_%":     0.00}
             },
             "DHSCF2": { "_calls": 1, "_time":        7.984, "_%":     2.60,
               "REMESH": { "_calls": 1, "_time":        0.109, "_%":     0.04,
                 "INITMESH": { "_calls": 2, "_time":        0.087, "_%":     0.03,
                   "SPLOAD": { "_calls": 2, "_time":        0.080, "_%":     0.03}
                 }
               },
               "REORD": { "_calls": 2, "_time":        0.038, "_%":     0.01},
               "PHION": { "_calls": 1, "_time":        0.290, "_%":     0.09},
               "COMM_BSC": { "_calls": 1, "_time":        0.188, "_%":     0.06},
               "POISON": { "_calls": 1, "_time":        6.837, "_%":     2.22,
                 "fft": { "_calls": 2, "_time":        6.567, "_%":     2.13}
               }
             }
           }
         }
       },
       "IterSCF": { "_calls": 5, "_time":      296.792, "_%":    96.48,
         "setup_H": { "_calls": 5, "_time":       54.966, "_%":    17.87,
           "DHSCF": { "_calls": 5, "_time":       54.950, "_%":    17.86,
             "DHSCF3": { "_calls": 5, "_time":       54.950, "_%":    17.86,
               "rhoofd": { "_calls": 5, "_time":        0.316, "_%":     0.10},
               "COMM_BSC": { "_calls": 10, "_time":        2.046, "_%":     0.67},
               "POISON": { "_calls": 5, "_time":       34.304, "_%":    11.15,
                 "fft": { "_calls": 10, "_time":       32.819, "_%":    10.67}
               },
               "XC": { "_calls": 5, "_time":       15.580, "_%":     5.06,
                 "COMM_BSC": { "_calls": 10, "_time":        1.838, "_%":     0.60},
                 "GXC-CellXC": { "_calls": 5, "_time":       13.434, "_%":     4.37,
                   "gridxc@cellXC": { "_calls": 5, "_time":       13.434, "_%":     4.37}
                 }
               },
               "vmat": { "_calls": 5, "_time":        0.207, "_%":     0.07}
             }
           }
         },
         "compute_dm": { "_calls": 5, "_time":      241.800, "_%":    78.61,
           "elsi": { "_calls": 5, "_time":      241.788, "_%":    78.60,
             "find nnz_g": { "_calls": 5, "_time":        0.000, "_%":     0.00},
             "elsi-solver": { "_calls": 5, "_time":      241.766, "_%":    78.59}
           }
         },
         "MIXER": { "_calls": 5, "_time":        0.003, "_%":     0.00}
       },
       "state_analysis": { "_calls": 1, "_time":        0.051, "_%":     0.02},
       "siesta_move": { "_calls": 1, "_time":        0.000, "_%":     0.00}
     },
     "Analysis": { "_calls": 1, "_time":        0.137, "_%":     0.04,
       "optical": { "_calls": 1, "_time":        0.001, "_%":     0.00}
     }
   }
 }}
