JobID        JobIDRaw        JobName  Partition  MaxVMSize  MaxVMSizeNode  MaxVMSizeTask  AveVMSize     MaxRSS MaxRSSNode MaxRSSTask     AveRSS MaxPages MaxPagesNode   MaxPagesTask   AvePages     MinCPU MinCPUNode MinCPUTask     AveCPU   NTasks  AllocCPUS    Elapsed      State ExitCode AveCPUFreq ReqCPUFreqMin ReqCPUFreqMax ReqCPUFreqGov     ReqMem ConsumedEnergy  MaxDiskRead MaxDiskReadNode MaxDiskReadTask    AveDiskRead MaxDiskWrite MaxDiskWriteNode MaxDiskWriteTask   AveDiskWrite    ReqTRES  AllocTRES TRESUsageInAve TRESUsageInMax TRESUsageInMaxNode TRESUsageInMaxTask TRESUsageInMin TRESUsageInMinNode TRESUsageInMinTask TRESUsageInTot TRESUsageOutMax TRESUsageOutMaxNode TRESUsageOutMaxTask TRESUsageOutAve TRESUsageOutTot 
------------ ------------ ---------- ---------- ---------- -------------- -------------- ---------- ---------- ---------- ---------- ---------- -------- ------------ -------------- ---------- ---------- ---------- ---------- ---------- -------- ---------- ---------- ---------- -------- ---------- ------------- ------------- ------------- ---------- -------------- ------------ --------------- --------------- -------------- ------------ ---------------- ---------------- -------------- ---------- ---------- -------------- -------------- ------------------ ------------------ -------------- ------------------ ------------------ -------------- --------------- ------------------- ------------------- --------------- --------------- 
35111139     35111139      CovidWeak        cpu                                                                                                                                                                                                            4096   00:55:34    RUNNING      0:0                  Unknown       Unknown       Unknown      2000G                                                                                                                                          billing=2+ billing=4+                                                                                                                                                                                                                                 
35111139.ba+ 35111139.ba+      batch                                                                                                                                                                                                               1        256   00:55:34    RUNNING      0:0          0             0             0             0                         0                                                                                                                                      cpu=256,m+                                                                                                                                                                                                                                 
35111139.ex+ 35111139.ex+     extern                                                                                                                                                                                                              16       4096   00:55:34    RUNNING      0:0          0             0             0             0                         0                                                                                                                                      billing=4+                                                                                                                                                                                                                                 
35111139.0   35111139.0       siesta               370908K         cn0805              0  223619344    322028K     cn0805          0  211726208       95       cn0818            674         18   00:46:08     cn0821       1102   00:46:41     2048       4096   00:55:30  COMPLETED      0:0      1.56G       Unknown       Unknown       Unknown                         0       28.94M          cn0805               0         27.62M       39.68M           cn0805                0          5.18M            cpu=4096,+ cpu=00:46:41,+ cpu=00:47:25,+ cpu=cn0805,energy+ cpu=105,fs/disk=0+ cpu=00:46:08,+ cpu=cn0821,energy+ cpu=1102,fs/disk=+ cpu=66-09:35:+ energy=0,fs/di+ energy=cn0825,fs/d+           fs/disk=0 energy=0,fs/di+ energy=0,fs/di+ 
