JobID        JobIDRaw        JobName  Partition  MaxVMSize  MaxVMSizeNode  MaxVMSizeTask  AveVMSize     MaxRSS MaxRSSNode MaxRSSTask     AveRSS MaxPages MaxPagesNode   MaxPagesTask   AvePages     MinCPU MinCPUNode MinCPUTask     AveCPU   NTasks  AllocCPUS    Elapsed      State ExitCode AveCPUFreq ReqCPUFreqMin ReqCPUFreqMax ReqCPUFreqGov     ReqMem ConsumedEnergy  MaxDiskRead MaxDiskReadNode MaxDiskReadTask    AveDiskRead MaxDiskWrite MaxDiskWriteNode MaxDiskWriteTask   AveDiskWrite    ReqTRES  AllocTRES TRESUsageInAve TRESUsageInMax TRESUsageInMaxNode TRESUsageInMaxTask TRESUsageInMin TRESUsageInMinNode TRESUsageInMinTask TRESUsageInTot TRESUsageOutMax TRESUsageOutMaxNode TRESUsageOutMaxTask TRESUsageOutAve TRESUsageOutTot 
------------ ------------ ---------- ---------- ---------- -------------- -------------- ---------- ---------- ---------- ---------- ---------- -------- ------------ -------------- ---------- ---------- ---------- ---------- ---------- -------- ---------- ---------- ---------- -------- ---------- ------------- ------------- ------------- ---------- -------------- ------------ --------------- --------------- -------------- ------------ ---------------- ---------------- -------------- ---------- ---------- -------------- -------------- ------------------ ------------------ -------------- ------------------ ------------------ -------------- --------------- ------------------- ------------------- --------------- --------------- 
34415364     34415364     CovidStro+   largemem                                                                                                                                                                                                             256   01:51:05    RUNNING      0:0                  Unknown       Unknown       Unknown   1031613M                                                                                                                                          billing=2+ billing=2+                                                                                                                                                                                                                                 
34415364.ba+ 34415364.ba+      batch                                                                                                                                                                                                               1        256   01:51:05    RUNNING      0:0          0             0             0             0                         0                                                                                                                                      cpu=256,m+                                                                                                                                                                                                                                 
34415364.ex+ 34415364.ex+     extern                                                                                                                                                                                                               1        256   01:51:05    RUNNING      0:0          0             0             0             0                         0                                                                                                                                      billing=2+                                                                                                                                                                                                                                 
34415364.0   34415364.0       siesta              1684932K         cn0485             80 1561946272   1517912K     cn0485         80 1435630528       69       cn0485              0          3   01:49:42     cn0485          9   01:50:00      128        256   01:51:02  COMPLETED      0:0     43.10M       Unknown       Unknown       Unknown                         0       28.09M          cn0485               0         26.90M       20.04M           cn0485                0          5.27M            cpu=256,m+ cpu=01:50:00,+ cpu=01:50:05,+ cpu=cn0485,energy+ cpu=1,fs/disk=0,m+ cpu=01:49:42,+ cpu=cn0485,energy+ cpu=9,fs/disk=123+ cpu=9-18:41:5+ energy=0,fs/di+ energy=cn0485,fs/d+           fs/disk=0 energy=0,fs/di+ energy=0,fs/di+ 
