JobId=7874001 JobName=submit.job
   UserId=nspallan(25378) GroupId=interactive(25200) MCS_label=N/A
   Priority=194869 Nice=0 Account=euhpc_e01_022 QOS=boost_qos_bprod
   JobState=RUNNING Reason=None Dependency=(null)
   Requeue=0 Restarts=0 BatchFlag=1 Reboot=0 ExitCode=0:0
   DerivedExitCode=0:0
   RunTime=00:00:04 TimeLimit=03:00:00 TimeMin=N/A
   SubmitTime=2024-09-26T16:56:57 EligibleTime=2024-09-26T16:56:57
   AccrueTime=2024-09-26T16:56:57
   StartTime=2024-09-26T17:50:16 EndTime=2024-09-26T20:50:17 Deadline=N/A
   SuspendTime=None SecsPreSuspend=0 LastSchedEval=2024-09-26T17:50:16 Scheduler=Main
   Partition=boost_usr_prod AllocNode:Sid=slurm-controller:1292059
   ReqNodeList=(null) ExcNodeList=(null)
   NodeList=lrdn[0075,0079,0139,0187,0217,0229,0295,0552,0562,0574,0622,0653,0695,0712,0935,1005,1163,1184,1304,1643,1840,1857,1864,1889,1897,1912,1926,1946,1956,1968,1971,1982,2001,2013,2022,2035,2054,2081,2116-2117,2131,2176,2180,2191,2208,2215,2221,2236,2238,2256,2265,2279,2286,2339,2389,2428,2510,2555,2562,2566,2585,2604,2624,2628,2852,2869,2953,3052,3105,3202]
   BatchHost=lrdn0075
   NumNodes=70 NumCPUs=2240 NumTasks=280 CPUs/Task=8 ReqB:S:C:T=0:0:*:*
   TRES=cpu=2240,mem=33687.50G,node=70,billing=2240,gres/gpu=280
   Socks/Node=* NtasksPerN:B:S:C=4:0:*:* CoreSpec=*
   JOB_GRES=gpu:a100:280
     Nodes=lrdn[0075,0079,0139,0187,0217,0229,0295,0552,0562,0574,0622,0653,0695,0712,0935,1005,1163,1184,1304,1643,1840,1857,1864,1889,1897,1912,1926,1946,1956,1968,1971,1982,2001,2013,2022,2035,2054,2081,2116-2117,2131,2176,2180,2191,2208,2215,2221,2236,2238,2256,2265,2279,2286,2339,2389,2428,2510,2555,2562,2566,2585,2604,2624,2628,2852,2869,2953,3052,3105,3202] CPU_IDs=0-31 Mem=492800 GRES=gpu:a100:4(IDX:0-3)
   MinCPUsNode=32 MinMemoryCPU=15400M MinTmpDiskNode=0
   Features=(null) DelayBoot=00:00:00
   OverSubscribe=NO Contiguous=0 Licenses=(null) Network=(null)
   Command=/leonardo_work/EUHPC_E01_022/nspallan/benchmarks/strongscaling_gpu_cuf_7k/000002/000008_submit/work/submit.job
   WorkDir=/leonardo_work/EUHPC_E01_022/nspallan/benchmarks/strongscaling_gpu_cuf_7k/000002/000008_submit/work
   StdErr=/leonardo_work/EUHPC_E01_022/nspallan/benchmarks/strongscaling_gpu_cuf_7k/000002/000008_submit/work/slurm-7874001.out
   StdIn=/dev/null
   StdOut=/leonardo_work/EUHPC_E01_022/nspallan/benchmarks/strongscaling_gpu_cuf_7k/000002/000008_submit/work/slurm-7874001.out
   Power=
   TresPerNode=gres:gpu:4
   

