JobId=34961504 JobName=CovidWeakSize
   UserId=eufedericop(1977552410) GroupId=eufedericop(1977552410) MCS_label=N/A
   Priority=65899419 Nice=0 Account=b2024b06-053-users QOS=normal
   JobState=RUNNING Reason=None Dependency=(null)
   Requeue=1 Restarts=0 BatchFlag=1 Reboot=0 ExitCode=0:0
   DerivedExitCode=0:0
   RunTime=00:00:02 TimeLimit=1-00:00:00 TimeMin=N/A
   SubmitTime=2024-09-17T13:26:29 EligibleTime=2024-09-17T13:26:29
   AccrueTime=2024-09-17T13:26:29
   StartTime=2024-09-17T13:35:03 EndTime=2024-09-18T13:35:03 Deadline=N/A
   SuspendTime=None SecsPreSuspend=0 LastSchedEval=2024-09-17T13:35:03 Scheduler=Backfill
   Partition=gpu AllocNode:Sid=login0001-dmz:1944248
   ReqNodeList=(null) ExcNodeList=(null)
   NodeList=gn43
   BatchHost=gn43
   NumNodes=1 NumCPUs=256 NumTasks=64 CPUs/Task=2 ReqB:S:C:T=0:0:*:1
   ReqTRES=cpu=128,mem=125G,node=1,billing=256,gres/gpu=4
   AllocTRES=cpu=256,mem=125G,node=1,billing=256,gres/gpu=4
   Socks/Node=* NtasksPerN:B:S:C=64:0:*:* CoreSpec=*
   JOB_GRES=gpu:4
     Nodes=gn43 CPU_IDs=0-255 Mem=128000 GRES=gpu:4(IDX:0-3)
   MinCPUsNode=128 MinMemoryCPU=1000M MinTmpDiskNode=0
   Features=(null) DelayBoot=00:00:00
   OverSubscribe=NO Contiguous=0 Licenses=(null) Network=(null)
   Command=/ceph/hpc/home/eufedericop/JUBE4MaX-GPU/max-inputs/interface/siesta/_CovidWeakSize/000000/000000_submit/work/submit.job
   WorkDir=/ceph/hpc/home/eufedericop/JUBE4MaX-GPU/max-inputs/interface/siesta/_CovidWeakSize/000000/000000_submit/work
   StdErr=/ceph/hpc/home/eufedericop/JUBE4MaX-GPU/max-inputs/interface/siesta/_CovidWeakSize/000000/000000_submit/work/slurm-34961504.out
   StdIn=/dev/null
   StdOut=/ceph/hpc/home/eufedericop/JUBE4MaX-GPU/max-inputs/interface/siesta/_CovidWeakSize/000000/000000_submit/work/slurm-34961504.out
   Power=
   TresPerNode=gres/gpu:4
   TresPerTask=cpu:2
   

