JobId=1589809 JobName=CovidWeakKPoints
   UserId=it4i-fpedron(9897) GroupId=it4i-fpedron(11979) MCS_label=N/A
   Priority=302370250 Nice=0 Account=dd-24-70 QOS=2820_4664
   JobState=RUNNING Reason=None Dependency=(null)
   Requeue=1 Restarts=0 BatchFlag=1 Reboot=0 ExitCode=0:0
   DerivedExitCode=0:0
   RunTime=00:00:04 TimeLimit=00:59:00 TimeMin=N/A
   SubmitTime=2024-09-06T11:25:38 EligibleTime=2024-09-06T11:25:38
   AccrueTime=2024-09-06T11:25:38
   StartTime=2024-09-06T15:24:18 EndTime=2024-09-06T16:23:18 Deadline=N/A
   PreemptEligibleTime=2024-09-06T15:24:18 PreemptTime=None
   SuspendTime=None SecsPreSuspend=0 LastSchedEval=2024-09-06T15:24:18 Scheduler=Backfill
   Partition=qgpu AllocNode:Sid=login4.karolina.it4i.cz:2332276
   ReqNodeList=(null) ExcNodeList=(null)
   NodeList=acn[19-21,31-32,40,64,68]
   BatchHost=acn19
   NumNodes=8 NumCPUs=1024 NumTasks=512 CPUs/Task=1 ReqB:S:C:T=0:0:*:*
   ReqTRES=cpu=512,mem=3880G,node=8,billing=64,gres/gpu=64
   AllocTRES=cpu=1024,mem=7760G,node=8,billing=64,gres/gpu=64
   Socks/Node=* NtasksPerN:B:S:C=64:0:*:* CoreSpec=*
   JOB_GRES=gpu:a100:64
     Nodes=acn[19-21,31-32,40,64,68] CPU_IDs=0-127 Mem=993280 GRES=gpu:a100:8(IDX:0-7)
   MinCPUsNode=64 MinMemoryCPU=7760M MinTmpDiskNode=0
   Features=(null) DelayBoot=00:00:00
   OverSubscribe=NO Contiguous=0 Licenses=(null) Network=(null)
   Command=/home/it4i-fpedron/JUBE4MaX-GPU/max-inputs/interface/siesta/_CovidWeakKPoints/000000/000003_submit/work/submit.job
   WorkDir=/home/it4i-fpedron/JUBE4MaX-GPU/max-inputs/interface/siesta/_CovidWeakKPoints/000000/000003_submit/work
   StdErr=/home/it4i-fpedron/JUBE4MaX-GPU/max-inputs/interface/siesta/_CovidWeakKPoints/000000/000003_submit/work/slurm-1589809.out
   StdIn=/dev/null
   StdOut=/home/it4i-fpedron/JUBE4MaX-GPU/max-inputs/interface/siesta/_CovidWeakKPoints/000000/000003_submit/work/slurm-1589809.out
   Power=
   CpusPerTres=gres/gpu:16
   TresPerNode=gres/gpu:8
   

