load mkl/2024.0 (LD_LIBRARY_PATH)
load HDF5/1.14.1-2 (PATH, LD_LIBRARY_PATH, LIBRARY_PATH, C_INCLUDE_PATH,
CPLUS_INCLUDE_PATH, HDF5_DIR, HDF5_ROOT) 
load QUANTUMESPRESSO/7.3.1 (PATH)
Warning: ieee_inexact is signaling
FORTRAN STOP
Warning: ieee_inexact is signaling
FORTRAN STOP
Warning: ieee_inexact is signaling
FORTRAN STOP
[as01r4b21:1635116:0:1635116] Caught signal 11 (Segmentation fault: address not mapped to object at address 0x1b5c7058)
[as01r4b21:1635114:0:1635114] Caught signal 11 (Segmentation fault: address not mapped to object at address 0xffffffffbbbef058)
[as01r4b21:1635115:0:1635115] Caught signal 11 (Segmentation fault: address not mapped to object at address 0xffffffffdc736058)
Warning: ieee_divide_by_zero is signaling
Warning: ieee_inexact is signaling
FORTRAN STOP
[as01r4b21:1635113:0:1635113] Caught signal 11 (Segmentation fault: address not mapped to object at address 0x3391b058)
--------------------------------------------------------------------------
Primary job  terminated normally, but 1 process returned
a non-zero exit code. Per user-direction, the job has been aborted.
--------------------------------------------------------------------------
--------------------------------------------------------------------------
mpirun noticed that process rank 0 with PID 1635113 on node as01r4b21 exited on signal 11 (Segmentation fault).
--------------------------------------------------------------------------
