{
 "global_section": { "_calls": 1, "_time":       46.630, "_%":   100.00,
   "siesta": { "_calls": 1, "_time":       46.630, "_%":   100.00,
     "Setup": { "_calls": 1, "_time":        2.681, "_%":     5.75,
       "bands": { "_calls": 1, "_time":        0.004, "_%":     0.01},
       "KSV_init": { "_calls": 1, "_time":        0.001, "_%":     0.00}
     },
     "IterGeom": { "_calls": 1, "_time":       43.745, "_%":    93.81,
       "geom_init": { "_calls": 1, "_time":        3.493, "_%":     7.49,
         "state_init": { "_calls": 1, "_time":        0.406, "_%":     0.87,
           "hsparse": { "_calls": 1, "_time":        0.099, "_%":     0.21},
           "overlap": { "_calls": 1, "_time":        0.035, "_%":     0.07}
         },
         "Setup_H0": { "_calls": 1, "_time":        3.086, "_%":     6.62,
           "naefs": { "_calls": 1, "_time":        0.015, "_%":     0.03},
           "MolMec": { "_calls": 1, "_time":        0.000, "_%":     0.00},
           "kinefsm": { "_calls": 1, "_time":        0.027, "_%":     0.06},
           "nlefsm": { "_calls": 1, "_time":        0.098, "_%":     0.21},
           "DHSCF_Init": { "_calls": 1, "_time":        2.937, "_%":     6.30,
             "DHSCF1": { "_calls": 1, "_time":        0.027, "_%":     0.06,
               "INITMESH": { "_calls": 1, "_time":        0.000, "_%":     0.00}
             },
             "DHSCF2": { "_calls": 1, "_time":        2.898, "_%":     6.22,
               "REMESH": { "_calls": 1, "_time":        1.988, "_%":     4.26,
                 "INITMESH": { "_calls": 2, "_time":        1.905, "_%":     4.09,
                   "SPLOAD": { "_calls": 2, "_time":        0.783, "_%":     1.68}
                 }
               },
               "REORD": { "_calls": 2, "_time":        0.002, "_%":     0.00},
               "PHION": { "_calls": 1, "_time":        0.018, "_%":     0.04},
               "COMM_BSC": { "_calls": 1, "_time":        0.065, "_%":     0.14},
               "POISON": { "_calls": 1, "_time":        0.524, "_%":     1.12,
                 "fft": { "_calls": 2, "_time":        0.503, "_%":     1.08}
               }
             }
           }
         }
       },
       "IterSCF": { "_calls": 5, "_time":       40.154, "_%":    86.11,
         "setup_H": { "_calls": 5, "_time":        4.295, "_%":     9.21,
           "DHSCF": { "_calls": 5, "_time":        4.270, "_%":     9.16,
             "DHSCF3": { "_calls": 5, "_time":        4.270, "_%":     9.16,
               "rhoofd": { "_calls": 5, "_time":        0.040, "_%":     0.09},
               "COMM_BSC": { "_calls": 10, "_time":        0.249, "_%":     0.53},
               "POISON": { "_calls": 5, "_time":        2.341, "_%":     5.02,
                 "fft": { "_calls": 10, "_time":        2.268, "_%":     4.86}
               },
               "XC": { "_calls": 5, "_time":        1.391, "_%":     2.98,
                 "COMM_BSC": { "_calls": 10, "_time":        0.250, "_%":     0.54},
                 "GXC-CellXC": { "_calls": 5, "_time":        1.115, "_%":     2.39,
                   "gridxc@cellXC": { "_calls": 5, "_time":        1.115, "_%":     2.39}
                 }
               },
               "vmat": { "_calls": 5, "_time":        0.027, "_%":     0.06}
             }
           }
         },
         "compute_dm": { "_calls": 5, "_time":       35.780, "_%":    76.73,
           "redist_orbs_fwd": { "_calls": 80, "_time":        0.226, "_%":     0.48},
           "elsi-complex-solver": { "_calls": 5, "_time":       35.496, "_%":    76.12,
             "elsi-solver": { "_calls": 5, "_time":       10.400, "_%":    22.30}
           },
           "redist_dm-edm_bck": { "_calls": 5, "_time":        0.018, "_%":     0.04}
         },
         "MIXER": { "_calls": 5, "_time":        0.049, "_%":     0.11}
       },
       "state_analysis": { "_calls": 1, "_time":        0.075, "_%":     0.16},
       "siesta_move": { "_calls": 1, "_time":        0.000, "_%":     0.00}
     },
     "Analysis": { "_calls": 1, "_time":        0.154, "_%":     0.33,
       "optical": { "_calls": 1, "_time":        0.001, "_%":     0.00}
     }
   }
 }}
