load mkl/2024.0 (LD_LIBRARY_PATH)
load HDF5/1.14.1-2 (PATH, LD_LIBRARY_PATH, LIBRARY_PATH, C_INCLUDE_PATH,
CPLUS_INCLUDE_PATH, HDF5_DIR, HDF5_ROOT) 
load QUANTUMESPRESSO/7.3.1 (PATH)
Warning: ieee_inexact is signaling
FORTRAN STOP
[as01r2b10:198018:0:198018] Caught signal 11 (Segmentation fault: address not mapped to object at address 0x271c6058)
Warning: ieee_inexact is signaling
FORTRAN STOP
Warning: ieee_inexact is signaling
FORTRAN STOP
Warning: ieee_inexact is signaling
FORTRAN STOP
[as01r2b10:198019:0:198019] Caught signal 11 (Segmentation fault: address not mapped to object at address 0xffffffffbdfb8058)
[as01r2b10:198017:0:198017] Caught signal 11 (Segmentation fault: address not mapped to object at address 0x2151f058)
Warning: ieee_inexact is signaling
FORTRAN STOP
Warning: ieee_inexact is signaling
FORTRAN STOP
Warning: ieee_inexact is signaling
FORTRAN STOP
Warning: ieee_inexact is signaling
FORTRAN STOP
[as01r2b11:340046:0:340046] Caught signal 11 (Segmentation fault: address not mapped to object at address 0xffffffffc7310058)
[as01r2b11:340048:0:340048] Caught signal 11 (Segmentation fault: address not mapped to object at address 0xffffffff8ccf3058)
[as01r2b11:340049:0:340049] Caught signal 11 (Segmentation fault: address not mapped to object at address 0xffffffff88534058)
[as01r2b11:340047:0:340047] Caught signal 11 (Segmentation fault: address not mapped to object at address 0x1d807058)
Warning: ieee_inexact is signaling
FORTRAN STOP
Warning: ieee_inexact is signaling
FORTRAN STOP
Warning: ieee_inexact is signaling
FORTRAN STOP
Warning: ieee_inexact is signaling
FORTRAN STOP
[as01r2b08:3876496:0:3876496] Caught signal 11 (Segmentation fault: address not mapped to object at address 0xffffffffaa1bf058)
Warning: ieee_inexact is signaling
FORTRAN STOP
[as01r2b08:3876495:0:3876495] Caught signal 11 (Segmentation fault: address not mapped to object at address 0x7500f058)
[as01r2b08:3876497:0:3876497] Caught signal 11 (Segmentation fault: address not mapped to object at address 0x7b273058)
[as01r2b08:3876494:0:3876494] Caught signal 11 (Segmentation fault: invalid permissions for mapped object at address 0x4750058)
Warning: ieee_inexact is signaling
FORTRAN STOP
Warning: ieee_inexact is signaling
FORTRAN STOP
Warning: ieee_inexact is signaling
FORTRAN STOP
Warning: ieee_inexact is signaling
FORTRAN STOP
Warning: ieee_inexact is signaling
FORTRAN STOP
Warning: ieee_inexact is signaling
FORTRAN STOP
Warning: ieee_inexact is signaling
FORTRAN STOP
Warning: ieee_inexact is signaling
FORTRAN STOP
Warning: ieee_inexact is signaling
FORTRAN STOP
Warning: ieee_divide_by_zero is signaling
Warning: ieee_inexact is signaling
FORTRAN STOP
Warning: ieee_inexact is signaling
FORTRAN STOP
Warning: ieee_inexact is signaling
FORTRAN STOP
Warning: ieee_inexact is signaling
FORTRAN STOP
Warning: ieee_inexact is signaling
FORTRAN STOP
Warning: ieee_inexact is signaling
FORTRAN STOP
[as01r2b12:1926472:0:1926472] Caught signal 11 (Segmentation fault: address not mapped to object at address 0x40fe5058)
[as01r2b12:1926470:0:1926470] Caught signal 11 (Segmentation fault: address not mapped to object at address 0xffffffffb860c058)
[as01r2b12:1926471:0:1926471] Caught signal 11 (Segmentation fault: address not mapped to object at address 0xffffffff8ab6e058)
[as01r2b12:1926469:0:1926469] Caught signal 11 (Segmentation fault: address not mapped to object at address 0x604c3058)
Warning: ieee_inexact is signaling
FORTRAN STOP
Warning: ieee_inexact is signaling
FORTRAN STOP
[as01r2b07:3707100:0:3707100] Caught signal 11 (Segmentation fault: address not mapped to object at address 0x6a79c058)
[as01r2b07:3707101:0:3707101] Caught signal 11 (Segmentation fault: address not mapped to object at address 0x47021058)
[as01r2b07:3707098:0:3707098] Caught signal 11 (Segmentation fault: address not mapped to object at address 0x6f7e1058)
[as01r2b07:3707099:0:3707099] Caught signal 11 (Segmentation fault: address not mapped to object at address 0xffffffff90642058)
Warning: ieee_inexact is signaling
FORTRAN STOP
Warning: ieee_inexact is signaling
FORTRAN STOP
[as01r2b14:2671787:0:2671787] Caught signal 11 (Segmentation fault: address not mapped to object at address 0x55ab0058)
[as01r2b14:2671788:0:2671788] Caught signal 11 (Segmentation fault: address not mapped to object at address 0x5be3e058)
[as01r2b14:2671790:0:2671790] Caught signal 11 (Segmentation fault: address not mapped to object at address 0xffffffffd5a9d058)
[as01r2b14:2671789:0:2671789] Caught signal 11 (Segmentation fault: address not mapped to object at address 0xffffffffbb5c6058)
[as01r2b06:1986377:0:1986377] Caught signal 11 (Segmentation fault: address not mapped to object at address 0x6b992058)
[as01r2b06:1986375:0:1986375] Caught signal 11 (Segmentation fault: address not mapped to object at address 0xffffffffc2406058)
[as01r2b06:1986378:0:1986378] Caught signal 11 (Segmentation fault: address not mapped to object at address 0x34c29058)
[as01r2b05:1002341:0:1002341] Caught signal 11 (Segmentation fault: invalid permissions for mapped object at address 0x571c058)
[as01r2b05:1002339:0:1002339] Caught signal 11 (Segmentation fault: address not mapped to object at address 0xffffffffe1250058)
[as01r2b05:1002340:0:1002340] Caught signal 11 (Segmentation fault: address not mapped to object at address 0x7209c058)
[as01r2b05:1002338:0:1002338] Caught signal 11 (Segmentation fault: address not mapped to object at address 0x63dc0058)
[as01r2b06:1986376:0:1986376] Caught signal 11 (Segmentation fault: address not mapped to object at address 0x379e8058)
--------------------------------------------------------------------------
Primary job  terminated normally, but 1 process returned
a non-zero exit code. Per user-direction, the job has been aborted.
--------------------------------------------------------------------------
[as01r2b10:198020:0:198020] Caught signal 11 (Segmentation fault: address not mapped to object at address 0x201c5058)
==== backtrace (tid:1002341) ====
 0 0x0000000000054df0 __GI___sigaction()  :0
=================================
[as01r2b05:1002341] *** Process received signal ***
[as01r2b05:1002341] Signal: Segmentation fault (11)
[as01r2b05:1002341] Signal code:  (-6)
[as01r2b05:1002341] Failing at address: 0xbe8000f4b65
[as01r2b05:1002341] [ 0] /lib64/libc.so.6(+0x54df0)[0x7f3f1aa65df0]
[as01r2b05:1002341] [ 1] [0x571c058]
[as01r2b05:1002341] *** End of error message ***
==== backtrace (tid:3876494) ====
 0 0x0000000000054df0 __GI___sigaction()  :0
=================================
[as01r2b08:3876494] *** Process received signal ***
[as01r2b08:3876494] Signal: Segmentation fault (11)
[as01r2b08:3876494] Signal code:  (-6)
[as01r2b08:3876494] Failing at address: 0xbe8003b268e
[as01r2b08:3876494] [ 0] /lib64/libc.so.6(+0x54df0)[0x7f6919a99df0]
[as01r2b08:3876494] [ 1] [0x4750058]
[as01r2b08:3876494] *** End of error message ***
--------------------------------------------------------------------------
mpirun noticed that process rank 17 with PID 198018 on node as01r2b10 exited on signal 11 (Segmentation fault).
--------------------------------------------------------------------------
