JobId=7684419 JobName=submit.job
   UserId=fpedron0(126159) GroupId=interactive(25200) MCS_label=N/A
   Priority=181129 Nice=0 Account=euhpc_b13_053_0 QOS=dcgp_qos_bprod
   JobState=RUNNING Reason=None Dependency=(null)
   Requeue=0 Restarts=0 BatchFlag=1 Reboot=0 ExitCode=0:0
   DerivedExitCode=0:0
   RunTime=00:00:05 TimeLimit=1-00:00:00 TimeMin=N/A
   SubmitTime=2024-09-13T18:25:56 EligibleTime=2024-09-13T18:25:56
   AccrueTime=2024-09-13T18:25:56
   StartTime=2024-09-13T21:49:23 EndTime=2024-09-14T21:49:25 Deadline=N/A
   SuspendTime=None SecsPreSuspend=0 LastSchedEval=2024-09-13T21:49:23 Scheduler=Main
   Partition=dcgp_usr_prod AllocNode:Sid=slurm-controller:3895506
   ReqNodeList=(null) ExcNodeList=(null)
   NodeList=lrdn[3509,3590,3647,3682,3740,3823,3897,3942,3955,3982,4051,4176,4207,4226,4273,4297,4362,4382,4430,4484,4512,4527,4582,4608,4672,4695,4754,4760,4807,4842,4906,4923]
   BatchHost=lrdn3509
   NumNodes=32 NumCPUs=3584 NumTasks=3584 CPUs/Task=1 ReqB:S:C:T=0:0:*:*
   TRES=cpu=3584,mem=15400G,node=32,billing=3584,gres/tmpfs=105553116266496
   Socks/Node=* NtasksPerN:B:S:C=112:0:*:* CoreSpec=*
   JOB_GRES=tmpfs:105553116266496
     Nodes=lrdn[3509,3590,3647,3682,3740,3823,3897,3942,3955,3982,4051,4176,4207,4226,4273,4297,4362,4382,4430,4484,4512,4527,4582,4608,4672,4695,4754,4760,4807,4842,4906,4923] CPU_IDs=0-111 Mem=492800 GRES=tmpfs(CNT:3298534883328)
   MinCPUsNode=112 MinMemoryCPU=4400M MinTmpDiskNode=0
   Features=(null) DelayBoot=00:00:00
   OverSubscribe=NO Contiguous=0 Licenses=(null) Network=(null)
   Command=/leonardo/home/userexternal/fpedron0/JUBE4MaX/max-inputs/interface/siesta/_CovidWeakKPoints/000001/000001_submit/work/submit.job
   WorkDir=/leonardo/home/userexternal/fpedron0/JUBE4MaX/max-inputs/interface/siesta/_CovidWeakKPoints/000001/000001_submit/work
   StdErr=/leonardo/home/userexternal/fpedron0/JUBE4MaX/max-inputs/interface/siesta/_CovidWeakKPoints/000001/000001_submit/work/slurm-7684419.out
   StdIn=/dev/null
   StdOut=/leonardo/home/userexternal/fpedron0/JUBE4MaX/max-inputs/interface/siesta/_CovidWeakKPoints/000001/000001_submit/work/slurm-7684419.out
   Power=
   TresPerNode=gres:tmpfs:10g
   

