JobID        JobIDRaw        JobName  Partition  MaxVMSize  MaxVMSizeNode  MaxVMSizeTask  AveVMSize     MaxRSS MaxRSSNode MaxRSSTask     AveRSS MaxPages MaxPagesNode   MaxPagesTask   AvePages     MinCPU MinCPUNode MinCPUTask     AveCPU   NTasks  AllocCPUS    Elapsed      State ExitCode AveCPUFreq ReqCPUFreqMin ReqCPUFreqMax ReqCPUFreqGov     ReqMem ConsumedEnergy  MaxDiskRead MaxDiskReadNode MaxDiskReadTask    AveDiskRead MaxDiskWrite MaxDiskWriteNode MaxDiskWriteTask   AveDiskWrite    ReqTRES  AllocTRES TRESUsageInAve TRESUsageInMax TRESUsageInMaxNode TRESUsageInMaxTask TRESUsageInMin TRESUsageInMinNode TRESUsageInMinTask TRESUsageInTot TRESUsageOutMax TRESUsageOutMaxNode TRESUsageOutMaxTask TRESUsageOutAve TRESUsageOutTot 
------------ ------------ ---------- ---------- ---------- -------------- -------------- ---------- ---------- ---------- ---------- ---------- -------- ------------ -------------- ---------- ---------- ---------- ---------- ---------- -------- ---------- ---------- ---------- -------- ---------- ------------- ------------- ------------- ---------- -------------- ------------ --------------- --------------- -------------- ------------ ---------------- ---------------- -------------- ---------- ---------- -------------- -------------- ------------------ ------------------ -------------- ------------------ ------------------ -------------- --------------- ------------------- ------------------- --------------- --------------- 
8022894      8022894      CovidWeak+   standard                                                                                                                                                                                                            2048   00:00:42    RUNNING      0:0                  Unknown       Unknown       Unknown      1792G                                                                                                                                          billing=1+ billing=2+                                                                                                                                                                                                                                 
8022894.bat+ 8022894.bat+      batch                                                                                                                                                                                                               1        256   00:00:42    RUNNING      0:0          0             0             0             0                         0                                                                                                                                      cpu=256,m+                                                                                                                                                                                                                                 
8022894.0    8022894.0        siesta              3802208K      nid001135              9 2851167176    344536K  nid001135          0  271288624      918    nid001135             92        359   00:00:20  nid001135        107   00:00:29     1024       2048   00:00:38  COMPLETED      0:0     66.53G       Unknown       Unknown       Unknown                   165.59K        1.94M       nid001135               0          0.17M       12.79M        nid001135                0          0.04M            cpu=2048,+ cpu=00:00:29,+ cpu=00:00:34,+ cpu=nid001373,ene+ cpu=669,fs/disk=0+ cpu=00:00:20,+ cpu=nid001135,ene+ cpu=107,fs/disk=1+ cpu=08:20:37,+ energy=710,fs/+ energy=nid001145,f+           fs/disk=0 energy=2,fs/di+ energy=2457,fs+ 
