JobId=9552171 JobName=CovidStrong
   UserId=icn2553284(51005) GroupId=icn2(50004) MCS_label=N/A
   Priority=71492 Nice=0 Account=icn85 QOS=gp_resa
   JobState=RUNNING Reason=None Dependency=(null)
   Requeue=0 Restarts=0 BatchFlag=1 Reboot=0 ExitCode=0:0
   RunTime=00:00:05 TimeLimit=02:00:00 TimeMin=N/A
   SubmitTime=2024-09-30T11:21:17 EligibleTime=2024-09-30T11:21:17
   AccrueTime=2024-09-30T11:21:17
   StartTime=2024-09-30T21:23:52 EndTime=2024-09-30T23:23:52 Deadline=N/A
   SuspendTime=None SecsPreSuspend=0 LastSchedEval=2024-09-30T21:23:52 Scheduler=Backfill
   Partition=gpp AllocNode:Sid=glogin1:2011625
   ReqNodeList=(null) ExcNodeList=(null)
   NodeList=gs01r2b64
   BatchHost=gs01r2b64
   NumNodes=1 NumCPUs=224 NumTasks=112 CPUs/Task=1 ReqB:S:C:T=0:0:*:1
   ReqTRES=cpu=112,mem=1008000M,node=1,billing=112
   AllocTRES=cpu=224,mem=1008000M,node=1,billing=224
   Socks/Node=* NtasksPerN:B:S:C=112:0:*:* CoreSpec=*
   MinCPUsNode=112 MinMemoryCPU=9000M MinTmpDiskNode=0
   Features=highmem DelayBoot=00:00:00
   OverSubscribe=NO Contiguous=0 Licenses=(null) Network=(null)
   Command=/gpfs/home/icn2/icn2553284/jube4max/max-inputs/interface/siesta/_CovidStrong/000001/000006_submit/work/submit.job
   WorkDir=/gpfs/home/icn2/icn2553284/jube4max/max-inputs/interface/siesta/_CovidStrong/000001/000006_submit/work
   StdErr=/gpfs/home/icn2/icn2553284/jube4max/max-inputs/interface/siesta/_CovidStrong/000001/000006_submit/work/job_9552171.err
   StdIn=/dev/null
   StdOut=/gpfs/home/icn2/icn2553284/jube4max/max-inputs/interface/siesta/_CovidStrong/000001/000006_submit/work/job_9552171.out
   Power=
   

