JobId=7758242 JobName=submit.job
   UserId=fpedron0(126159) GroupId=interactive(25200) MCS_label=N/A
   Priority=142581 Nice=0 Account=euhpc_b13_053 QOS=normal
   JobState=RUNNING Reason=None Dependency=(null)
   Requeue=0 Restarts=0 BatchFlag=1 Reboot=0 ExitCode=0:0
   DerivedExitCode=0:0
   RunTime=00:00:04 TimeLimit=01:00:00 TimeMin=N/A
   SubmitTime=2024-09-18T15:57:25 EligibleTime=2024-09-18T15:57:25
   AccrueTime=2024-09-18T15:57:25
   StartTime=2024-09-18T16:14:37 EndTime=2024-09-18T17:14:38 Deadline=N/A
   SuspendTime=None SecsPreSuspend=0 LastSchedEval=2024-09-18T16:14:37 Scheduler=Backfill
   Partition=boost_usr_prod AllocNode:Sid=slurm-controller:2777051
   ReqNodeList=(null) ExcNodeList=(null)
   NodeList=lrdn[0076,0306,0381,0563,0686,0854,0883,0937,1130,1155,1231,1277,1283,1364,1376,1398,1402,1418,1465,1517,1562,1599,1646,1657,1814,1827,1851,1942,2210,2278,2345,2394]
   BatchHost=lrdn0076
   NumNodes=32 NumCPUs=1024 NumTasks=1024 CPUs/Task=1 ReqB:S:C:T=0:0:*:*
   TRES=cpu=1024,mem=15400G,node=32,billing=1024,gres/gpu=128
   Socks/Node=* NtasksPerN:B:S:C=32:0:*:* CoreSpec=*
   JOB_GRES=gpu:a100:128
     Nodes=lrdn[0076,0306,0381,0563,0686,0854,0883,0937,1130,1155,1231,1277,1283,1364,1376,1398,1402,1418,1465,1517,1562,1599,1646,1657,1814,1827,1851,1942,2210,2278,2345,2394] CPU_IDs=0-31 Mem=492800 GRES=gpu:a100:4(IDX:0-3)
   MinCPUsNode=32 MinMemoryCPU=15400M MinTmpDiskNode=0
   Features=(null) DelayBoot=00:00:00
   OverSubscribe=NO Contiguous=0 Licenses=(null) Network=(null)
   Command=/leonardo/home/userexternal/fpedron0/JUBE4MaX-GPU/max-inputs/interface/siesta/_CovidWeak/000002/000000_submit/work/submit.job
   WorkDir=/leonardo/home/userexternal/fpedron0/JUBE4MaX-GPU/max-inputs/interface/siesta/_CovidWeak/000002/000000_submit/work
   StdErr=/leonardo/home/userexternal/fpedron0/JUBE4MaX-GPU/max-inputs/interface/siesta/_CovidWeak/000002/000000_submit/work/slurm-7758242.out
   StdIn=/dev/null
   StdOut=/leonardo/home/userexternal/fpedron0/JUBE4MaX-GPU/max-inputs/interface/siesta/_CovidWeak/000002/000000_submit/work/slurm-7758242.out
   Power=
   TresPerNode=gres:gpu:4
   

