{
 "global_section": { "_calls": 1, "_time":     1540.080, "_%":   100.00,
   "siesta": { "_calls": 1, "_time":     1540.080, "_%":   100.00,
     "Setup": { "_calls": 1, "_time":        2.006, "_%":     0.13,
       "bands": { "_calls": 1, "_time":        0.002, "_%":     0.00},
       "KSV_init": { "_calls": 1, "_time":        0.001, "_%":     0.00}
     },
     "IterGeom": { "_calls": 1, "_time":     1122.980, "_%":    72.92,
       "geom_init": { "_calls": 1, "_time":        6.558, "_%":     0.43,
         "state_init": { "_calls": 1, "_time":        0.896, "_%":     0.06,
           "hsparse": { "_calls": 1, "_time":        0.218, "_%":     0.01},
           "overlap": { "_calls": 1, "_time":        0.079, "_%":     0.01}
         },
         "Setup_H0": { "_calls": 1, "_time":        5.661, "_%":     0.37,
           "naefs": { "_calls": 1, "_time":        0.032, "_%":     0.00},
           "MolMec": { "_calls": 1, "_time":        0.000, "_%":     0.00},
           "kinefsm": { "_calls": 1, "_time":        0.075, "_%":     0.00},
           "nlefsm": { "_calls": 1, "_time":        0.293, "_%":     0.02},
           "DHSCF_Init": { "_calls": 1, "_time":        5.240, "_%":     0.34,
             "DHSCF1": { "_calls": 1, "_time":        0.048, "_%":     0.00,
               "INITMESH": { "_calls": 1, "_time":        0.000, "_%":     0.00}
             },
             "DHSCF2": { "_calls": 1, "_time":        5.168, "_%":     0.34,
               "REMESH": { "_calls": 1, "_time":        3.247, "_%":     0.21,
                 "INITMESH": { "_calls": 2, "_time":        3.146, "_%":     0.20,
                   "SPLOAD": { "_calls": 2, "_time":        1.677, "_%":     0.11}
                 }
               },
               "REORD": { "_calls": 2, "_time":        0.008, "_%":     0.00},
               "PHION": { "_calls": 1, "_time":        0.103, "_%":     0.01},
               "COMM_BSC": { "_calls": 1, "_time":        0.049, "_%":     0.00},
               "POISON": { "_calls": 1, "_time":        1.212, "_%":     0.08,
                 "fft": { "_calls": 2, "_time":        1.158, "_%":     0.08}
               }
             }
           }
         }
       },
       "IterSCF": { "_calls": 5, "_time":     1116.304, "_%":    72.48,
         "setup_H": { "_calls": 5, "_time":       16.619, "_%":     1.08,
           "DHSCF": { "_calls": 5, "_time":       16.575, "_%":     1.08,
             "DHSCF3": { "_calls": 5, "_time":       16.575, "_%":     1.08,
               "rhoofd": { "_calls": 5, "_time":        0.122, "_%":     0.01},
               "COMM_BSC": { "_calls": 10, "_time":        0.465, "_%":     0.03},
               "POISON": { "_calls": 5, "_time":        9.758, "_%":     0.63,
                 "fft": { "_calls": 10, "_time":        9.481, "_%":     0.62}
               },
               "XC": { "_calls": 5, "_time":        5.756, "_%":     0.37,
                 "COMM_BSC": { "_calls": 10, "_time":        2.388, "_%":     0.16},
                 "GXC-CellXC": { "_calls": 5, "_time":        3.265, "_%":     0.21,
                   "gridxc@cellXC": { "_calls": 5, "_time":        3.264, "_%":     0.21}
                 }
               },
               "vmat": { "_calls": 5, "_time":        0.121, "_%":     0.01}
             }
           }
         },
         "compute_dm": { "_calls": 5, "_time":     1099.617, "_%":    71.40,
           "elsi": { "_calls": 5, "_time":     1099.554, "_%":    71.40,
             "find nnz_g": { "_calls": 5, "_time":        0.000, "_%":     0.00},
             "elsi-solver": { "_calls": 5, "_time":     1099.533, "_%":    71.39}
           }
         },
         "MIXER": { "_calls": 5, "_time":        0.009, "_%":     0.00}
       },
       "state_analysis": { "_calls": 1, "_time":        0.074, "_%":     0.00},
       "siesta_move": { "_calls": 1, "_time":        0.000, "_%":     0.00}
     },
     "Analysis": { "_calls": 1, "_time":       12.316, "_%":     0.80,
       "optical": { "_calls": 1, "_time":        0.001, "_%":     0.00}
     }
   }
 }}
