JobID        JobIDRaw        JobName  Partition  MaxVMSize  MaxVMSizeNode  MaxVMSizeTask  AveVMSize     MaxRSS MaxRSSNode MaxRSSTask     AveRSS MaxPages MaxPagesNode   MaxPagesTask   AvePages     MinCPU MinCPUNode MinCPUTask     AveCPU   NTasks  AllocCPUS    Elapsed      State ExitCode AveCPUFreq ReqCPUFreqMin ReqCPUFreqMax ReqCPUFreqGov     ReqMem ConsumedEnergy  MaxDiskRead MaxDiskReadNode MaxDiskReadTask    AveDiskRead MaxDiskWrite MaxDiskWriteNode MaxDiskWriteTask   AveDiskWrite    ReqTRES  AllocTRES TRESUsageInAve TRESUsageInMax TRESUsageInMaxNode TRESUsageInMaxTask TRESUsageInMin TRESUsageInMinNode TRESUsageInMinTask TRESUsageInTot TRESUsageOutMax TRESUsageOutMaxNode TRESUsageOutMaxTask TRESUsageOutAve TRESUsageOutTot 
------------ ------------ ---------- ---------- ---------- -------------- -------------- ---------- ---------- ---------- ---------- ---------- -------- ------------ -------------- ---------- ---------- ---------- ---------- ---------- -------- ---------- ---------- ---------- -------- ---------- ------------- ------------- ------------- ---------- -------------- ------------ --------------- --------------- -------------- ------------ ---------------- ---------------- -------------- ---------- ---------- -------------- -------------- ------------------ ------------------ -------------- ------------------ ------------------ -------------- --------------- ------------------- ------------------- --------------- --------------- 
5826891      5826891      CovidStro+        acc                                                                                                                                                                                                             640   00:19:42    RUNNING      0:0                  Unknown       Unknown       Unknown   2000000M                                                                                                                                          billing=3+ billing=6+                                                                                                                                                                                                                                 
5826891.bat+ 5826891.bat+      batch                                                                                                                                                                                                               1        160   00:19:42    RUNNING      0:0          0             0             0             0                         0                                                                                                                                      cpu=160,g+                                                                                                                                                                                                                                 
5826891.ext+ 5826891.ext+     extern                                                                                                                                                                                                               4        640   00:19:42    RUNNING      0:0          0             0             0             0                         0                                                                                                                                      billing=6+                                                                                                                                                                                                                                 
5826891.0    5826891.0    marenostr+             26946012K      as01r4b07            220 272192060+   1315657K  as01r4b07        228 1258021091       44    as01r4b07            182          4   00:18:28  as01r4b04         80   00:18:54      320        640   00:19:36  COMPLETED      0:0    296.46M       Unknown       Unknown       Unknown                         0       44.40M       as01r4b03               0         43.24M       15.69M        as01r4b03                0          5.22M            cpu=640,g+ cpu=00:18:54,+ cpu=00:19:03,+ cpu=as01r4b03,ene+ cpu=2,fs/disk=0,m+ cpu=00:18:28,+ cpu=as01r4b04,ene+ cpu=80,fs/disk=80+ cpu=4-04:51:5+ energy=0,fs/di+ energy=as01r4b11,f+           fs/disk=0 energy=0,fs/di+ energy=0,fs/di+ 
