JobId=5826891 JobName=CovidStrong
   UserId=icn2553284(51005) GroupId=icn2(50004) MCS_label=N/A
   Priority=196549 Nice=0 Account=ehpc37 QOS=acc_debug
   JobState=RUNNING Reason=None Dependency=(null)
   Requeue=0 Restarts=0 BatchFlag=1 Reboot=0 ExitCode=0:0
   RunTime=00:00:06 TimeLimit=02:00:00 TimeMin=N/A
   SubmitTime=2024-09-10T11:05:46 EligibleTime=2024-09-10T11:05:46
   AccrueTime=2024-09-10T11:05:46
   StartTime=2024-09-10T11:43:47 EndTime=2024-09-10T13:43:47 Deadline=N/A
   SuspendTime=None SecsPreSuspend=0 LastSchedEval=2024-09-10T11:43:47 Scheduler=Main
   Partition=acc AllocNode:Sid=alogin2:1418893
   ReqNodeList=(null) ExcNodeList=(null)
   NodeList=as01r4b[03-04,07,11]
   BatchHost=as01r4b03
   NumNodes=4 NumCPUs=640 NumTasks=320 CPUs/Task=1 ReqB:S:C:T=0:0:*:1
   ReqTRES=cpu=320,mem=2000000M,node=4,billing=320,gres/gpu=16
   AllocTRES=cpu=640,mem=2000000M,node=4,billing=640,gres/gpu=16
   Socks/Node=* NtasksPerN:B:S:C=80:0:*:* CoreSpec=*
   MinCPUsNode=80 MinMemoryCPU=6250M MinTmpDiskNode=0
   Features=(null) DelayBoot=00:00:00
   OverSubscribe=NO Contiguous=0 Licenses=(null) Network=(null)
   Command=/gpfs/home/icn2/icn2553284/jube4max-gpu/max-inputs/interface/siesta/_CovidStrong/000000/000002_submit/work/submit.job
   WorkDir=/gpfs/home/icn2/icn2553284/jube4max-gpu/max-inputs/interface/siesta/_CovidStrong/000000/000002_submit/work
   StdErr=/gpfs/home/icn2/icn2553284/jube4max-gpu/max-inputs/interface/siesta/_CovidStrong/000000/000002_submit/work/job_5826891.err
   StdIn=/dev/null
   StdOut=/gpfs/home/icn2/icn2553284/jube4max-gpu/max-inputs/interface/siesta/_CovidStrong/000000/000002_submit/work/job_5826891.out
   Power=
   TresPerNode=gres:gpu:4
   

