{
 "global_section": { "_calls": 1, "_time":     1160.390, "_%":   100.00,
   "siesta": { "_calls": 1, "_time":     1160.390, "_%":   100.00,
     "Setup": { "_calls": 1, "_time":        0.795, "_%":     0.07,
       "bands": { "_calls": 1, "_time":        0.002, "_%":     0.00},
       "KSV_init": { "_calls": 1, "_time":        0.000, "_%":     0.00}
     },
     "IterGeom": { "_calls": 1, "_time":     1152.700, "_%":    99.34,
       "geom_init": { "_calls": 1, "_time":       12.615, "_%":     1.09,
         "state_init": { "_calls": 1, "_time":        2.465, "_%":     0.21,
           "hsparse": { "_calls": 1, "_time":        0.124, "_%":     0.01},
           "overlap": { "_calls": 1, "_time":        1.008, "_%":     0.09}
         },
         "Setup_H0": { "_calls": 1, "_time":       10.149, "_%":     0.87,
           "naefs": { "_calls": 1, "_time":        0.018, "_%":     0.00},
           "MolMec": { "_calls": 1, "_time":        0.000, "_%":     0.00},
           "kinefsm": { "_calls": 1, "_time":        1.006, "_%":     0.09},
           "nlefsm": { "_calls": 1, "_time":        2.806, "_%":     0.24},
           "DHSCF_Init": { "_calls": 1, "_time":        6.307, "_%":     0.54,
             "DHSCF1": { "_calls": 1, "_time":        0.033, "_%":     0.00,
               "INITMESH": { "_calls": 1, "_time":        0.000, "_%":     0.00}
             },
             "DHSCF2": { "_calls": 1, "_time":        6.258, "_%":     0.54,
               "REMESH": { "_calls": 1, "_time":        3.883, "_%":     0.33,
                 "INITMESH": { "_calls": 2, "_time":        3.860, "_%":     0.33,
                   "SPLOAD": { "_calls": 2, "_time":        3.809, "_%":     0.33}
                 }
               },
               "REORD": { "_calls": 2, "_time":        0.009, "_%":     0.00},
               "PHION": { "_calls": 1, "_time":        0.269, "_%":     0.02},
               "COMM_BSC": { "_calls": 1, "_time":        0.062, "_%":     0.01},
               "POISON": { "_calls": 1, "_time":        1.562, "_%":     0.13,
                 "fft": { "_calls": 2, "_time":        1.499, "_%":     0.13}
               }
             }
           }
         }
       },
       "IterSCF": { "_calls": 5, "_time":     1139.928, "_%":    98.24,
         "setup_H": { "_calls": 5, "_time":       12.941, "_%":     1.12,
           "DHSCF": { "_calls": 5, "_time":       12.910, "_%":     1.11,
             "DHSCF3": { "_calls": 5, "_time":       12.910, "_%":     1.11,
               "rhoofd": { "_calls": 5, "_time":        0.206, "_%":     0.02},
               "COMM_BSC": { "_calls": 10, "_time":        0.524, "_%":     0.05},
               "POISON": { "_calls": 5, "_time":        7.687, "_%":     0.66,
                 "fft": { "_calls": 10, "_time":        7.365, "_%":     0.63}
               },
               "XC": { "_calls": 5, "_time":        3.752, "_%":     0.32,
                 "COMM_BSC": { "_calls": 10, "_time":        0.393, "_%":     0.03},
                 "GXC-CellXC": { "_calls": 5, "_time":        3.267, "_%":     0.28,
                   "gridxc@cellXC": { "_calls": 5, "_time":        3.267, "_%":     0.28}
                 }
               },
               "vmat": { "_calls": 5, "_time":        0.195, "_%":     0.02}
             }
           }
         },
         "compute_dm": { "_calls": 5, "_time":     1126.946, "_%":    97.12,
           "elsi": { "_calls": 5, "_time":     1126.551, "_%":    97.08,
             "find nnz_g": { "_calls": 5, "_time":        0.000, "_%":     0.00},
             "elsi-solver": { "_calls": 5, "_time":     1126.533, "_%":    97.08}
           }
         },
         "MIXER": { "_calls": 5, "_time":        0.010, "_%":     0.00}
       },
       "state_analysis": { "_calls": 1, "_time":        0.033, "_%":     0.00},
       "siesta_move": { "_calls": 1, "_time":        0.000, "_%":     0.00}
     },
     "Analysis": { "_calls": 1, "_time":        6.837, "_%":     0.59,
       "optical": { "_calls": 1, "_time":        0.001, "_%":     0.00}
     }
   }
 }}
