       JobID     JobIDRaw    JobName  Partition  MaxVMSize  MaxVMSizeNode  MaxVMSizeTask  AveVMSize     MaxRSS MaxRSSNode MaxRSSTask     AveRSS MaxPages MaxPagesNode   MaxPagesTask   AvePages     MinCPU MinCPUNode MinCPUTask     AveCPU   NTasks  AllocCPUS    Elapsed      State ExitCode AveCPUFreq ReqCPUFreqMin ReqCPUFreqMax ReqCPUFreqGov     ReqMem ConsumedEnergy  MaxDiskRead MaxDiskReadNode MaxDiskReadTask    AveDiskRead MaxDiskWrite MaxDiskWriteNode MaxDiskWriteTask   AveDiskWrite    AllocGRES      ReqGRES    ReqTRES  AllocTRES TRESUsageInAve TRESUsageInMax TRESUsageInMaxNode TRESUsageInMaxTask TRESUsageInMin TRESUsageInMinNode TRESUsageInMinTask TRESUsageInTot TRESUsageOutMax TRESUsageOutMaxNode TRESUsageOutMaxTask TRESUsageOutAve TRESUsageOutTot 
------------ ------------ ---------- ---------- ---------- -------------- -------------- ---------- ---------- ---------- ---------- ---------- -------- ------------ -------------- ---------- ---------- ---------- ---------- ---------- -------- ---------- ---------- ---------- -------- ---------- ------------- ------------- ------------- ---------- -------------- ------------ --------------- --------------- -------------- ------------ ---------------- ---------------- -------------- ------------ ------------ ---------- ---------- -------------- -------------- ------------------ ------------------ -------------- ------------------ ------------------ -------------- --------------- ------------------- ------------------- --------------- --------------- 
244959       244959       CovidWeak+         cn                                                                                                                                                                                                             128   00:21:50    RUNNING      0:0                  Unknown       Unknown       Unknown        1Gc                                                                                                                                                                    billing=1+ billing=1+                                                                                                                                                                                                                                 
244959.batch 244959.batch      batch                                                                                                                                                                                                               1        128   00:21:50    RUNNING      0:0          0             0             0             0        1Gc              0                                                                                                                                                                cpu=128,m+                                                                                                                                                                                                                                 
244959.0     244959.0         siesta              1999252K         cn0330              0 1753124768    792900K     cn0330        112  725476192      103       cn0330              0         20   00:21:16     cn0330        109   00:21:31      128        128   00:21:46  COMPLETED      0:0      2.28M       Unknown       Unknown       Unknown        1Gc              0       10.65M          cn0330               0          8.35M       16.42M           cn0330                0          4.61M                                      cpu=128,m+ cpu=00:21:31,+ cpu=00:21:32,+ cpu=cn0330,energy+ cpu=111,fs/disk=0+ cpu=00:21:16,+ cpu=cn0330,energy+ cpu=109,fs/disk=1+ cpu=1-21:54:2+ energy=0,fs/di+ energy=cn0330,fs/d+           fs/disk=0 energy=0,fs/di+ energy=0,fs/di+ 
