{
 "global_section": { "_calls": 1, "_time":      492.145, "_%":   100.00,
   "siesta": { "_calls": 1, "_time":      492.145, "_%":   100.00,
     "Setup": { "_calls": 1, "_time":        3.090, "_%":     0.63,
       "bands": { "_calls": 1, "_time":        0.002, "_%":     0.00},
       "KSV_init": { "_calls": 1, "_time":        0.000, "_%":     0.00}
     },
     "IterGeom": { "_calls": 1, "_time":      401.098, "_%":    81.50,
       "geom_init": { "_calls": 1, "_time":        4.714, "_%":     0.96,
         "state_init": { "_calls": 1, "_time":        0.627, "_%":     0.13,
           "hsparse": { "_calls": 1, "_time":        0.196, "_%":     0.04},
           "overlap": { "_calls": 1, "_time":        0.044, "_%":     0.01}
         },
         "Setup_H0": { "_calls": 1, "_time":        4.087, "_%":     0.83,
           "naefs": { "_calls": 1, "_time":        0.027, "_%":     0.01},
           "MolMec": { "_calls": 1, "_time":        0.000, "_%":     0.00},
           "kinefsm": { "_calls": 1, "_time":        0.040, "_%":     0.01},
           "nlefsm": { "_calls": 1, "_time":        0.113, "_%":     0.02},
           "DHSCF_Init": { "_calls": 1, "_time":        3.888, "_%":     0.79,
             "DHSCF1": { "_calls": 1, "_time":        0.045, "_%":     0.01,
               "INITMESH": { "_calls": 1, "_time":        0.000, "_%":     0.00}
             },
             "DHSCF2": { "_calls": 1, "_time":        3.822, "_%":     0.78,
               "REMESH": { "_calls": 1, "_time":        1.064, "_%":     0.22,
                 "INITMESH": { "_calls": 2, "_time":        1.039, "_%":     0.21,
                   "SPLOAD": { "_calls": 2, "_time":        0.400, "_%":     0.08}
                 }
               },
               "REORD": { "_calls": 2, "_time":        0.010, "_%":     0.00},
               "PHION": { "_calls": 1, "_time":        0.073, "_%":     0.01},
               "COMM_BSC": { "_calls": 1, "_time":        0.080, "_%":     0.02},
               "POISON": { "_calls": 1, "_time":        2.223, "_%":     0.45,
                 "fft": { "_calls": 2, "_time":        2.156, "_%":     0.44}
               }
             }
           }
         }
       },
       "IterSCF": { "_calls": 5, "_time":      396.219, "_%":    80.51,
         "setup_H": { "_calls": 5, "_time":       19.802, "_%":     4.02,
           "DHSCF": { "_calls": 5, "_time":       19.781, "_%":     4.02,
             "DHSCF3": { "_calls": 5, "_time":       19.781, "_%":     4.02,
               "rhoofd": { "_calls": 5, "_time":        0.106, "_%":     0.02},
               "COMM_BSC": { "_calls": 10, "_time":        1.332, "_%":     0.27},
               "POISON": { "_calls": 5, "_time":       11.121, "_%":     2.26,
                 "fft": { "_calls": 10, "_time":       10.735, "_%":     2.18}
               },
               "XC": { "_calls": 5, "_time":        6.043, "_%":     1.23,
                 "COMM_BSC": { "_calls": 10, "_time":        1.081, "_%":     0.22},
                 "GXC-CellXC": { "_calls": 5, "_time":        4.873, "_%":     0.99,
                   "gridxc@cellXC": { "_calls": 5, "_time":        4.873, "_%":     0.99}
                 }
               },
               "vmat": { "_calls": 5, "_time":        0.113, "_%":     0.02}
             }
           }
         },
         "compute_dm": { "_calls": 5, "_time":      376.339, "_%":    76.47,
           "diagon": { "_calls": 5, "_time":      376.227, "_%":    76.45,
             "r-eigvec": { "_calls": 5, "_time":      284.501, "_%":    57.81,
               "r-buildHS": { "_calls": 5, "_time":        0.079, "_%":     0.02},
               "rdiag": { "_calls": 5, "_time":      284.421, "_%":    57.79,
                 "rdiag1": { "_calls": 5, "_time":       14.048, "_%":     2.85},
                 "rdiag2": { "_calls": 5, "_time":       43.459, "_%":     8.83},
                 "rdiag3": { "_calls": 5, "_time":      200.621, "_%":    40.76},
                 "rdiag4": { "_calls": 5, "_time":       22.931, "_%":     4.66}
               }
             },
             "r-buildD": { "_calls": 5, "_time":       91.227, "_%":    18.54}
           }
         },
         "MIXER": { "_calls": 5, "_time":        0.056, "_%":     0.01}
       },
       "state_analysis": { "_calls": 1, "_time":        0.119, "_%":     0.02},
       "siesta_move": { "_calls": 1, "_time":        0.000, "_%":     0.00}
     },
     "Analysis": { "_calls": 1, "_time":       50.006, "_%":    10.16,
       "optical": { "_calls": 1, "_time":        0.001, "_%":     0.00}
     }
   }
 }}
