JobID        JobIDRaw        JobName  Partition  MaxVMSize  MaxVMSizeNode  MaxVMSizeTask  AveVMSize     MaxRSS MaxRSSNode MaxRSSTask     AveRSS MaxPages MaxPagesNode   MaxPagesTask   AvePages     MinCPU MinCPUNode MinCPUTask     AveCPU   NTasks  AllocCPUS    Elapsed      State ExitCode AveCPUFreq ReqCPUFreqMin ReqCPUFreqMax ReqCPUFreqGov     ReqMem ConsumedEnergy  MaxDiskRead MaxDiskReadNode MaxDiskReadTask    AveDiskRead MaxDiskWrite MaxDiskWriteNode MaxDiskWriteTask   AveDiskWrite    ReqTRES  AllocTRES TRESUsageInAve TRESUsageInMax TRESUsageInMaxNode TRESUsageInMaxTask TRESUsageInMin TRESUsageInMinNode TRESUsageInMinTask TRESUsageInTot TRESUsageOutMax TRESUsageOutMaxNode TRESUsageOutMaxTask TRESUsageOutAve TRESUsageOutTot 
------------ ------------ ---------- ---------- ---------- -------------- -------------- ---------- ---------- ---------- ---------- ---------- -------- ------------ -------------- ---------- ---------- ---------- ---------- ---------- -------- ---------- ---------- ---------- -------- ---------- ------------- ------------- ------------- ---------- -------------- ------------ --------------- --------------- -------------- ------------ ---------------- ---------------- -------------- ---------- ---------- -------------- -------------- ------------------ ------------------ -------------- ------------------ ------------------ -------------- --------------- ------------------- ------------------- --------------- --------------- 
10741963     10741963     submit.job boost_usr+                                                                                                                                                                                                             128   00:06:02    RUNNING      0:0                  Unknown       Unknown       Unknown      1925G                                                                                                                                          billing=1+ billing=1+                                                                                                                                                                                                                                 
10741963.ba+ 10741963.ba+      batch                                                                                                                                                                                                               1         32   00:06:02    RUNNING      0:0          0             0             0             0                         0                                                                                                                                      cpu=32,gr+                                                                                                                                                                                                                                 
10741963.ex+ 10741963.ex+     extern                                                                                                                                                                                                               4        128   00:06:02    RUNNING      0:0          0             0             0             0                         0                                                                                                                                      billing=1+                                                                                                                                                                                                                                 
10741963.0   10741963.0        orted              8046452K       lrdn2262              0 2746522282   6999.50M   lrdn2262          0 2446502570     9664     lrdn2262              0       3221   00:45:46   lrdn3130          2   00:47:12        3         96   00:05:59  COMPLETED      0:0       452K       Unknown       Unknown       Unknown                         0        0.33M        lrdn3130               2          0.33M        0.01M         lrdn2262                0          0.01M            cpu=96,gr+ cpu=00:47:12,+ cpu=00:50:00,+ cpu=lrdn2274,ener+ cpu=1,fs/disk=2,m+ cpu=00:45:46,+ cpu=lrdn3130,ener+ cpu=2,fs/disk=1,m+ cpu=02:21:38,+ energy=0,fs/di+ energy=lrdn2262,fs+           fs/disk=0 energy=0,fs/di+ energy=0,fs/di+ 
