JobID        JobIDRaw        JobName  Partition  MaxVMSize  MaxVMSizeNode  MaxVMSizeTask  AveVMSize     MaxRSS MaxRSSNode MaxRSSTask     AveRSS MaxPages MaxPagesNode   MaxPagesTask   AvePages     MinCPU MinCPUNode MinCPUTask     AveCPU   NTasks  AllocCPUS    Elapsed      State ExitCode AveCPUFreq ReqCPUFreqMin ReqCPUFreqMax ReqCPUFreqGov     ReqMem ConsumedEnergy  MaxDiskRead MaxDiskReadNode MaxDiskReadTask    AveDiskRead MaxDiskWrite MaxDiskWriteNode MaxDiskWriteTask   AveDiskWrite    ReqTRES  AllocTRES TRESUsageInAve TRESUsageInMax TRESUsageInMaxNode TRESUsageInMaxTask TRESUsageInMin TRESUsageInMinNode TRESUsageInMinTask TRESUsageInTot TRESUsageOutMax TRESUsageOutMaxNode TRESUsageOutMaxTask TRESUsageOutAve TRESUsageOutTot 
------------ ------------ ---------- ---------- ---------- -------------- -------------- ---------- ---------- ---------- ---------- ---------- -------- ------------ -------------- ---------- ---------- ---------- ---------- ---------- -------- ---------- ---------- ---------- -------- ---------- ------------- ------------- ------------- ---------- -------------- ------------ --------------- --------------- -------------- ------------ ---------------- ---------------- -------------- ---------- ---------- -------------- -------------- ------------------ ------------------ -------------- ------------------ ------------------ -------------- --------------- ------------------- ------------------- --------------- --------------- 
34595964     34595964     CovidWeak+        gpu                                                                                                                                                                                                             512   06:54:04    RUNNING      0:0                  Unknown       Unknown       Unknown       250G                                                                                                                                          billing=5+ billing=5+                                                                                                                                                                                                                                 
34595964.ba+ 34595964.ba+      batch                                                                                                                                                                                                               1        256   06:54:04    RUNNING      0:0          0             0             0             0                         0                                                                                                                                      cpu=256,g+                                                                                                                                                                                                                                 
34595964.ex+ 34595964.ex+     extern                                                                                                                                                                                                               2        512   06:54:04    RUNNING      0:0          0             0             0             0                         0                                                                                                                                      billing=5+                                                                                                                                                                                                                                 
34595964.0   34595964.0        orted             94062264K           gn27              0  94062264K  88588328K       gn27          0  88588328K        9         gn27              0          9 5-16:45:27       gn27          0 5-16:45:27        1        512   06:54:04  COMPLETED      0:0         2K             0             0             0                     7.43?     2319.54M            gn27               0       2319.54M      263.51M             gn27                0        263.51M            billing=5+ cpu=5-16:45:2+ cpu=5-16:45:2+ cpu=gn27,energy=g+ cpu=0,fs/disk=0,m+ cpu=5-16:45:2+ cpu=gn27,energy=g+ cpu=0,fs/disk=0,m+ cpu=5-16:45:2+ energy=4294967+ energy=gn27,fs/dis+           fs/disk=0 energy=0,fs/di+ energy=0,fs/di+ 
