JobId=34595964 JobName=CovidWeakKPoints
   UserId=eufedericop(1977552410) GroupId=eufedericop(1977552410) MCS_label=N/A
   Priority=66052995 Nice=0 Account=b2024b06-053-users QOS=normal
   JobState=RUNNING Reason=None Dependency=(null)
   Requeue=1 Restarts=0 BatchFlag=1 Reboot=0 ExitCode=0:0
   DerivedExitCode=0:0
   RunTime=00:00:04 TimeLimit=1-00:00:00 TimeMin=N/A
   SubmitTime=2024-09-12T10:31:00 EligibleTime=2024-09-12T10:31:00
   AccrueTime=2024-09-12T10:31:00
   StartTime=2024-09-14T13:47:45 EndTime=2024-09-15T13:47:45 Deadline=N/A
   SuspendTime=None SecsPreSuspend=0 LastSchedEval=2024-09-14T13:47:45 Scheduler=Backfill
   Partition=gpu AllocNode:Sid=login0005-dmz:340330
   ReqNodeList=(null) ExcNodeList=(null)
   NodeList=gn[26-27]
   BatchHost=gn26
   NumNodes=2 NumCPUs=512 NumTasks=128 CPUs/Task=2 ReqB:S:C:T=0:0:*:1
   ReqTRES=cpu=256,mem=250G,node=2,billing=512,gres/gpu=8
   AllocTRES=cpu=512,mem=250G,node=2,billing=512,gres/gpu=8
   Socks/Node=* NtasksPerN:B:S:C=64:0:*:* CoreSpec=*
   JOB_GRES=gpu:8
     Nodes=gn[26-27] CPU_IDs=0-255 Mem=128000 GRES=gpu:4(IDX:0-3)
   MinCPUsNode=128 MinMemoryCPU=1000M MinTmpDiskNode=0
   Features=(null) DelayBoot=00:00:00
   OverSubscribe=NO Contiguous=0 Licenses=(null) Network=(null)
   Command=/ceph/hpc/home/eufedericop/JUBE4MaX-GPU/max-inputs/interface/siesta/_CovidWeakKPoints/000001/000001_submit/work/submit.job
   WorkDir=/ceph/hpc/home/eufedericop/JUBE4MaX-GPU/max-inputs/interface/siesta/_CovidWeakKPoints/000001/000001_submit/work
   StdErr=/ceph/hpc/home/eufedericop/JUBE4MaX-GPU/max-inputs/interface/siesta/_CovidWeakKPoints/000001/000001_submit/work/slurm-34595964.out
   StdIn=/dev/null
   StdOut=/ceph/hpc/home/eufedericop/JUBE4MaX-GPU/max-inputs/interface/siesta/_CovidWeakKPoints/000001/000001_submit/work/slurm-34595964.out
   Power=
   TresPerNode=gres/gpu:4
   TresPerTask=cpu:2
   

