[2024-12-28 22:28:53,659]:DEBUG: sort using: install,nodes
[2024-12-28 22:28:53,660]:DEBUG: Nodes;Tasks;install;init_run;electrons;walltime
[2024-12-28 22:28:53,660]:DEBUG: 1;1;platform;;;
[2024-12-28 22:28:53,660]:DEBUG: 1;2;platform;;;
[2024-12-28 22:28:53,660]:DEBUG: 1;4;platform;;;
[2024-12-28 22:28:53,660]:DEBUG: 1;8;platform;;;
[2024-12-28 22:28:53,660]:DEBUG: 1;16;platform;;;
[2024-12-28 22:28:53,660]:DEBUG: 
[2024-12-28 22:29:55,917]:DEBUG: sort using: install,nodes
[2024-12-28 22:29:55,917]:DEBUG: Nodes;Tasks;install;init_run;electrons;walltime
[2024-12-28 22:29:55,917]:DEBUG: 1;1;platform;4.51;14.27;19.38
[2024-12-28 22:29:55,917]:DEBUG: 1;2;platform;3.19;11.46;15.12
[2024-12-28 22:29:55,917]:DEBUG: 1;4;platform;2.72;10.57;13.66
[2024-12-28 22:29:55,917]:DEBUG: 1;8;platform;2.55;9.36;12.28
[2024-12-28 22:29:55,917]:DEBUG: 1;16;platform;2.98;9.87;13.34
[2024-12-28 22:29:55,917]:DEBUG: 
[2024-12-28 23:17:09,476]:DEBUG: sort using: install,nodes
[2024-12-28 23:17:09,476]:DEBUG: Nodes;Tasks;install;init_run;electrons;walltime
[2024-12-28 23:17:09,476]:DEBUG: 1;1;platform;4.51;14.27;19.38
[2024-12-28 23:17:09,476]:DEBUG: 1;2;platform;3.19;11.46;15.12
[2024-12-28 23:17:09,476]:DEBUG: 1;4;platform;2.72;10.57;13.66
[2024-12-28 23:17:09,476]:DEBUG: 1;8;platform;2.55;9.36;12.28
[2024-12-28 23:17:09,476]:DEBUG: 1;16;platform;2.98;9.87;13.34
[2024-12-28 23:17:09,476]:DEBUG: 
[2024-12-28 23:19:13,537]:DEBUG: sort using: install,nodes
[2024-12-28 23:19:13,537]:DEBUG: Nodes;Tasks;pools;casename;init_run;electrons;walltime
[2024-12-28 23:19:13,537]:DEBUG: 1;1;1;pwscf.36;4.51;14.27;19.38
[2024-12-28 23:19:13,537]:DEBUG: 1;2;2;pwscf.36;3.19;11.46;15.12
[2024-12-28 23:19:13,537]:DEBUG: 1;4;4;pwscf.36;2.72;10.57;13.66
[2024-12-28 23:19:13,537]:DEBUG: 1;8;8;pwscf.36;2.55;9.36;12.28
[2024-12-28 23:19:13,537]:DEBUG: 1;16;8;pwscf.36;2.98;9.87;13.34
[2024-12-28 23:19:13,537]:DEBUG: 
[2024-12-29 21:41:14,363]:DEBUG: sort using: install,nodes
[2024-12-29 21:41:14,365]:DEBUG: Nodes;Tasks;pools;casename;init_run;electrons;walltime
[2024-12-29 21:41:14,365]:DEBUG: 1;1;1;pwscf.36;4.51;14.27;19.38
[2024-12-29 21:41:14,365]:DEBUG: 1;2;2;pwscf.36;3.19;11.46;15.12
[2024-12-29 21:41:14,365]:DEBUG: 1;4;4;pwscf.36;2.72;10.57;13.66
[2024-12-29 21:41:14,365]:DEBUG: 1;8;8;pwscf.36;2.55;9.36;12.28
[2024-12-29 21:41:14,365]:DEBUG: 1;16;8;pwscf.36;2.98;9.87;13.34
[2024-12-29 21:41:14,365]:DEBUG: 
