
Lmod is automatically replacing "craype-x86-rome" with "craype-x86-trento".

srun: Job step aborted: Waiting up to 32 seconds for job step to finish.
slurmstepd: error: *** STEP 8026417.0 ON nid005276 CANCELLED AT 2024-09-19T16:57:50 DUE TO TIME LIMIT ***
slurmstepd: error: *** JOB 8026417 ON nid005276 CANCELLED AT 2024-09-19T16:57:50 DUE TO TIME LIMIT ***
