JobID        JobIDRaw        JobName  Partition  MaxVMSize  MaxVMSizeNode  MaxVMSizeTask  AveVMSize     MaxRSS MaxRSSNode MaxRSSTask     AveRSS MaxPages MaxPagesNode   MaxPagesTask   AvePages     MinCPU MinCPUNode MinCPUTask     AveCPU   NTasks  AllocCPUS    Elapsed      State ExitCode AveCPUFreq ReqCPUFreqMin ReqCPUFreqMax ReqCPUFreqGov     ReqMem ConsumedEnergy  MaxDiskRead MaxDiskReadNode MaxDiskReadTask    AveDiskRead MaxDiskWrite MaxDiskWriteNode MaxDiskWriteTask   AveDiskWrite    ReqTRES  AllocTRES TRESUsageInAve TRESUsageInMax TRESUsageInMaxNode TRESUsageInMaxTask TRESUsageInMin TRESUsageInMinNode TRESUsageInMinTask TRESUsageInTot TRESUsageOutMax TRESUsageOutMaxNode TRESUsageOutMaxTask TRESUsageOutAve TRESUsageOutTot 
------------ ------------ ---------- ---------- ---------- -------------- -------------- ---------- ---------- ---------- ---------- ---------- -------- ------------ -------------- ---------- ---------- ---------- ---------- ---------- -------- ---------- ---------- ---------- -------- ---------- ------------- ------------- ------------- ---------- -------------- ------------ --------------- --------------- -------------- ------------ ---------------- ---------------- -------------- ---------- ---------- -------------- -------------- ------------------ ------------------ -------------- ------------------ ------------------ -------------- --------------- ------------------- ------------------- --------------- --------------- 
1595645      1595645      CovidWeak+       qcpu                                                                                                                                                                                                            4096   00:08:32    RUNNING      0:0                  Unknown       Unknown       Unknown      7360G                                                                                                                                          billing=3+ billing=3+                                                                                                                                                                                                                                 
1595645.bat+ 1595645.bat+      batch                                                                                                                                                                                                               1        128   00:08:32    RUNNING      0:0          0             0             0             0                         0                                                                                                                                      cpu=128,m+                                                                                                                                                                                                                                 
1595645.ext+ 1595645.ext+     extern                                                                                                                                                                                                              32       4096   00:08:32    RUNNING      0:0          0             0             0             0                         0                                                                                                                                      billing=3+                                                                                                                                                                                                                                 
1595645.0    1595645.0        siesta               256604K          cn284              0  158286084    212636K      cn284          0  150883200      114        cn474           3251         45   00:08:13      cn284          0   00:08:16     4096       4096   00:08:28  COMPLETED      0:0     18.05G       Unknown       Unknown       Unknown                         0       14.99M           cn284               0         13.75M       17.09M            cn284                0          4.15M            cpu=4096,+ cpu=00:08:16,+ cpu=00:08:17,+ cpu=cn467,energy=+ cpu=2431,fs/disk=+ cpu=00:08:13,+ cpu=cn284,energy=+ cpu=0,fs/disk=212+ cpu=23-13:00:+ energy=0,fs/di+ energy=cn472,fs/di+           fs/disk=0 energy=0,fs/di+ energy=0,fs/di+ 
