{
 "global_section": { "_calls": 1, "_time":      494.037, "_%":   100.00,
   "siesta": { "_calls": 1, "_time":      494.037, "_%":   100.00,
     "Setup": { "_calls": 1, "_time":        2.678, "_%":     0.54,
       "bands": { "_calls": 1, "_time":        0.004, "_%":     0.00},
       "KSV_init": { "_calls": 1, "_time":        0.001, "_%":     0.00}
     },
     "IterGeom": { "_calls": 1, "_time":      491.057, "_%":    99.40,
       "geom_init": { "_calls": 1, "_time":       54.861, "_%":    11.10,
         "state_init": { "_calls": 1, "_time":        1.193, "_%":     0.24,
           "hsparse": { "_calls": 1, "_time":        0.186, "_%":     0.04},
           "overlap": { "_calls": 1, "_time":        0.043, "_%":     0.01}
         },
         "Setup_H0": { "_calls": 1, "_time":       53.667, "_%":    10.86,
           "naefs": { "_calls": 1, "_time":        0.031, "_%":     0.01},
           "MolMec": { "_calls": 1, "_time":        0.000, "_%":     0.00},
           "kinefsm": { "_calls": 1, "_time":        0.039, "_%":     0.01},
           "nlefsm": { "_calls": 1, "_time":        0.161, "_%":     0.03},
           "DHSCF_Init": { "_calls": 1, "_time":       53.415, "_%":    10.81,
             "DHSCF1": { "_calls": 1, "_time":        0.056, "_%":     0.01,
               "INITMESH": { "_calls": 1, "_time":        0.000, "_%":     0.00}
             },
             "DHSCF2": { "_calls": 1, "_time":       53.333, "_%":    10.80,
               "REMESH": { "_calls": 1, "_time":       49.258, "_%":     9.97,
                 "INITMESH": { "_calls": 2, "_time":       46.451, "_%":     9.40,
                   "SPLOAD": { "_calls": 2, "_time":        1.861, "_%":     0.38}
                 }
               },
               "REORD": { "_calls": 2, "_time":        0.001, "_%":     0.00},
               "PHION": { "_calls": 1, "_time":        0.014, "_%":     0.00},
               "COMM_BSC": { "_calls": 1, "_time":        0.016, "_%":     0.00},
               "POISON": { "_calls": 1, "_time":        0.328, "_%":     0.07,
                 "fft": { "_calls": 2, "_time":        0.322, "_%":     0.07}
               }
             }
           }
         }
       },
       "IterSCF": { "_calls": 5, "_time":      436.022, "_%":    88.26,
         "setup_H": { "_calls": 5, "_time":        3.497, "_%":     0.71,
           "DHSCF": { "_calls": 5, "_time":        3.481, "_%":     0.70,
             "DHSCF3": { "_calls": 5, "_time":        3.481, "_%":     0.70,
               "rhoofd": { "_calls": 5, "_time":        0.034, "_%":     0.01},
               "COMM_BSC": { "_calls": 10, "_time":        0.270, "_%":     0.05},
               "POISON": { "_calls": 5, "_time":        1.751, "_%":     0.35,
                 "fft": { "_calls": 10, "_time":        1.704, "_%":     0.34}
               },
               "XC": { "_calls": 5, "_time":        1.065, "_%":     0.22,
                 "COMM_BSC": { "_calls": 10, "_time":        0.151, "_%":     0.03},
                 "GXC-CellXC": { "_calls": 5, "_time":        0.904, "_%":     0.18,
                   "gridxc@cellXC": { "_calls": 5, "_time":        0.904, "_%":     0.18}
                 }
               },
               "vmat": { "_calls": 5, "_time":        0.104, "_%":     0.02}
             }
           }
         },
         "compute_dm": { "_calls": 5, "_time":      432.491, "_%":    87.54,
           "redist_orbs_fwd": { "_calls": 160, "_time":      416.632, "_%":    84.33},
           "elsi-complex-solver": { "_calls": 5, "_time":       10.507, "_%":     2.13,
             "elsi-solver": { "_calls": 5, "_time":        9.838, "_%":     1.99}
           },
           "redist_dm-edm_bck": { "_calls": 5, "_time":        5.233, "_%":     1.06}
         },
         "MIXER": { "_calls": 5, "_time":        0.024, "_%":     0.00}
       },
       "state_analysis": { "_calls": 1, "_time":        0.100, "_%":     0.02},
       "siesta_move": { "_calls": 1, "_time":        0.000, "_%":     0.00}
     },
     "Analysis": { "_calls": 1, "_time":        0.281, "_%":     0.06,
       "optical": { "_calls": 1, "_time":        0.001, "_%":     0.00}
     }
   }
 }}
