JobID        JobIDRaw        JobName  Partition  MaxVMSize  MaxVMSizeNode  MaxVMSizeTask  AveVMSize     MaxRSS MaxRSSNode MaxRSSTask     AveRSS MaxPages MaxPagesNode   MaxPagesTask   AvePages     MinCPU MinCPUNode MinCPUTask     AveCPU   NTasks  AllocCPUS    Elapsed      State ExitCode AveCPUFreq ReqCPUFreqMin ReqCPUFreqMax ReqCPUFreqGov     ReqMem ConsumedEnergy  MaxDiskRead MaxDiskReadNode MaxDiskReadTask    AveDiskRead MaxDiskWrite MaxDiskWriteNode MaxDiskWriteTask   AveDiskWrite    ReqTRES  AllocTRES TRESUsageInAve TRESUsageInMax TRESUsageInMaxNode TRESUsageInMaxTask TRESUsageInMin TRESUsageInMinNode TRESUsageInMinTask TRESUsageInTot TRESUsageOutMax TRESUsageOutMaxNode TRESUsageOutMaxTask TRESUsageOutAve TRESUsageOutTot 
------------ ------------ ---------- ---------- ---------- -------------- -------------- ---------- ---------- ---------- ---------- ---------- -------- ------------ -------------- ---------- ---------- ---------- ---------- ---------- -------- ---------- ---------- ---------- -------- ---------- ------------- ------------- ------------- ---------- -------------- ------------ --------------- --------------- -------------- ------------ ---------------- ---------------- -------------- ---------- ---------- -------------- -------------- ------------------ ------------------ -------------- ------------------ ------------------ -------------- --------------- ------------------- ------------------- --------------- --------------- 
35111141     35111141      CovidWeak        cpu                                                                                                                                                                                                            4096   00:22:14    RUNNING      0:0                  Unknown       Unknown       Unknown      2000G                                                                                                                                          billing=2+ billing=4+                                                                                                                                                                                                                                 
35111141.ba+ 35111141.ba+      batch                                                                                                                                                                                                               1        256   00:22:14    RUNNING      0:0          0             0             0             0                         0                                                                                                                                      cpu=256,m+                                                                                                                                                                                                                                 
35111141.ex+ 35111141.ex+     extern                                                                                                                                                                                                              16       4096   00:22:14    RUNNING      0:0          0             0             0             0                         0                                                                                                                                      billing=4+                                                                                                                                                                                                                                 
35111141.0   35111141.0       siesta               308476K         cn0334            164  265956090    286092K     cn0334        176  256555460       99       cn0341            775         13   00:13:18     cn0331          0   00:13:53     2048       4096   00:22:10  COMPLETED      0:0      5.38G       Unknown       Unknown       Unknown                         0       28.93M          cn0331               0         27.54M       39.71M           cn0331                0          5.19M            cpu=4096,+ cpu=00:13:53,+ cpu=00:14:09,+ cpu=cn0337,energy+ cpu=357,fs/disk=0+ cpu=00:13:18,+ cpu=cn0331,energy+ cpu=0,fs/disk=119+ cpu=19-17:53:+ energy=0,fs/di+ energy=cn0342,fs/d+           fs/disk=0 energy=0,fs/di+ energy=0,fs/di+ 
