JobId=1423481 JobName=CovidWeakSize
   UserId=u102010(102010) GroupId=hpcusers(555) MCS_label=N/A
   Priority=258810 Nice=0 Account=p200521 QOS=default
   JobState=RUNNING Reason=None Dependency=(null)
   Requeue=0 Restarts=0 BatchFlag=1 Reboot=0 ExitCode=0:0
   DerivedExitCode=0:0
   RunTime=00:00:05 TimeLimit=00:59:00 TimeMin=N/A
   SubmitTime=2024-10-01T13:57:22 EligibleTime=2024-10-01T13:57:22
   AccrueTime=2024-10-01T13:57:22
   StartTime=2024-10-01T14:14:19 EndTime=2024-10-01T15:13:22 Deadline=N/A
   PreemptEligibleTime=2024-10-01T14:14:19 PreemptTime=None
   SuspendTime=None SecsPreSuspend=0 LastSchedEval=2024-10-01T14:14:19 Scheduler=Backfill
   Partition=cpu AllocNode:Sid=login03.meluxina.lxp.lu:3497443
   ReqNodeList=(null) ExcNodeList=(null)
   NodeList=mel[0525,0563]
   BatchHost=mel0525
   NumNodes=2 NumCPUs=512 NumTasks=256 CPUs/Task=2 ReqB:S:C:T=0:0:*:*
   ReqTRES=cpu=256,mem=960G,node=2,billing=256
   AllocTRES=cpu=512,mem=960G,node=2,billing=512,gres/cpun=2
   Socks/Node=* NtasksPerN:B:S:C=128:0:*:* CoreSpec=*
   JOB_GRES=cpuN:2
     Nodes=mel[0525,0563] CPU_IDs=0-255 Mem=491520 GRES=cpuN(CNT:1)
   MinCPUsNode=256 MinMemoryNode=0 MinTmpDiskNode=0
   Features=(null) DelayBoot=00:00:00
   OverSubscribe=NO Contiguous=0 Licenses=(null) Network=(null)
   Command=/mnt/tier2/users/u102010/JUBE4MaX/max-inputs/interface/siesta/_CovidWeakSize/000000/000005_submit/work/submit.job
   WorkDir=/mnt/tier2/users/u102010/JUBE4MaX/max-inputs/interface/siesta/_CovidWeakSize/000000/000005_submit/work
   StdErr=/mnt/tier2/users/u102010/JUBE4MaX/max-inputs/interface/siesta/_CovidWeakSize/000000/000005_submit/work/slurm-1423481.out
   StdIn=/dev/null
   StdOut=/mnt/tier2/users/u102010/JUBE4MaX/max-inputs/interface/siesta/_CovidWeakSize/000000/000005_submit/work/slurm-1423481.out
   Power=
   TresPerTask=cpu:1
   

