The following modules were not unloaded:
  (Use "module --force purge" to unload all):

  1) env/release/2023.1   2) lxp-tools/myquota/0.3.3
Current loaded modules
----------------------

Currently Loaded Modules:
  1) env/release/2023.1               (S)
  2) lxp-tools/myquota/0.3.3          (S)
  3) GCCcore/12.3.0
  4) zlib/1.2.13-GCCcore-12.3.0
  5) binutils/2.40-GCCcore-12.3.0
  6) GCC/12.3.0
  7) numactl/2.0.16-GCCcore-12.3.0
  8) XZ/5.4.2-GCCcore-12.3.0
  9) libxml2/2.11.4-GCCcore-12.3.0
 10) libpciaccess/0.17-GCCcore-12.3.0
 11) hwloc/2.9.1-GCCcore-12.3.0
 12) OpenSSL/1.1
 13) libevent/2.1.12-GCCcore-12.3.0
 14) UCX/1.14.1-GCCcore-12.3.0
 15) libfabric/1.18.0-GCCcore-12.3.0
 16) PMIx/4.2.6-GCCcore-12.3.0
 17) UCC/1.2.0-GCCcore-12.3.0
 18) OpenMPI/4.1.5-GCC-12.3.0
 19) gompi/2023a
 20) OpenBLAS/0.3.23-GCC-12.3.0
 21) FlexiBLAS/3.3.1-GCC-12.3.0
 22) ScaLAPACK/2.2.0-gompi-2023a-fb
 23) Szip/2.1.1-GCCcore-12.3.0
 24) HDF5/1.14.0-gompi-2023a
 25) cURL/8.0.1-GCCcore-12.3.0
 26) gzip/1.12-GCCcore-12.3.0
 27) lz4/1.9.4-GCCcore-12.3.0
 28) zstd/1.5.5-GCCcore-12.3.0
 29) bzip2/1.0.8-GCCcore-12.3.0
 30) netCDF/4.9.2-gompi-2023a
 31) netCDF-Fortran/4.6.1-gompi-2023a
 32) FFTW/3.3.10-GCC-12.3.0
 33) ncurses/6.4-GCCcore-12.3.0
 34) libreadline/8.2-GCCcore-12.3.0

  Where:
   S:  Module is Sticky, requires --force to unload or purge

 


Current environment variables
-----------------------------
HYDRA_LAUNCHER_EXTRA_ARGS=--external-launcher
LD_LIBRARY_PATH=/apps/USE/easybuild/release/2023.1/software/libreadline/8.2-GCCcore-12.3.0/lib:/apps/USE/easybuild/release/2023.1/software/ncurses/6.4-GCCcore-12.3.0/lib:/apps/USE/easybuild/release/2023.1/software/FFTW/3.3.10-GCC-12.3.0/lib:/apps/USE/easybuild/release/2023.1/software/netCDF-Fortran/4.6.1-gompi-2023a/lib:/apps/USE/easybuild/release/2023.1/software/netCDF/4.9.2-gompi-2023a/lib:/apps/USE/easybuild/release/2023.1/software/bzip2/1.0.8-GCCcore-12.3.0/lib:/apps/USE/easybuild/release/2023.1/software/zstd/1.5.5-GCCcore-12.3.0/lib:/apps/USE/easybuild/release/2023.1/software/lz4/1.9.4-GCCcore-12.3.0/lib:/apps/USE/easybuild/release/2023.1/software/cURL/8.0.1-GCCcore-12.3.0/lib:/apps/USE/easybuild/release/2023.1/software/HDF5/1.14.0-gompi-2023a/lib:/apps/USE/easybuild/release/2023.1/software/Szip/2.1.1-GCCcore-12.3.0/lib:/apps/USE/easybuild/release/2023.1/software/ScaLAPACK/2.2.0-gompi-2023a-fb/lib:/apps/USE/easybuild/release/2023.1/software/FlexiBLAS/3.3.1-GCC-12.3.0/lib:/apps/USE/easybuild/release/2023.1/software/OpenBLAS/0.3.23-GCC-12.3.0/lib:/apps/USE/easybuild/release/2023.1/software/OpenMPI/4.1.5-GCC-12.3.0/lib:/apps/USE/easybuild/release/2023.1/software/UCC/1.2.0-GCCcore-12.3.0/lib:/apps/USE/easybuild/release/2023.1/software/PMIx/4.2.6-GCCcore-12.3.0/lib:/apps/USE/easybuild/release/2023.1/software/libfabric/1.18.0-GCCcore-12.3.0/lib:/apps/USE/easybuild/release/2023.1/software/UCX/1.14.1-GCCcore-12.3.0/lib:/apps/USE/easybuild/release/2023.1/software/libevent/2.1.12-GCCcore-12.3.0/lib:/apps/USE/easybuild/release/2023.1/software/OpenSSL/1.1/lib:/apps/USE/easybuild/release/2023.1/software/hwloc/2.9.1-GCCcore-12.3.0/lib:/apps/USE/easybuild/release/2023.1/software/libpciaccess/0.17-GCCcore-12.3.0/lib:/apps/USE/easybuild/release/2023.1/software/libxml2/2.11.4-GCCcore-12.3.0/lib:/apps/USE/easybuild/release/2023.1/software/XZ/5.4.2-GCCcore-12.3.0/lib:/apps/USE/easybuild/release/2023.1/software/numactl/2.0.16-GCCcore-12.3.0/lib:/apps/USE/easybuild/release/2023.1/software/binutils/2.40-GCCcore-12.3.0/lib:/apps/USE/easybuild/release/2023.1/software/zlib/1.2.13-GCCcore-12.3.0/lib:/apps/USE/easybuild/release/2023.1/software/GCCcore/12.3.0/lib64:
LS_COLORS=rs=0:di=38;5;33:ln=38;5;51:mh=00:pi=40;38;5;11:so=38;5;13:do=38;5;5:bd=48;5;232;38;5;11:cd=48;5;232;38;5;3:or=48;5;232;38;5;9:mi=01;05;37;41:su=48;5;196;38;5;15:sg=48;5;11;38;5;16:ca=48;5;196;38;5;226:tw=48;5;10;38;5;16:ow=48;5;10;38;5;21:st=48;5;21;38;5;15:ex=38;5;40:*.tar=38;5;9:*.tgz=38;5;9:*.arc=38;5;9:*.arj=38;5;9:*.taz=38;5;9:*.lha=38;5;9:*.lz4=38;5;9:*.lzh=38;5;9:*.lzma=38;5;9:*.tlz=38;5;9:*.txz=38;5;9:*.tzo=38;5;9:*.t7z=38;5;9:*.zip=38;5;9:*.z=38;5;9:*.dz=38;5;9:*.gz=38;5;9:*.lrz=38;5;9:*.lz=38;5;9:*.lzo=38;5;9:*.xz=38;5;9:*.zst=38;5;9:*.tzst=38;5;9:*.bz2=38;5;9:*.bz=38;5;9:*.tbz=38;5;9:*.tbz2=38;5;9:*.tz=38;5;9:*.deb=38;5;9:*.rpm=38;5;9:*.jar=38;5;9:*.war=38;5;9:*.ear=38;5;9:*.sar=38;5;9:*.rar=38;5;9:*.alz=38;5;9:*.ace=38;5;9:*.zoo=38;5;9:*.cpio=38;5;9:*.7z=38;5;9:*.rz=38;5;9:*.cab=38;5;9:*.wim=38;5;9:*.swm=38;5;9:*.dwm=38;5;9:*.esd=38;5;9:*.jpg=38;5;13:*.jpeg=38;5;13:*.mjpg=38;5;13:*.mjpeg=38;5;13:*.gif=38;5;13:*.bmp=38;5;13:*.pbm=38;5;13:*.pgm=38;5;13:*.ppm=38;5;13:*.tga=38;5;13:*.xbm=38;5;13:*.xpm=38;5;13:*.tif=38;5;13:*.tiff=38;5;13:*.png=38;5;13:*.svg=38;5;13:*.svgz=38;5;13:*.mng=38;5;13:*.pcx=38;5;13:*.mov=38;5;13:*.mpg=38;5;13:*.mpeg=38;5;13:*.m2v=38;5;13:*.mkv=38;5;13:*.webm=38;5;13:*.ogm=38;5;13:*.mp4=38;5;13:*.m4v=38;5;13:*.mp4v=38;5;13:*.vob=38;5;13:*.qt=38;5;13:*.nuv=38;5;13:*.wmv=38;5;13:*.asf=38;5;13:*.rm=38;5;13:*.rmvb=38;5;13:*.flc=38;5;13:*.avi=38;5;13:*.fli=38;5;13:*.flv=38;5;13:*.gl=38;5;13:*.dl=38;5;13:*.xcf=38;5;13:*.xwd=38;5;13:*.yuv=38;5;13:*.cgm=38;5;13:*.emf=38;5;13:*.ogv=38;5;13:*.ogx=38;5;13:*.aac=38;5;45:*.au=38;5;45:*.flac=38;5;45:*.m4a=38;5;45:*.mid=38;5;45:*.midi=38;5;45:*.mka=38;5;45:*.mp3=38;5;45:*.mpc=38;5;45:*.ogg=38;5;45:*.ra=38;5;45:*.wav=38;5;45:*.oga=38;5;45:*.opus=38;5;45:*.spx=38;5;45:*.xspf=38;5;45:
EBVERSIONXZ=5.4.2
J4M_ACCOUNT=p200521
_ModuleTable017_=PSB7CmZuID0gIi9hcHBzL1VTRS9lYXN5YnVpbGQvcmVsZWFzZS8yMDIzLjEvbW9kdWxlcy9hbGwvaHdsb2MvMi45LjEtR0NDY29yZS0xMi4zLjAubHVhIiwKZnVsbE5hbWUgPSAiaHdsb2MvMi45LjEtR0NDY29yZS0xMi4zLjAiLApsb2FkT3JkZXIgPSAxMSwKcHJvcFQgPSB7fSwKc3RhY2tEZXB0aCA9IDMsCnN0YXR1cyA9ICJhY3RpdmUiLAp1c2VyTmFtZSA9ICJod2xvYy8yLjkuMS1HQ0Njb3JlLTEyLjMuMCIsCndWID0gIjAwMDAwMDAwMi4wMDAwMDAwMDkuMDAwMDAwMDAxLipnY2Njb3JlLip6ZmluYWwtLjAwMDAwMDAxMi4wMDAwMDAwMDMuKnpmaW5hbCIsCn0sCmxpYmV2ZW50ID0gewpmbiA9ICIvYXBwcy9VU0UvZWFzeWJ1aWxkL3JlbGVhc2UvMjAyMy4xL21vZHVsZXMv
EBROOTBINUTILS=/apps/USE/easybuild/release/2023.1/software/binutils/2.40-GCCcore-12.3.0
SLURM_NODEID=0
EBVERSIONPMIX=4.2.6
EBDEVELSZIP=/apps/USE/easybuild/release/2023.1/software/Szip/2.1.1-GCCcore-12.3.0/easybuild/Szip-2.1.1-GCCcore-12.3.0-easybuild-devel
SLURM_TASK_PID=12631
SLURMD_TRES_BIND=
__LMOD_REF_COUNT_PATH=/apps/USE/easybuild/release/2023.1/software/ncurses/6.4-GCCcore-12.3.0/bin:1;/apps/USE/easybuild/release/2023.1/software/FFTW/3.3.10-GCC-12.3.0/bin:1;/apps/USE/easybuild/release/2023.1/software/netCDF-Fortran/4.6.1-gompi-2023a/bin:1;/apps/USE/easybuild/release/2023.1/software/netCDF/4.9.2-gompi-2023a/bin:1;/apps/USE/easybuild/release/2023.1/software/bzip2/1.0.8-GCCcore-12.3.0/bin:1;/apps/USE/easybuild/release/2023.1/software/zstd/1.5.5-GCCcore-12.3.0/bin:1;/apps/USE/easybuild/release/2023.1/software/lz4/1.9.4-GCCcore-12.3.0/bin:1;/apps/USE/easybuild/release/2023.1/software/gzip/1.12-GCCcore-12.3.0/bin:1;/apps/USE/easybuild/release/2023.1/software/cURL/8.0.1-GCCcore-12.3.0/bin:1;/apps/USE/easybuild/release/2023.1/software/HDF5/1.14.0-gompi-2023a/bin:1;/apps/USE/easybuild/release/2023.1/software/FlexiBLAS/3.3.1-GCC-12.3.0/bin:1;/apps/USE/easybuild/release/2023.1/software/OpenMPI/4.1.5-GCC-12.3.0/bin:1;/apps/USE/easybuild/release/2023.1/software/UCC/1.2.0-GCCcore-12.3.0/bin:1;/apps/USE/easybuild/release/2023.1/software/PMIx/4.2.6-GCCcore-12.3.0/bin:1;/apps/USE/easybuild/release/2023.1/software/libfabric/1.18.0-GCCcore-12.3.0/bin:1;/apps/USE/easybuild/release/2023.1/software/UCX/1.14.1-GCCcore-12.3.0/bin:1;/apps/USE/easybuild/release/2023.1/software/libevent/2.1.12-GCCcore-12.3.0/bin:1;/apps/USE/easybuild/release/2023.1/software/OpenSSL/1.1/bin:1;/apps/USE/easybuild/release/2023.1/software/hwloc/2.9.1-GCCcore-12.3.0/sbin:1;/apps/USE/easybuild/release/2023.1/software/hwloc/2.9.1-GCCcore-12.3.0/bin:1;/apps/USE/easybuild/release/2023.1/software/libxml2/2.11.4-GCCcore-12.3.0/bin:1;/apps/USE/easybuild/release/2023.1/software/XZ/5.4.2-GCCcore-12.3.0/bin:1;/apps/USE/easybuild/release/2023.1/software/numactl/2.0.16-GCCcore-12.3.0/bin:1;/apps/USE/easybuild/release/2023.1/software/binutils/2.40-GCCcore-12.3.0/bin:1;/apps/USE/easybuild/release/2023.1/software/GCCcore/12.3.0/bin:1;/apps/installs/software/myquota/0.3.3/bin:1;/home/users/u102010/.local/bin:1;/home/users/u102010/bin:1;/usr/local/bin:1;/usr/bin:1;/usr/local/sbin:1;/usr/sbin:1
_ModuleTable002_=My4wMDAwMDAwMTAuKmdjYy4qemZpbmFsLS4wMDAwMDAwMTIuMDAwMDAwMDAzLip6ZmluYWwiLAp9LApGbGV4aUJMQVMgPSB7CmZuID0gIi9hcHBzL1VTRS9lYXN5YnVpbGQvcmVsZWFzZS8yMDIzLjEvbW9kdWxlcy9hbGwvRmxleGlCTEFTLzMuMy4xLUdDQy0xMi4zLjAubHVhIiwKZnVsbE5hbWUgPSAiRmxleGlCTEFTLzMuMy4xLUdDQy0xMi4zLjAiLApsb2FkT3JkZXIgPSAyMSwKcHJvcFQgPSB7fSwKc3RhY2tEZXB0aCA9IDEsCnN0YXR1cyA9ICJhY3RpdmUiLAp1c2VyTmFtZSA9ICJGbGV4aUJMQVMvMy4zLjEtR0NDLTEyLjMuMCIsCndWID0gIjAwMDAwMDAwMy4wMDAwMDAwMDMuMDAwMDAwMDAxLipnY2MuKnpmaW5hbC0uMDAwMDAwMDEyLjAwMDAwMDAwMy4qemZpbmFsIiwK
SSH_CONNECTION=83.46.85.124 63320 10.1.11.103 8822
SLURM_PRIO_PROCESS=0
LMOD_MODULERCFILE=/apps/config/lmod/modulerc.lua
EBVERSIONCURL=8.0.1
GOTO_NUM_THREADS=1
EBVERSIONNUMACTL=2.0.16
EBROOTOPENBLAS=/apps/USE/easybuild/release/2023.1/software/OpenBLAS/0.3.23-GCC-12.3.0
I_MPI_HYDRA_BOOTSTRAP_EXEC_EXTRA_ARGS=--external-launcher
EBVERSIONSCALAPACK=2.2.0
LANG=C.UTF-8
EBROOTGCC=/apps/USE/easybuild/release/2023.1/software/GCCcore/12.3.0
_ModuleTable019_=LApmdWxsTmFtZSA9ICJsaWJmYWJyaWMvMS4xOC4wLUdDQ2NvcmUtMTIuMy4wIiwKbG9hZE9yZGVyID0gMTUsCnByb3BUID0ge30sCnN0YWNrRGVwdGggPSAzLApzdGF0dXMgPSAiYWN0aXZlIiwKdXNlck5hbWUgPSAibGliZmFicmljLzEuMTguMC1HQ0Njb3JlLTEyLjMuMCIsCndWID0gIjAwMDAwMDAwMS4wMDAwMDAwMTguKmdjY2NvcmUuKnpmaW5hbC0uMDAwMDAwMDEyLjAwMDAwMDAwMy4qemZpbmFsIiwKfSwKbGlicGNpYWNjZXNzID0gewpmbiA9ICIvYXBwcy9VU0UvZWFzeWJ1aWxkL3JlbGVhc2UvMjAyMy4xL21vZHVsZXMvYWxsL2xpYnBjaWFjY2Vzcy8wLjE3LUdDQ2NvcmUtMTIuMy4wLmx1YSIsCmZ1bGxOYW1lID0gImxpYnBjaWFjY2Vzcy8wLjE3LUdDQ2NvcmUtMTIu
SLURM_SUBMIT_DIR=/mnt/tier2/users/u102010/JUBE4MaX/max-inputs/interface/siesta/_CovidWeakSize/000000/000005_submit/work
HISTCONTROL=ignoredups
_ModuleTable008_=MDIuMDAwMDAwMDA2LipnY2Njb3JlLip6ZmluYWwtLjAwMDAwMDAxMi4wMDAwMDAwMDMuKnpmaW5hbCIsCn0sClNjYUxBUEFDSyA9IHsKZm4gPSAiL2FwcHMvVVNFL2Vhc3lidWlsZC9yZWxlYXNlLzIwMjMuMS9tb2R1bGVzL2FsbC9TY2FMQVBBQ0svMi4yLjAtZ29tcGktMjAyM2EtZmIubHVhIiwKZnVsbE5hbWUgPSAiU2NhTEFQQUNLLzIuMi4wLWdvbXBpLTIwMjNhLWZiIiwKbG9hZE9yZGVyID0gMjIsCnByb3BUID0ge30sCnN0YWNrRGVwdGggPSAwLApzdGF0dXMgPSAiYWN0aXZlIiwKdXNlck5hbWUgPSAiU2NhTEFQQUNLLzIuMi4wLWdvbXBpLTIwMjNhLWZiIiwKd1YgPSAiMDAwMDAwMDAyLjAwMDAwMDAwMi4qZ29tcGkuKnpmaW5hbC0uMDAwMDAyMDIzLiphLipmYi4qemZp
EBROOTFLEXIBLAS=/apps/USE/easybuild/release/2023.1/software/FlexiBLAS/3.3.1-GCC-12.3.0
OMPI_MCA_plm_slurm_args=--external-launcher
EBVERSIONGOMPI=2023a
HOSTNAME=mel0525
LMOD_SYSTEM_DEFAULT_MODULES=env/release/2023.1:lxp-tools/myquota/default
OPENBLAS_NUM_THREADS=1
OLDPWD=/home/users/u102010/JUBE4MaX/max-inputs
EBDEVELNUMACTL=/apps/USE/easybuild/release/2023.1/software/numactl/2.0.16-GCCcore-12.3.0/easybuild/numactl-2.0.16-GCCcore-12.3.0-easybuild-devel
J4M_BIN_PATH=/home/users/u102010/Siesta/siesta-cpu/bin/
SLURM_CPUS_PER_TASK=1
EBVERSIONZSTD=1.5.5
OMP_PROC_BIND=true
ENVIRONMENT=BATCH
EBDEVELBZIP2=/apps/USE/easybuild/release/2023.1/software/bzip2/1.0.8-GCCcore-12.3.0/easybuild/bzip2-1.0.8-GCCcore-12.3.0-easybuild-devel
EBDEVELNETCDF=/apps/USE/easybuild/release/2023.1/software/netCDF/4.9.2-gompi-2023a/easybuild/netCDF-4.9.2-gompi-2023a-easybuild-devel
__LMOD_REF_COUNT_XDG_DATA_DIRS=/apps/USE/easybuild/release/2023.1/software/libreadline/8.2-GCCcore-12.3.0/share:1;/apps/USE/easybuild/release/2023.1/software/ncurses/6.4-GCCcore-12.3.0/share:1;/apps/USE/easybuild/release/2023.1/software/FFTW/3.3.10-GCC-12.3.0/share:1;/apps/USE/easybuild/release/2023.1/software/netCDF-Fortran/4.6.1-gompi-2023a/share:1;/apps/USE/easybuild/release/2023.1/software/netCDF/4.9.2-gompi-2023a/share:1;/apps/USE/easybuild/release/2023.1/software/zstd/1.5.5-GCCcore-12.3.0/share:1;/apps/USE/easybuild/release/2023.1/software/lz4/1.9.4-GCCcore-12.3.0/share:1;/apps/USE/easybuild/release/2023.1/software/gzip/1.12-GCCcore-12.3.0/share:1;/apps/USE/easybuild/release/2023.1/software/cURL/8.0.1-GCCcore-12.3.0/share:1;/apps/USE/easybuild/release/2023.1/software/HDF5/1.14.0-gompi-2023a/share:1;/apps/USE/easybuild/release/2023.1/software/FlexiBLAS/3.3.1-GCC-12.3.0/share:1;/apps/USE/easybuild/release/2023.1/software/OpenMPI/4.1.5-GCC-12.3.0/share:1;/apps/USE/easybuild/release/2023.1/software/PMIx/4.2.6-GCCcore-12.3.0/share:1;/apps/USE/easybuild/release/2023.1/software/libfabric/1.18.0-GCCcore-12.3.0/share:1;/apps/USE/easybuild/release/2023.1/software/UCX/1.14.1-GCCcore-12.3.0/share:1;/apps/USE/easybuild/release/2023.1/software/hwloc/2.9.1-GCCcore-12.3.0/share:1;/apps/USE/easybuild/release/2023.1/software/libxml2/2.11.4-GCCcore-12.3.0/share:1;/apps/USE/easybuild/release/2023.1/software/XZ/5.4.2-GCCcore-12.3.0/share:1;/apps/USE/easybuild/release/2023.1/software/numactl/2.0.16-GCCcore-12.3.0/share:1;/apps/USE/easybuild/release/2023.1/software/binutils/2.40-GCCcore-12.3.0/share:1;/apps/USE/easybuild/release/2023.1/software/zlib/1.2.13-GCCcore-12.3.0/share:1;/apps/USE/easybuild/release/2023.1/software/GCCcore/12.3.0/share:1
EBVERSIONOPENMPI=4.1.5
EBROOTNCURSES=/apps/USE/easybuild/release/2023.1/software/ncurses/6.4-GCCcore-12.3.0
_ModuleTable007_=T3JkZXIgPSAxMiwKcHJvcFQgPSB7fSwKc3RhY2tEZXB0aCA9IDQsCnN0YXR1cyA9ICJhY3RpdmUiLAp1c2VyTmFtZSA9ICJPcGVuU1NMLzEuMSIsCndWID0gIjAwMDAwMDAwMS4wMDAwMDAwMDEuKnpmaW5hbCIsCn0sClBNSXggPSB7CmZuID0gIi9hcHBzL1VTRS9lYXN5YnVpbGQvcmVsZWFzZS8yMDIzLjEvbW9kdWxlcy9hbGwvUE1JeC80LjIuNi1HQ0Njb3JlLTEyLjMuMC5sdWEiLApmdWxsTmFtZSA9ICJQTUl4LzQuMi42LUdDQ2NvcmUtMTIuMy4wIiwKbG9hZE9yZGVyID0gMTYsCnByb3BUID0ge30sCnN0YWNrRGVwdGggPSAzLApzdGF0dXMgPSAiYWN0aXZlIiwKdXNlck5hbWUgPSAiUE1JeC80LjIuNi1HQ0Njb3JlLTEyLjMuMCIsCndWID0gIjAwMDAwMDAwNC4wMDAwMDAw
EBDEVELLIBEVENT=/apps/USE/easybuild/release/2023.1/software/libevent/2.1.12-GCCcore-12.3.0/easybuild/libevent-2.1.12-GCCcore-12.3.0-easybuild-devel
EBVERSIONOPENBLAS=0.3.23
_ModuleTable026_=PSB7fSwKc3RhY2tEZXB0aCA9IDAsCnN0YXR1cyA9ICJhY3RpdmUiLAp1c2VyTmFtZSA9ICJuZXRDREYtRm9ydHJhbi80LjYuMS1nb21waS0yMDIzYSIsCndWID0gIjAwMDAwMDAwNC4wMDAwMDAwMDYuMDAwMDAwMDAxLipnb21waS4qemZpbmFsLS4wMDAwMDIwMjMuKmEuKnpmaW5hbCIsCn0sCm51bWFjdGwgPSB7CmZuID0gIi9hcHBzL1VTRS9lYXN5YnVpbGQvcmVsZWFzZS8yMDIzLjEvbW9kdWxlcy9hbGwvbnVtYWN0bC8yLjAuMTYtR0NDY29yZS0xMi4zLjAubHVhIiwKZnVsbE5hbWUgPSAibnVtYWN0bC8yLjAuMTYtR0NDY29yZS0xMi4zLjAiLApsb2FkT3JkZXIgPSA3LApwcm9wVCA9IHt9LApzdGFja0RlcHRoID0gNCwKc3RhdHVzID0gImFjdGl2ZSIsCnVzZXJOYW1lID0g
EBDEVELMYQUOTA=/apps/installs/software/myquota/0.3.3/easybuild/myquota-0.3.3-easybuild-devel
EBROOTGOMPI=/apps/USE/easybuild/release/2023.1/software/gompi/2023a
SQUEUE_FORMAT=%.18i %.9P %.8j %.8u %.10a %.8T %.10M %.12l %.6D %R
SLURM_PROCID=0
SLURM_JOB_GID=555
EBROOTOPENMPI=/apps/USE/easybuild/release/2023.1/software/OpenMPI/4.1.5-GCC-12.3.0
I_MPI_HYDRA_BOOTSTRAP=slurm
__LMOD_REF_COUNT_LD_LIBRARY_PATH=/apps/USE/easybuild/release/2023.1/software/libreadline/8.2-GCCcore-12.3.0/lib:1;/apps/USE/easybuild/release/2023.1/software/ncurses/6.4-GCCcore-12.3.0/lib:1;/apps/USE/easybuild/release/2023.1/software/FFTW/3.3.10-GCC-12.3.0/lib:1;/apps/USE/easybuild/release/2023.1/software/netCDF-Fortran/4.6.1-gompi-2023a/lib:1;/apps/USE/easybuild/release/2023.1/software/netCDF/4.9.2-gompi-2023a/lib:1;/apps/USE/easybuild/release/2023.1/software/bzip2/1.0.8-GCCcore-12.3.0/lib:1;/apps/USE/easybuild/release/2023.1/software/zstd/1.5.5-GCCcore-12.3.0/lib:1;/apps/USE/easybuild/release/2023.1/software/lz4/1.9.4-GCCcore-12.3.0/lib:1;/apps/USE/easybuild/release/2023.1/software/cURL/8.0.1-GCCcore-12.3.0/lib:1;/apps/USE/easybuild/release/2023.1/software/HDF5/1.14.0-gompi-2023a/lib:1;/apps/USE/easybuild/release/2023.1/software/Szip/2.1.1-GCCcore-12.3.0/lib:1;/apps/USE/easybuild/release/2023.1/software/ScaLAPACK/2.2.0-gompi-2023a-fb/lib:1;/apps/USE/easybuild/release/2023.1/software/FlexiBLAS/3.3.1-GCC-12.3.0/lib:1;/apps/USE/easybuild/release/2023.1/software/OpenBLAS/0.3.23-GCC-12.3.0/lib:1;/apps/USE/easybuild/release/2023.1/software/OpenMPI/4.1.5-GCC-12.3.0/lib:1;/apps/USE/easybuild/release/2023.1/software/UCC/1.2.0-GCCcore-12.3.0/lib:1;/apps/USE/easybuild/release/2023.1/software/PMIx/4.2.6-GCCcore-12.3.0/lib:1;/apps/USE/easybuild/release/2023.1/software/libfabric/1.18.0-GCCcore-12.3.0/lib:1;/apps/USE/easybuild/release/2023.1/software/UCX/1.14.1-GCCcore-12.3.0/lib:1;/apps/USE/easybuild/release/2023.1/software/libevent/2.1.12-GCCcore-12.3.0/lib:1;/apps/USE/easybuild/release/2023.1/software/OpenSSL/1.1/lib:1;/apps/USE/easybuild/release/2023.1/software/hwloc/2.9.1-GCCcore-12.3.0/lib:1;/apps/USE/easybuild/release/2023.1/software/libpciaccess/0.17-GCCcore-12.3.0/lib:1;/apps/USE/easybuild/release/2023.1/software/libxml2/2.11.4-GCCcore-12.3.0/lib:1;/apps/USE/easybuild/release/2023.1/software/XZ/5.4.2-GCCcore-12.3.0/lib:1;/apps/USE/easybuild/release/2023.1/software/numactl/2.0.16-GCCcore-12.3.0/lib:1;/apps/USE/easybuild/release/2023.1/software/binutils/2.40-GCCcore-12.3.0/lib:1;/apps/USE/easybuild/release/2023.1/software/zlib/1.2.13-GCCcore-12.3.0/lib:1;/apps/USE/easybuild/release/2023.1/software/GCCcore/12.3.0/lib64:1
__LMOD_REF_COUNT_PKG_CONFIG_PATH=/apps/USE/easybuild/release/2023.1/software/libreadline/8.2-GCCcore-12.3.0/lib/pkgconfig:1;/apps/USE/easybuild/release/2023.1/software/FFTW/3.3.10-GCC-12.3.0/lib/pkgconfig:1;/apps/USE/easybuild/release/2023.1/software/netCDF-Fortran/4.6.1-gompi-2023a/lib/pkgconfig:1;/apps/USE/easybuild/release/2023.1/software/netCDF/4.9.2-gompi-2023a/lib/pkgconfig:1;/apps/USE/easybuild/release/2023.1/software/bzip2/1.0.8-GCCcore-12.3.0/lib/pkgconfig:1;/apps/USE/easybuild/release/2023.1/software/zstd/1.5.5-GCCcore-12.3.0/lib/pkgconfig:1;/apps/USE/easybuild/release/2023.1/software/lz4/1.9.4-GCCcore-12.3.0/lib/pkgconfig:1;/apps/USE/easybuild/release/2023.1/software/cURL/8.0.1-GCCcore-12.3.0/lib/pkgconfig:1;/apps/USE/easybuild/release/2023.1/software/HDF5/1.14.0-gompi-2023a/lib/pkgconfig:1;/apps/USE/easybuild/release/2023.1/software/ScaLAPACK/2.2.0-gompi-2023a-fb/lib/pkgconfig:1;/apps/USE/easybuild/release/2023.1/software/FlexiBLAS/3.3.1-GCC-12.3.0/lib/pkgconfig:1;/apps/USE/easybuild/release/2023.1/software/OpenBLAS/0.3.23-GCC-12.3.0/lib/pkgconfig:1;/apps/USE/easybuild/release/2023.1/software/OpenMPI/4.1.5-GCC-12.3.0/lib/pkgconfig:1;/apps/USE/easybuild/release/2023.1/software/PMIx/4.2.6-GCCcore-12.3.0/lib/pkgconfig:1;/apps/USE/easybuild/release/2023.1/software/libfabric/1.18.0-GCCcore-12.3.0/lib/pkgconfig:1;/apps/USE/easybuild/release/2023.1/software/UCX/1.14.1-GCCcore-12.3.0/lib/pkgconfig:1;/apps/USE/easybuild/release/2023.1/software/libevent/2.1.12-GCCcore-12.3.0/lib/pkgconfig:1;/apps/USE/easybuild/release/2023.1/software/OpenSSL/1.1/lib/pkgconfig:1;/apps/USE/easybuild/release/2023.1/software/hwloc/2.9.1-GCCcore-12.3.0/lib/pkgconfig:1;/apps/USE/easybuild/release/2023.1/software/libpciaccess/0.17-GCCcore-12.3.0/lib/pkgconfig:1;/apps/USE/easybuild/release/2023.1/software/libxml2/2.11.4-GCCcore-12.3.0/lib/pkgconfig:1;/apps/USE/easybuild/release/2023.1/software/XZ/5.4.2-GCCcore-12.3.0/lib/pkgconfig:1;/apps/USE/easybuild/release/2023.1/software/numactl/2.0.16-GCCcore-12.3.0/lib/pkgconfig:1;/apps/USE/easybuild/release/2023.1/software/zlib/1.2.13-GCCcore-12.3.0/lib/pkgconfig:1
EBVERSIONHDF5=1.14.0
SLURMD_NODENAME=mel0525
_ModuleTable024_=LjEvbW9kdWxlcy9hbGwvbmN1cnNlcy82LjQtR0NDY29yZS0xMi4zLjAubHVhIiwKZnVsbE5hbWUgPSAibmN1cnNlcy82LjQtR0NDY29yZS0xMi4zLjAiLApsb2FkT3JkZXIgPSAzMywKcHJvcFQgPSB7fSwKc3RhY2tEZXB0aCA9IDEsCnN0YXR1cyA9ICJhY3RpdmUiLAp1c2VyTmFtZSA9ICJuY3Vyc2VzLzYuNC1HQ0Njb3JlLTEyLjMuMCIsCndWID0gIjAwMDAwMDAwNi4wMDAwMDAwMDQuKmdjY2NvcmUuKnpmaW5hbC0uMDAwMDAwMDEyLjAwMDAwMDAwMy4qemZpbmFsIiwKfSwKbmV0Q0RGID0gewpmbiA9ICIvYXBwcy9VU0UvZWFzeWJ1aWxkL3JlbGVhc2UvMjAyMy4xL21vZHVsZXMvYWxsL25ldENERi80LjkuMi1nb21waS0yMDIzYS5sdWEiLApmdWxsTmFtZSA9ICJuZXRDREYv
EASYBUILD_BUILDPATH=/dev/shm/u102010
EBROOTGCCCORE=/apps/USE/easybuild/release/2023.1/software/GCCcore/12.3.0
EBVERSIONMYQUOTA=0.3.3
_ModuleTable015_=ZHVsZXMvZW52L3JlbGVhc2UvMjAyMy4xLmx1YSIsCmZ1bGxOYW1lID0gImVudi9yZWxlYXNlLzIwMjMuMSIsCmxvYWRPcmRlciA9IDEsCnByb3BUID0gewpsbW9kID0gewpzdGlja3kgPSAxLAp9LAp9LApzdGFja0RlcHRoID0gMCwKc3RhdHVzID0gImFjdGl2ZSIsCnVzZXJOYW1lID0gImVudi9yZWxlYXNlLzIwMjMuMSIsCndWID0gIl4wMDAwMjAyMy4wMDAwMDAwMDEuKnpmaW5hbCIsCn0sCmdvbXBpID0gewpmbiA9ICIvYXBwcy9VU0UvZWFzeWJ1aWxkL3JlbGVhc2UvMjAyMy4xL21vZHVsZXMvYWxsL2dvbXBpLzIwMjNhLmx1YSIsCmZ1bGxOYW1lID0gImdvbXBpLzIwMjNhIiwKbG9hZE9yZGVyID0gMTksCnByb3BUID0ge30sCnN0YWNrRGVwdGggPSAxLApzdGF0dXMgPSAi
SLURM_JOB_END_TIME=1727788402
EBROOTSCALAPACK=/apps/USE/easybuild/release/2023.1/software/ScaLAPACK/2.2.0-gompi-2023a-fb
_ModuleTable004_=ID0gMywKc3RhdHVzID0gImFjdGl2ZSIsCnVzZXJOYW1lID0gIkdDQ2NvcmUvMTIuMy4wIiwKd1YgPSAiMDAwMDAwMDEyLjAwMDAwMDAwMy4qemZpbmFsIiwKfSwKSERGNSA9IHsKZm4gPSAiL2FwcHMvVVNFL2Vhc3lidWlsZC9yZWxlYXNlLzIwMjMuMS9tb2R1bGVzL2FsbC9IREY1LzEuMTQuMC1nb21waS0yMDIzYS5sdWEiLApmdWxsTmFtZSA9ICJIREY1LzEuMTQuMC1nb21waS0yMDIzYSIsCmxvYWRPcmRlciA9IDI0LApwcm9wVCA9IHt9LApzdGFja0RlcHRoID0gMiwKc3RhdHVzID0gImFjdGl2ZSIsCnVzZXJOYW1lID0gIkhERjUvMS4xNC4wLWdvbXBpLTIwMjNhIiwKd1YgPSAiMDAwMDAwMDAxLjAwMDAwMDAxNC4qZ29tcGkuKnpmaW5hbC0uMDAwMDAyMDIzLiphLip6Zmlu
EBVERSIONLIBEVENT=2.1.12
SLURM_TASKS_PER_NODE=128(x2)
_ModuleTable029_=LAp9LAptcGF0aEEgPSB7CiIvYXBwcy9VU0Uvc3lzdGVtL21vZHVsZXMiLCAiL2FwcHMvVVNFL2Vhc3lidWlsZC9yZWxlYXNlLzIwMjMuMS9tb2R1bGVzL2FsbCIsCn0sCnN5c3RlbUJhc2VNUEFUSCA9ICIvYXBwcy9VU0Uvc3lzdGVtL21vZHVsZXMiLAp9Cg==
__LMOD_REF_COUNT_PYTHONPATH=/apps/installs/software/myquota/0.3.3/lib/python3.6/site-packages:1
S_COLORS=auto
EBVERSIONGCC=12.3.0
PRTE_MCA_plm_slurm_args=--external-launcher
which_declare=declare -f
EBVERSIONUCX=1.14.1
EBDEVELXZ=/apps/USE/easybuild/release/2023.1/software/XZ/5.4.2-GCCcore-12.3.0/easybuild/XZ-5.4.2-GCCcore-12.3.0-easybuild-devel
EBDEVELHWLOC=/apps/USE/easybuild/release/2023.1/software/hwloc/2.9.1-GCCcore-12.3.0/easybuild/hwloc-2.9.1-GCCcore-12.3.0-easybuild-devel
EBVERSIONLIBFABRIC=1.18.0
EBVERSIONUCC=1.2.0
SLURM_SPANK_START_CUDA_MPS=0
EBROOTZLIB=/apps/USE/easybuild/release/2023.1/software/zlib/1.2.13-GCCcore-12.3.0
SLURM_JOB_RESTART_COUNT=0
XDG_SESSION_ID=40093
SLURM_SPANK_SLURM_SPANK_SET_NON_PERF_PARANOID=0
SLURM_NNODES=2
USER=u102010
EBDEVELLIBXML2=/apps/USE/easybuild/release/2023.1/software/libxml2/2.11.4-GCCcore-12.3.0/easybuild/libxml2-2.11.4-GCCcore-12.3.0-easybuild-devel
EBVERSIONHWLOC=2.9.1
__LMOD_REF_COUNT_CMAKE_LIBRARY_PATH=/apps/USE/easybuild/release/2023.1/software/GCCcore/12.3.0/lib64:1
_ModuleTable023_=Lip6ZmluYWwiLAp9LApsejQgPSB7CmZuID0gIi9hcHBzL1VTRS9lYXN5YnVpbGQvcmVsZWFzZS8yMDIzLjEvbW9kdWxlcy9hbGwvbHo0LzEuOS40LUdDQ2NvcmUtMTIuMy4wLmx1YSIsCmZ1bGxOYW1lID0gImx6NC8xLjkuNC1HQ0Njb3JlLTEyLjMuMCIsCmxvYWRPcmRlciA9IDI3LApwcm9wVCA9IHt9LApzdGFja0RlcHRoID0gMywKc3RhdHVzID0gImFjdGl2ZSIsCnVzZXJOYW1lID0gImx6NC8xLjkuNC1HQ0Njb3JlLTEyLjMuMCIsCndWID0gIjAwMDAwMDAwMS4wMDAwMDAwMDkuMDAwMDAwMDA0LipnY2Njb3JlLip6ZmluYWwtLjAwMDAwMDAxMi4wMDAwMDAwMDMuKnpmaW5hbCIsCn0sCm5jdXJzZXMgPSB7CmZuID0gIi9hcHBzL1VTRS9lYXN5YnVpbGQvcmVsZWFzZS8yMDIz
_ModuleTable012_=ZSIsCnVzZXJOYW1lID0gIlhaLzUuNC4yLUdDQ2NvcmUtMTIuMy4wIiwKd1YgPSAiMDAwMDAwMDA1LjAwMDAwMDAwNC4wMDAwMDAwMDIuKmdjY2NvcmUuKnpmaW5hbC0uMDAwMDAwMDEyLjAwMDAwMDAwMy4qemZpbmFsIiwKfSwKYmludXRpbHMgPSB7CmZuID0gIi9hcHBzL1VTRS9lYXN5YnVpbGQvcmVsZWFzZS8yMDIzLjEvbW9kdWxlcy9hbGwvYmludXRpbHMvMi40MC1HQ0Njb3JlLTEyLjMuMC5sdWEiLApmdWxsTmFtZSA9ICJiaW51dGlscy8yLjQwLUdDQ2NvcmUtMTIuMy4wIiwKbG9hZE9yZGVyID0gNSwKcHJvcFQgPSB7fSwKc3RhY2tEZXB0aCA9IDMsCnN0YXR1cyA9ICJhY3RpdmUiLAp1c2VyTmFtZSA9ICJiaW51dGlscy8yLjQwLUdDQ2NvcmUtMTIuMy4wIiwKd1YgPSAi
EBVERSIONGCCCORE=12.3.0
EBDEVELGZIP=/apps/USE/easybuild/release/2023.1/software/gzip/1.12-GCCcore-12.3.0/easybuild/gzip-1.12-GCCcore-12.3.0-easybuild-devel
SLURM_JOB_STDIN=/dev/null
EBROOTXZ=/apps/USE/easybuild/release/2023.1/software/XZ/5.4.2-GCCcore-12.3.0
EBVERSIONOPENSSL=1.1
SLURM_JOB_START_TIME=1727784859
SLURM_NTASKS_PER_NODE=128
SELINUX_ROLE_REQUESTED=
EBROOTNETCDFMINFORTRAN=/apps/USE/easybuild/release/2023.1/software/netCDF-Fortran/4.6.1-gompi-2023a
__LMOD_REF_COUNT_MODULEPATH=/apps/USE/system/modules:1;/apps/USE/easybuild/release/2023.1/modules/all:1
SLURM_SPANK_SET_NON_PERF_PARANOID=0
EBROOTOPENSSL=/apps/USE/easybuild/release/2023.1/software/OpenSSL/1.1
PWD=/mnt/tier2/users/u102010/JUBE4MaX/max-inputs/interface/siesta/_CovidWeakSize/000000/000005_submit/work
EBDEVELOPENBLAS=/apps/USE/easybuild/release/2023.1/software/OpenBLAS/0.3.23-GCC-12.3.0/easybuild/OpenBLAS-0.3.23-GCC-12.3.0-easybuild-devel
EBDEVELFLEXIBLAS=/apps/USE/easybuild/release/2023.1/software/FlexiBLAS/3.3.1-GCC-12.3.0/easybuild/FlexiBLAS-3.3.1-GCC-12.3.0-easybuild-devel
EBROOTLIBREADLINE=/apps/USE/easybuild/release/2023.1/software/libreadline/8.2-GCCcore-12.3.0
SLURM_JOB_NODELIST=mel[0525,0563]
HOME=/home/users/u102010
SLURM_CLUSTER_NAME=meluxina
EBROOTBZIP2=/apps/USE/easybuild/release/2023.1/software/bzip2/1.0.8-GCCcore-12.3.0
EBROOTGZIP=/apps/USE/easybuild/release/2023.1/software/gzip/1.12-GCCcore-12.3.0
CMAKE_PREFIX_PATH=/apps/USE/easybuild/release/2023.1/software/libreadline/8.2-GCCcore-12.3.0:/apps/USE/easybuild/release/2023.1/software/ncurses/6.4-GCCcore-12.3.0:/apps/USE/easybuild/release/2023.1/software/FFTW/3.3.10-GCC-12.3.0:/apps/USE/easybuild/release/2023.1/software/netCDF-Fortran/4.6.1-gompi-2023a:/apps/USE/easybuild/release/2023.1/software/netCDF/4.9.2-gompi-2023a:/apps/USE/easybuild/release/2023.1/software/bzip2/1.0.8-GCCcore-12.3.0:/apps/USE/easybuild/release/2023.1/software/zstd/1.5.5-GCCcore-12.3.0:/apps/USE/easybuild/release/2023.1/software/lz4/1.9.4-GCCcore-12.3.0:/apps/USE/easybuild/release/2023.1/software/gzip/1.12-GCCcore-12.3.0:/apps/USE/easybuild/release/2023.1/software/cURL/8.0.1-GCCcore-12.3.0:/apps/USE/easybuild/release/2023.1/software/HDF5/1.14.0-gompi-2023a:/apps/USE/easybuild/release/2023.1/software/Szip/2.1.1-GCCcore-12.3.0:/apps/USE/easybuild/release/2023.1/software/ScaLAPACK/2.2.0-gompi-2023a-fb:/apps/USE/easybuild/release/2023.1/software/FlexiBLAS/3.3.1-GCC-12.3.0:/apps/USE/easybuild/release/2023.1/software/OpenBLAS/0.3.23-GCC-12.3.0:/apps/USE/easybuild/release/2023.1/software/OpenMPI/4.1.5-GCC-12.3.0:/apps/USE/easybuild/release/2023.1/software/UCC/1.2.0-GCCcore-12.3.0:/apps/USE/easybuild/release/2023.1/software/PMIx/4.2.6-GCCcore-12.3.0:/apps/USE/easybuild/release/2023.1/software/libfabric/1.18.0-GCCcore-12.3.0:/apps/USE/easybuild/release/2023.1/software/UCX/1.14.1-GCCcore-12.3.0:/apps/USE/easybuild/release/2023.1/software/libevent/2.1.12-GCCcore-12.3.0:/apps/USE/easybuild/release/2023.1/software/OpenSSL/1.1:/apps/USE/easybuild/release/2023.1/software/hwloc/2.9.1-GCCcore-12.3.0:/apps/USE/easybuild/release/2023.1/software/libpciaccess/0.17-GCCcore-12.3.0:/apps/USE/easybuild/release/2023.1/software/libxml2/2.11.4-GCCcore-12.3.0:/apps/USE/easybuild/release/2023.1/software/XZ/5.4.2-GCCcore-12.3.0:/apps/USE/easybuild/release/2023.1/software/numactl/2.0.16-GCCcore-12.3.0:/apps/USE/easybuild/release/2023.1/software/binutils/2.40-GCCcore-12.3.0:/apps/USE/easybuild/release/2023.1/software/zlib/1.2.13-GCCcore-12.3.0:/apps/USE/easybuild/release/2023.1/software/GCCcore/12.3.0:/apps/installs/software/myquota/0.3.3
SLURM_NODELIST=mel[0525,0563]
SSH_CLIENT=83.46.85.124 63320 8822
EBDEVELSCALAPACK=/apps/USE/easybuild/release/2023.1/software/ScaLAPACK/2.2.0-gompi-2023a-fb/easybuild/ScaLAPACK-2.2.0-gompi-2023a-fb-easybuild-devel
EBDEVELLIBFABRIC=/apps/USE/easybuild/release/2023.1/software/libfabric/1.18.0-GCCcore-12.3.0/easybuild/libfabric-1.18.0-GCCcore-12.3.0-easybuild-devel
LMOD_VERSION=8.7.32
EBDEVELUCX=/apps/USE/easybuild/release/2023.1/software/UCX/1.14.1-GCCcore-12.3.0/easybuild/UCX-1.14.1-GCCcore-12.3.0-easybuild-devel
EBDEVELUCC=/apps/USE/easybuild/release/2023.1/software/UCC/1.2.0-GCCcore-12.3.0/easybuild/UCC-1.2.0-GCCcore-12.3.0-easybuild-devel
CPATH=/apps/USE/easybuild/release/2023.1/software/libreadline/8.2-GCCcore-12.3.0/include:/apps/USE/easybuild/release/2023.1/software/ncurses/6.4-GCCcore-12.3.0/include:/apps/USE/easybuild/release/2023.1/software/FFTW/3.3.10-GCC-12.3.0/include:/apps/USE/easybuild/release/2023.1/software/netCDF-Fortran/4.6.1-gompi-2023a/include:/apps/USE/easybuild/release/2023.1/software/netCDF/4.9.2-gompi-2023a/include:/apps/USE/easybuild/release/2023.1/software/bzip2/1.0.8-GCCcore-12.3.0/include:/apps/USE/easybuild/release/2023.1/software/zstd/1.5.5-GCCcore-12.3.0/include:/apps/USE/easybuild/release/2023.1/software/lz4/1.9.4-GCCcore-12.3.0/include:/apps/USE/easybuild/release/2023.1/software/cURL/8.0.1-GCCcore-12.3.0/include:/apps/USE/easybuild/release/2023.1/software/HDF5/1.14.0-gompi-2023a/include:/apps/USE/easybuild/release/2023.1/software/Szip/2.1.1-GCCcore-12.3.0/include:/apps/USE/easybuild/release/2023.1/software/FlexiBLAS/3.3.1-GCC-12.3.0/include:/apps/USE/easybuild/release/2023.1/software/OpenBLAS/0.3.23-GCC-12.3.0/include:/apps/USE/easybuild/release/2023.1/software/OpenMPI/4.1.5-GCC-12.3.0/include:/apps/USE/easybuild/release/2023.1/software/UCC/1.2.0-GCCcore-12.3.0/include:/apps/USE/easybuild/release/2023.1/software/PMIx/4.2.6-GCCcore-12.3.0/include:/apps/USE/easybuild/release/2023.1/software/libfabric/1.18.0-GCCcore-12.3.0/include:/apps/USE/easybuild/release/2023.1/software/UCX/1.14.1-GCCcore-12.3.0/include:/apps/USE/easybuild/release/2023.1/software/libevent/2.1.12-GCCcore-12.3.0/include:/apps/USE/easybuild/release/2023.1/software/OpenSSL/1.1/include:/apps/USE/easybuild/release/2023.1/software/hwloc/2.9.1-GCCcore-12.3.0/include:/apps/USE/easybuild/release/2023.1/software/libpciaccess/0.17-GCCcore-12.3.0/include:/apps/USE/easybuild/release/2023.1/software/libxml2/2.11.4-GCCcore-12.3.0/include/libxml2:/apps/USE/easybuild/release/2023.1/software/libxml2/2.11.4-GCCcore-12.3.0/include:/apps/USE/easybuild/release/2023.1/software/XZ/5.4.2-GCCcore-12.3.0/include:/apps/USE/easybuild/release/2023.1/software/numactl/2.0.16-GCCcore-12.3.0/include:/apps/USE/easybuild/release/2023.1/software/binutils/2.40-GCCcore-12.3.0/include:/apps/USE/easybuild/release/2023.1/software/zlib/1.2.13-GCCcore-12.3.0/include
EBROOTSZIP=/apps/USE/easybuild/release/2023.1/software/Szip/2.1.1-GCCcore-12.3.0
LMOD_PAGER=none
EBROOTHDF5=/apps/USE/easybuild/release/2023.1/software/HDF5/1.14.0-gompi-2023a
SELINUX_LEVEL_REQUESTED=
EBVERSIONGZIP=1.12
EBDEVELCURL=/apps/USE/easybuild/release/2023.1/software/cURL/8.0.1-GCCcore-12.3.0/easybuild/cURL-8.0.1-GCCcore-12.3.0-easybuild-devel
SLURM_JOB_CPUS_PER_NODE=256(x2)
BASH_ENV=/usr/share/lmod/lmod/init/bash
EBROOTCURL=/apps/USE/easybuild/release/2023.1/software/cURL/8.0.1-GCCcore-12.3.0
EBDEVELPMIX=/apps/USE/easybuild/release/2023.1/software/PMIx/4.2.6-GCCcore-12.3.0/easybuild/PMIx-4.2.6-GCCcore-12.3.0-easybuild-devel
XDG_DATA_DIRS=/apps/USE/easybuild/release/2023.1/software/libreadline/8.2-GCCcore-12.3.0/share:/apps/USE/easybuild/release/2023.1/software/ncurses/6.4-GCCcore-12.3.0/share:/apps/USE/easybuild/release/2023.1/software/FFTW/3.3.10-GCC-12.3.0/share:/apps/USE/easybuild/release/2023.1/software/netCDF-Fortran/4.6.1-gompi-2023a/share:/apps/USE/easybuild/release/2023.1/software/netCDF/4.9.2-gompi-2023a/share:/apps/USE/easybuild/release/2023.1/software/zstd/1.5.5-GCCcore-12.3.0/share:/apps/USE/easybuild/release/2023.1/software/lz4/1.9.4-GCCcore-12.3.0/share:/apps/USE/easybuild/release/2023.1/software/gzip/1.12-GCCcore-12.3.0/share:/apps/USE/easybuild/release/2023.1/software/cURL/8.0.1-GCCcore-12.3.0/share:/apps/USE/easybuild/release/2023.1/software/HDF5/1.14.0-gompi-2023a/share:/apps/USE/easybuild/release/2023.1/software/FlexiBLAS/3.3.1-GCC-12.3.0/share:/apps/USE/easybuild/release/2023.1/software/OpenMPI/4.1.5-GCC-12.3.0/share:/apps/USE/easybuild/release/2023.1/software/PMIx/4.2.6-GCCcore-12.3.0/share:/apps/USE/easybuild/release/2023.1/software/libfabric/1.18.0-GCCcore-12.3.0/share:/apps/USE/easybuild/release/2023.1/software/UCX/1.14.1-GCCcore-12.3.0/share:/apps/USE/easybuild/release/2023.1/software/hwloc/2.9.1-GCCcore-12.3.0/share:/apps/USE/easybuild/release/2023.1/software/libxml2/2.11.4-GCCcore-12.3.0/share:/apps/USE/easybuild/release/2023.1/software/XZ/5.4.2-GCCcore-12.3.0/share:/apps/USE/easybuild/release/2023.1/software/numactl/2.0.16-GCCcore-12.3.0/share:/apps/USE/easybuild/release/2023.1/software/binutils/2.40-GCCcore-12.3.0/share:/apps/USE/easybuild/release/2023.1/software/zlib/1.2.13-GCCcore-12.3.0/share:/apps/USE/easybuild/release/2023.1/software/GCCcore/12.3.0/share
I_MPI_SHM_CMA=0
SLURM_TOPOLOGY_ADDR=meta.switch81.switch49.mel0525
PROJECT=/mnt/tier2/project/p200521
EBROOTMYQUOTA=/apps/installs/software/myquota/0.3.3
EBVERSIONLIBPCIACCESS=0.17
EBROOTLIBXML2=/apps/USE/easybuild/release/2023.1/software/libxml2/2.11.4-GCCcore-12.3.0
CURL_INCLUDES=/apps/USE/easybuild/release/2023.1/software/cURL/8.0.1-GCCcore-12.3.0/include
__LMOD_REF_COUNT_LIBRARY_PATH=/apps/USE/easybuild/release/2023.1/software/libreadline/8.2-GCCcore-12.3.0/lib:1;/apps/USE/easybuild/release/2023.1/software/ncurses/6.4-GCCcore-12.3.0/lib:1;/apps/USE/easybuild/release/2023.1/software/FFTW/3.3.10-GCC-12.3.0/lib:1;/apps/USE/easybuild/release/2023.1/software/netCDF-Fortran/4.6.1-gompi-2023a/lib:1;/apps/USE/easybuild/release/2023.1/software/netCDF/4.9.2-gompi-2023a/lib:1;/apps/USE/easybuild/release/2023.1/software/bzip2/1.0.8-GCCcore-12.3.0/lib:1;/apps/USE/easybuild/release/2023.1/software/zstd/1.5.5-GCCcore-12.3.0/lib:1;/apps/USE/easybuild/release/2023.1/software/lz4/1.9.4-GCCcore-12.3.0/lib:1;/apps/USE/easybuild/release/2023.1/software/cURL/8.0.1-GCCcore-12.3.0/lib:1;/apps/USE/easybuild/release/2023.1/software/HDF5/1.14.0-gompi-2023a/lib:1;/apps/USE/easybuild/release/2023.1/software/Szip/2.1.1-GCCcore-12.3.0/lib:1;/apps/USE/easybuild/release/2023.1/software/ScaLAPACK/2.2.0-gompi-2023a-fb/lib:1;/apps/USE/easybuild/release/2023.1/software/FlexiBLAS/3.3.1-GCC-12.3.0/lib:1;/apps/USE/easybuild/release/2023.1/software/OpenBLAS/0.3.23-GCC-12.3.0/lib:1;/apps/USE/easybuild/release/2023.1/software/OpenMPI/4.1.5-GCC-12.3.0/lib:1;/apps/USE/easybuild/release/2023.1/software/UCC/1.2.0-GCCcore-12.3.0/lib:1;/apps/USE/easybuild/release/2023.1/software/PMIx/4.2.6-GCCcore-12.3.0/lib:1;/apps/USE/easybuild/release/2023.1/software/libfabric/1.18.0-GCCcore-12.3.0/lib:1;/apps/USE/easybuild/release/2023.1/software/UCX/1.14.1-GCCcore-12.3.0/lib:1;/apps/USE/easybuild/release/2023.1/software/libevent/2.1.12-GCCcore-12.3.0/lib:1;/apps/USE/easybuild/release/2023.1/software/OpenSSL/1.1/lib:1;/apps/USE/easybuild/release/2023.1/software/hwloc/2.9.1-GCCcore-12.3.0/lib:1;/apps/USE/easybuild/release/2023.1/software/libpciaccess/0.17-GCCcore-12.3.0/lib:1;/apps/USE/easybuild/release/2023.1/software/libxml2/2.11.4-GCCcore-12.3.0/lib:1;/apps/USE/easybuild/release/2023.1/software/XZ/5.4.2-GCCcore-12.3.0/lib:1;/apps/USE/easybuild/release/2023.1/software/numactl/2.0.16-GCCcore-12.3.0/lib:1;/apps/USE/easybuild/release/2023.1/software/binutils/2.40-GCCcore-12.3.0/lib:1;/apps/USE/easybuild/release/2023.1/software/zlib/1.2.13-GCCcore-12.3.0/lib:1
EBVERSIONLIBXML2=2.11.4
SLURM_JOB_NAME=CovidWeakSize
EBVERSIONNCURSES=6.4
LIBRARY_PATH=/apps/USE/easybuild/release/2023.1/software/libreadline/8.2-GCCcore-12.3.0/lib:/apps/USE/easybuild/release/2023.1/software/ncurses/6.4-GCCcore-12.3.0/lib:/apps/USE/easybuild/release/2023.1/software/FFTW/3.3.10-GCC-12.3.0/lib:/apps/USE/easybuild/release/2023.1/software/netCDF-Fortran/4.6.1-gompi-2023a/lib:/apps/USE/easybuild/release/2023.1/software/netCDF/4.9.2-gompi-2023a/lib:/apps/USE/easybuild/release/2023.1/software/bzip2/1.0.8-GCCcore-12.3.0/lib:/apps/USE/easybuild/release/2023.1/software/zstd/1.5.5-GCCcore-12.3.0/lib:/apps/USE/easybuild/release/2023.1/software/lz4/1.9.4-GCCcore-12.3.0/lib:/apps/USE/easybuild/release/2023.1/software/cURL/8.0.1-GCCcore-12.3.0/lib:/apps/USE/easybuild/release/2023.1/software/HDF5/1.14.0-gompi-2023a/lib:/apps/USE/easybuild/release/2023.1/software/Szip/2.1.1-GCCcore-12.3.0/lib:/apps/USE/easybuild/release/2023.1/software/ScaLAPACK/2.2.0-gompi-2023a-fb/lib:/apps/USE/easybuild/release/2023.1/software/FlexiBLAS/3.3.1-GCC-12.3.0/lib:/apps/USE/easybuild/release/2023.1/software/OpenBLAS/0.3.23-GCC-12.3.0/lib:/apps/USE/easybuild/release/2023.1/software/OpenMPI/4.1.5-GCC-12.3.0/lib:/apps/USE/easybuild/release/2023.1/software/UCC/1.2.0-GCCcore-12.3.0/lib:/apps/USE/easybuild/release/2023.1/software/PMIx/4.2.6-GCCcore-12.3.0/lib:/apps/USE/easybuild/release/2023.1/software/libfabric/1.18.0-GCCcore-12.3.0/lib:/apps/USE/easybuild/release/2023.1/software/UCX/1.14.1-GCCcore-12.3.0/lib:/apps/USE/easybuild/release/2023.1/software/libevent/2.1.12-GCCcore-12.3.0/lib:/apps/USE/easybuild/release/2023.1/software/OpenSSL/1.1/lib:/apps/USE/easybuild/release/2023.1/software/hwloc/2.9.1-GCCcore-12.3.0/lib:/apps/USE/easybuild/release/2023.1/software/libpciaccess/0.17-GCCcore-12.3.0/lib:/apps/USE/easybuild/release/2023.1/software/libxml2/2.11.4-GCCcore-12.3.0/lib:/apps/USE/easybuild/release/2023.1/software/XZ/5.4.2-GCCcore-12.3.0/lib:/apps/USE/easybuild/release/2023.1/software/numactl/2.0.16-GCCcore-12.3.0/lib:/apps/USE/easybuild/release/2023.1/software/binutils/2.40-GCCcore-12.3.0/lib:/apps/USE/easybuild/release/2023.1/software/zlib/1.2.13-GCCcore-12.3.0/lib:
_ModuleTable021_=IDAsCnN0YXR1cyA9ICJhY3RpdmUiLAp1c2VyTmFtZSA9ICJsaWJyZWFkbGluZS84LjItR0NDY29yZS0xMi4zLjAiLAp3ViA9ICIwMDAwMDAwMDguMDAwMDAwMDAyLipnY2Njb3JlLip6ZmluYWwtLjAwMDAwMDAxMi4wMDAwMDAwMDMuKnpmaW5hbCIsCn0sCmxpYnhtbDIgPSB7CmZuID0gIi9hcHBzL1VTRS9lYXN5YnVpbGQvcmVsZWFzZS8yMDIzLjEvbW9kdWxlcy9hbGwvbGlieG1sMi8yLjExLjQtR0NDY29yZS0xMi4zLjAubHVhIiwKZnVsbE5hbWUgPSAibGlieG1sMi8yLjExLjQtR0NDY29yZS0xMi4zLjAiLApsb2FkT3JkZXIgPSA5LApwcm9wVCA9IHt9LApzdGFja0RlcHRoID0gNCwKc3RhdHVzID0gImFjdGl2ZSIsCnVzZXJOYW1lID0gImxpYnhtbDIvMi4xMS40LUdDQ2Nv
__LMOD_REF_COUNT_CMAKE_PREFIX_PATH=/apps/USE/easybuild/release/2023.1/software/libreadline/8.2-GCCcore-12.3.0:1;/apps/USE/easybuild/release/2023.1/software/ncurses/6.4-GCCcore-12.3.0:1;/apps/USE/easybuild/release/2023.1/software/FFTW/3.3.10-GCC-12.3.0:1;/apps/USE/easybuild/release/2023.1/software/netCDF-Fortran/4.6.1-gompi-2023a:1;/apps/USE/easybuild/release/2023.1/software/netCDF/4.9.2-gompi-2023a:1;/apps/USE/easybuild/release/2023.1/software/bzip2/1.0.8-GCCcore-12.3.0:1;/apps/USE/easybuild/release/2023.1/software/zstd/1.5.5-GCCcore-12.3.0:1;/apps/USE/easybuild/release/2023.1/software/lz4/1.9.4-GCCcore-12.3.0:1;/apps/USE/easybuild/release/2023.1/software/gzip/1.12-GCCcore-12.3.0:1;/apps/USE/easybuild/release/2023.1/software/cURL/8.0.1-GCCcore-12.3.0:1;/apps/USE/easybuild/release/2023.1/software/HDF5/1.14.0-gompi-2023a:1;/apps/USE/easybuild/release/2023.1/software/Szip/2.1.1-GCCcore-12.3.0:1;/apps/USE/easybuild/release/2023.1/software/ScaLAPACK/2.2.0-gompi-2023a-fb:1;/apps/USE/easybuild/release/2023.1/software/FlexiBLAS/3.3.1-GCC-12.3.0:1;/apps/USE/easybuild/release/2023.1/software/OpenBLAS/0.3.23-GCC-12.3.0:1;/apps/USE/easybuild/release/2023.1/software/OpenMPI/4.1.5-GCC-12.3.0:1;/apps/USE/easybuild/release/2023.1/software/UCC/1.2.0-GCCcore-12.3.0:1;/apps/USE/easybuild/release/2023.1/software/PMIx/4.2.6-GCCcore-12.3.0:1;/apps/USE/easybuild/release/2023.1/software/libfabric/1.18.0-GCCcore-12.3.0:1;/apps/USE/easybuild/release/2023.1/software/UCX/1.14.1-GCCcore-12.3.0:1;/apps/USE/easybuild/release/2023.1/software/libevent/2.1.12-GCCcore-12.3.0:1;/apps/USE/easybuild/release/2023.1/software/OpenSSL/1.1:1;/apps/USE/easybuild/release/2023.1/software/hwloc/2.9.1-GCCcore-12.3.0:1;/apps/USE/easybuild/release/2023.1/software/libpciaccess/0.17-GCCcore-12.3.0:1;/apps/USE/easybuild/release/2023.1/software/libxml2/2.11.4-GCCcore-12.3.0:1;/apps/USE/easybuild/release/2023.1/software/XZ/5.4.2-GCCcore-12.3.0:1;/apps/USE/easybuild/release/2023.1/software/numactl/2.0.16-GCCcore-12.3.0:1;/apps/USE/easybuild/release/2023.1/software/binutils/2.40-GCCcore-12.3.0:1;/apps/USE/easybuild/release/2023.1/software/zlib/1.2.13-GCCcore-12.3.0:1;/apps/USE/easybuild/release/2023.1/software/GCCcore/12.3.0:1;/apps/installs/software/myquota/0.3.3:1
LMOD_sys=Linux
_ModuleTable010_=ZHVsZXMvYWxsL1VDQy8xLjIuMC1HQ0Njb3JlLTEyLjMuMC5sdWEiLApmdWxsTmFtZSA9ICJVQ0MvMS4yLjAtR0NDY29yZS0xMi4zLjAiLApsb2FkT3JkZXIgPSAxNywKcHJvcFQgPSB7fSwKc3RhY2tEZXB0aCA9IDMsCnN0YXR1cyA9ICJhY3RpdmUiLAp1c2VyTmFtZSA9ICJVQ0MvMS4yLjAtR0NDY29yZS0xMi4zLjAiLAp3ViA9ICIwMDAwMDAwMDEuMDAwMDAwMDAyLipnY2Njb3JlLip6ZmluYWwtLjAwMDAwMDAxMi4wMDAwMDAwMDMuKnpmaW5hbCIsCn0sClVDWCA9IHsKZm4gPSAiL2FwcHMvVVNFL2Vhc3lidWlsZC9yZWxlYXNlLzIwMjMuMS9tb2R1bGVzL2FsbC9VQ1gvMS4xNC4xLUdDQ2NvcmUtMTIuMy4wLmx1YSIsCmZ1bGxOYW1lID0gIlVDWC8xLjE0LjEtR0NDY29yZS0x
SLURM_JOBID=1423481
_ModuleTable001_=X01vZHVsZVRhYmxlXyA9IHsKTVR2ZXJzaW9uID0gMywKY19yZWJ1aWxkVGltZSA9IGZhbHNlLApjX3Nob3J0VGltZSA9IGZhbHNlLApkZXB0aFQgPSB7fSwKZmFtaWx5ID0gewplbnYgPSAiZW52L3JlbGVhc2UiLAp9LAptVCA9IHsKRkZUVyA9IHsKZm4gPSAiL2FwcHMvVVNFL2Vhc3lidWlsZC9yZWxlYXNlLzIwMjMuMS9tb2R1bGVzL2FsbC9GRlRXLzMuMy4xMC1HQ0MtMTIuMy4wLmx1YSIsCmZ1bGxOYW1lID0gIkZGVFcvMy4zLjEwLUdDQy0xMi4zLjAiLApsb2FkT3JkZXIgPSAzMiwKcHJvcFQgPSB7fSwKc3RhY2tEZXB0aCA9IDAsCnN0YXR1cyA9ICJhY3RpdmUiLAp1c2VyTmFtZSA9ICJGRlRXLzMuMy4xMC1HQ0MtMTIuMy4wIiwKd1YgPSAiMDAwMDAwMDAzLjAwMDAwMDAw
SLURMD_TRES_FREQ=
SLURM_CONF=/var/run/slurm/conf/slurm.conf
EBDEVELGOMPI=/apps/USE/easybuild/release/2023.1/software/gompi/2023a/easybuild/gompi-2023a-easybuild-devel
LOADEDMODULES=env/release/2023.1:lxp-tools/myquota/0.3.3:GCCcore/12.3.0:zlib/1.2.13-GCCcore-12.3.0:binutils/2.40-GCCcore-12.3.0:GCC/12.3.0:numactl/2.0.16-GCCcore-12.3.0:XZ/5.4.2-GCCcore-12.3.0:libxml2/2.11.4-GCCcore-12.3.0:libpciaccess/0.17-GCCcore-12.3.0:hwloc/2.9.1-GCCcore-12.3.0:OpenSSL/1.1:libevent/2.1.12-GCCcore-12.3.0:UCX/1.14.1-GCCcore-12.3.0:libfabric/1.18.0-GCCcore-12.3.0:PMIx/4.2.6-GCCcore-12.3.0:UCC/1.2.0-GCCcore-12.3.0:OpenMPI/4.1.5-GCC-12.3.0:gompi/2023a:OpenBLAS/0.3.23-GCC-12.3.0:FlexiBLAS/3.3.1-GCC-12.3.0:ScaLAPACK/2.2.0-gompi-2023a-fb:Szip/2.1.1-GCCcore-12.3.0:HDF5/1.14.0-gompi-2023a:cURL/8.0.1-GCCcore-12.3.0:gzip/1.12-GCCcore-12.3.0:lz4/1.9.4-GCCcore-12.3.0:zstd/1.5.5-GCCcore-12.3.0:bzip2/1.0.8-GCCcore-12.3.0:netCDF/4.9.2-gompi-2023a:netCDF-Fortran/4.6.1-gompi-2023a:FFTW/3.3.10-GCC-12.3.0:ncurses/6.4-GCCcore-12.3.0:libreadline/8.2-GCCcore-12.3.0
__LMOD_REF_COUNT_ACLOCAL_PATH=/apps/USE/easybuild/release/2023.1/software/cURL/8.0.1-GCCcore-12.3.0/share/aclocal:1;/apps/USE/easybuild/release/2023.1/software/libxml2/2.11.4-GCCcore-12.3.0/share/aclocal:1
EBDEVELOPENMPI=/apps/USE/easybuild/release/2023.1/software/OpenMPI/4.1.5-GCC-12.3.0/easybuild/OpenMPI-4.1.5-GCC-12.3.0-easybuild-devel
EBROOTLIBEVENT=/apps/USE/easybuild/release/2023.1/software/libevent/2.1.12-GCCcore-12.3.0
EBDEVELHDF5=/apps/USE/easybuild/release/2023.1/software/HDF5/1.14.0-gompi-2023a/easybuild/HDF5-1.14.0-gompi-2023a-easybuild-devel
EBVERSIONNETCDFMINFORTRAN=4.6.1
_ModuleTable006_=My4xL21vZHVsZXMvYWxsL09wZW5NUEkvNC4xLjUtR0NDLTEyLjMuMC5sdWEiLApmdWxsTmFtZSA9ICJPcGVuTVBJLzQuMS41LUdDQy0xMi4zLjAiLApsb2FkT3JkZXIgPSAxOCwKcHJvcFQgPSB7fSwKc3RhY2tEZXB0aCA9IDIsCnN0YXR1cyA9ICJhY3RpdmUiLAp1c2VyTmFtZSA9ICJPcGVuTVBJLzQuMS41LUdDQy0xMi4zLjAiLAp3ViA9ICIwMDAwMDAwMDQuMDAwMDAwMDAxLjAwMDAwMDAwNS4qZ2NjLip6ZmluYWwtLjAwMDAwMDAxMi4wMDAwMDAwMDMuKnpmaW5hbCIsCn0sCk9wZW5TU0wgPSB7CmZuID0gIi9hcHBzL1VTRS9lYXN5YnVpbGQvcmVsZWFzZS8yMDIzLjEvbW9kdWxlcy9hbGwvT3BlblNTTC8xLjEubHVhIiwKZnVsbE5hbWUgPSAiT3BlblNTTC8xLjEiLApsb2Fk
__LMOD_REF_COUNT_MANPATH=/apps/USE/easybuild/release/2023.1/software/libreadline/8.2-GCCcore-12.3.0/share/man:1;/apps/USE/easybuild/release/2023.1/software/ncurses/6.4-GCCcore-12.3.0/share/man:1;/apps/USE/easybuild/release/2023.1/software/FFTW/3.3.10-GCC-12.3.0/share/man:1;/apps/USE/easybuild/release/2023.1/software/netCDF-Fortran/4.6.1-gompi-2023a/share/man:1;/apps/USE/easybuild/release/2023.1/software/netCDF/4.9.2-gompi-2023a/share/man:1;/apps/USE/easybuild/release/2023.1/software/bzip2/1.0.8-GCCcore-12.3.0/man:1;/apps/USE/easybuild/release/2023.1/software/zstd/1.5.5-GCCcore-12.3.0/share/man:1;/apps/USE/easybuild/release/2023.1/software/lz4/1.9.4-GCCcore-12.3.0/share/man:1;/apps/USE/easybuild/release/2023.1/software/gzip/1.12-GCCcore-12.3.0/share/man:1;/apps/USE/easybuild/release/2023.1/software/cURL/8.0.1-GCCcore-12.3.0/share/man:1;/apps/USE/easybuild/release/2023.1/software/FlexiBLAS/3.3.1-GCC-12.3.0/share/man:1;/apps/USE/easybuild/release/2023.1/software/OpenMPI/4.1.5-GCC-12.3.0/share/man:1;/apps/USE/easybuild/release/2023.1/software/PMIx/4.2.6-GCCcore-12.3.0/share/man:1;/apps/USE/easybuild/release/2023.1/software/libfabric/1.18.0-GCCcore-12.3.0/share/man:1;/apps/USE/easybuild/release/2023.1/software/hwloc/2.9.1-GCCcore-12.3.0/share/man:1;/apps/USE/easybuild/release/2023.1/software/libxml2/2.11.4-GCCcore-12.3.0/share/man:1;/apps/USE/easybuild/release/2023.1/software/XZ/5.4.2-GCCcore-12.3.0/share/man:1;/apps/USE/easybuild/release/2023.1/software/numactl/2.0.16-GCCcore-12.3.0/share/man:1;/apps/USE/easybuild/release/2023.1/software/binutils/2.40-GCCcore-12.3.0/share/man:1;/apps/USE/easybuild/release/2023.1/software/zlib/1.2.13-GCCcore-12.3.0/share/man:1;/apps/USE/easybuild/release/2023.1/software/GCCcore/12.3.0/share/man:1;/usr/share/lmod/lmod/share/man:1;/opt/parastation/share/man:1
SCRATCH=/mnt/tier1/project/p200521
EBVERSIONZLIB=1.2.13
HDF5_DIR=/apps/USE/easybuild/release/2023.1/software/HDF5/1.14.0-gompi-2023a
_ModuleTable003_=fSwKR0NDID0gewpmbiA9ICIvYXBwcy9VU0UvZWFzeWJ1aWxkL3JlbGVhc2UvMjAyMy4xL21vZHVsZXMvYWxsL0dDQy8xMi4zLjAubHVhIiwKZnVsbE5hbWUgPSAiR0NDLzEyLjMuMCIsCmxvYWRPcmRlciA9IDYsCnByb3BUID0ge30sCnN0YWNrRGVwdGggPSAyLApzdGF0dXMgPSAiYWN0aXZlIiwKdXNlck5hbWUgPSAiR0NDLzEyLjMuMCIsCndWID0gIjAwMDAwMDAxMi4wMDAwMDAwMDMuKnpmaW5hbCIsCn0sCkdDQ2NvcmUgPSB7CmZuID0gIi9hcHBzL1VTRS9lYXN5YnVpbGQvcmVsZWFzZS8yMDIzLjEvbW9kdWxlcy9hbGwvR0NDY29yZS8xMi4zLjAubHVhIiwKZnVsbE5hbWUgPSAiR0NDY29yZS8xMi4zLjAiLApsb2FkT3JkZXIgPSAzLApwcm9wVCA9IHt9LApzdGFja0RlcHRo
EBDEVELZSTD=/apps/USE/easybuild/release/2023.1/software/zstd/1.5.5-GCCcore-12.3.0/easybuild/zstd-1.5.5-GCCcore-12.3.0-easybuild-devel
LMOD_ROOT=/usr/share/lmod
SLURM_JOB_QOS=default
SLURM_TOPOLOGY_ADDR_PATTERN=switch.switch.switch.node
SSH_TTY=/dev/pts/8
_ModuleTable022_=cmUtMTIuMy4wIiwKd1YgPSAiMDAwMDAwMDAyLjAwMDAwMDAxMS4wMDAwMDAwMDQuKmdjY2NvcmUuKnpmaW5hbC0uMDAwMDAwMDEyLjAwMDAwMDAwMy4qemZpbmFsIiwKfSwKWyJseHAtdG9vbHMvbXlxdW90YSJdID0gewpmbiA9ICIvYXBwcy9VU0Uvc3lzdGVtL21vZHVsZXMvbHhwLXRvb2xzL215cXVvdGEvMC4zLjMubHVhIiwKZnVsbE5hbWUgPSAibHhwLXRvb2xzL215cXVvdGEvMC4zLjMiLApsb2FkT3JkZXIgPSAyLApwcm9wVCA9IHsKbG1vZCA9IHsKc3RpY2t5ID0gMSwKfSwKfSwKc3RhY2tEZXB0aCA9IDAsCnN0YXR1cyA9ICJhY3RpdmUiLAp1c2VyTmFtZSA9ICJseHAtdG9vbHMvbXlxdW90YS8wLjMuMyIsCndWID0gIl4wMDAwMDAwMC4wMDAwMDAwMDMuMDAwMDAwMDAz
_ModuleTable013_=MDAwMDAwMDAyLjAwMDAwMDA0MC4qZ2NjY29yZS4qemZpbmFsLS4wMDAwMDAwMTIuMDAwMDAwMDAzLip6ZmluYWwiLAp9LApiemlwMiA9IHsKZm4gPSAiL2FwcHMvVVNFL2Vhc3lidWlsZC9yZWxlYXNlLzIwMjMuMS9tb2R1bGVzL2FsbC9iemlwMi8xLjAuOC1HQ0Njb3JlLTEyLjMuMC5sdWEiLApmdWxsTmFtZSA9ICJiemlwMi8xLjAuOC1HQ0Njb3JlLTEyLjMuMCIsCmxvYWRPcmRlciA9IDI5LApwcm9wVCA9IHt9LApzdGFja0RlcHRoID0gMiwKc3RhdHVzID0gImFjdGl2ZSIsCnVzZXJOYW1lID0gImJ6aXAyLzEuMC44LUdDQ2NvcmUtMTIuMy4wIiwKd1YgPSAiMDAwMDAwMDAxLjAwMDAwMDAwMC4wMDAwMDAwMDguKmdjY2NvcmUuKnpmaW5hbC0uMDAwMDAwMDEyLjAwMDAwMDAw
MAIL=/var/spool/mail/u102010
EBDEVELLIBPCIACCESS=/apps/USE/easybuild/release/2023.1/software/libpciaccess/0.17-GCCcore-12.3.0/easybuild/libpciaccess-0.17-GCCcore-12.3.0-easybuild-devel
SLURM_CPUS_ON_NODE=256
_ModuleTable027_=Im51bWFjdGwvMi4wLjE2LUdDQ2NvcmUtMTIuMy4wIiwKd1YgPSAiMDAwMDAwMDAyLjAwMDAwMDAwMC4wMDAwMDAwMTYuKmdjY2NvcmUuKnpmaW5hbC0uMDAwMDAwMDEyLjAwMDAwMDAwMy4qemZpbmFsIiwKfSwKemxpYiA9IHsKZm4gPSAiL2FwcHMvVVNFL2Vhc3lidWlsZC9yZWxlYXNlLzIwMjMuMS9tb2R1bGVzL2FsbC96bGliLzEuMi4xMy1HQ0Njb3JlLTEyLjMuMC5sdWEiLApmdWxsTmFtZSA9ICJ6bGliLzEuMi4xMy1HQ0Njb3JlLTEyLjMuMCIsCmxvYWRPcmRlciA9IDQsCnByb3BUID0ge30sCnN0YWNrRGVwdGggPSA0LApzdGF0dXMgPSAiYWN0aXZlIiwKdXNlck5hbWUgPSAiemxpYi8xLjIuMTMtR0NDY29yZS0xMi4zLjAiLAp3ViA9ICIwMDAwMDAwMDEuMDAwMDAwMDAy
SLURM_JOB_NUM_NODES=2
OMP_PLACES=cores
__Init_Default_Modules=1
_ModuleTable016_=YWN0aXZlIiwKdXNlck5hbWUgPSAiZ29tcGkvMjAyM2EiLAp3ViA9ICIwMDAwMDIwMjMuKmEuKnpmaW5hbCIsCn0sCmd6aXAgPSB7CmZuID0gIi9hcHBzL1VTRS9lYXN5YnVpbGQvcmVsZWFzZS8yMDIzLjEvbW9kdWxlcy9hbGwvZ3ppcC8xLjEyLUdDQ2NvcmUtMTIuMy4wLmx1YSIsCmZ1bGxOYW1lID0gImd6aXAvMS4xMi1HQ0Njb3JlLTEyLjMuMCIsCmxvYWRPcmRlciA9IDI2LApwcm9wVCA9IHt9LApzdGFja0RlcHRoID0gMywKc3RhdHVzID0gImFjdGl2ZSIsCnVzZXJOYW1lID0gImd6aXAvMS4xMi1HQ0Njb3JlLTEyLjMuMCIsCndWID0gIjAwMDAwMDAwMS4wMDAwMDAwMTIuKmdjY2NvcmUuKnpmaW5hbC0uMDAwMDAwMDEyLjAwMDAwMDAwMy4qemZpbmFsIiwKfSwKaHdsb2Mg
EBROOTFFTW=/apps/USE/easybuild/release/2023.1/software/FFTW/3.3.10-GCC-12.3.0
_ModuleTable009_=bmFsIiwKfSwKU3ppcCA9IHsKZm4gPSAiL2FwcHMvVVNFL2Vhc3lidWlsZC9yZWxlYXNlLzIwMjMuMS9tb2R1bGVzL2FsbC9TemlwLzIuMS4xLUdDQ2NvcmUtMTIuMy4wLmx1YSIsCmZ1bGxOYW1lID0gIlN6aXAvMi4xLjEtR0NDY29yZS0xMi4zLjAiLApsb2FkT3JkZXIgPSAyMywKcHJvcFQgPSB7fSwKc3RhY2tEZXB0aCA9IDMsCnN0YXR1cyA9ICJhY3RpdmUiLAp1c2VyTmFtZSA9ICJTemlwLzIuMS4xLUdDQ2NvcmUtMTIuMy4wIiwKd1YgPSAiMDAwMDAwMDAyLjAwMDAwMDAwMS4wMDAwMDAwMDEuKmdjY2NvcmUuKnpmaW5hbC0uMDAwMDAwMDEyLjAwMDAwMDAwMy4qemZpbmFsIiwKfSwKVUNDID0gewpmbiA9ICIvYXBwcy9VU0UvZWFzeWJ1aWxkL3JlbGVhc2UvMjAyMy4xL21v
EBDEVELOPENSSL=/apps/USE/easybuild/release/2023.1/software/OpenSSL/1.1/easybuild/OpenSSL-1.1-easybuild-devel
SHELL=/bin/bash
TERM=xterm-256color
J4M_LIB_PATH=
EBDEVELGCCCORE=/apps/USE/easybuild/release/2023.1/software/GCCcore/12.3.0/easybuild/GCCcore-12.3.0-easybuild-devel
EBROOTHWLOC=/apps/USE/easybuild/release/2023.1/software/hwloc/2.9.1-GCCcore-12.3.0
_ModuleTable_Sz_=29
SLURM_JOB_UID=102010
EBVERSIONLZ4=1.9.4
__LMOD_REF_COUNT_CPATH=/apps/USE/easybuild/release/2023.1/software/libreadline/8.2-GCCcore-12.3.0/include:1;/apps/USE/easybuild/release/2023.1/software/ncurses/6.4-GCCcore-12.3.0/include:1;/apps/USE/easybuild/release/2023.1/software/FFTW/3.3.10-GCC-12.3.0/include:1;/apps/USE/easybuild/release/2023.1/software/netCDF-Fortran/4.6.1-gompi-2023a/include:1;/apps/USE/easybuild/release/2023.1/software/netCDF/4.9.2-gompi-2023a/include:1;/apps/USE/easybuild/release/2023.1/software/bzip2/1.0.8-GCCcore-12.3.0/include:1;/apps/USE/easybuild/release/2023.1/software/zstd/1.5.5-GCCcore-12.3.0/include:1;/apps/USE/easybuild/release/2023.1/software/lz4/1.9.4-GCCcore-12.3.0/include:1;/apps/USE/easybuild/release/2023.1/software/cURL/8.0.1-GCCcore-12.3.0/include:1;/apps/USE/easybuild/release/2023.1/software/HDF5/1.14.0-gompi-2023a/include:1;/apps/USE/easybuild/release/2023.1/software/Szip/2.1.1-GCCcore-12.3.0/include:1;/apps/USE/easybuild/release/2023.1/software/FlexiBLAS/3.3.1-GCC-12.3.0/include:1;/apps/USE/easybuild/release/2023.1/software/OpenBLAS/0.3.23-GCC-12.3.0/include:1;/apps/USE/easybuild/release/2023.1/software/OpenMPI/4.1.5-GCC-12.3.0/include:1;/apps/USE/easybuild/release/2023.1/software/UCC/1.2.0-GCCcore-12.3.0/include:1;/apps/USE/easybuild/release/2023.1/software/PMIx/4.2.6-GCCcore-12.3.0/include:1;/apps/USE/easybuild/release/2023.1/software/libfabric/1.18.0-GCCcore-12.3.0/include:1;/apps/USE/easybuild/release/2023.1/software/UCX/1.14.1-GCCcore-12.3.0/include:1;/apps/USE/easybuild/release/2023.1/software/libevent/2.1.12-GCCcore-12.3.0/include:1;/apps/USE/easybuild/release/2023.1/software/OpenSSL/1.1/include:1;/apps/USE/easybuild/release/2023.1/software/hwloc/2.9.1-GCCcore-12.3.0/include:1;/apps/USE/easybuild/release/2023.1/software/libpciaccess/0.17-GCCcore-12.3.0/include:1;/apps/USE/easybuild/release/2023.1/software/libxml2/2.11.4-GCCcore-12.3.0/include/libxml2:1;/apps/USE/easybuild/release/2023.1/software/libxml2/2.11.4-GCCcore-12.3.0/include:1;/apps/USE/easybuild/release/2023.1/software/XZ/5.4.2-GCCcore-12.3.0/include:1;/apps/USE/easybuild/release/2023.1/software/numactl/2.0.16-GCCcore-12.3.0/include:1;/apps/USE/easybuild/release/2023.1/software/binutils/2.40-GCCcore-12.3.0/include:1;/apps/USE/easybuild/release/2023.1/software/zlib/1.2.13-GCCcore-12.3.0/include:1
SLURM_JOB_PARTITION=cpu
EBDEVELNCURSES=/apps/USE/easybuild/release/2023.1/software/ncurses/6.4-GCCcore-12.3.0/easybuild/ncurses-6.4-GCCcore-12.3.0-easybuild-devel
EBROOTLZ4=/apps/USE/easybuild/release/2023.1/software/lz4/1.9.4-GCCcore-12.3.0
EBVERSIONBZIP2=1.0.8
_ModuleTable018_=YWxsL2xpYmV2ZW50LzIuMS4xMi1HQ0Njb3JlLTEyLjMuMC5sdWEiLApmdWxsTmFtZSA9ICJsaWJldmVudC8yLjEuMTItR0NDY29yZS0xMi4zLjAiLApsb2FkT3JkZXIgPSAxMywKcHJvcFQgPSB7fSwKc3RhY2tEZXB0aCA9IDMsCnN0YXR1cyA9ICJhY3RpdmUiLAp1c2VyTmFtZSA9ICJsaWJldmVudC8yLjEuMTItR0NDY29yZS0xMi4zLjAiLAp3ViA9ICIwMDAwMDAwMDIuMDAwMDAwMDAxLjAwMDAwMDAxMi4qZ2NjY29yZS4qemZpbmFsLS4wMDAwMDAwMTIuMDAwMDAwMDAzLip6ZmluYWwiLAp9LApsaWJmYWJyaWMgPSB7CmZuID0gIi9hcHBzL1VTRS9lYXN5YnVpbGQvcmVsZWFzZS8yMDIzLjEvbW9kdWxlcy9hbGwvbGliZmFicmljLzEuMTguMC1HQ0Njb3JlLTEyLjMuMC5sdWEi
SELINUX_USE_CURRENT_RANGE=
EBVERSIONNETCDF=4.9.2
EBDEVELBINUTILS=/apps/USE/easybuild/release/2023.1/software/binutils/2.40-GCCcore-12.3.0/easybuild/binutils-2.40-GCCcore-12.3.0-easybuild-devel
SLURM_JOB_USER=u102010
SHLVL=4
SLURM_SUBMIT_HOST=login03.meluxina.lxp.lu
PYTHONPATH=/apps/installs/software/myquota/0.3.3/lib/python3.6/site-packages
SLURM_JOB_ACCOUNT=p200521
EBDEVELNETCDFMINFORTRAN=/apps/USE/easybuild/release/2023.1/software/netCDF-Fortran/4.6.1-gompi-2023a/easybuild/netCDF-Fortran-4.6.1-gompi-2023a-easybuild-devel
ACLOCAL_PATH=/apps/USE/easybuild/release/2023.1/software/cURL/8.0.1-GCCcore-12.3.0/share/aclocal:/apps/USE/easybuild/release/2023.1/software/libxml2/2.11.4-GCCcore-12.3.0/share/aclocal
MANPATH=/apps/USE/easybuild/release/2023.1/software/libreadline/8.2-GCCcore-12.3.0/share/man:/apps/USE/easybuild/release/2023.1/software/ncurses/6.4-GCCcore-12.3.0/share/man:/apps/USE/easybuild/release/2023.1/software/FFTW/3.3.10-GCC-12.3.0/share/man:/apps/USE/easybuild/release/2023.1/software/netCDF-Fortran/4.6.1-gompi-2023a/share/man:/apps/USE/easybuild/release/2023.1/software/netCDF/4.9.2-gompi-2023a/share/man:/apps/USE/easybuild/release/2023.1/software/bzip2/1.0.8-GCCcore-12.3.0/man:/apps/USE/easybuild/release/2023.1/software/zstd/1.5.5-GCCcore-12.3.0/share/man:/apps/USE/easybuild/release/2023.1/software/lz4/1.9.4-GCCcore-12.3.0/share/man:/apps/USE/easybuild/release/2023.1/software/gzip/1.12-GCCcore-12.3.0/share/man:/apps/USE/easybuild/release/2023.1/software/cURL/8.0.1-GCCcore-12.3.0/share/man:/apps/USE/easybuild/release/2023.1/software/FlexiBLAS/3.3.1-GCC-12.3.0/share/man:/apps/USE/easybuild/release/2023.1/software/OpenMPI/4.1.5-GCC-12.3.0/share/man:/apps/USE/easybuild/release/2023.1/software/PMIx/4.2.6-GCCcore-12.3.0/share/man:/apps/USE/easybuild/release/2023.1/software/libfabric/1.18.0-GCCcore-12.3.0/share/man:/apps/USE/easybuild/release/2023.1/software/hwloc/2.9.1-GCCcore-12.3.0/share/man:/apps/USE/easybuild/release/2023.1/software/libxml2/2.11.4-GCCcore-12.3.0/share/man:/apps/USE/easybuild/release/2023.1/software/XZ/5.4.2-GCCcore-12.3.0/share/man:/apps/USE/easybuild/release/2023.1/software/numactl/2.0.16-GCCcore-12.3.0/share/man:/apps/USE/easybuild/release/2023.1/software/binutils/2.40-GCCcore-12.3.0/share/man:/apps/USE/easybuild/release/2023.1/software/zlib/1.2.13-GCCcore-12.3.0/share/man:/apps/USE/easybuild/release/2023.1/software/GCCcore/12.3.0/share/man:/usr/share/lmod/lmod/share/man:/opt/parastation/share/man
EBDEVELGCC=/apps/USE/easybuild/release/2023.1/software/GCC/12.3.0/easybuild/GCC-12.3.0-easybuild-devel
LMOD_FAMILY_ENV=env/release
_ModuleTable028_=LjAwMDAwMDAxMy4qZ2NjY29yZS4qemZpbmFsLS4wMDAwMDAwMTIuMDAwMDAwMDAzLip6ZmluYWwiLAp9LAp6c3RkID0gewpmbiA9ICIvYXBwcy9VU0UvZWFzeWJ1aWxkL3JlbGVhc2UvMjAyMy4xL21vZHVsZXMvYWxsL3pzdGQvMS41LjUtR0NDY29yZS0xMi4zLjAubHVhIiwKZnVsbE5hbWUgPSAienN0ZC8xLjUuNS1HQ0Njb3JlLTEyLjMuMCIsCmxvYWRPcmRlciA9IDI4LApwcm9wVCA9IHt9LApzdGFja0RlcHRoID0gMiwKc3RhdHVzID0gImFjdGl2ZSIsCnVzZXJOYW1lID0gInpzdGQvMS41LjUtR0NDY29yZS0xMi4zLjAiLAp3ViA9ICIwMDAwMDAwMDEuMDAwMDAwMDA1LjAwMDAwMDAwNS4qZ2NjY29yZS4qemZpbmFsLS4wMDAwMDAwMTIuMDAwMDAwMDAzLip6ZmluYWwiLAp9
SLURM_TRES_PER_TASK=cpu:1
HYDRA_BOOTSTRAP=slurm
EBVERSIONFFTW=3.3.10
MODULEPATH=/apps/USE/system/modules:/apps/USE/easybuild/release/2023.1/modules/all
EBROOTZSTD=/apps/USE/easybuild/release/2023.1/software/zstd/1.5.5-GCCcore-12.3.0
EBDEVELLIBREADLINE=/apps/USE/easybuild/release/2023.1/software/libreadline/8.2-GCCcore-12.3.0/easybuild/libreadline-8.2-GCCcore-12.3.0-easybuild-devel
EBDEVELFFTW=/apps/USE/easybuild/release/2023.1/software/FFTW/3.3.10-GCC-12.3.0/easybuild/FFTW-3.3.10-GCC-12.3.0-easybuild-devel
SLURM_GTIDS=0
LOGNAME=u102010
DBUS_SESSION_BUS_ADDRESS=unix:path=/run/user/102010/bus
XDG_RUNTIME_DIR=/run/user/102010
EBVERSIONBINUTILS=2.40
MODULEPATH_ROOT=/apps/USE/system/modules
LMOD_PACKAGE_PATH=/apps/config/lmod
EBROOTPMIX=/apps/USE/easybuild/release/2023.1/software/PMIx/4.2.6-GCCcore-12.3.0
EBDEVELZLIB=/apps/USE/easybuild/release/2023.1/software/zlib/1.2.13-GCCcore-12.3.0/easybuild/zlib-1.2.13-GCCcore-12.3.0-easybuild-devel
_ModuleTable025_=NC45LjItZ29tcGktMjAyM2EiLApsb2FkT3JkZXIgPSAzMCwKcHJvcFQgPSB7fSwKc3RhY2tEZXB0aCA9IDEsCnN0YXR1cyA9ICJhY3RpdmUiLAp1c2VyTmFtZSA9ICJuZXRDREYvNC45LjItZ29tcGktMjAyM2EiLAp3ViA9ICIwMDAwMDAwMDQuMDAwMDAwMDA5LjAwMDAwMDAwMi4qZ29tcGkuKnpmaW5hbC0uMDAwMDAyMDIzLiphLip6ZmluYWwiLAp9LApbIm5ldENERi1Gb3J0cmFuIl0gPSB7CmZuID0gIi9hcHBzL1VTRS9lYXN5YnVpbGQvcmVsZWFzZS8yMDIzLjEvbW9kdWxlcy9hbGwvbmV0Q0RGLUZvcnRyYW4vNC42LjEtZ29tcGktMjAyM2EubHVhIiwKZnVsbE5hbWUgPSAibmV0Q0RGLUZvcnRyYW4vNC42LjEtZ29tcGktMjAyM2EiLApsb2FkT3JkZXIgPSAzMSwKcHJvcFQg
EBROOTLIBFABRIC=/apps/USE/easybuild/release/2023.1/software/libfabric/1.18.0-GCCcore-12.3.0
PATH=/apps/USE/easybuild/release/2023.1/software/ncurses/6.4-GCCcore-12.3.0/bin:/apps/USE/easybuild/release/2023.1/software/FFTW/3.3.10-GCC-12.3.0/bin:/apps/USE/easybuild/release/2023.1/software/netCDF-Fortran/4.6.1-gompi-2023a/bin:/apps/USE/easybuild/release/2023.1/software/netCDF/4.9.2-gompi-2023a/bin:/apps/USE/easybuild/release/2023.1/software/bzip2/1.0.8-GCCcore-12.3.0/bin:/apps/USE/easybuild/release/2023.1/software/zstd/1.5.5-GCCcore-12.3.0/bin:/apps/USE/easybuild/release/2023.1/software/lz4/1.9.4-GCCcore-12.3.0/bin:/apps/USE/easybuild/release/2023.1/software/gzip/1.12-GCCcore-12.3.0/bin:/apps/USE/easybuild/release/2023.1/software/cURL/8.0.1-GCCcore-12.3.0/bin:/apps/USE/easybuild/release/2023.1/software/HDF5/1.14.0-gompi-2023a/bin:/apps/USE/easybuild/release/2023.1/software/FlexiBLAS/3.3.1-GCC-12.3.0/bin:/apps/USE/easybuild/release/2023.1/software/OpenMPI/4.1.5-GCC-12.3.0/bin:/apps/USE/easybuild/release/2023.1/software/UCC/1.2.0-GCCcore-12.3.0/bin:/apps/USE/easybuild/release/2023.1/software/PMIx/4.2.6-GCCcore-12.3.0/bin:/apps/USE/easybuild/release/2023.1/software/libfabric/1.18.0-GCCcore-12.3.0/bin:/apps/USE/easybuild/release/2023.1/software/UCX/1.14.1-GCCcore-12.3.0/bin:/apps/USE/easybuild/release/2023.1/software/libevent/2.1.12-GCCcore-12.3.0/bin:/apps/USE/easybuild/release/2023.1/software/OpenSSL/1.1/bin:/apps/USE/easybuild/release/2023.1/software/hwloc/2.9.1-GCCcore-12.3.0/sbin:/apps/USE/easybuild/release/2023.1/software/hwloc/2.9.1-GCCcore-12.3.0/bin:/apps/USE/easybuild/release/2023.1/software/libxml2/2.11.4-GCCcore-12.3.0/bin:/apps/USE/easybuild/release/2023.1/software/XZ/5.4.2-GCCcore-12.3.0/bin:/apps/USE/easybuild/release/2023.1/software/numactl/2.0.16-GCCcore-12.3.0/bin:/apps/USE/easybuild/release/2023.1/software/binutils/2.40-GCCcore-12.3.0/bin:/apps/USE/easybuild/release/2023.1/software/GCCcore/12.3.0/bin:/apps/installs/software/myquota/0.3.3/bin:/home/users/u102010/.local/bin:/home/users/u102010/bin:/usr/local/bin:/usr/bin:/usr/local/sbin:/usr/sbin:/home/users/u102010/Siesta/siesta-cpu/bin/
_ModuleTable014_=My4qemZpbmFsIiwKfSwKY1VSTCA9IHsKZm4gPSAiL2FwcHMvVVNFL2Vhc3lidWlsZC9yZWxlYXNlLzIwMjMuMS9tb2R1bGVzL2FsbC9jVVJMLzguMC4xLUdDQ2NvcmUtMTIuMy4wLmx1YSIsCmZ1bGxOYW1lID0gImNVUkwvOC4wLjEtR0NDY29yZS0xMi4zLjAiLApsb2FkT3JkZXIgPSAyNSwKcHJvcFQgPSB7fSwKc3RhY2tEZXB0aCA9IDIsCnN0YXR1cyA9ICJhY3RpdmUiLAp1c2VyTmFtZSA9ICJjVVJMLzguMC4xLUdDQ2NvcmUtMTIuMy4wIiwKd1YgPSAiMDAwMDAwMDA4LjAwMDAwMDAwMC4wMDAwMDAwMDEuKmdjY2NvcmUuKnpmaW5hbC0uMDAwMDAwMDEyLjAwMDAwMDAwMy4qemZpbmFsIiwKfSwKWyJlbnYvcmVsZWFzZSJdID0gewpmbiA9ICIvYXBwcy9VU0Uvc3lzdGVtL21v
SLURM_JOB_ID=1423481
EBVERSIONLIBREADLINE=8.2
_LMFILES_=/apps/USE/system/modules/env/release/2023.1.lua:/apps/USE/system/modules/lxp-tools/myquota/0.3.3.lua:/apps/USE/easybuild/release/2023.1/modules/all/GCCcore/12.3.0.lua:/apps/USE/easybuild/release/2023.1/modules/all/zlib/1.2.13-GCCcore-12.3.0.lua:/apps/USE/easybuild/release/2023.1/modules/all/binutils/2.40-GCCcore-12.3.0.lua:/apps/USE/easybuild/release/2023.1/modules/all/GCC/12.3.0.lua:/apps/USE/easybuild/release/2023.1/modules/all/numactl/2.0.16-GCCcore-12.3.0.lua:/apps/USE/easybuild/release/2023.1/modules/all/XZ/5.4.2-GCCcore-12.3.0.lua:/apps/USE/easybuild/release/2023.1/modules/all/libxml2/2.11.4-GCCcore-12.3.0.lua:/apps/USE/easybuild/release/2023.1/modules/all/libpciaccess/0.17-GCCcore-12.3.0.lua:/apps/USE/easybuild/release/2023.1/modules/all/hwloc/2.9.1-GCCcore-12.3.0.lua:/apps/USE/easybuild/release/2023.1/modules/all/OpenSSL/1.1.lua:/apps/USE/easybuild/release/2023.1/modules/all/libevent/2.1.12-GCCcore-12.3.0.lua:/apps/USE/easybuild/release/2023.1/modules/all/UCX/1.14.1-GCCcore-12.3.0.lua:/apps/USE/easybuild/release/2023.1/modules/all/libfabric/1.18.0-GCCcore-12.3.0.lua:/apps/USE/easybuild/release/2023.1/modules/all/PMIx/4.2.6-GCCcore-12.3.0.lua:/apps/USE/easybuild/release/2023.1/modules/all/UCC/1.2.0-GCCcore-12.3.0.lua:/apps/USE/easybuild/release/2023.1/modules/all/OpenMPI/4.1.5-GCC-12.3.0.lua:/apps/USE/easybuild/release/2023.1/modules/all/gompi/2023a.lua:/apps/USE/easybuild/release/2023.1/modules/all/OpenBLAS/0.3.23-GCC-12.3.0.lua:/apps/USE/easybuild/release/2023.1/modules/all/FlexiBLAS/3.3.1-GCC-12.3.0.lua:/apps/USE/easybuild/release/2023.1/modules/all/ScaLAPACK/2.2.0-gompi-2023a-fb.lua:/apps/USE/easybuild/release/2023.1/modules/all/Szip/2.1.1-GCCcore-12.3.0.lua:/apps/USE/easybuild/release/2023.1/modules/all/HDF5/1.14.0-gompi-2023a.lua:/apps/USE/easybuild/release/2023.1/modules/all/cURL/8.0.1-GCCcore-12.3.0.lua:/apps/USE/easybuild/release/2023.1/modules/all/gzip/1.12-GCCcore-12.3.0.lua:/apps/USE/easybuild/release/2023.1/modules/all/lz4/1.9.4-GCCcore-12.3.0.lua:/apps/USE/easybuild/release/2023.1/modules/all/zstd/1.5.5-GCCcore-12.3.0.lua:/apps/USE/easybuild/release/2023.1/modules/all/bzip2/1.0.8-GCCcore-12.3.0.lua:/apps/USE/easybuild/release/2023.1/modules/all/netCDF/4.9.2-gompi-2023a.lua:/apps/USE/easybuild/release/2023.1/modules/all/netCDF-Fortran/4.6.1-gompi-2023a.lua:/apps/USE/easybuild/release/2023.1/modules/all/FFTW/3.3.10-GCC-12.3.0.lua:/apps/USE/easybuild/release/2023.1/modules/all/ncurses/6.4-GCCcore-12.3.0.lua:/apps/USE/easybuild/release/2023.1/modules/all/libreadline/8.2-GCCcore-12.3.0.lua
EBROOTLIBPCIACCESS=/apps/USE/easybuild/release/2023.1/software/libpciaccess/0.17-GCCcore-12.3.0
DEBUGINFOD_URLS=https://debuginfod.centos.org/ 
EBDEVELLZ4=/apps/USE/easybuild/release/2023.1/software/lz4/1.9.4-GCCcore-12.3.0/easybuild/lz4-1.9.4-GCCcore-12.3.0-easybuild-devel
MODULESHOME=/usr/share/lmod/lmod
PKG_CONFIG_PATH=/apps/USE/easybuild/release/2023.1/software/libreadline/8.2-GCCcore-12.3.0/lib/pkgconfig:/apps/USE/easybuild/release/2023.1/software/FFTW/3.3.10-GCC-12.3.0/lib/pkgconfig:/apps/USE/easybuild/release/2023.1/software/netCDF-Fortran/4.6.1-gompi-2023a/lib/pkgconfig:/apps/USE/easybuild/release/2023.1/software/netCDF/4.9.2-gompi-2023a/lib/pkgconfig:/apps/USE/easybuild/release/2023.1/software/bzip2/1.0.8-GCCcore-12.3.0/lib/pkgconfig:/apps/USE/easybuild/release/2023.1/software/zstd/1.5.5-GCCcore-12.3.0/lib/pkgconfig:/apps/USE/easybuild/release/2023.1/software/lz4/1.9.4-GCCcore-12.3.0/lib/pkgconfig:/apps/USE/easybuild/release/2023.1/software/cURL/8.0.1-GCCcore-12.3.0/lib/pkgconfig:/apps/USE/easybuild/release/2023.1/software/HDF5/1.14.0-gompi-2023a/lib/pkgconfig:/apps/USE/easybuild/release/2023.1/software/ScaLAPACK/2.2.0-gompi-2023a-fb/lib/pkgconfig:/apps/USE/easybuild/release/2023.1/software/FlexiBLAS/3.3.1-GCC-12.3.0/lib/pkgconfig:/apps/USE/easybuild/release/2023.1/software/OpenBLAS/0.3.23-GCC-12.3.0/lib/pkgconfig:/apps/USE/easybuild/release/2023.1/software/OpenMPI/4.1.5-GCC-12.3.0/lib/pkgconfig:/apps/USE/easybuild/release/2023.1/software/PMIx/4.2.6-GCCcore-12.3.0/lib/pkgconfig:/apps/USE/easybuild/release/2023.1/software/libfabric/1.18.0-GCCcore-12.3.0/lib/pkgconfig:/apps/USE/easybuild/release/2023.1/software/UCX/1.14.1-GCCcore-12.3.0/lib/pkgconfig:/apps/USE/easybuild/release/2023.1/software/libevent/2.1.12-GCCcore-12.3.0/lib/pkgconfig:/apps/USE/easybuild/release/2023.1/software/OpenSSL/1.1/lib/pkgconfig:/apps/USE/easybuild/release/2023.1/software/hwloc/2.9.1-GCCcore-12.3.0/lib/pkgconfig:/apps/USE/easybuild/release/2023.1/software/libpciaccess/0.17-GCCcore-12.3.0/lib/pkgconfig:/apps/USE/easybuild/release/2023.1/software/libxml2/2.11.4-GCCcore-12.3.0/lib/pkgconfig:/apps/USE/easybuild/release/2023.1/software/XZ/5.4.2-GCCcore-12.3.0/lib/pkgconfig:/apps/USE/easybuild/release/2023.1/software/numactl/2.0.16-GCCcore-12.3.0/lib/pkgconfig:/apps/USE/easybuild/release/2023.1/software/zlib/1.2.13-GCCcore-12.3.0/lib/pkgconfig
LMOD_SETTARG_FULL_SUPPORT=no
EBVERSIONFLEXIBLAS=3.3.1
_ModuleTable011_=Mi4zLjAiLApsb2FkT3JkZXIgPSAxNCwKcHJvcFQgPSB7fSwKc3RhY2tEZXB0aCA9IDMsCnN0YXR1cyA9ICJhY3RpdmUiLAp1c2VyTmFtZSA9ICJVQ1gvMS4xNC4xLUdDQ2NvcmUtMTIuMy4wIiwKd1YgPSAiMDAwMDAwMDAxLjAwMDAwMDAxNC4wMDAwMDAwMDEuKmdjY2NvcmUuKnpmaW5hbC0uMDAwMDAwMDEyLjAwMDAwMDAwMy4qemZpbmFsIiwKfSwKWFogPSB7CmZuID0gIi9hcHBzL1VTRS9lYXN5YnVpbGQvcmVsZWFzZS8yMDIzLjEvbW9kdWxlcy9hbGwvWFovNS40LjItR0NDY29yZS0xMi4zLjAubHVhIiwKZnVsbE5hbWUgPSAiWFovNS40LjItR0NDY29yZS0xMi4zLjAiLApsb2FkT3JkZXIgPSA4LApwcm9wVCA9IHt9LApzdGFja0RlcHRoID0gNSwKc3RhdHVzID0gImFjdGl2
EBROOTNUMACTL=/apps/USE/easybuild/release/2023.1/software/numactl/2.0.16-GCCcore-12.3.0
LMOD_FAMILY_ENV_VERSION=2023.1
HISTSIZE=1000
LMOD_PKG=/usr/share/lmod/lmod
CMAKE_LIBRARY_PATH=/apps/USE/easybuild/release/2023.1/software/GCCcore/12.3.0/lib64
LOCALSCRATCH=/mnt/tier0/project/p200521
EBROOTNETCDF=/apps/USE/easybuild/release/2023.1/software/netCDF/4.9.2-gompi-2023a
J4M_HOME=/home/users/u102010/JUBE4MaX/max-inputs/
EBVERSIONSZIP=2.1.1
EBROOTUCX=/apps/USE/easybuild/release/2023.1/software/UCX/1.14.1-GCCcore-12.3.0
_ModuleTable005_=YWwiLAp9LApPcGVuQkxBUyA9IHsKZm4gPSAiL2FwcHMvVVNFL2Vhc3lidWlsZC9yZWxlYXNlLzIwMjMuMS9tb2R1bGVzL2FsbC9PcGVuQkxBUy8wLjMuMjMtR0NDLTEyLjMuMC5sdWEiLApmdWxsTmFtZSA9ICJPcGVuQkxBUy8wLjMuMjMtR0NDLTEyLjMuMCIsCmxvYWRPcmRlciA9IDIwLApwcm9wVCA9IHt9LApzdGFja0RlcHRoID0gMiwKc3RhdHVzID0gImFjdGl2ZSIsCnVzZXJOYW1lID0gIk9wZW5CTEFTLzAuMy4yMy1HQ0MtMTIuMy4wIiwKd1YgPSAiMDAwMDAwMDAwLjAwMDAwMDAwMy4wMDAwMDAwMjMuKmdjYy4qemZpbmFsLS4wMDAwMDAwMTIuMDAwMDAwMDAzLip6ZmluYWwiLAp9LApPcGVuTVBJID0gewpmbiA9ICIvYXBwcy9VU0UvZWFzeWJ1aWxkL3JlbGVhc2UvMjAy
LMOD_CMD=/usr/share/lmod/lmod/libexec/lmod
SLURM_LOCALID=0
OMP_NUM_THREADS=1
LESSOPEN=||/usr/bin/lesspipe.sh %s
_ModuleTable020_=My4wIiwKbG9hZE9yZGVyID0gMTAsCnByb3BUID0ge30sCnN0YWNrRGVwdGggPSA0LApzdGF0dXMgPSAiYWN0aXZlIiwKdXNlck5hbWUgPSAibGlicGNpYWNjZXNzLzAuMTctR0NDY29yZS0xMi4zLjAiLAp3ViA9ICIwMDAwMDAwMDAuMDAwMDAwMDE3LipnY2Njb3JlLip6ZmluYWwtLjAwMDAwMDAxMi4wMDAwMDAwMDMuKnpmaW5hbCIsCn0sCmxpYnJlYWRsaW5lID0gewpmbiA9ICIvYXBwcy9VU0UvZWFzeWJ1aWxkL3JlbGVhc2UvMjAyMy4xL21vZHVsZXMvYWxsL2xpYnJlYWRsaW5lLzguMi1HQ0Njb3JlLTEyLjMuMC5sdWEiLApmdWxsTmFtZSA9ICJsaWJyZWFkbGluZS84LjItR0NDY29yZS0xMi4zLjAiLApsb2FkT3JkZXIgPSAzNCwKcHJvcFQgPSB7fSwKc3RhY2tEZXB0aCA9
EBROOTUCC=/apps/USE/easybuild/release/2023.1/software/UCC/1.2.0-GCCcore-12.3.0
LMOD_DIR=/usr/share/lmod/lmod/libexec
BASH_FUNC_which%%=() {  ( alias;
 eval ${which_declare} ) | /usr/bin/which --tty-only --read-alias --read-functions --show-tilde --show-dot $@
}
BASH_FUNC_module%%=() {  if [ -z "${LMOD_SH_DBG_ON+x}" ]; then
 case "$-" in 
 *v*x*)
 __lmod_sh_dbg='vx'
 ;;
 *v*)
 __lmod_sh_dbg='v'
 ;;
 *x*)
 __lmod_sh_dbg='x'
 ;;
 esac;
 fi;
 if [ -n "${__lmod_sh_dbg:-}" ]; then
 set +$__lmod_sh_dbg;
 echo "Shell debugging temporarily silenced: export LMOD_SH_DBG_ON=1 for Lmod's output" 1>&2;
 fi;
 eval "$($LMOD_CMD shell "$@")" && eval "$(${LMOD_SETTARG_CMD:-:} -s sh)";
 __lmod_my_status=$?;
 if [ -n "${__lmod_sh_dbg:-}" ]; then
 echo "Shell debugging restarted" 1>&2;
 set -$__lmod_sh_dbg;
 fi;
 unset __lmod_sh_dbg;
 return $__lmod_my_status
}
BASH_FUNC_ml%%=() {  eval "$($LMOD_DIR/ml_cmd "$@")"
}
_=/usr/bin/env

Current SIESTA linked libraries
-------------------------------
	linux-vdso.so.1 (0x00007ffff5fc4000)
	libnetcdff.so.7 => /apps/USE/easybuild/release/2023.1/software/netCDF-Fortran/4.6.1-gompi-2023a/lib/libnetcdff.so.7 (0x0000154cfaa6c000)
	libnetcdf.so.19 => /apps/USE/easybuild/release/2023.1/software/netCDF/4.9.2-gompi-2023a/lib/libnetcdf.so.19 (0x0000154cfa6ae000)
	libdl.so.2 => /lib64/libdl.so.2 (0x0000154cfa4aa000)
	libgfortran.so.5 => /apps/USE/easybuild/release/2023.1/software/GCCcore/12.3.0/lib64/libgfortran.so.5 (0x0000154cfa1dc000)
	libm.so.6 => /lib64/libm.so.6 (0x0000154cf9e5a000)
	libmvec.so.1 => /lib64/libmvec.so.1 (0x0000154cf9c2f000)
	libpthread.so.0 => /lib64/libpthread.so.0 (0x0000154cf9a0f000)
	libreadline.so.8 => /apps/USE/easybuild/release/2023.1/software/libreadline/8.2-GCCcore-12.3.0/lib/libreadline.so.8 (0x0000154cfaa0c000)
	libmpi_usempif08.so.40 => /apps/USE/easybuild/release/2023.1/software/OpenMPI/4.1.5-GCC-12.3.0/lib/libmpi_usempif08.so.40 (0x0000154cfa9d3000)
	libmpi_usempi_ignore_tkr.so.40 => /apps/USE/easybuild/release/2023.1/software/OpenMPI/4.1.5-GCC-12.3.0/lib/libmpi_usempi_ignore_tkr.so.40 (0x0000154cfa9c6000)
	libmpi_mpifh.so.40 => /apps/USE/easybuild/release/2023.1/software/OpenMPI/4.1.5-GCC-12.3.0/lib/libmpi_mpifh.so.40 (0x0000154cfa95a000)
	libmpi.so.40 => /apps/USE/easybuild/release/2023.1/software/OpenMPI/4.1.5-GCC-12.3.0/lib/libmpi.so.40 (0x0000154cf98e4000)
	libscalapack.so => /apps/USE/easybuild/release/2023.1/software/ScaLAPACK/2.2.0-gompi-2023a-fb/lib/libscalapack.so (0x0000154cf9356000)
	libopenblas.so.0 => /apps/USE/easybuild/release/2023.1/software/OpenBLAS/0.3.23-GCC-12.3.0/lib/libopenblas.so.0 (0x0000154cf85ae000)
	libgomp.so.1 => /apps/USE/easybuild/release/2023.1/software/GCCcore/12.3.0/lib64/libgomp.so.1 (0x0000154cf8565000)
	libstdc++.so.6 => /apps/USE/easybuild/release/2023.1/software/GCCcore/12.3.0/lib64/libstdc++.so.6 (0x0000154cf833c000)
	libgcc_s.so.1 => /apps/USE/easybuild/release/2023.1/software/GCCcore/12.3.0/lib64/libgcc_s.so.1 (0x0000154cfa937000)
	libquadmath.so.0 => /apps/USE/easybuild/release/2023.1/software/GCCcore/12.3.0/lib64/libquadmath.so.0 (0x0000154cf82f3000)
	libc.so.6 => /lib64/libc.so.6 (0x0000154cf7f1d000)
	libhdf5_hl.so.310 => /apps/USE/easybuild/release/2023.1/software/HDF5/1.14.0-gompi-2023a/lib/libhdf5_hl.so.310 (0x0000154cf7ef8000)
	libhdf5.so.310 => /apps/USE/easybuild/release/2023.1/software/HDF5/1.14.0-gompi-2023a/lib/libhdf5.so.310 (0x0000154cf7aa9000)
	libz.so.1 => /apps/USE/easybuild/release/2023.1/software/zlib/1.2.13-GCCcore-12.3.0/lib/libz.so.1 (0x0000154cf7a8e000)
	libzstd.so.1 => /apps/USE/easybuild/release/2023.1/software/zstd/1.5.5-GCCcore-12.3.0/lib/libzstd.so.1 (0x0000154cf79c9000)
	libbz2.so.1.0 => /apps/USE/easybuild/release/2023.1/software/bzip2/1.0.8-GCCcore-12.3.0/lib/libbz2.so.1.0 (0x0000154cf79b5000)
	libsz.so.2 => /apps/USE/easybuild/release/2023.1/software/Szip/2.1.1-GCCcore-12.3.0/lib/libsz.so.2 (0x0000154cf799d000)
	libcurl.so.4 => /apps/USE/easybuild/release/2023.1/software/cURL/8.0.1-GCCcore-12.3.0/lib/libcurl.so.4 (0x0000154cf790a000)
	libxml2.so.2 => /apps/USE/easybuild/release/2023.1/software/libxml2/2.11.4-GCCcore-12.3.0/lib/libxml2.so.2 (0x0000154cf77a9000)
	/lib64/ld-linux-x86-64.so.2 (0x0000154cfa907000)
	libncurses.so.6 => /apps/USE/easybuild/release/2023.1/software/ncurses/6.4-GCCcore-12.3.0/lib/libncurses.so.6 (0x0000154cf7743000)
	libopen-rte.so.40 => /apps/USE/easybuild/release/2023.1/software/OpenMPI/4.1.5-GCC-12.3.0/lib/libopen-rte.so.40 (0x0000154cf7689000)
	libopen-pal.so.40 => /apps/USE/easybuild/release/2023.1/software/OpenMPI/4.1.5-GCC-12.3.0/lib/libopen-pal.so.40 (0x0000154cf75d7000)
	librt.so.1 => /lib64/librt.so.1 (0x0000154cf73cf000)
	libutil.so.1 => /lib64/libutil.so.1 (0x0000154cf71cb000)
	libhwloc.so.15 => /apps/USE/easybuild/release/2023.1/software/hwloc/2.9.1-GCCcore-12.3.0/lib/libhwloc.so.15 (0x0000154cf716b000)
	libpciaccess.so.0 => /apps/USE/easybuild/release/2023.1/software/libpciaccess/0.17-GCCcore-12.3.0/lib/libpciaccess.so.0 (0x0000154cf715f000)
	liblzma.so.5 => /apps/USE/easybuild/release/2023.1/software/XZ/5.4.2-GCCcore-12.3.0/lib/liblzma.so.5 (0x0000154cf712f000)
	libevent_core-2.1.so.7 => /apps/USE/easybuild/release/2023.1/software/libevent/2.1.12-GCCcore-12.3.0/lib/libevent_core-2.1.so.7 (0x0000154cf70f9000)
	libevent_pthreads-2.1.so.7 => /apps/USE/easybuild/release/2023.1/software/libevent/2.1.12-GCCcore-12.3.0/lib/libevent_pthreads-2.1.so.7 (0x0000154cf70f4000)
	libflexiblas.so.3 => /apps/USE/easybuild/release/2023.1/software/FlexiBLAS/3.3.1-GCC-12.3.0/lib/libflexiblas.so.3 (0x0000154cf6d0f000)
	libssl.so.1.1 => /apps/USE/easybuild/release/2023.1/software/OpenSSL/1.1/lib/libssl.so.1.1 (0x0000154cf6a7b000)
	libcrypto.so.1.1 => /apps/USE/easybuild/release/2023.1/software/OpenSSL/1.1/lib/libcrypto.so.1.1 (0x0000154cf6590000)

SCF_NOT_CONV: SCF did not converge  in maximum number of steps.
Geom step, scf iteration, dDmax, dHmax:    0     5   1234.657410     0.006850
Job completed
