JobId=7684280 JobName=submit.job
   UserId=fpedron0(126159) GroupId=interactive(25200) MCS_label=N/A
   Priority=140578 Nice=0 Account=euhpc_b13_053 QOS=normal
   JobState=RUNNING Reason=None Dependency=(null)
   Requeue=0 Restarts=0 BatchFlag=1 Reboot=0 ExitCode=0:0
   DerivedExitCode=0:0
   RunTime=00:00:04 TimeLimit=1-00:00:00 TimeMin=N/A
   SubmitTime=2024-09-13T18:03:56 EligibleTime=2024-09-13T18:03:56
   AccrueTime=2024-09-13T18:03:56
   StartTime=2024-09-13T18:03:58 EndTime=2024-09-14T18:03:59 Deadline=N/A
   SuspendTime=None SecsPreSuspend=0 LastSchedEval=2024-09-13T18:03:58 Scheduler=Main
   Partition=boost_usr_prod AllocNode:Sid=slurm-controller:3895506
   ReqNodeList=(null) ExcNodeList=(null)
   NodeList=lrdn[0043,0188,0253,0259,0265,0276,0420,0433,0439,0454,0506,0516,0542,0559,0601,0630,0670,0698,0736,0766,0793,0806,0849,0886,1000,1005,1025,1044,1081,1111,1133,1161]
   BatchHost=lrdn0043
   NumNodes=32 NumCPUs=1024 NumTasks=1024 CPUs/Task=1 ReqB:S:C:T=0:0:*:*
   TRES=cpu=1024,mem=15400G,node=32,billing=1024,gres/gpu=128
   Socks/Node=* NtasksPerN:B:S:C=32:0:*:* CoreSpec=*
   JOB_GRES=gpu:a100:128
     Nodes=lrdn[0043,0188,0253,0259,0265,0276,0420,0433,0439,0454,0506,0516,0542,0559,0601,0630,0670,0698,0736,0766,0793,0806,0849,0886,1000,1005,1025,1044,1081,1111,1133,1161] CPU_IDs=0-31 Mem=492800 GRES=gpu:a100:4(IDX:0-3)
   MinCPUsNode=32 MinMemoryCPU=15400M MinTmpDiskNode=0
   Features=(null) DelayBoot=00:00:00
   OverSubscribe=NO Contiguous=0 Licenses=(null) Network=(null)
   Command=/leonardo/home/userexternal/fpedron0/JUBE4MaX-GPU/max-inputs/interface/siesta/_CovidWeakKPoints/000001/000000_submit/work/submit.job
   WorkDir=/leonardo/home/userexternal/fpedron0/JUBE4MaX-GPU/max-inputs/interface/siesta/_CovidWeakKPoints/000001/000000_submit/work
   StdErr=/leonardo/home/userexternal/fpedron0/JUBE4MaX-GPU/max-inputs/interface/siesta/_CovidWeakKPoints/000001/000000_submit/work/slurm-7684280.out
   StdIn=/dev/null
   StdOut=/leonardo/home/userexternal/fpedron0/JUBE4MaX-GPU/max-inputs/interface/siesta/_CovidWeakKPoints/000001/000000_submit/work/slurm-7684280.out
   Power=
   TresPerNode=gres:gpu:4
   

