{
 "global_section": { "_calls": 1, "_time":      876.154, "_%":   100.00,
   "siesta": { "_calls": 1, "_time":      876.154, "_%":   100.00,
     "Setup": { "_calls": 1, "_time":        1.475, "_%":     0.17,
       "bands": { "_calls": 1, "_time":        0.003, "_%":     0.00},
       "KSV_init": { "_calls": 1, "_time":        0.001, "_%":     0.00}
     },
     "IterGeom": { "_calls": 1, "_time":      874.560, "_%":    99.82,
       "geom_init": { "_calls": 1, "_time":        2.918, "_%":     0.33,
         "state_init": { "_calls": 1, "_time":        0.520, "_%":     0.06,
           "hsparse": { "_calls": 1, "_time":        0.111, "_%":     0.01},
           "overlap": { "_calls": 1, "_time":        0.040, "_%":     0.00}
         },
         "Setup_H0": { "_calls": 1, "_time":        2.396, "_%":     0.27,
           "naefs": { "_calls": 1, "_time":        0.017, "_%":     0.00},
           "MolMec": { "_calls": 1, "_time":        0.000, "_%":     0.00},
           "kinefsm": { "_calls": 1, "_time":        0.036, "_%":     0.00},
           "nlefsm": { "_calls": 1, "_time":        0.188, "_%":     0.02},
           "DHSCF_Init": { "_calls": 1, "_time":        2.146, "_%":     0.24,
             "DHSCF1": { "_calls": 1, "_time":        0.027, "_%":     0.00,
               "INITMESH": { "_calls": 1, "_time":        0.000, "_%":     0.00}
             },
             "DHSCF2": { "_calls": 1, "_time":        2.106, "_%":     0.24,
               "REMESH": { "_calls": 1, "_time":        1.200, "_%":     0.14,
                 "INITMESH": { "_calls": 2, "_time":        1.102, "_%":     0.13,
                   "SPLOAD": { "_calls": 2, "_time":        0.454, "_%":     0.05}
                 }
               },
               "REORD": { "_calls": 2, "_time":        0.004, "_%":     0.00},
               "PHION": { "_calls": 1, "_time":        0.030, "_%":     0.00},
               "COMM_BSC": { "_calls": 1, "_time":        0.027, "_%":     0.00},
               "POISON": { "_calls": 1, "_time":        0.499, "_%":     0.06,
                 "fft": { "_calls": 2, "_time":        0.471, "_%":     0.05}
               }
             }
           }
         }
       },
       "IterSCF": { "_calls": 5, "_time":      871.276, "_%":    99.44,
         "setup_H": { "_calls": 5, "_time":        4.961, "_%":     0.57,
           "DHSCF": { "_calls": 5, "_time":        4.941, "_%":     0.56,
             "DHSCF3": { "_calls": 5, "_time":        4.941, "_%":     0.56,
               "rhoofd": { "_calls": 5, "_time":        0.058, "_%":     0.01},
               "COMM_BSC": { "_calls": 10, "_time":        0.302, "_%":     0.03},
               "POISON": { "_calls": 5, "_time":        2.338, "_%":     0.27,
                 "fft": { "_calls": 10, "_time":        2.242, "_%":     0.26}
               },
               "XC": { "_calls": 5, "_time":        1.969, "_%":     0.22,
                 "COMM_BSC": { "_calls": 10, "_time":        0.183, "_%":     0.02},
                 "GXC-CellXC": { "_calls": 5, "_time":        1.766, "_%":     0.20,
                   "gridxc@cellXC": { "_calls": 5, "_time":        1.766, "_%":     0.20}
                 }
               },
               "vmat": { "_calls": 5, "_time":        0.059, "_%":     0.01}
             }
           }
         },
         "compute_dm": { "_calls": 5, "_time":      866.266, "_%":    98.87,
           "redist_orbs_fwd": { "_calls": 160, "_time":       12.579, "_%":     1.44},
           "elsi-complex-solver": { "_calls": 5, "_time":      853.429, "_%":    97.41,
             "elsi-solver": { "_calls": 5, "_time":      852.538, "_%":    97.30}
           },
           "redist_dm-edm_bck": { "_calls": 5, "_time":        0.216, "_%":     0.02}
         },
         "MIXER": { "_calls": 5, "_time":        0.010, "_%":     0.00}
       },
       "state_analysis": { "_calls": 1, "_time":        0.044, "_%":     0.00},
       "siesta_move": { "_calls": 1, "_time":        0.000, "_%":     0.00}
     },
     "Analysis": { "_calls": 1, "_time":        0.110, "_%":     0.01,
       "optical": { "_calls": 1, "_time":        0.001, "_%":     0.00}
     }
   }
 }}
