JobId=7705344 JobName=CovidWeak
   UserId=icn2553284(51005) GroupId=icn2(50004) MCS_label=N/A
   Priority=193489 Nice=0 Account=ehpc37 QOS=acc_debug
   JobState=RUNNING Reason=None Dependency=(null)
   Requeue=0 Restarts=0 BatchFlag=1 Reboot=0 ExitCode=0:0
   RunTime=00:00:06 TimeLimit=02:00:00 TimeMin=N/A
   SubmitTime=2024-09-18T13:22:17 EligibleTime=2024-09-18T13:22:17
   AccrueTime=2024-09-18T13:22:17
   StartTime=2024-09-18T13:27:19 EndTime=2024-09-18T15:27:19 Deadline=N/A
   SuspendTime=None SecsPreSuspend=0 LastSchedEval=2024-09-18T13:27:19 Scheduler=Main
   Partition=acc AllocNode:Sid=alogin2:3357546
   ReqNodeList=(null) ExcNodeList=(null)
   NodeList=as02r1b[17,20-24,26-27]
   BatchHost=as02r1b17
   NumNodes=8 NumCPUs=1280 NumTasks=640 CPUs/Task=1 ReqB:S:C:T=0:0:*:1
   ReqTRES=cpu=640,mem=4000000M,node=8,billing=640,gres/gpu=32
   AllocTRES=cpu=1280,mem=4000000M,node=8,billing=1280,gres/gpu=32
   Socks/Node=* NtasksPerN:B:S:C=80:0:*:* CoreSpec=*
   MinCPUsNode=80 MinMemoryCPU=6250M MinTmpDiskNode=0
   Features=(null) DelayBoot=00:00:00
   OverSubscribe=NO Contiguous=0 Licenses=(null) Network=(null)
   Command=/gpfs/home/icn2/icn2553284/jube4max-gpu/max-inputs/interface/siesta/_CovidWeak/000000/000003_submit/work/submit.job
   WorkDir=/gpfs/home/icn2/icn2553284/jube4max-gpu/max-inputs/interface/siesta/_CovidWeak/000000/000003_submit/work
   StdErr=/gpfs/home/icn2/icn2553284/jube4max-gpu/max-inputs/interface/siesta/_CovidWeak/000000/000003_submit/work/job_7705344.err
   StdIn=/dev/null
   StdOut=/gpfs/home/icn2/icn2553284/jube4max-gpu/max-inputs/interface/siesta/_CovidWeak/000000/000003_submit/work/job_7705344.out
   Power=
   TresPerNode=gres:gpu:4
   

