JobId=2261453 JobName=submit.job
   UserId=nspallan(25378) GroupId=interactive(25200) MCS_label=N/A
   Priority=155475 Nice=0 Account=euhpc_e01_022 QOS=normal
   JobState=RUNNING Reason=None Dependency=(null)
   Requeue=0 Restarts=0 BatchFlag=1 Reboot=0 ExitCode=0:0
   DerivedExitCode=0:0
   RunTime=00:00:03 TimeLimit=03:00:00 TimeMin=N/A
   SubmitTime=2023-12-04T12:21:34 EligibleTime=2023-12-04T12:21:34
   AccrueTime=2023-12-04T12:21:34
   StartTime=2023-12-04T12:21:37 EndTime=2023-12-04T15:21:38 Deadline=N/A
   SuspendTime=None SecsPreSuspend=0 LastSchedEval=2023-12-04T12:21:37 Scheduler=Main
   Partition=boost_usr_prod AllocNode:Sid=10-99-0-7:2872168
   ReqNodeList=(null) ExcNodeList=(null)
   NodeList=lrdn[1890,1903,1918-1919,1926]
   BatchHost=lrdn1890
   NumNodes=5 NumCPUs=160 NumTasks=20 CPUs/Task=8 ReqB:S:C:T=0:0:*:*
   TRES=cpu=160,mem=2464000M,node=5,billing=160,gres/gpu=20
   Socks/Node=* NtasksPerN:B:S:C=4:0:*:* CoreSpec=*
   JOB_GRES=gpu:a100:20
     Nodes=lrdn[1890,1903,1918-1919,1926] CPU_IDs=0-31 Mem=492800 GRES=gpu:a100:4(IDX:0-3)
   MinCPUsNode=32 MinMemoryCPU=15400M MinTmpDiskNode=0
   Features=(null) DelayBoot=00:00:00
   OverSubscribe=NO Contiguous=0 Licenses=(null) Network=(null)
   Command=/leonardo_work/Max3_devel_2/nspallan/jube-benchmarks/run_yambo_7k/000000/000001_submit/work/submit.job
   WorkDir=/leonardo_work/Max3_devel_2/nspallan/jube-benchmarks/run_yambo_7k/000000/000001_submit/work
   StdErr=/leonardo_work/Max3_devel_2/nspallan/jube-benchmarks/run_yambo_7k/000000/000001_submit/work/slurm-2261453.out
   StdIn=/dev/null
   StdOut=/leonardo_work/Max3_devel_2/nspallan/jube-benchmarks/run_yambo_7k/000000/000001_submit/work/slurm-2261453.out
   Power=
   TresPerNode=gres:gpu:4
   

