
     Program PWSCF v.7.3.1 starts on 28Dec2024 at 18:23:54 

     This program is part of the open-source Quantum ESPRESSO suite
     for quantum simulation of materials; please cite
         "P. Giannozzi et al., J. Phys.:Condens. Matter 21 395502 (2009);
         "P. Giannozzi et al., J. Phys.:Condens. Matter 29 465901 (2017);
         "P. Giannozzi et al., J. Chem. Phys. 152 154105 (2020);
          URL http://www.quantum-espresso.org", 
     in publications or presentations arising from this work. More details at
     http://www.quantum-espresso.org/quote

     Parallel version (MPI & OpenMP), running on       8 processor cores
     Number of MPI processes:                 8
     Threads/MPI process:                     1

     MPI processes distributed on     1 nodes
     500817 MiB available memory on the printing compute node when the environment starts
 
     Reading input from pwscf.9.in
Warning: card &CELL ignored
Warning: card / ignored

     Current dimensions of program PWSCF are:
     Max number of different atomic species (ntypx) = 10
     Max number of k-points (npk) =  40000
     Max angular momentum in pseudopotentials (lmaxx) =  4
 
     K-points division:     npool     =       8
     Subspace diagonalization in iterative solution of the eigenvalue problem:
     a serial algorithm will be used

 
     G-vector sticks info
     --------------------
     sticks:   dense  smooth     PW     G-vecs:    dense   smooth      PW
     Sum        1495     955    283                50973    26171    4169
 
     Using Slab Decomposition
 

     Title: 
     'srtio_bulk'                                                               


     bravais-lattice index     =            4
     lattice parameter (alat)  =       9.2860  a.u.
     unit-cell volume          =     762.7977 (a.u.)^3
     number of atoms/cell      =            9
     number of atomic types    =            2
     number of electrons       =        48.00
     number of Kohn-Sham states=           24
     kinetic-energy cutoff     =      40.0000  Ry
     charge density cutoff     =     250.0000  Ry
     scf convergence threshold =      1.0E-10
     mixing beta               =       0.7000
     number of iterations used =            8  plain     mixing
     Exchange-correlation= PBESOL
                           (   1   4  10   8   0   0   0)

     GPU acceleration is ACTIVE.  1 visible GPUs per MPI rank
     GPU-aware MPI enabled

     Message from routine print_cuda_info:
     High GPU oversubscription detected. Are you sure this is what you want?

     GPU used by master process:

        Device Number: 0
        Device name: NVIDIA A100-SXM-64GB
        Compute capability : 80
        Ratio of single to double precision performance  : 2
        Memory Clock Rate (KHz): 1593000
        Memory Bus Width (bits): 4096
        Peak Memory Bandwidth (GB/s): ******

     celldm(1)=   9.286000  celldm(2)=   0.000000  celldm(3)=   1.100000
     celldm(4)=   0.000000  celldm(5)=   0.000000  celldm(6)=   0.000000

     crystal axes: (cart. coord. in units of alat)
               a(1) = (   1.000000   0.000000   0.000000 )  
               a(2) = (  -0.500000   0.866025   0.000000 )  
               a(3) = (   0.000000   0.000000   1.100000 )  

     reciprocal axes: (cart. coord. in units 2 pi/alat)
               b(1) = (  1.000000  0.577350 -0.000000 )  
               b(2) = (  0.000000  1.154701  0.000000 )  
               b(3) = (  0.000000 -0.000000  0.909091 )  


     PseudoPot. # 1 for Si read from file:
     ./Si.pbesol-n-rrkjus_psl.0.1.UPF
     MD5 check sum: 8f6f7a39fd7bdb61d4720ad3dd1f1dba
     Pseudo is Ultrasoft + core correction, Zval =  4.0
     Generated using "atomic" code by A. Dal Corso  v.5.0.2 svn rev. 9415
     Using radial grid of 1141 points,  4 beta functions with: 
                l(1) =   0
                l(2) =   0
                l(3) =   1
                l(4) =   1
     Q(r) pseudized with 0 coefficients 


     PseudoPot. # 2 for O  read from file:
     ./O.pbesol-n-rrkjus_psl.0.1.UPF
     MD5 check sum: 4e7ba3f804caa5f95b4e026f863b218d
     Pseudo is Ultrasoft + core correction, Zval =  6.0
     Generated using "atomic" code by A. Dal Corso  v.5.0.2 svn rev. 9415
     Using radial grid of 1095 points,  4 beta functions with: 
                l(1) =   0
                l(2) =   0
                l(3) =   1
                l(4) =   1
     Q(r) pseudized with 0 coefficients 


     atomic species   valence    mass     pseudopotential
     Si                4.00    47.86700     Si( 1.00)
     O                 6.00    15.99940     O ( 1.00)

      6 Sym. Ops. (no inversion) found ( 4 have fractional translation)


                                    s                        frac. trans.

      isym =  1     identity                                     

 cryst.   s( 1) = (     1          0          0      )
                  (     0          1          0      )
                  (     0          0          1      )

 cart.    s( 1) = (  1.0000000  0.0000000  0.0000000 )
                  (  0.0000000  1.0000000  0.0000000 )
                  (  0.0000000  0.0000000  1.0000000 )


      isym =  2     180 deg rotation - cart. axis [1,0,0]        

 cryst.   s( 2) = (     1          0          0      )
                  (    -1         -1          0      )
                  (     0          0         -1      )

 cart.    s( 2) = (  1.0000000  0.0000000  0.0000000 )
                  (  0.0000000 -1.0000000  0.0000000 )
                  (  0.0000000  0.0000000 -1.0000000 )


      isym =  3     120 deg rotation - cryst. axis [0,0,1]       

 cryst.   s( 3) = (     0          1          0      )    f =(  0.0000000 )
                  (    -1         -1          0      )       (  0.0000000 )
                  (     0          0          1      )       ( -0.3333333 )

 cart.    s( 3) = ( -0.5000000 -0.8660254  0.0000000 )    f =(  0.0000000 )
                  (  0.8660254 -0.5000000  0.0000000 )       (  0.0000000 )
                  (  0.0000000  0.0000000  1.0000000 )       ( -0.3666667 )


      isym =  4     120 deg rotation - cryst. axis [0,0,-1]      

 cryst.   s( 4) = (    -1         -1          0      )    f =(  0.0000000 )
                  (     1          0          0      )       ( -0.0000000 )
                  (     0          0          1      )       (  0.3333333 )

 cart.    s( 4) = ( -0.5000000  0.8660254  0.0000000 )    f =(  0.0000000 )
                  ( -0.8660254 -0.5000000  0.0000000 )       ( -0.0000000 )
                  (  0.0000000  0.0000000  1.0000000 )       (  0.3666667 )


      isym =  5     180 deg rotation - cryst. axis [0,1,0]       

 cryst.   s( 5) = (    -1         -1          0      )    f =(  0.0000000 )
                  (     0          1          0      )       ( -0.0000000 )
                  (     0          0         -1      )       (  0.3333333 )

 cart.    s( 5) = ( -0.5000000 -0.8660254  0.0000000 )    f =(  0.0000000 )
                  ( -0.8660254  0.5000000  0.0000000 )       ( -0.0000000 )
                  (  0.0000000  0.0000000 -1.0000000 )       (  0.3666667 )


      isym =  6     180 deg rotation - cryst. axis [1,1,0]       

 cryst.   s( 6) = (     0          1          0      )    f =(  0.0000000 )
                  (     1          0          0      )       (  0.0000000 )
                  (     0          0         -1      )       ( -0.3333333 )

 cart.    s( 6) = ( -0.5000000  0.8660254  0.0000000 )    f =(  0.0000000 )
                  (  0.8660254  0.5000000  0.0000000 )       (  0.0000000 )
                  (  0.0000000  0.0000000 -1.0000000 )       ( -0.3666667 )


     point group D_3 (32)   
     there are  3 classes
     the character table:

       E     2C3   3C2' 
A_1    1.00  1.00  1.00
A_2    1.00  1.00 -1.00
E      2.00 -1.00  0.00

     the symmetry operations in each class and the name of the first element:

     E        1
          identity                                               
     2C3      3    4
          120 deg rotation - cryst. axis [0,0,1]                 
     3C2'     2    5    6
          180 deg rotation - cart. axis [1,0,0]                  

   Cartesian axes

     site n.     atom                  positions (alat units)
         1        Si     tau(   1) = (   0.4691348   0.0000000   0.0000000  )
         2        Si     tau(   2) = (  -0.2345674   0.4062827   0.3666667  )
         3        Si     tau(   3) = (  -0.2345674  -0.4062827   0.7333333  )
         4        O      tau(   4) = (   0.0638818   0.3586129   0.4939266  )
         5        O      tau(   5) = (   0.2786270   0.2346297  -0.1272599  )
         6        O      tau(   6) = (  -0.3425088  -0.1239832   0.8605932  )
         7        O      tau(   7) = (  -0.3425088   0.1239832   0.2394068  )
         8        O      tau(   8) = (   0.2786270  -0.2346297   1.2272599  )
         9        O      tau(   9) = (   0.0638818  -0.3586129  -0.4939266  )

   Crystallographic axes

     site n.     atom                  positions (cryst. coord.)
         1        Si     tau(   1) = (  0.4691348  0.0000000  0.0000000  )
         2        Si     tau(   2) = (  0.0000000  0.4691348  0.3333333  )
         3        Si     tau(   3) = ( -0.4691348 -0.4691348  0.6666667  )
         4        O      tau(   4) = (  0.2709270  0.4140905  0.4490241  )
         5        O      tau(   5) = (  0.4140905  0.2709270 -0.1156908  )
         6        O      tau(   6) = ( -0.4140905 -0.1431634  0.7823575  )
         7        O      tau(   7) = ( -0.2709270  0.1431634  0.2176425  )
         8        O      tau(   8) = (  0.1431634 -0.2709270  1.1156908  )
         9        O      tau(   9) = ( -0.1431634 -0.4140905 -0.4490241  )

     number of k points=    20
                       cart. coord. in units 2pi/alat
        k(    1) = (   0.1250000   0.2165064   0.1136364), wk =   0.1250000
        k(    2) = (   0.1250000   0.2165064   0.3409091), wk =   0.1250000
        k(    3) = (   0.1250000   0.5051815   0.1136364), wk =   0.1250000
        k(    4) = (   0.1250000   0.5051815   0.3409091), wk =   0.1250000
        k(    5) = (   0.1250000  -0.3608439   0.1136364), wk =   0.1250000
        k(    6) = (   0.1250000  -0.3608439   0.3409091), wk =   0.1250000
        k(    7) = (   0.1250000  -0.0721688   0.1136364), wk =   0.0625000
        k(    8) = (   0.1250000  -0.0721688   0.3409091), wk =   0.0625000
        k(    9) = (   0.3750000   0.6495191   0.1136364), wk =   0.1250000
        k(   10) = (   0.3750000   0.6495191   0.3409091), wk =   0.1250000
        k(   11) = (   0.3750000  -0.2165064   0.1136364), wk =   0.0625000
        k(   12) = (   0.3750000  -0.2165064   0.3409091), wk =   0.0625000
        k(   13) = (  -0.1250000   0.5051815  -0.1136364), wk =   0.1250000
        k(   14) = (  -0.1250000   0.5051815  -0.3409091), wk =   0.1250000
        k(   15) = (  -0.1250000  -0.3608439  -0.1136364), wk =   0.1250000
        k(   16) = (  -0.1250000  -0.3608439  -0.3409091), wk =   0.1250000
        k(   17) = (  -0.1250000  -0.0721688  -0.1136364), wk =   0.0625000
        k(   18) = (  -0.1250000  -0.0721688  -0.3409091), wk =   0.0625000
        k(   19) = (  -0.3750000  -0.2165064  -0.1136364), wk =   0.0625000
        k(   20) = (  -0.3750000  -0.2165064  -0.3409091), wk =   0.0625000

                       cryst. coord.
        k(    1) = (   0.1250000   0.1250000   0.1250000), wk =   0.1250000
        k(    2) = (   0.1250000   0.1250000   0.3750000), wk =   0.1250000
        k(    3) = (   0.1250000   0.3750000   0.1250000), wk =   0.1250000
        k(    4) = (   0.1250000   0.3750000   0.3750000), wk =   0.1250000
        k(    5) = (   0.1250000  -0.3750000   0.1250000), wk =   0.1250000
        k(    6) = (   0.1250000  -0.3750000   0.3750000), wk =   0.1250000
        k(    7) = (   0.1250000  -0.1250000   0.1250000), wk =   0.0625000
        k(    8) = (   0.1250000  -0.1250000   0.3750000), wk =   0.0625000
        k(    9) = (   0.3750000   0.3750000   0.1250000), wk =   0.1250000
        k(   10) = (   0.3750000   0.3750000   0.3750000), wk =   0.1250000
        k(   11) = (   0.3750000  -0.3750000   0.1250000), wk =   0.0625000
        k(   12) = (   0.3750000  -0.3750000   0.3750000), wk =   0.0625000
        k(   13) = (  -0.1250000   0.5000000  -0.1250000), wk =   0.1250000
        k(   14) = (  -0.1250000   0.5000000  -0.3750000), wk =   0.1250000
        k(   15) = (  -0.1250000  -0.2500000  -0.1250000), wk =   0.1250000
        k(   16) = (  -0.1250000  -0.2500000  -0.3750000), wk =   0.1250000
        k(   17) = (  -0.1250000  -0.0000000  -0.1250000), wk =   0.0625000
        k(   18) = (  -0.1250000  -0.0000000  -0.3750000), wk =   0.0625000
        k(   19) = (  -0.3750000  -0.0000000  -0.1250000), wk =   0.0625000
        k(   20) = (  -0.3750000  -0.0000000  -0.3750000), wk =   0.0625000

     Dense  grid:    50973 G-vectors     FFT dimensions: (  48,  48,  54)

     Smooth grid:    26171 G-vectors     FFT dimensions: (  40,  40,  45)

     Dynamical RAM for                 wfc:       1.19 MB

     Dynamical RAM for     wfc (w. buffer):       4.77 MB

     Dynamical RAM for           str. fact:       1.56 MB

     Dynamical RAM for           local pot:       0.00 MB

     Dynamical RAM for          nlocal pot:       3.58 MB

     Dynamical RAM for                qrad:       0.73 MB

     Dynamical RAM for          rho,v,vnew:       5.18 MB

     Dynamical RAM for               rhoin:       1.73 MB

     Dynamical RAM for            rho*nmix:      12.44 MB

     Dynamical RAM for           G-vectors:       3.12 MB

     Dynamical RAM for          h,s,v(r/c):       0.11 MB

     Dynamical RAM for          <psi|beta>:       0.03 MB

     Dynamical RAM for                 psi:       2.39 MB

     Dynamical RAM for                hpsi:       2.39 MB

     Dynamical RAM for                spsi:       2.39 MB

     Dynamical RAM for      wfcinit/wfcrot:       3.61 MB

     Dynamical RAM for           addusdens:       5.44 MB

     Dynamical RAM for          addusforce:       6.13 MB

     Estimated static dynamical RAM per process >      27.74 MB

     Estimated max dynamical RAM per process >      47.48 MB

     Estimated total dynamical RAM >     292.70 MB

     Check: negative core charge=   -0.000380

     Initial potential from superposition of free atoms

     starting charge      47.9984, renormalised to      48.0000
     Starting wfcs are   36 randomized atomic wfcs

     total cpu time spent up to now is        2.8 secs

     per-process dynamical memory:  1694.9 Mb

     Self-consistent Calculation
[tb_dev] Currently allocated     6.55E-01 Mbytes, locked:    0 /   6
[tb_pin] Currently allocated     0.00E+00 Mbytes, locked:    0 /   0

     iteration #  1     ecut=    40.00 Ry     beta= 0.70
     Davidson diagonalization with overlap

---- Real-time Memory Report at c_bands before calling an iterative solver
          2008 MiB given to the printing process from OS
          1656 MiB allocation reported by mallinfo(arena+hblkhd)
        490314 MiB available memory on the node where the printing process lives
     GPU memory used/free/total (MiB): 9907 / 55037 / 64944
------------------
     ethr =  1.00E-02,  avg # of iterations =  3.0

     total cpu time spent up to now is        2.9 secs

     total energy              =    -235.42212576 Ry
     estimated scf accuracy    <       2.17733675 Ry
[tb_dev] Currently allocated     6.87E-05 Mbytes, locked:    0 /   2
[tb_pin] Currently allocated     0.00E+00 Mbytes, locked:    0 /   0

     iteration #  2     ecut=    40.00 Ry     beta= 0.70
     Davidson diagonalization with overlap

---- Real-time Memory Report at c_bands before calling an iterative solver
          2018 MiB given to the printing process from OS
          1717 MiB allocation reported by mallinfo(arena+hblkhd)
        490250 MiB available memory on the node where the printing process lives
     GPU memory used/free/total (MiB): 9911 / 55033 / 64944
------------------
     ethr =  4.54E-03,  avg # of iterations =  2.8

     total cpu time spent up to now is        3.0 secs

     total energy              =    -236.21254663 Ry
     estimated scf accuracy    <       1.00354907 Ry
[tb_dev] Currently allocated     6.87E-05 Mbytes, locked:    0 /   2
[tb_pin] Currently allocated     0.00E+00 Mbytes, locked:    0 /   0

     iteration #  3     ecut=    40.00 Ry     beta= 0.70
     Davidson diagonalization with overlap

---- Real-time Memory Report at c_bands before calling an iterative solver
          2021 MiB given to the printing process from OS
          1717 MiB allocation reported by mallinfo(arena+hblkhd)
        490242 MiB available memory on the node where the printing process lives
     GPU memory used/free/total (MiB): 9911 / 55033 / 64944
------------------
     ethr =  2.09E-03,  avg # of iterations =  2.0

     total cpu time spent up to now is        3.1 secs

     total energy              =    -236.31818965 Ry
     estimated scf accuracy    <       0.04110415 Ry
[tb_dev] Currently allocated     6.87E-05 Mbytes, locked:    0 /   2
[tb_pin] Currently allocated     0.00E+00 Mbytes, locked:    0 /   0

     iteration #  4     ecut=    40.00 Ry     beta= 0.70
     Davidson diagonalization with overlap

---- Real-time Memory Report at c_bands before calling an iterative solver
          2023 MiB given to the printing process from OS
          1717 MiB allocation reported by mallinfo(arena+hblkhd)
        490234 MiB available memory on the node where the printing process lives
     GPU memory used/free/total (MiB): 9911 / 55033 / 64944
------------------
     ethr =  8.56E-05,  avg # of iterations =  4.5

     total cpu time spent up to now is        3.2 secs

     total energy              =    -236.34294004 Ry
     estimated scf accuracy    <       0.01657719 Ry
[tb_dev] Currently allocated     6.87E-05 Mbytes, locked:    0 /   2
[tb_pin] Currently allocated     0.00E+00 Mbytes, locked:    0 /   0

     iteration #  5     ecut=    40.00 Ry     beta= 0.70
     Davidson diagonalization with overlap

---- Real-time Memory Report at c_bands before calling an iterative solver
          2026 MiB given to the printing process from OS
          1717 MiB allocation reported by mallinfo(arena+hblkhd)
        490228 MiB available memory on the node where the printing process lives
     GPU memory used/free/total (MiB): 9919 / 55025 / 64944
------------------
     ethr =  3.45E-05,  avg # of iterations =  1.9

     total cpu time spent up to now is        3.3 secs

     total energy              =    -236.34255103 Ry
     estimated scf accuracy    <       0.00361985 Ry
[tb_dev] Currently allocated     6.87E-05 Mbytes, locked:    0 /   2
[tb_pin] Currently allocated     0.00E+00 Mbytes, locked:    0 /   0

     iteration #  6     ecut=    40.00 Ry     beta= 0.70
     Davidson diagonalization with overlap

---- Real-time Memory Report at c_bands before calling an iterative solver
          2028 MiB given to the printing process from OS
          1717 MiB allocation reported by mallinfo(arena+hblkhd)
        490225 MiB available memory on the node where the printing process lives
     GPU memory used/free/total (MiB): 9923 / 55021 / 64944
------------------
     ethr =  7.54E-06,  avg # of iterations =  2.4

     total cpu time spent up to now is        3.4 secs

     total energy              =    -236.34347858 Ry
     estimated scf accuracy    <       0.00004211 Ry
[tb_dev] Currently allocated     6.87E-05 Mbytes, locked:    0 /   2
[tb_pin] Currently allocated     0.00E+00 Mbytes, locked:    0 /   0

     iteration #  7     ecut=    40.00 Ry     beta= 0.70
     Davidson diagonalization with overlap

---- Real-time Memory Report at c_bands before calling an iterative solver
          2030 MiB given to the printing process from OS
          1717 MiB allocation reported by mallinfo(arena+hblkhd)
        490191 MiB available memory on the node where the printing process lives
     GPU memory used/free/total (MiB): 9927 / 55017 / 64944
------------------
     ethr =  8.77E-08,  avg # of iterations =  5.2

     total cpu time spent up to now is        3.5 secs

     total energy              =    -236.34352402 Ry
     estimated scf accuracy    <       0.00000275 Ry
[tb_dev] Currently allocated     6.87E-05 Mbytes, locked:    0 /   2
[tb_pin] Currently allocated     0.00E+00 Mbytes, locked:    0 /   0

     iteration #  8     ecut=    40.00 Ry     beta= 0.70
     Davidson diagonalization with overlap

---- Real-time Memory Report at c_bands before calling an iterative solver
          2034 MiB given to the printing process from OS
          1717 MiB allocation reported by mallinfo(arena+hblkhd)
        490163 MiB available memory on the node where the printing process lives
     GPU memory used/free/total (MiB): 9927 / 55017 / 64944
------------------
     ethr =  5.72E-09,  avg # of iterations =  2.4

     total cpu time spent up to now is        3.6 secs

     total energy              =    -236.34352449 Ry
     estimated scf accuracy    <       0.00000080 Ry
[tb_dev] Currently allocated     6.87E-05 Mbytes, locked:    0 /   2
[tb_pin] Currently allocated     0.00E+00 Mbytes, locked:    0 /   0

     iteration #  9     ecut=    40.00 Ry     beta= 0.70
     Davidson diagonalization with overlap

---- Real-time Memory Report at c_bands before calling an iterative solver
          2035 MiB given to the printing process from OS
          1717 MiB allocation reported by mallinfo(arena+hblkhd)
        490159 MiB available memory on the node where the printing process lives
     GPU memory used/free/total (MiB): 9927 / 55017 / 64944
------------------
     ethr =  1.67E-09,  avg # of iterations =  2.0

     total cpu time spent up to now is        3.7 secs

     total energy              =    -236.34352441 Ry
     estimated scf accuracy    <       0.00000033 Ry
[tb_dev] Currently allocated     6.87E-05 Mbytes, locked:    0 /   2
[tb_pin] Currently allocated     0.00E+00 Mbytes, locked:    0 /   0

     iteration # 10     ecut=    40.00 Ry     beta= 0.70
     Davidson diagonalization with overlap

---- Real-time Memory Report at c_bands before calling an iterative solver
          2037 MiB given to the printing process from OS
          1717 MiB allocation reported by mallinfo(arena+hblkhd)
        490157 MiB available memory on the node where the printing process lives
     GPU memory used/free/total (MiB): 9927 / 55017 / 64944
------------------
     ethr =  6.84E-10,  avg # of iterations =  2.8

     total cpu time spent up to now is        3.8 secs

     total energy              =    -236.34352449 Ry
     estimated scf accuracy    <          2.9E-09 Ry
[tb_dev] Currently allocated     6.87E-05 Mbytes, locked:    0 /   2
[tb_pin] Currently allocated     0.00E+00 Mbytes, locked:    0 /   0

     iteration # 11     ecut=    40.00 Ry     beta= 0.70
     Davidson diagonalization with overlap

---- Real-time Memory Report at c_bands before calling an iterative solver
          2037 MiB given to the printing process from OS
          1717 MiB allocation reported by mallinfo(arena+hblkhd)
        490153 MiB available memory on the node where the printing process lives
     GPU memory used/free/total (MiB): 9927 / 55017 / 64944
------------------
     ethr =  6.01E-12,  avg # of iterations =  6.8

     total cpu time spent up to now is        4.0 secs

     total energy              =    -236.34352450 Ry
     estimated scf accuracy    <          1.3E-09 Ry
[tb_dev] Currently allocated     6.87E-05 Mbytes, locked:    0 /   2
[tb_pin] Currently allocated     0.00E+00 Mbytes, locked:    0 /   0

     iteration # 12     ecut=    40.00 Ry     beta= 0.70
     Davidson diagonalization with overlap

---- Real-time Memory Report at c_bands before calling an iterative solver
          2037 MiB given to the printing process from OS
          1717 MiB allocation reported by mallinfo(arena+hblkhd)
        490151 MiB available memory on the node where the printing process lives
     GPU memory used/free/total (MiB): 9927 / 55017 / 64944
------------------
     ethr =  2.81E-12,  avg # of iterations =  2.0

     total cpu time spent up to now is        4.1 secs

     total energy              =    -236.34352450 Ry
     estimated scf accuracy    <          1.1E-10 Ry
[tb_dev] Currently allocated     6.87E-05 Mbytes, locked:    0 /   2
[tb_pin] Currently allocated     0.00E+00 Mbytes, locked:    0 /   0

     iteration # 13     ecut=    40.00 Ry     beta= 0.70
     Davidson diagonalization with overlap

---- Real-time Memory Report at c_bands before calling an iterative solver
          2037 MiB given to the printing process from OS
          1717 MiB allocation reported by mallinfo(arena+hblkhd)
        490150 MiB available memory on the node where the printing process lives
     GPU memory used/free/total (MiB): 9927 / 55017 / 64944
------------------
     ethr =  2.20E-13,  avg # of iterations =  3.6

     total cpu time spent up to now is        4.2 secs

     End of self-consistent calculation

          k = 0.1250 0.2165 0.1136 (  3260 PWs)   bands (ev):

   -16.7400 -15.6697 -15.2118 -14.7474 -14.7069 -14.6777  -6.0389  -5.1926
    -3.2316  -2.9356  -2.7592  -2.5472  -0.7013  -0.3736  -0.1436   0.2000
     0.4992   0.9482   0.9902   1.2524   1.5269   1.6385   2.1192   2.3677

     occupation numbers 
     1.0000   1.0000   1.0000   1.0000   1.0000   1.0000   1.0000   1.0000
     1.0000   1.0000   1.0000   1.0000   1.0000   1.0000   1.0000   1.0000
     1.0000   1.0000   1.0000   1.0000   1.0000   1.0000   1.0000   1.0000

          k = 0.1250 0.2165 0.3409 (  3265 PWs)   bands (ev):

   -16.5264 -16.1248 -14.9651 -14.7457 -14.7102 -14.6717  -6.4577  -4.3751
    -3.6784  -2.9681  -2.8417  -2.3401  -0.6615  -0.3223  -0.1151   0.1822
     0.4373   0.8672   0.9692   1.1401   1.3953   1.8645   2.1689   2.3349

     occupation numbers 
     1.0000   1.0000   1.0000   1.0000   1.0000   1.0000   1.0000   1.0000
     1.0000   1.0000   1.0000   1.0000   1.0000   1.0000   1.0000   1.0000
     1.0000   1.0000   1.0000   1.0000   1.0000   1.0000   1.0000   1.0000

          k = 0.1250 0.5052 0.1136 (  3265 PWs)   bands (ev):

   -16.4015 -15.9160 -15.3280 -14.7750 -14.7431 -14.7010  -5.8976  -4.8296
    -3.6474  -2.9282  -2.7726  -2.2091  -0.7026  -0.4344  -0.2533   0.2119
     0.4089   0.7168   0.8446   1.2517   1.4762   1.7378   2.1586   2.3864

     occupation numbers 
     1.0000   1.0000   1.0000   1.0000   1.0000   1.0000   1.0000   1.0000
     1.0000   1.0000   1.0000   1.0000   1.0000   1.0000   1.0000   1.0000
     1.0000   1.0000   1.0000   1.0000   1.0000   1.0000   1.0000   1.0000

          k = 0.1250 0.5052 0.3409 (  3248 PWs)   bands (ev):

   -16.3413 -15.9154 -15.4011 -14.7972 -14.7324 -14.6987  -5.7793  -4.7707
    -3.9140  -2.8562  -2.5277  -2.4988  -0.7984  -0.6235  -0.0641   0.2669
     0.5029   0.7436   1.1758   1.3099   1.5379   1.7567   1.9096   2.2148

     occupation numbers 
     1.0000   1.0000   1.0000   1.0000   1.0000   1.0000   1.0000   1.0000
     1.0000   1.0000   1.0000   1.0000   1.0000   1.0000   1.0000   1.0000
     1.0000   1.0000   1.0000   1.0000   1.0000   1.0000   1.0000   1.0000

          k = 0.1250-0.3608 0.1136 (  3255 PWs)   bands (ev):

   -16.5801 -15.7552 -15.3038 -14.7632 -14.7236 -14.6932  -5.9388  -5.0341
    -3.4423  -2.9480  -2.7472  -2.3509  -0.7018  -0.3520  -0.1867   0.0782
     0.4134   0.8308   1.0335   1.2295   1.4485   1.7170   2.1012   2.4100

     occupation numbers 
     1.0000   1.0000   1.0000   1.0000   1.0000   1.0000   1.0000   1.0000
     1.0000   1.0000   1.0000   1.0000   1.0000   1.0000   1.0000   1.0000
     1.0000   1.0000   1.0000   1.0000   1.0000   1.0000   1.0000   1.0000

          k = 0.1250-0.3608 0.3409 (  3262 PWs)   bands (ev):

   -16.4229 -16.0295 -15.1951 -14.7704 -14.7179 -14.6921  -6.1136  -4.5560
    -3.8257  -2.9026  -2.6628  -2.4024  -0.7465  -0.5276  -0.0288   0.1198
     0.4380   0.9108   1.0757   1.2975   1.5223   1.6529   2.0337   2.3060

     occupation numbers 
     1.0000   1.0000   1.0000   1.0000   1.0000   1.0000   1.0000   1.0000
     1.0000   1.0000   1.0000   1.0000   1.0000   1.0000   1.0000   1.0000
     1.0000   1.0000   1.0000   1.0000   1.0000   1.0000   1.0000   1.0000

          k = 0.1250-0.0722 0.1136 (  3272 PWs)   bands (ev):

   -16.8282 -15.6457 -15.1417 -14.7288 -14.6938 -14.6676  -6.1387  -5.2442
    -3.1159  -2.9369  -2.8100  -2.6124  -0.6561  -0.3777  -0.1945   0.1583
     0.7439   0.9489   1.0040   1.2419   1.5058   1.7046   2.1245   2.3165

     occupation numbers 
     1.0000   1.0000   1.0000   1.0000   1.0000   1.0000   1.0000   1.0000
     1.0000   1.0000   1.0000   1.0000   1.0000   1.0000   1.0000   1.0000
     1.0000   1.0000   1.0000   1.0000   1.0000   1.0000   1.0000   1.0000

          k = 0.1250-0.0722 0.3409 (  3268 PWs)   bands (ev):

   -16.5945 -16.1698 -14.8288 -14.7230 -14.7121 -14.6550  -6.6625  -4.2809
    -3.5467  -3.0483  -2.9722  -2.2948  -0.5584  -0.1902  -0.1784   0.2718
     0.4780   0.7821   0.8506   1.0352   1.3207   1.9812   2.2764   2.3383

     occupation numbers 
     1.0000   1.0000   1.0000   1.0000   1.0000   1.0000   1.0000   1.0000
     1.0000   1.0000   1.0000   1.0000   1.0000   1.0000   1.0000   1.0000
     1.0000   1.0000   1.0000   1.0000   1.0000   1.0000   1.0000   1.0000

          k = 0.3750 0.6495 0.1136 (  3249 PWs)   bands (ev):

   -16.2760 -16.0239 -15.3577 -14.7723 -14.7485 -14.7050  -5.9062  -4.5413
    -3.9956  -2.8975  -2.7334  -2.1362  -0.6263  -0.4621  -0.3733   0.3316
     0.4193   0.5915   0.8956   1.1620   1.3822   1.9170   2.0694   2.4097

     occupation numbers 
     1.0000   1.0000   1.0000   1.0000   1.0000   1.0000   1.0000   1.0000
     1.0000   1.0000   1.0000   1.0000   1.0000   1.0000   1.0000   1.0000
     1.0000   1.0000   1.0000   1.0000   1.0000   1.0000   1.0000   1.0000

          k = 0.3750 0.6495 0.3409 (  3250 PWs)   bands (ev):

   -16.3047 -15.8372 -15.5126 -14.8008 -14.7459 -14.7094  -5.5672  -4.8809
    -4.0379  -2.8094  -2.5418  -2.4838  -0.8191  -0.4957  -0.2491   0.3983
     0.5114   0.6079   1.3126   1.3443   1.5447   1.7960   1.8459   2.1011

     occupation numbers 
     1.0000   1.0000   1.0000   1.0000   1.0000   1.0000   1.0000   1.0000
     1.0000   1.0000   1.0000   1.0000   1.0000   1.0000   1.0000   1.0000
     1.0000   1.0000   1.0000   1.0000   1.0000   1.0000   1.0000   1.0000

          k = 0.3750-0.2165 0.1136 (  3264 PWs)   bands (ev):

   -16.5145 -15.8243 -15.2936 -14.7727 -14.7384 -14.6945  -5.9086  -4.9953
    -3.4346  -2.9188  -2.8367  -2.3030  -0.7666  -0.3646  -0.1466   0.1635
     0.4172   0.7650   0.8378   1.3461   1.5081   1.6170   2.2150   2.3466

     occupation numbers 
     1.0000   1.0000   1.0000   1.0000   1.0000   1.0000   1.0000   1.0000
     1.0000   1.0000   1.0000   1.0000   1.0000   1.0000   1.0000   1.0000
     1.0000   1.0000   1.0000   1.0000   1.0000   1.0000   1.0000   1.0000

          k = 0.3750-0.2165 0.3409 (  3255 PWs)   bands (ev):

   -16.3873 -15.9961 -15.2666 -14.7890 -14.7255 -14.6875  -5.9920  -4.6483
    -3.8214  -2.8970  -2.5762  -2.4805  -0.7894  -0.5934   0.0143   0.1951
     0.4722   0.8581   1.0386   1.2828   1.5098   1.7626   1.9997   2.2558

     occupation numbers 
     1.0000   1.0000   1.0000   1.0000   1.0000   1.0000   1.0000   1.0000
     1.0000   1.0000   1.0000   1.0000   1.0000   1.0000   1.0000   1.0000
     1.0000   1.0000   1.0000   1.0000   1.0000   1.0000   1.0000   1.0000

          k =-0.1250 0.5052-0.1136 (  3265 PWs)   bands (ev):

   -16.4038 -15.9078 -15.3389 -14.7722 -14.7387 -14.7032  -5.8986  -4.8304
    -3.6488  -2.9381  -2.7629  -2.1964  -0.6451  -0.4757  -0.2775   0.1333
     0.4589   0.6823   0.9426   1.2242   1.4427   1.7950   2.0993   2.4125

     occupation numbers 
     1.0000   1.0000   1.0000   1.0000   1.0000   1.0000   1.0000   1.0000
     1.0000   1.0000   1.0000   1.0000   1.0000   1.0000   1.0000   1.0000
     1.0000   1.0000   1.0000   1.0000   1.0000   1.0000   1.0000   1.0000

          k =-0.1250 0.5052-0.3409 (  3248 PWs)   bands (ev):

   -16.3446 -15.9045 -15.4134 -14.7933 -14.7302 -14.6999  -5.7802  -4.7734
    -3.9108  -2.8674  -2.5477  -2.4587  -0.7825  -0.6388  -0.0729   0.2577
     0.4501   0.8078   1.1847   1.3674   1.4896   1.7140   1.8904   2.2561

     occupation numbers 
     1.0000   1.0000   1.0000   1.0000   1.0000   1.0000   1.0000   1.0000
     1.0000   1.0000   1.0000   1.0000   1.0000   1.0000   1.0000   1.0000
     1.0000   1.0000   1.0000   1.0000   1.0000   1.0000   1.0000   1.0000

          k =-0.1250-0.3608-0.1136 (  3255 PWs)   bands (ev):

   -16.5788 -15.7660 -15.2867 -14.7663 -14.7321 -14.6893  -5.9371  -5.0336
    -3.4386  -2.9326  -2.7596  -2.3714  -0.7468  -0.3459  -0.1492   0.1715
     0.3954   0.8231   0.9281   1.2710   1.4844   1.6618   2.1676   2.3726

     occupation numbers 
     1.0000   1.0000   1.0000   1.0000   1.0000   1.0000   1.0000   1.0000
     1.0000   1.0000   1.0000   1.0000   1.0000   1.0000   1.0000   1.0000
     1.0000   1.0000   1.0000   1.0000   1.0000   1.0000   1.0000   1.0000

          k =-0.1250-0.3608-0.3409 (  3262 PWs)   bands (ev):

   -16.4193 -16.0379 -15.1819 -14.7757 -14.7245 -14.6886  -6.1123  -4.5524
    -3.8299  -2.8893  -2.6559  -2.4352  -0.7651  -0.5107  -0.0347   0.1570
     0.4850   0.8430   1.0619   1.2736   1.5004   1.7378   2.0885   2.2287

     occupation numbers 
     1.0000   1.0000   1.0000   1.0000   1.0000   1.0000   1.0000   1.0000
     1.0000   1.0000   1.0000   1.0000   1.0000   1.0000   1.0000   1.0000
     1.0000   1.0000   1.0000   1.0000   1.0000   1.0000   1.0000   1.0000

          k =-0.1250-0.0722-0.1136 (  3272 PWs)   bands (ev):

   -16.8284 -15.6434 -15.1465 -14.7292 -14.6878 -14.6706  -6.1391  -5.2443
    -3.1199  -2.9321  -2.8242  -2.5958  -0.6352  -0.4014  -0.1869   0.1445
     0.7075   0.9942   1.0122   1.2266   1.5345   1.6814   2.1087   2.3322

     occupation numbers 
     1.0000   1.0000   1.0000   1.0000   1.0000   1.0000   1.0000   1.0000
     1.0000   1.0000   1.0000   1.0000   1.0000   1.0000   1.0000   1.0000
     1.0000   1.0000   1.0000   1.0000   1.0000   1.0000   1.0000   1.0000

          k =-0.1250-0.0722-0.3409 (  3268 PWs)   bands (ev):

   -16.5951 -16.1687 -14.8362 -14.7255 -14.7014 -14.6562  -6.6628  -4.2815
    -3.5465  -3.0377  -2.9862  -2.2871  -0.5535  -0.1859  -0.1771   0.2490
     0.4551   0.7796   0.9095   1.0119   1.3216   1.9805   2.2255   2.3878

     occupation numbers 
     1.0000   1.0000   1.0000   1.0000   1.0000   1.0000   1.0000   1.0000
     1.0000   1.0000   1.0000   1.0000   1.0000   1.0000   1.0000   1.0000
     1.0000   1.0000   1.0000   1.0000   1.0000   1.0000   1.0000   1.0000

          k =-0.3750-0.2165-0.1136 (  3264 PWs)   bands (ev):

   -16.5176 -15.8059 -15.3214 -14.7676 -14.7214 -14.7038  -5.9114  -4.9965
    -3.4395  -2.9679  -2.7868  -2.2740  -0.6896  -0.3590  -0.2281  -0.0088
     0.4794   0.7678   0.9742   1.3116   1.4210   1.7431   2.0847   2.4206

     occupation numbers 
     1.0000   1.0000   1.0000   1.0000   1.0000   1.0000   1.0000   1.0000
     1.0000   1.0000   1.0000   1.0000   1.0000   1.0000   1.0000   1.0000
     1.0000   1.0000   1.0000   1.0000   1.0000   1.0000   1.0000   1.0000

          k =-0.3750-0.2165-0.3409 (  3255 PWs)   bands (ev):

   -16.3940 -15.9784 -15.2899 -14.7810 -14.7166 -14.6916  -5.9941  -4.6542
    -3.8141  -2.9226  -2.5936  -2.4162  -0.7501  -0.6329   0.0361   0.1150
     0.4071   0.9519   1.1050   1.3286   1.4901   1.6304   1.9594   2.3449

     occupation numbers 
     1.0000   1.0000   1.0000   1.0000   1.0000   1.0000   1.0000   1.0000
     1.0000   1.0000   1.0000   1.0000   1.0000   1.0000   1.0000   1.0000
     1.0000   1.0000   1.0000   1.0000   1.0000   1.0000   1.0000   1.0000

     highest occupied level (ev):     2.4206

!    total energy              =    -236.34352450 Ry
     estimated scf accuracy    <          5.2E-11 Ry

     The total energy is the sum of the following terms:
     one-electron contribution =    -102.26540286 Ry
     hartree contribution      =      77.21766319 Ry
     xc contribution           =     -71.78459847 Ry
     ewald contribution        =    -139.51118635 Ry

     convergence has been achieved in  13 iterations

     Forces acting on atoms (cartesian axes, Ry/au):

     atom    1 type  1   force =     0.00001663   -0.00000000    0.00000000
     atom    2 type  1   force =    -0.00000832    0.00001441    0.00000000
     atom    3 type  1   force =    -0.00000832   -0.00001441    0.00000000
     atom    4 type  2   force =     0.00001572    0.00000843    0.00001094
     atom    5 type  2   force =    -0.00000056    0.00001783   -0.00001094
     atom    6 type  2   force =    -0.00001516    0.00000940    0.00001094
     atom    7 type  2   force =    -0.00001516   -0.00000940   -0.00001094
     atom    8 type  2   force =    -0.00000056   -0.00001783    0.00001094
     atom    9 type  2   force =     0.00001572   -0.00000843   -0.00001094
     The non-local contrib.  to forces
     atom    1 type  1   force =    -0.00386191   -0.00000000    0.00000000
     atom    2 type  1   force =     0.00193095   -0.00334451    0.00000000
     atom    3 type  1   force =     0.00193095    0.00334451    0.00000000
     atom    4 type  2   force =    -0.45725080    0.68726438    0.51037238
     atom    5 type  2   force =     0.82381381   -0.05235862   -0.51037238
     atom    6 type  2   force =    -0.36656302   -0.73962300    0.51037238
     atom    7 type  2   force =    -0.36656302    0.73962300   -0.51037238
     atom    8 type  2   force =     0.82381381    0.05235862    0.51037238
     atom    9 type  2   force =    -0.45725080   -0.68726438   -0.51037238
     The ionic contribution  to forces
     atom    1 type  1   force =    -0.03146746    0.00000000    0.00000000
     atom    2 type  1   force =     0.01573378   -0.02725170    0.00000006
     atom    3 type  1   force =     0.01573378    0.02725170   -0.00000006
     atom    4 type  2   force =     1.53903063   -3.15709748   -1.69782688
     atom    5 type  2   force =    -3.50364187   -0.24570943    1.69782708
     atom    6 type  2   force =     1.96461120    2.91138855   -1.69782674
     atom    7 type  2   force =     1.96461120   -2.91138855    1.69782674
     atom    8 type  2   force =    -3.50364187    0.24570943   -1.69782708
     atom    9 type  2   force =     1.53903063    3.15709748    1.69782688
     The local contribution  to forces
     atom    1 type  1   force =     0.03524897    0.00000000    0.00000000
     atom    2 type  1   force =    -0.01762449    0.03052652   -0.00000006
     atom    3 type  1   force =    -0.01762449   -0.03052652    0.00000006
     atom    4 type  2   force =    -1.08810483    2.47858521    1.19858437
     atom    5 type  2   force =     2.69057041    0.29696619   -1.19858286
     atom    6 type  2   force =    -1.60246514   -2.18161922    1.19858590
     atom    7 type  2   force =    -1.60246514    2.18161922   -1.19858590
     atom    8 type  2   force =     2.69057041   -0.29696619    1.19858286
     atom    9 type  2   force =    -1.08810483   -2.47858521   -1.19858437
     The core correction contribution to forces
     atom    1 type  1   force =     0.00009681   -0.00000000    0.00000000
     atom    2 type  1   force =    -0.00004841    0.00008384   -0.00000001
     atom    3 type  1   force =    -0.00004841   -0.00008384    0.00000001
     atom    4 type  2   force =     0.00634154   -0.00874642   -0.01112052
     atom    5 type  2   force =    -0.01074539    0.00111872    0.01112049
     atom    6 type  2   force =     0.00440385    0.00986514   -0.01112054
     atom    7 type  2   force =     0.00440385   -0.00986514    0.01112054
     atom    8 type  2   force =    -0.01074539   -0.00111872   -0.01112049
     atom    9 type  2   force =     0.00634154    0.00874642    0.01112052
     The Hubbard contrib.    to forces
     atom    1 type  1   force =     0.00000000    0.00000000    0.00000000
     atom    2 type  1   force =     0.00000000    0.00000000    0.00000000
     atom    3 type  1   force =     0.00000000    0.00000000    0.00000000
     atom    4 type  2   force =     0.00000000    0.00000000    0.00000000
     atom    5 type  2   force =     0.00000000    0.00000000    0.00000000
     atom    6 type  2   force =     0.00000000    0.00000000    0.00000000
     atom    7 type  2   force =     0.00000000    0.00000000    0.00000000
     atom    8 type  2   force =     0.00000000    0.00000000    0.00000000
     atom    9 type  2   force =     0.00000000    0.00000000    0.00000000
     The SCF correction term to forces
     atom    1 type  1   force =     0.00000027    0.00000000    0.00000000
     atom    2 type  1   force =    -0.00000013    0.00000023    0.00000000
     atom    3 type  1   force =    -0.00000013   -0.00000023   -0.00000000
     atom    4 type  2   force =    -0.00000065    0.00000273    0.00000160
     atom    5 type  2   force =     0.00000269    0.00000080   -0.00000160
     atom    6 type  2   force =    -0.00000204   -0.00000193    0.00000160
     atom    7 type  2   force =    -0.00000204    0.00000193   -0.00000160
     atom    8 type  2   force =     0.00000269   -0.00000080    0.00000160
     atom    9 type  2   force =    -0.00000065   -0.00000273   -0.00000160

     Total force =     0.000059     Total SCF correction =     0.000008
     SCF correction compared to forces is large: reduce conv_thr to get better values

     Writing all to output data dir ./pwscf.save/ :
     XML data file, charge density, pseudopotentials, collected wavefunctions
 
     init_run     :      1.50s CPU      2.42s WALL (       1 calls)
     electrons    :      1.31s CPU      1.39s WALL (       1 calls)
     forces       :      0.04s CPU      0.04s WALL (       1 calls)

     Called by init_run:
     wfcinit      :      0.08s CPU      0.28s WALL (       1 calls)
     wfcinit:atom :      0.00s CPU      0.00s WALL (       3 calls)
     wfcinit:wfcr :      0.06s CPU      0.23s WALL (       3 calls)
     potinit      :      0.65s CPU      0.67s WALL (       1 calls)
     hinit0       :      0.21s CPU      0.27s WALL (       1 calls)

     Called by electrons:
     c_bands      :      0.82s CPU      0.86s WALL (      13 calls)
     sum_band     :      0.24s CPU      0.25s WALL (      13 calls)
     v_of_rho     :      0.09s CPU      0.10s WALL (      14 calls)
     v_h          :      0.03s CPU      0.03s WALL (      14 calls)
     v_xc         :      0.06s CPU      0.07s WALL (      15 calls)
     newd         :      0.59s CPU      1.20s WALL (      14 calls)
                                        1.20s GPU  (      14 calls)
     mix_rho      :      0.06s CPU      0.07s WALL (      13 calls)

     Called by c_bands:
     init_us_2    :      0.03s CPU      0.03s WALL (      84 calls)
     cegterg      :      0.70s CPU      0.73s WALL (      39 calls)

     Called by sum_band:
     sum_band:wei :      0.00s CPU      0.00s WALL (      13 calls)
                                        0.00s GPU  (      13 calls)
     sum_band:loo :      0.11s CPU      0.11s WALL (      13 calls)
                                        0.11s GPU  (      13 calls)
     sum_band:buf :      0.01s CPU      0.02s WALL (      39 calls)
                                        0.02s GPU  (      39 calls)
     sum_band:ini :      0.02s CPU      0.02s WALL (      39 calls)
                                        0.02s GPU  (      39 calls)
     sum_band:cal :      0.00s CPU      0.01s WALL (      39 calls)
                                        0.00s GPU  (      39 calls)
     sum_band:bec :      0.02s CPU      0.02s WALL (      39 calls)
                                        0.02s GPU  (      39 calls)
     addusdens    :      0.05s CPU      0.06s WALL (      13 calls)
                                        0.06s GPU  (      13 calls)
     addusd:skk   :      0.00s CPU      0.00s WALL (      26 calls)
                                        0.00s GPU  (      26 calls)

     Called by *egterg:
     cdiaghg      :      0.23s CPU      0.39s WALL (     164 calls)
                                        0.39s GPU  (     164 calls)
     cegterg:over :      0.02s CPU      0.03s WALL (     125 calls)
     cegterg:upda :      0.10s CPU      0.11s WALL (     125 calls)
     cegterg:last :      0.02s CPU      0.02s WALL (     106 calls)
     h_psi        :      0.29s CPU      0.31s WALL (     167 calls)
                                        0.31s GPU  (     167 calls)
     s_psi        :      0.04s CPU      0.04s WALL (     167 calls)
     g_psi        :      0.00s CPU      0.01s WALL (     125 calls)
                                        0.00s GPU  (     125 calls)

     Called by h_psi:
     h_psi:calbec :      0.00s CPU      0.03s WALL (     167 calls)
                                        0.02s GPU  (     167 calls)
     vloc_psi     :      0.21s CPU      0.22s WALL (     167 calls)
                                        0.22s GPU  (     167 calls)
     add_vuspsi   :      0.04s CPU      0.05s WALL (     167 calls)
                                        0.05s GPU  (     167 calls)

     General routines
     calbec       :      0.01s CPU      0.02s WALL (     218 calls)
     fft          :      0.39s CPU      0.46s WALL (     191 calls)
                                        0.08s GPU  (     177 calls)
     ffts         :      0.26s CPU      0.27s WALL (      27 calls)
                                        0.00s GPU  (      13 calls)
     fftw         :      0.01s CPU      0.15s WALL (     644 calls)
                                        0.15s GPU  (     644 calls)
     interpolate  :      0.64s CPU      0.65s WALL (      14 calls)
 
     Parallel routines
 
     PWSCF        :      3.09s CPU      4.24s WALL

 
   This run was terminated on:  18:23:58  28Dec2024            

=------------------------------------------------------------------------------=
   JOB DONE.
=------------------------------------------------------------------------------=
