JobID        JobIDRaw        JobName  Partition  MaxVMSize  MaxVMSizeNode  MaxVMSizeTask  AveVMSize     MaxRSS MaxRSSNode MaxRSSTask     AveRSS MaxPages MaxPagesNode   MaxPagesTask   AvePages     MinCPU MinCPUNode MinCPUTask     AveCPU   NTasks  AllocCPUS    Elapsed      State ExitCode AveCPUFreq ReqCPUFreqMin ReqCPUFreqMax ReqCPUFreqGov     ReqMem ConsumedEnergy  MaxDiskRead MaxDiskReadNode MaxDiskReadTask    AveDiskRead MaxDiskWrite MaxDiskWriteNode MaxDiskWriteTask   AveDiskWrite    ReqTRES  AllocTRES TRESUsageInAve TRESUsageInMax TRESUsageInMaxNode TRESUsageInMaxTask TRESUsageInMin TRESUsageInMinNode TRESUsageInMinTask TRESUsageInTot TRESUsageOutMax TRESUsageOutMaxNode TRESUsageOutMaxTask TRESUsageOutAve TRESUsageOutTot 
------------ ------------ ---------- ---------- ---------- -------------- -------------- ---------- ---------- ---------- ---------- ---------- -------- ------------ -------------- ---------- ---------- ---------- ---------- ---------- -------- ---------- ---------- ---------- -------- ---------- ------------- ------------- ------------- ---------- -------------- ------------ --------------- --------------- -------------- ------------ ---------------- ---------------- -------------- ---------- ---------- -------------- -------------- ------------------ ------------------ -------------- ------------------ ------------------ -------------- --------------- ------------------- ------------------- --------------- --------------- 
1589183      1589183      CovidWeak+       qcpu                                                                                                                                                                                                             512   00:51:11    RUNNING      0:0                  Unknown       Unknown       Unknown       920G                                                                                                                                          billing=4+ billing=4+                                                                                                                                                                                                                                 
1589183.bat+ 1589183.bat+      batch                                                                                                                                                                                                               1        128   00:51:11    RUNNING      0:0          0             0             0             0                         0                                                                                                                                      cpu=128,m+                                                                                                                                                                                                                                 
1589183.ext+ 1589183.ext+     extern                                                                                                                                                                                                               4        512   00:51:11    RUNNING      0:0          0             0             0             0                         0                                                                                                                                      billing=4+                                                                                                                                                                                                                                 
1589183.0    1589183.0        siesta               360820K          cn524              0  289858576    315724K      cn524          0  278922776       97        cn639            445         44   00:49:59      cn524         98   00:50:31      512        512   00:51:07  COMPLETED      0:0     93.97M       Unknown       Unknown       Unknown                         0       14.98M           cn524               0         13.72M       17.70M            cn524                0          5.76M            cpu=512,m+ cpu=00:50:31,+ cpu=00:50:38,+ cpu=cn631,energy=+ cpu=278,fs/disk=0+ cpu=00:49:59,+ cpu=cn524,energy=+ cpu=98,fs/disk=24+ cpu=17-23:04:+ energy=0,fs/di+ energy=cn616,fs/di+           fs/disk=0 energy=0,fs/di+ energy=0,fs/di+ 
