{
 "global_section": { "_calls": 1, "_time":    14007.588, "_%":   100.00,
   "siesta": { "_calls": 1, "_time":    14007.588, "_%":   100.00,
     "Setup": { "_calls": 1, "_time":        1.714, "_%":     0.01,
       "bands": { "_calls": 1, "_time":        0.002, "_%":     0.00},
       "KSV_init": { "_calls": 1, "_time":        0.001, "_%":     0.00}
     },
     "IterGeom": { "_calls": 1, "_time":    14005.218, "_%":    99.98,
       "geom_init": { "_calls": 1, "_time":        6.862, "_%":     0.05,
         "state_init": { "_calls": 1, "_time":        0.624, "_%":     0.00,
           "hsparse": { "_calls": 1, "_time":        0.124, "_%":     0.00},
           "overlap": { "_calls": 1, "_time":        0.039, "_%":     0.00}
         },
         "Setup_H0": { "_calls": 1, "_time":        6.237, "_%":     0.04,
           "naefs": { "_calls": 1, "_time":        0.022, "_%":     0.00},
           "MolMec": { "_calls": 1, "_time":        0.000, "_%":     0.00},
           "kinefsm": { "_calls": 1, "_time":        0.036, "_%":     0.00},
           "nlefsm": { "_calls": 1, "_time":        0.130, "_%":     0.00},
           "DHSCF_Init": { "_calls": 1, "_time":        6.034, "_%":     0.04,
             "DHSCF1": { "_calls": 1, "_time":        0.041, "_%":     0.00,
               "INITMESH": { "_calls": 1, "_time":        0.000, "_%":     0.00}
             },
             "DHSCF2": { "_calls": 1, "_time":        5.972, "_%":     0.04,
               "REMESH": { "_calls": 1, "_time":        4.192, "_%":     0.03,
                 "INITMESH": { "_calls": 2, "_time":        3.710, "_%":     0.03,
                   "SPLOAD": { "_calls": 2, "_time":        0.562, "_%":     0.00}
                 }
               },
               "REORD": { "_calls": 2, "_time":        0.001, "_%":     0.00},
               "PHION": { "_calls": 1, "_time":        0.019, "_%":     0.00},
               "COMM_BSC": { "_calls": 1, "_time":        0.146, "_%":     0.00},
               "POISON": { "_calls": 1, "_time":        0.801, "_%":     0.01,
                 "fft": { "_calls": 2, "_time":        0.785, "_%":     0.01}
               }
             }
           }
         }
       },
       "IterSCF": { "_calls": 5, "_time":    13998.274, "_%":    99.93,
         "setup_H": { "_calls": 5, "_time":        7.126, "_%":     0.05,
           "DHSCF": { "_calls": 5, "_time":        7.105, "_%":     0.05,
             "DHSCF3": { "_calls": 5, "_time":        7.105, "_%":     0.05,
               "rhoofd": { "_calls": 5, "_time":        0.051, "_%":     0.00},
               "COMM_BSC": { "_calls": 10, "_time":        1.005, "_%":     0.01},
               "POISON": { "_calls": 5, "_time":        3.192, "_%":     0.02,
                 "fft": { "_calls": 10, "_time":        3.066, "_%":     0.02}
               },
               "XC": { "_calls": 5, "_time":        1.987, "_%":     0.01,
                 "COMM_BSC": { "_calls": 10, "_time":        0.427, "_%":     0.00},
                 "GXC-CellXC": { "_calls": 5, "_time":        1.539, "_%":     0.01,
                   "gridxc@cellXC": { "_calls": 5, "_time":        1.539, "_%":     0.01}
                 }
               },
               "vmat": { "_calls": 5, "_time":        0.129, "_%":     0.00}
             }
           }
         },
         "compute_dm": { "_calls": 5, "_time":    13990.845, "_%":    99.88,
           "diagon": { "_calls": 5, "_time":    13990.822, "_%":    99.88,
             "c-eigval": { "_calls": 80, "_time":     2814.884, "_%":    20.10,
               "c-buildHS": { "_calls": 80, "_time":        0.163, "_%":     0.00},
               "cdiag": { "_calls": 80, "_time":     2814.720, "_%":    20.09,
                 "cdiag1": { "_calls": 80, "_time":      131.451, "_%":     0.94},
                 "cdiag2": { "_calls": 80, "_time":      625.091, "_%":     4.46},
                 "cdiag3": { "_calls": 80, "_time":     2039.596, "_%":    14.56}
               }
             },
             "c-eigvec": { "_calls": 80, "_time":     2892.796, "_%":    20.65,
               "cdiag": { "_calls": 80, "_time":     2892.106, "_%":    20.65,
                 "cdiag1": { "_calls": 80, "_time":      121.219, "_%":     0.87},
                 "cdiag2": { "_calls": 80, "_time":      606.984, "_%":     4.33},
                 "cdiag3": { "_calls": 80, "_time":     1998.408, "_%":    14.27},
                 "cdiag4": { "_calls": 80, "_time":      150.210, "_%":     1.07}
               }
             },
             "c-buildD": { "_calls": 80, "_time":     8281.886, "_%":    59.12}
           }
         },
         "MIXER": { "_calls": 5, "_time":        0.156, "_%":     0.00}
       },
       "state_analysis": { "_calls": 1, "_time":        0.063, "_%":     0.00},
       "siesta_move": { "_calls": 1, "_time":        0.000, "_%":     0.00}
     },
     "Analysis": { "_calls": 1, "_time":        0.520, "_%":     0.00,
       "optical": { "_calls": 1, "_time":        0.001, "_%":     0.00}
     }
   }
 }}
