{
 "global_section": { "_calls": 1, "_time":     2216.013, "_%":   100.00,
   "siesta": { "_calls": 1, "_time":     2216.013, "_%":   100.00,
     "Setup": { "_calls": 1, "_time":        2.470, "_%":     0.11,
       "bands": { "_calls": 1, "_time":        0.003, "_%":     0.00},
       "KSV_init": { "_calls": 1, "_time":        0.001, "_%":     0.00}
     },
     "IterGeom": { "_calls": 1, "_time":     2212.699, "_%":    99.85,
       "geom_init": { "_calls": 1, "_time":       11.723, "_%":     0.53,
         "state_init": { "_calls": 1, "_time":        0.595, "_%":     0.03,
           "hsparse": { "_calls": 1, "_time":        0.189, "_%":     0.01},
           "overlap": { "_calls": 1, "_time":        0.093, "_%":     0.00}
         },
         "Setup_H0": { "_calls": 1, "_time":       11.127, "_%":     0.50,
           "naefs": { "_calls": 1, "_time":        0.031, "_%":     0.00},
           "MolMec": { "_calls": 1, "_time":        0.000, "_%":     0.00},
           "kinefsm": { "_calls": 1, "_time":        0.089, "_%":     0.00},
           "nlefsm": { "_calls": 1, "_time":        0.395, "_%":     0.02},
           "DHSCF_Init": { "_calls": 1, "_time":       10.591, "_%":     0.48,
             "DHSCF1": { "_calls": 1, "_time":        0.104, "_%":     0.00,
               "INITMESH": { "_calls": 1, "_time":        0.000, "_%":     0.00}
             },
             "DHSCF2": { "_calls": 1, "_time":       10.461, "_%":     0.47,
               "REMESH": { "_calls": 1, "_time":        0.100, "_%":     0.00,
                 "INITMESH": { "_calls": 2, "_time":        0.070, "_%":     0.00,
                   "SPLOAD": { "_calls": 2, "_time":        0.057, "_%":     0.00}
                 }
               },
               "REORD": { "_calls": 2, "_time":        0.051, "_%":     0.00},
               "PHION": { "_calls": 1, "_time":        0.451, "_%":     0.02},
               "COMM_BSC": { "_calls": 1, "_time":        0.222, "_%":     0.01},
               "POISON": { "_calls": 1, "_time":        8.820, "_%":     0.40,
                 "fft": { "_calls": 2, "_time":        8.409, "_%":     0.38}
               }
             }
           }
         }
       },
       "IterSCF": { "_calls": 5, "_time":     2200.860, "_%":    99.32,
         "setup_H": { "_calls": 5, "_time":       72.830, "_%":     3.29,
           "DHSCF": { "_calls": 5, "_time":       72.761, "_%":     3.28,
             "DHSCF3": { "_calls": 5, "_time":       72.761, "_%":     3.28,
               "rhoofd": { "_calls": 5, "_time":        0.386, "_%":     0.02},
               "COMM_BSC": { "_calls": 10, "_time":        2.144, "_%":     0.10},
               "POISON": { "_calls": 5, "_time":       44.044, "_%":     1.99,
                 "fft": { "_calls": 10, "_time":       42.057, "_%":     1.90}
               },
               "XC": { "_calls": 5, "_time":       22.363, "_%":     1.01,
                 "COMM_BSC": { "_calls": 10, "_time":        2.285, "_%":     0.10},
                 "GXC-CellXC": { "_calls": 5, "_time":       19.545, "_%":     0.88,
                   "gridxc@cellXC": { "_calls": 5, "_time":       19.545, "_%":     0.88}
                 }
               },
               "vmat": { "_calls": 5, "_time":        0.342, "_%":     0.02}
             }
           }
         },
         "compute_dm": { "_calls": 5, "_time":     2128.008, "_%":    96.03,
           "diagon": { "_calls": 5, "_time":     2128.000, "_%":    96.03,
             "c-eigval": { "_calls": 5, "_time":     1001.784, "_%":    45.21,
               "c-buildHS": { "_calls": 5, "_time":        0.578, "_%":     0.03},
               "cdiag": { "_calls": 5, "_time":     1001.206, "_%":    45.18,
                 "cdiag1": { "_calls": 5, "_time":       30.265, "_%":     1.37},
                 "cdiag2": { "_calls": 5, "_time":       92.802, "_%":     4.19},
                 "cdiag3": { "_calls": 5, "_time":      873.389, "_%":    39.41}
               }
             },
             "c-eigvec": { "_calls": 5, "_time":     1069.712, "_%":    48.27,
               "cdiag": { "_calls": 5, "_time":     1069.395, "_%":    48.26,
                 "cdiag1": { "_calls": 5, "_time":       30.335, "_%":     1.37},
                 "cdiag2": { "_calls": 5, "_time":       92.720, "_%":     4.18},
                 "cdiag3": { "_calls": 5, "_time":      871.290, "_%":    39.32},
                 "cdiag4": { "_calls": 5, "_time":       69.713, "_%":     3.15}
               }
             },
             "c-buildD": { "_calls": 5, "_time":       55.398, "_%":     2.50}
           }
         },
         "MIXER": { "_calls": 5, "_time":        0.002, "_%":     0.00}
       },
       "state_analysis": { "_calls": 1, "_time":        0.079, "_%":     0.00},
       "siesta_move": { "_calls": 1, "_time":        0.000, "_%":     0.00}
     },
     "Analysis": { "_calls": 1, "_time":        0.799, "_%":     0.04,
       "optical": { "_calls": 1, "_time":        0.001, "_%":     0.00}
     }
   }
 }}
