JobID        JobIDRaw        JobName  Partition  MaxVMSize  MaxVMSizeNode  MaxVMSizeTask  AveVMSize     MaxRSS MaxRSSNode MaxRSSTask     AveRSS MaxPages MaxPagesNode   MaxPagesTask   AvePages     MinCPU MinCPUNode MinCPUTask     AveCPU   NTasks  AllocCPUS    Elapsed      State ExitCode AveCPUFreq ReqCPUFreqMin ReqCPUFreqMax ReqCPUFreqGov     ReqMem ConsumedEnergy  MaxDiskRead MaxDiskReadNode MaxDiskReadTask    AveDiskRead MaxDiskWrite MaxDiskWriteNode MaxDiskWriteTask   AveDiskWrite    ReqTRES  AllocTRES TRESUsageInAve TRESUsageInMax TRESUsageInMaxNode TRESUsageInMaxTask TRESUsageInMin TRESUsageInMinNode TRESUsageInMinTask TRESUsageInTot TRESUsageOutMax TRESUsageOutMaxNode TRESUsageOutMaxTask TRESUsageOutAve TRESUsageOutTot 
------------ ------------ ---------- ---------- ---------- -------------- -------------- ---------- ---------- ---------- ---------- ---------- -------- ------------ -------------- ---------- ---------- ---------- ---------- ---------- -------- ---------- ---------- ---------- -------- ---------- ------------- ------------- ------------- ---------- -------------- ------------ --------------- --------------- -------------- ------------ ---------------- ---------------- -------------- ---------- ---------- -------------- -------------- ------------------ ------------------ -------------- ------------------ ------------------ -------------- --------------- ------------------- ------------------- --------------- --------------- 
1618184      1618184      CovidWeak+       qcpu                                                                                                                                                                                                             256   00:01:58    RUNNING      0:0                  Unknown       Unknown       Unknown       460G                                                                                                                                          billing=2+ billing=2+                                                                                                                                                                                                                                 
1618184.bat+ 1618184.bat+      batch                                                                                                                                                                                                               1        128   00:01:58    RUNNING      0:0          0             0             0             0                         0                                                                                                                                      cpu=128,m+                                                                                                                                                                                                                                 
1618184.ext+ 1618184.ext+     extern                                                                                                                                                                                                               2        256   00:01:58    RUNNING      0:0          0             0             0             0                         0                                                                                                                                      billing=2+                                                                                                                                                                                                                                 
1618184.0    1618184.0        siesta               911936K          cn366              0  813021520    881960K      cn490        224  805607408       70        cn490            246         29   00:01:42      cn366          0   00:01:44      256        256   00:01:54  COMPLETED      0:0      1.99G       Unknown       Unknown       Unknown                         0       14.93M           cn366               0         13.75M       26.81M            cn366                0          4.21M            cpu=256,m+ cpu=00:01:44,+ cpu=00:01:45,+ cpu=cn490,energy=+ cpu=220,fs/disk=0+ cpu=00:01:42,+ cpu=cn366,energy=+ cpu=0,fs/disk=1,m+ cpu=07:27:42,+ energy=0,fs/di+ energy=cn490,fs/di+           fs/disk=0 energy=0,fs/di+ energy=0,fs/di+ 
