{
 "global_section": { "_calls": 1, "_time":      101.288, "_%":   100.00,
   "siesta": { "_calls": 1, "_time":      101.288, "_%":   100.00,
     "Setup": { "_calls": 1, "_time":        2.725, "_%":     2.69,
       "bands": { "_calls": 1, "_time":        0.003, "_%":     0.00},
       "KSV_init": { "_calls": 1, "_time":        0.001, "_%":     0.00}
     },
     "IterGeom": { "_calls": 1, "_time":       98.044, "_%":    96.80,
       "geom_init": { "_calls": 1, "_time":       13.565, "_%":    13.39,
         "state_init": { "_calls": 1, "_time":        1.037, "_%":     1.02,
           "hsparse": { "_calls": 1, "_time":        0.376, "_%":     0.37},
           "overlap": { "_calls": 1, "_time":        0.092, "_%":     0.09}
         },
         "Setup_H0": { "_calls": 1, "_time":       12.527, "_%":    12.37,
           "naefs": { "_calls": 1, "_time":        0.059, "_%":     0.06},
           "MolMec": { "_calls": 1, "_time":        0.000, "_%":     0.00},
           "kinefsm": { "_calls": 1, "_time":        0.087, "_%":     0.09},
           "nlefsm": { "_calls": 1, "_time":        0.248, "_%":     0.24},
           "DHSCF_Init": { "_calls": 1, "_time":       12.091, "_%":    11.94,
             "DHSCF1": { "_calls": 1, "_time":        0.151, "_%":     0.15,
               "INITMESH": { "_calls": 1, "_time":        0.000, "_%":     0.00}
             },
             "DHSCF2": { "_calls": 1, "_time":       11.893, "_%":    11.74,
               "REMESH": { "_calls": 1, "_time":        0.321, "_%":     0.32,
                 "INITMESH": { "_calls": 2, "_time":        0.285, "_%":     0.28,
                   "SPLOAD": { "_calls": 2, "_time":        0.202, "_%":     0.20}
                 }
               },
               "REORD": { "_calls": 2, "_time":        0.069, "_%":     0.07},
               "PHION": { "_calls": 1, "_time":        0.443, "_%":     0.44},
               "COMM_BSC": { "_calls": 1, "_time":        0.170, "_%":     0.17},
               "POISON": { "_calls": 1, "_time":        9.849, "_%":     9.72,
                 "fft": { "_calls": 2, "_time":        9.469, "_%":     9.35}
               }
             }
           }
         }
       },
       "IterSCF": { "_calls": 5, "_time":       84.222, "_%":    83.15,
         "setup_H": { "_calls": 5, "_time":       79.032, "_%":    78.03,
           "DHSCF": { "_calls": 5, "_time":       78.946, "_%":    77.94,
             "DHSCF3": { "_calls": 5, "_time":       78.946, "_%":    77.94,
               "rhoofd": { "_calls": 5, "_time":        0.369, "_%":     0.36},
               "COMM_BSC": { "_calls": 10, "_time":        1.673, "_%":     1.65},
               "POISON": { "_calls": 5, "_time":       48.800, "_%":    48.18,
                 "fft": { "_calls": 10, "_time":       46.758, "_%":    46.16}
               },
               "XC": { "_calls": 5, "_time":       23.124, "_%":    22.83,
                 "COMM_BSC": { "_calls": 10, "_time":        2.043, "_%":     2.02},
                 "GXC-CellXC": { "_calls": 5, "_time":       20.606, "_%":    20.34,
                   "gridxc@cellXC": { "_calls": 5, "_time":       20.606, "_%":    20.34}
                 }
               },
               "vmat": { "_calls": 5, "_time":        0.533, "_%":     0.53}
             }
           }
         },
         "compute_dm": { "_calls": 5, "_time":        5.169, "_%":     5.10,
           "elsi": { "_calls": 5, "_time":        5.168, "_%":     5.10,
             "find nnz_g": { "_calls": 5, "_time":        0.000, "_%":     0.00},
             "elsi-solver": { "_calls": 5, "_time":        5.128, "_%":     5.06}
           }
         },
         "MIXER": { "_calls": 5, "_time":        0.006, "_%":     0.01}
       },
       "state_analysis": { "_calls": 1, "_time":        0.196, "_%":     0.19},
       "siesta_move": { "_calls": 1, "_time":        0.000, "_%":     0.00}
     },
     "Analysis": { "_calls": 1, "_time":        0.467, "_%":     0.46,
       "optical": { "_calls": 1, "_time":        0.001, "_%":     0.00}
     }
   }
 }}
