JobId=8028510 JobName=CovidStrong
   UserId=pedronfe(327000671) GroupId=pepr_pedronfe(327000671) MCS_label=N/A
   Priority=380 Nice=0 Account=project_465001212 QOS=normal
   JobState=RUNNING Reason=None Dependency=(null)
   Requeue=1 Restarts=0 BatchFlag=1 Reboot=0 ExitCode=0:0
   DerivedExitCode=0:0
   RunTime=00:00:03 TimeLimit=03:59:00 TimeMin=N/A
   SubmitTime=2024-09-19T19:15:18 EligibleTime=2024-09-19T19:15:18
   AccrueTime=2024-09-19T19:15:18
   StartTime=2024-09-19T23:29:09 EndTime=2024-09-20T03:28:09 Deadline=N/A
   SuspendTime=None SecsPreSuspend=0 LastSchedEval=2024-09-19T23:29:09 Scheduler=Backfill
   Partition=standard AllocNode:Sid=ln02:255122
   ReqNodeList=(null) ExcNodeList=(null)
   NodeList=nid[001810,001903]
   BatchHost=nid001810
   NumNodes=2 NumCPUs=512 NumTasks=256 CPUs/Task=1 ReqB:S:C:T=0:0:*:1
   ReqTRES=cpu=256,mem=448G,node=2,billing=256
   AllocTRES=cpu=512,mem=448G,node=2,billing=512
   Socks/Node=* NtasksPerN:B:S:C=128:0:*:1 CoreSpec=*
   JOB_GRES=(null)
     Nodes=nid[001810,001903] CPU_IDs=0-255 Mem=229376 GRES=
   MinCPUsNode=128 MinMemoryNode=0 MinTmpDiskNode=0
   Features=(null) DelayBoot=00:00:00
   OverSubscribe=NO Contiguous=0 Licenses=(null) Network=(null)
   Command=/pfs/lustrep1/projappl/project_465001212/fede/JUBE4MaX/max-inputs/interface/siesta/_CovidStrong/000000/000001_submit/work/submit.job
   WorkDir=/pfs/lustrep1/projappl/project_465001212/fede/JUBE4MaX/max-inputs/interface/siesta/_CovidStrong/000000/000001_submit/work
   StdErr=/pfs/lustrep1/projappl/project_465001212/fede/JUBE4MaX/max-inputs/interface/siesta/_CovidStrong/000000/000001_submit/work/slurm-8028510.out
   StdIn=/dev/null
   StdOut=/pfs/lustrep1/projappl/project_465001212/fede/JUBE4MaX/max-inputs/interface/siesta/_CovidStrong/000000/000001_submit/work/slurm-8028510.out
   Power=
   

