JobId=5100793 JobName=qe-pw-ausurf
   UserId=bsc021507(3048) GroupId=bsc(50000) MCS_label=N/A
   Priority=102972 Nice=0 Account=bsc21 QOS=acc_debug
   JobState=RUNNING Reason=None Dependency=(null)
   Requeue=0 Restarts=0 BatchFlag=1 Reboot=0 ExitCode=0:0
   RunTime=00:00:05 TimeLimit=02:00:00 TimeMin=N/A
   SubmitTime=2024-08-30T15:02:32 EligibleTime=2024-08-30T15:02:32
   AccrueTime=2024-08-30T15:02:32
   StartTime=2024-08-30T15:03:15 EndTime=2024-08-30T17:03:15 Deadline=N/A
   SuspendTime=None SecsPreSuspend=0 LastSchedEval=2024-08-30T15:03:15 Scheduler=Backfill
   Partition=acc AllocNode:Sid=alogin1:3028496
   ReqNodeList=(null) ExcNodeList=(null)
   NodeList=as07r5b29
   BatchHost=as07r5b29
   NumNodes=1 NumCPUs=160 NumTasks=3 CPUs/Task=20 ReqB:S:C:T=0:0:*:1
   ReqTRES=cpu=60,mem=375000M,node=1,billing=60,gres/gpu=3
   AllocTRES=cpu=160,mem=500000M,node=1,billing=160,gres/gpu=4
   Socks/Node=* NtasksPerN:B:S:C=3:0:*:* CoreSpec=*
   MinCPUsNode=60 MinMemoryCPU=6250M MinTmpDiskNode=0
   Features=(null) DelayBoot=00:00:00
   OverSubscribe=NO Contiguous=0 Licenses=(null) Network=(null)
   Command=/gpfs/projects/bsc21/bsc21507/JUBE4MaX/max-inputs/interface/julio-MN/ausurf-MN5ACC-731module/000000/000002_submit_N1nth20np3/work/submit.job
   WorkDir=/gpfs/projects/bsc21/bsc21507/JUBE4MaX/max-inputs/interface/julio-MN/ausurf-MN5ACC-731module/000000/000002_submit_N1nth20np3/work
   StdErr=/gpfs/projects/bsc21/bsc21507/JUBE4MaX/max-inputs/interface/julio-MN/ausurf-MN5ACC-731module/000000/000002_submit_N1nth20np3/work/job_5100793.err
   StdIn=/dev/null
   StdOut=/gpfs/projects/bsc21/bsc21507/JUBE4MaX/max-inputs/interface/julio-MN/ausurf-MN5ACC-731module/000000/000002_submit_N1nth20np3/work/job_5100793.out
   Power=
   TresPerNode=gres:gpu:3
   

