{
 "global_section": { "_calls": 1, "_time":    16088.128, "_%":   100.00,
   "siesta": { "_calls": 1, "_time":    16088.128, "_%":   100.00,
     "Setup": { "_calls": 1, "_time":        3.731, "_%":     0.02,
       "bands": { "_calls": 1, "_time":        0.002, "_%":     0.00},
       "KSV_init": { "_calls": 1, "_time":        0.001, "_%":     0.00}
     },
     "IterGeom": { "_calls": 1, "_time":    15943.265, "_%":    99.10,
       "geom_init": { "_calls": 1, "_time":       36.787, "_%":     0.23,
         "state_init": { "_calls": 1, "_time":        2.117, "_%":     0.01,
           "hsparse": { "_calls": 1, "_time":        0.927, "_%":     0.01},
           "overlap": { "_calls": 1, "_time":        0.137, "_%":     0.00}
         },
         "Setup_H0": { "_calls": 1, "_time":       34.669, "_%":     0.22,
           "naefs": { "_calls": 1, "_time":        0.130, "_%":     0.00},
           "MolMec": { "_calls": 1, "_time":        0.000, "_%":     0.00},
           "kinefsm": { "_calls": 1, "_time":        0.126, "_%":     0.00},
           "nlefsm": { "_calls": 1, "_time":        0.225, "_%":     0.00},
           "DHSCF_Init": { "_calls": 1, "_time":       34.099, "_%":     0.21,
             "DHSCF1": { "_calls": 1, "_time":        0.244, "_%":     0.00,
               "INITMESH": { "_calls": 1, "_time":        0.000, "_%":     0.00}
             },
             "DHSCF2": { "_calls": 1, "_time":       33.768, "_%":     0.21,
               "REMESH": { "_calls": 1, "_time":        0.529, "_%":     0.00,
                 "INITMESH": { "_calls": 2, "_time":        0.445, "_%":     0.00,
                   "SPLOAD": { "_calls": 2, "_time":        0.335, "_%":     0.00}
                 }
               },
               "REORD": { "_calls": 2, "_time":        0.277, "_%":     0.00},
               "PHION": { "_calls": 1, "_time":        1.007, "_%":     0.01},
               "COMM_BSC": { "_calls": 1, "_time":        0.450, "_%":     0.00},
               "POISON": { "_calls": 1, "_time":       28.721, "_%":     0.18,
                 "fft": { "_calls": 2, "_time":       27.926, "_%":     0.17}
               }
             }
           }
         }
       },
       "IterSCF": { "_calls": 5, "_time":    15902.718, "_%":    98.85,
         "setup_H": { "_calls": 5, "_time":      212.704, "_%":     1.32,
           "DHSCF": { "_calls": 5, "_time":      211.428, "_%":     1.31,
             "DHSCF3": { "_calls": 5, "_time":      211.428, "_%":     1.31,
               "rhoofd": { "_calls": 5, "_time":        0.908, "_%":     0.01},
               "COMM_BSC": { "_calls": 10, "_time":        6.867, "_%":     0.04},
               "POISON": { "_calls": 5, "_time":      139.845, "_%":     0.87,
                 "fft": { "_calls": 10, "_time":      135.600, "_%":     0.84}
               },
               "XC": { "_calls": 5, "_time":       53.730, "_%":     0.33,
                 "COMM_BSC": { "_calls": 10, "_time":        4.221, "_%":     0.03},
                 "GXC-CellXC": { "_calls": 5, "_time":       47.993, "_%":     0.30,
                   "gridxc@cellXC": { "_calls": 5, "_time":       47.993, "_%":     0.30}
                 }
               },
               "vmat": { "_calls": 5, "_time":        1.510, "_%":     0.01}
             }
           }
         },
         "compute_dm": { "_calls": 5, "_time":    15689.965, "_%":    97.53,
           "elsi": { "_calls": 5, "_time":    15689.935, "_%":    97.52,
             "find nnz_g": { "_calls": 5, "_time":        0.000, "_%":     0.00},
             "elsi-solver": { "_calls": 5, "_time":    15689.915, "_%":    97.52}
           }
         },
         "MIXER": { "_calls": 5, "_time":        0.005, "_%":     0.00}
       },
       "state_analysis": { "_calls": 1, "_time":        2.582, "_%":     0.02},
       "siesta_move": { "_calls": 1, "_time":        0.001, "_%":     0.00}
     },
     "Analysis": { "_calls": 1, "_time":        0.924, "_%":     0.01,
       "optical": { "_calls": 1, "_time":        0.001, "_%":     0.00}
     }
   }
 }}
