{
 "global_section": { "_calls": 1, "_time":      415.819, "_%":   100.00,
   "siesta": { "_calls": 1, "_time":      415.819, "_%":   100.00,
     "Setup": { "_calls": 1, "_time":        0.677, "_%":     0.16,
       "bands": { "_calls": 1, "_time":        0.001, "_%":     0.00},
       "KSV_init": { "_calls": 1, "_time":        0.000, "_%":     0.00}
     },
     "IterGeom": { "_calls": 1, "_time":      414.492, "_%":    99.68,
       "geom_init": { "_calls": 1, "_time":       11.226, "_%":     2.70,
         "state_init": { "_calls": 1, "_time":        0.295, "_%":     0.07,
           "hsparse": { "_calls": 1, "_time":        0.091, "_%":     0.02},
           "overlap": { "_calls": 1, "_time":        0.069, "_%":     0.02}
         },
         "Setup_H0": { "_calls": 1, "_time":       10.898, "_%":     2.62,
           "naefs": { "_calls": 1, "_time":        0.018, "_%":     0.00},
           "MolMec": { "_calls": 1, "_time":        0.000, "_%":     0.00},
           "kinefsm": { "_calls": 1, "_time":        0.068, "_%":     0.02},
           "nlefsm": { "_calls": 1, "_time":        0.156, "_%":     0.04},
           "DHSCF_Init": { "_calls": 1, "_time":       10.645, "_%":     2.56,
             "DHSCF1": { "_calls": 1, "_time":        0.033, "_%":     0.01,
               "INITMESH": { "_calls": 1, "_time":        0.000, "_%":     0.00}
             },
             "DHSCF2": { "_calls": 1, "_time":       10.598, "_%":     2.55,
               "REMESH": { "_calls": 1, "_time":        0.077, "_%":     0.02,
                 "INITMESH": { "_calls": 2, "_time":        0.054, "_%":     0.01,
                   "SPLOAD": { "_calls": 2, "_time":        0.051, "_%":     0.01}
                 }
               },
               "REORD": { "_calls": 2, "_time":        0.038, "_%":     0.01},
               "PHION": { "_calls": 1, "_time":        0.748, "_%":     0.18},
               "COMM_BSC": { "_calls": 1, "_time":        0.460, "_%":     0.11},
               "POISON": { "_calls": 1, "_time":        8.399, "_%":     2.02,
                 "fft": { "_calls": 2, "_time":        7.967, "_%":     1.92}
               }
             }
           }
         }
       },
       "IterSCF": { "_calls": 5, "_time":      403.234, "_%":    96.97,
         "setup_H": { "_calls": 5, "_time":       79.120, "_%":    19.03,
           "DHSCF": { "_calls": 5, "_time":       79.073, "_%":    19.02,
             "DHSCF3": { "_calls": 5, "_time":       79.073, "_%":    19.02,
               "rhoofd": { "_calls": 5, "_time":        0.695, "_%":     0.17},
               "COMM_BSC": { "_calls": 10, "_time":        4.549, "_%":     1.09},
               "POISON": { "_calls": 5, "_time":       40.140, "_%":     9.65,
                 "fft": { "_calls": 10, "_time":       38.333, "_%":     9.22}
               },
               "XC": { "_calls": 5, "_time":       31.060, "_%":     7.47,
                 "COMM_BSC": { "_calls": 10, "_time":        3.366, "_%":     0.81},
                 "GXC-CellXC": { "_calls": 5, "_time":       27.459, "_%":     6.60,
                   "gridxc@cellXC": { "_calls": 5, "_time":       27.459, "_%":     6.60}
                 }
               },
               "vmat": { "_calls": 5, "_time":        0.363, "_%":     0.09}
             }
           }
         },
         "compute_dm": { "_calls": 5, "_time":      323.870, "_%":    77.89,
           "elsi": { "_calls": 5, "_time":      323.812, "_%":    77.87,
             "find nnz_g": { "_calls": 5, "_time":        0.000, "_%":     0.00},
             "elsi-solver": { "_calls": 5, "_time":      323.802, "_%":    77.87}
           }
         },
         "MIXER": { "_calls": 5, "_time":        0.040, "_%":     0.01}
       },
       "state_analysis": { "_calls": 1, "_time":        0.023, "_%":     0.01},
       "siesta_move": { "_calls": 1, "_time":        0.000, "_%":     0.00}
     },
     "Analysis": { "_calls": 1, "_time":        0.634, "_%":     0.15,
       "optical": { "_calls": 1, "_time":        0.000, "_%":     0.00}
     }
   }
 }}
