JobID        JobIDRaw        JobName  Partition  MaxVMSize  MaxVMSizeNode  MaxVMSizeTask  AveVMSize     MaxRSS MaxRSSNode MaxRSSTask     AveRSS MaxPages MaxPagesNode   MaxPagesTask   AvePages     MinCPU MinCPUNode MinCPUTask     AveCPU   NTasks  AllocCPUS    Elapsed      State ExitCode AveCPUFreq ReqCPUFreqMin ReqCPUFreqMax ReqCPUFreqGov     ReqMem ConsumedEnergy  MaxDiskRead MaxDiskReadNode MaxDiskReadTask    AveDiskRead MaxDiskWrite MaxDiskWriteNode MaxDiskWriteTask   AveDiskWrite    ReqTRES  AllocTRES TRESUsageInAve TRESUsageInMax TRESUsageInMaxNode TRESUsageInMaxTask TRESUsageInMin TRESUsageInMinNode TRESUsageInMinTask TRESUsageInTot TRESUsageOutMax TRESUsageOutMaxNode TRESUsageOutMaxTask TRESUsageOutAve TRESUsageOutTot 
------------ ------------ ---------- ---------- ---------- -------------- -------------- ---------- ---------- ---------- ---------- ---------- -------- ------------ -------------- ---------- ---------- ---------- ---------- ---------- -------- ---------- ---------- ---------- -------- ---------- ------------- ------------- ------------- ---------- -------------- ------------ --------------- --------------- -------------- ------------ ---------------- ---------------- -------------- ---------- ---------- -------------- -------------- ------------------ ------------------ -------------- ------------------ ------------------ -------------- --------------- ------------------- ------------------- --------------- --------------- 
34961467     34961467     CovidWeak+        cpu                                                                                                                                                                                                             512   00:01:58    RUNNING      0:0                  Unknown       Unknown       Unknown       250G                                                                                                                                          billing=2+ billing=5+                                                                                                                                                                                                                                 
34961467.ba+ 34961467.ba+      batch                                                                                                                                                                                                               1        256   00:01:58    RUNNING      0:0          0             0             0             0                         0                                                                                                                                      cpu=256,m+                                                                                                                                                                                                                                 
34961467.ex+ 34961467.ex+     extern                                                                                                                                                                                                               2        512   00:01:58    RUNNING      0:0          0             0             0             0                         0                                                                                                                                      billing=5+                                                                                                                                                                                                                                 
34961467.0   34961467.0       siesta               770352K         cn0327             41  749680432    763772K     cn0327         41  742306368       73       cn0330            216          9   00:01:42     cn0330        189   00:01:44      256        512   00:01:55  COMPLETED      0:0      2.70G       Unknown       Unknown       Unknown                         0       28.08M          cn0327               0         26.95M       26.80M           cn0327                0          4.21M            cpu=512,m+ cpu=00:01:44,+ cpu=00:01:46,+ cpu=cn0327,energy+ cpu=103,fs/disk=0+ cpu=00:01:42,+ cpu=cn0330,energy+ cpu=189,fs/disk=1+ cpu=07:26:17,+ energy=0,fs/di+ energy=cn0330,fs/d+           fs/disk=0 energy=0,fs/di+ energy=0,fs/di+ 
