{
 "global_section": { "_calls": 1, "_time":      570.941, "_%":   100.00,
   "siesta": { "_calls": 1, "_time":      570.941, "_%":   100.00,
     "Setup": { "_calls": 1, "_time":        0.773, "_%":     0.14,
       "bands": { "_calls": 1, "_time":        0.001, "_%":     0.00},
       "KSV_init": { "_calls": 1, "_time":        0.000, "_%":     0.00}
     },
     "IterGeom": { "_calls": 1, "_time":      570.037, "_%":    99.84,
       "geom_init": { "_calls": 1, "_time":       10.451, "_%":     1.83,
         "state_init": { "_calls": 1, "_time":        0.278, "_%":     0.05,
           "hsparse": { "_calls": 1, "_time":        0.093, "_%":     0.02},
           "overlap": { "_calls": 1, "_time":        0.042, "_%":     0.01}
         },
         "Setup_H0": { "_calls": 1, "_time":        9.603, "_%":     1.68,
           "naefs": { "_calls": 1, "_time":        0.018, "_%":     0.00},
           "MolMec": { "_calls": 1, "_time":        0.000, "_%":     0.00},
           "kinefsm": { "_calls": 1, "_time":        0.041, "_%":     0.01},
           "nlefsm": { "_calls": 1, "_time":        0.113, "_%":     0.02},
           "DHSCF_Init": { "_calls": 1, "_time":        9.417, "_%":     1.65,
             "DHSCF1": { "_calls": 1, "_time":        0.024, "_%":     0.00,
               "INITMESH": { "_calls": 1, "_time":        0.000, "_%":     0.00}
             },
             "DHSCF2": { "_calls": 1, "_time":        9.379, "_%":     1.64,
               "REMESH": { "_calls": 1, "_time":        0.076, "_%":     0.01,
                 "INITMESH": { "_calls": 2, "_time":        0.064, "_%":     0.01,
                   "SPLOAD": { "_calls": 2, "_time":        0.057, "_%":     0.01}
                 }
               },
               "REORD": { "_calls": 2, "_time":        0.052, "_%":     0.01},
               "PHION": { "_calls": 1, "_time":        0.286, "_%":     0.05},
               "COMM_BSC": { "_calls": 1, "_time":        0.337, "_%":     0.06},
               "POISON": { "_calls": 1, "_time":        7.915, "_%":     1.39,
                 "fft": { "_calls": 2, "_time":        7.553, "_%":     1.32}
               }
             }
           }
         }
       },
       "IterSCF": { "_calls": 5, "_time":      559.555, "_%":    98.01,
         "setup_H": { "_calls": 5, "_time":       61.493, "_%":    10.77,
           "DHSCF": { "_calls": 5, "_time":       61.455, "_%":    10.76,
             "DHSCF3": { "_calls": 5, "_time":       61.455, "_%":    10.76,
               "rhoofd": { "_calls": 5, "_time":        0.369, "_%":     0.06},
               "COMM_BSC": { "_calls": 10, "_time":        2.507, "_%":     0.44},
               "POISON": { "_calls": 5, "_time":       38.671, "_%":     6.77,
                 "fft": { "_calls": 10, "_time":       36.914, "_%":     6.47}
               },
               "XC": { "_calls": 5, "_time":       16.970, "_%":     2.97,
                 "COMM_BSC": { "_calls": 10, "_time":        2.309, "_%":     0.40},
                 "GXC-CellXC": { "_calls": 5, "_time":       14.449, "_%":     2.53,
                   "gridxc@cellXC": { "_calls": 5, "_time":       14.449, "_%":     2.53}
                 }
               },
               "vmat": { "_calls": 5, "_time":        0.297, "_%":     0.05}
             }
           }
         },
         "compute_dm": { "_calls": 5, "_time":      498.030, "_%":    87.23,
           "diagon": { "_calls": 5, "_time":      498.014, "_%":    87.23,
             "r-eigvec": { "_calls": 5, "_time":      467.814, "_%":    81.94,
               "r-buildHS": { "_calls": 5, "_time":        0.280, "_%":     0.05},
               "rdiag": { "_calls": 5, "_time":      467.534, "_%":    81.89,
                 "rdiag1": { "_calls": 5, "_time":        9.845, "_%":     1.72},
                 "rdiag2": { "_calls": 5, "_time":       29.812, "_%":     5.22},
                 "rdiag3": { "_calls": 5, "_time":      383.645, "_%":    67.20},
                 "rdiag4": { "_calls": 5, "_time":       42.367, "_%":     7.42}
               }
             },
             "r-buildD": { "_calls": 5, "_time":       29.788, "_%":     5.22}
           }
         },
         "MIXER": { "_calls": 5, "_time":        0.024, "_%":     0.00}
       },
       "state_analysis": { "_calls": 1, "_time":        0.023, "_%":     0.00},
       "siesta_move": { "_calls": 1, "_time":        0.000, "_%":     0.00}
     },
     "Analysis": { "_calls": 1, "_time":        0.087, "_%":     0.02,
       "optical": { "_calls": 1, "_time":        0.000, "_%":     0.00}
     }
   }
 }}
