{
 "global_section": { "_calls": 1, "_time":      524.433, "_%":   100.00,
   "siesta": { "_calls": 1, "_time":      524.433, "_%":   100.00,
     "Setup": { "_calls": 1, "_time":        1.852, "_%":     0.35,
       "bands": { "_calls": 1, "_time":        0.002, "_%":     0.00},
       "KSV_init": { "_calls": 1, "_time":        0.001, "_%":     0.00}
     },
     "IterGeom": { "_calls": 1, "_time":      522.354, "_%":    99.60,
       "geom_init": { "_calls": 1, "_time":       11.146, "_%":     2.13,
         "state_init": { "_calls": 1, "_time":        0.402, "_%":     0.08,
           "hsparse": { "_calls": 1, "_time":        0.134, "_%":     0.03},
           "overlap": { "_calls": 1, "_time":        0.064, "_%":     0.01}
         },
         "Setup_H0": { "_calls": 1, "_time":       10.742, "_%":     2.05,
           "naefs": { "_calls": 1, "_time":        0.023, "_%":     0.00},
           "MolMec": { "_calls": 1, "_time":        0.000, "_%":     0.00},
           "kinefsm": { "_calls": 1, "_time":        0.062, "_%":     0.01},
           "nlefsm": { "_calls": 1, "_time":        0.258, "_%":     0.05},
           "DHSCF_Init": { "_calls": 1, "_time":       10.385, "_%":     1.98,
             "DHSCF1": { "_calls": 1, "_time":        0.078, "_%":     0.01,
               "INITMESH": { "_calls": 1, "_time":        0.000, "_%":     0.00}
             },
             "DHSCF2": { "_calls": 1, "_time":       10.286, "_%":     1.96,
               "REMESH": { "_calls": 1, "_time":        0.074, "_%":     0.01,
                 "INITMESH": { "_calls": 2, "_time":        0.052, "_%":     0.01,
                   "SPLOAD": { "_calls": 2, "_time":        0.041, "_%":     0.01}
                 }
               },
               "REORD": { "_calls": 2, "_time":        0.050, "_%":     0.01},
               "PHION": { "_calls": 1, "_time":        0.322, "_%":     0.06},
               "COMM_BSC": { "_calls": 1, "_time":        0.229, "_%":     0.04},
               "POISON": { "_calls": 1, "_time":        8.879, "_%":     1.69,
                 "fft": { "_calls": 2, "_time":        8.494, "_%":     1.62}
               }
             }
           }
         }
       },
       "IterSCF": { "_calls": 5, "_time":      511.117, "_%":    97.46,
         "setup_H": { "_calls": 5, "_time":       67.460, "_%":    12.86,
           "DHSCF": { "_calls": 5, "_time":       67.312, "_%":    12.84,
             "DHSCF3": { "_calls": 5, "_time":       67.312, "_%":    12.84,
               "rhoofd": { "_calls": 5, "_time":        0.395, "_%":     0.08},
               "COMM_BSC": { "_calls": 10, "_time":        2.133, "_%":     0.41},
               "POISON": { "_calls": 5, "_time":       44.011, "_%":     8.39,
                 "fft": { "_calls": 10, "_time":       42.136, "_%":     8.03}
               },
               "XC": { "_calls": 5, "_time":       17.120, "_%":     3.26,
                 "COMM_BSC": { "_calls": 10, "_time":        2.320, "_%":     0.44},
                 "GXC-CellXC": { "_calls": 5, "_time":       14.270, "_%":     2.72,
                   "gridxc@cellXC": { "_calls": 5, "_time":       14.270, "_%":     2.72}
                 }
               },
               "vmat": { "_calls": 5, "_time":        0.278, "_%":     0.05}
             }
           }
         },
         "compute_dm": { "_calls": 5, "_time":      443.607, "_%":    84.59,
           "elsi": { "_calls": 5, "_time":      443.538, "_%":    84.57,
             "find nnz_g": { "_calls": 5, "_time":        0.000, "_%":     0.00},
             "elsi-solver": { "_calls": 5, "_time":      443.512, "_%":    84.57}
           }
         },
         "MIXER": { "_calls": 5, "_time":        0.014, "_%":     0.00}
       },
       "state_analysis": { "_calls": 1, "_time":        0.072, "_%":     0.01},
       "siesta_move": { "_calls": 1, "_time":        0.000, "_%":     0.00}
     },
     "Analysis": { "_calls": 1, "_time":        0.207, "_%":     0.04,
       "optical": { "_calls": 1, "_time":        0.001, "_%":     0.00}
     }
   }
 }}
