JobId=1422992 JobName=CovidWeak
   UserId=u102010(102010) GroupId=hpcusers(555) MCS_label=N/A
   Priority=260646 Nice=0 Account=p200521 QOS=default
   JobState=RUNNING Reason=None Dependency=(null)
   Requeue=0 Restarts=0 BatchFlag=1 Reboot=0 ExitCode=0:0
   DerivedExitCode=0:0
   RunTime=00:00:05 TimeLimit=00:59:00 TimeMin=N/A
   SubmitTime=2024-10-01T11:45:07 EligibleTime=2024-10-01T11:45:07
   AccrueTime=2024-10-01T11:45:07
   StartTime=2024-10-01T12:30:00 EndTime=2024-10-01T13:29:02 Deadline=N/A
   PreemptEligibleTime=2024-10-01T12:30:00 PreemptTime=None
   SuspendTime=None SecsPreSuspend=0 LastSchedEval=2024-10-01T12:30:00 Scheduler=Main
   Partition=cpu AllocNode:Sid=login02.meluxina.lxp.lu:2161051
   ReqNodeList=(null) ExcNodeList=(null)
   NodeList=mel[0004,0029,0037,0110,0169,0224,0249,0289,0302,0314,0325,0336,0357,0481,0494,0527]
   BatchHost=mel0004
   NumNodes=16 NumCPUs=4096 NumTasks=2048 CPUs/Task=2 ReqB:S:C:T=0:0:*:*
   ReqTRES=cpu=2048,mem=7.50T,node=16,billing=2048
   AllocTRES=cpu=4096,mem=7.50T,node=16,billing=4096,gres/cpun=16
   Socks/Node=* NtasksPerN:B:S:C=128:0:*:* CoreSpec=*
   JOB_GRES=cpuN:16
     Nodes=mel[0004,0029,0037,0110,0169,0224,0249,0289,0302,0314,0325,0336,0357,0481,0494,0527] CPU_IDs=0-255 Mem=491520 GRES=cpuN(CNT:1)
   MinCPUsNode=256 MinMemoryNode=0 MinTmpDiskNode=0
   Features=(null) DelayBoot=00:00:00
   OverSubscribe=NO Contiguous=0 Licenses=(null) Network=(null)
   Command=/mnt/tier2/users/u102010/JUBE4MaX/max-inputs/interface/siesta/_CovidWeak/000000/000012_submit/work/submit.job
   WorkDir=/mnt/tier2/users/u102010/JUBE4MaX/max-inputs/interface/siesta/_CovidWeak/000000/000012_submit/work
   StdErr=/mnt/tier2/users/u102010/JUBE4MaX/max-inputs/interface/siesta/_CovidWeak/000000/000012_submit/work/slurm-1422992.out
   StdIn=/dev/null
   StdOut=/mnt/tier2/users/u102010/JUBE4MaX/max-inputs/interface/siesta/_CovidWeak/000000/000012_submit/work/slurm-1422992.out
   Power=
   TresPerTask=cpu:1
   

