JobId=2227032 JobName=submit.job
   UserId=nspallan(25378) GroupId=interactive(25200) MCS_label=N/A
   Priority=221217 Nice=0 Account=euhpc_e01_022 QOS=boost_qos_bprod
   JobState=RUNNING Reason=None Dependency=(null)
   Requeue=0 Restarts=0 BatchFlag=1 Reboot=0 ExitCode=0:0
   DerivedExitCode=0:0
   RunTime=00:00:02 TimeLimit=03:00:00 TimeMin=N/A
   SubmitTime=2023-11-30T20:15:19 EligibleTime=2023-11-30T20:15:19
   AccrueTime=2023-11-30T20:15:19
   StartTime=2023-11-30T20:56:24 EndTime=2023-11-30T23:56:24 Deadline=N/A
   SuspendTime=None SecsPreSuspend=0 LastSchedEval=2023-11-30T20:56:24 Scheduler=Main
   Partition=boost_usr_prod AllocNode:Sid=10-99-0-7:3163073
   ReqNodeList=(null) ExcNodeList=(null)
   NodeList=lrdn[0456,0590,0779,1024,1046,1098,1199,1279,1350,1363,1439,1497,1520,1549,1574,1588-1589,1598,1628,1646,1709,1788,1814,1826,1849,1857,1873,1917,1920,1933,1946,1949,1967,1976,2006,2053,2068-2069,2084,2090,2097,2113,2126,2130,2138,2156,2159,2180,2203,2216]
   BatchHost=lrdn0456
   NumNodes=50 NumCPUs=1600 NumTasks=200 CPUs/Task=8 ReqB:S:C:T=0:0:*:*
   TRES=cpu=1600,mem=24062.50G,node=50,billing=1600,gres/gpu=200
   Socks/Node=* NtasksPerN:B:S:C=4:0:*:* CoreSpec=*
   JOB_GRES=gpu:a100:200
     Nodes=lrdn[0456,0590,0779,1024,1046,1098,1199,1279,1350,1363,1439,1497,1520,1549,1574,1588-1589,1598,1628,1646,1709,1788,1814,1826,1849,1857,1873,1917,1920,1933,1946,1949,1967,1976,2006,2053,2068-2069,2084,2090,2097,2113,2126,2130,2138,2156,2159,2180,2203,2216] CPU_IDs=0-31 Mem=492800 GRES=gpu:a100:4(IDX:0-3)
   MinCPUsNode=32 MinMemoryCPU=15400M MinTmpDiskNode=0
   Features=(null) DelayBoot=00:00:00
   OverSubscribe=NO Contiguous=0 Licenses=(null) Network=(null)
   Command=/leonardo_work/Max3_devel_2/nspallan/jube-benchmarks/run_yambo_61k/000001/000000_submit/work/submit.job
   WorkDir=/leonardo_work/Max3_devel_2/nspallan/jube-benchmarks/run_yambo_61k/000001/000000_submit/work
   StdErr=/leonardo_work/Max3_devel_2/nspallan/jube-benchmarks/run_yambo_61k/000001/000000_submit/work/slurm-2227032.out
   StdIn=/dev/null
   StdOut=/leonardo_work/Max3_devel_2/nspallan/jube-benchmarks/run_yambo_61k/000001/000000_submit/work/slurm-2227032.out
   Power=
   TresPerNode=gres:gpu:4
   

