{
 "global_section": { "_calls": 1, "_time":     1038.172, "_%":   100.00,
   "siesta": { "_calls": 1, "_time":     1038.172, "_%":   100.00,
     "Setup": { "_calls": 1, "_time":        1.090, "_%":     0.11,
       "bands": { "_calls": 1, "_time":        0.003, "_%":     0.00},
       "KSV_init": { "_calls": 1, "_time":        0.001, "_%":     0.00}
     },
     "IterGeom": { "_calls": 1, "_time":     1036.933, "_%":    99.88,
       "geom_init": { "_calls": 1, "_time":        6.797, "_%":     0.65,
         "state_init": { "_calls": 1, "_time":        0.642, "_%":     0.06,
           "hsparse": { "_calls": 1, "_time":        0.130, "_%":     0.01},
           "overlap": { "_calls": 1, "_time":        0.053, "_%":     0.01}
         },
         "Setup_H0": { "_calls": 1, "_time":        6.154, "_%":     0.59,
           "naefs": { "_calls": 1, "_time":        0.026, "_%":     0.00},
           "MolMec": { "_calls": 1, "_time":        0.000, "_%":     0.00},
           "kinefsm": { "_calls": 1, "_time":        0.042, "_%":     0.00},
           "nlefsm": { "_calls": 1, "_time":        0.136, "_%":     0.01},
           "DHSCF_Init": { "_calls": 1, "_time":        5.932, "_%":     0.57,
             "DHSCF1": { "_calls": 1, "_time":        0.041, "_%":     0.00,
               "INITMESH": { "_calls": 1, "_time":        0.000, "_%":     0.00}
             },
             "DHSCF2": { "_calls": 1, "_time":        5.869, "_%":     0.57,
               "REMESH": { "_calls": 1, "_time":        4.363, "_%":     0.42,
                 "INITMESH": { "_calls": 2, "_time":        3.889, "_%":     0.37,
                   "SPLOAD": { "_calls": 2, "_time":        0.695, "_%":     0.07}
                 }
               },
               "REORD": { "_calls": 2, "_time":        0.001, "_%":     0.00},
               "PHION": { "_calls": 1, "_time":        0.018, "_%":     0.00},
               "COMM_BSC": { "_calls": 1, "_time":        0.018, "_%":     0.00},
               "POISON": { "_calls": 1, "_time":        0.576, "_%":     0.06,
                 "fft": { "_calls": 2, "_time":        0.549, "_%":     0.05}
               }
             }
           }
         }
       },
       "IterSCF": { "_calls": 5, "_time":     1030.048, "_%":    99.22,
         "setup_H": { "_calls": 5, "_time":        4.691, "_%":     0.45,
           "DHSCF": { "_calls": 5, "_time":        4.683, "_%":     0.45,
             "DHSCF3": { "_calls": 5, "_time":        4.683, "_%":     0.45,
               "rhoofd": { "_calls": 5, "_time":        0.048, "_%":     0.00},
               "COMM_BSC": { "_calls": 10, "_time":        0.187, "_%":     0.02},
               "POISON": { "_calls": 5, "_time":        2.899, "_%":     0.28,
                 "fft": { "_calls": 10, "_time":        2.774, "_%":     0.27}
               },
               "XC": { "_calls": 5, "_time":        1.280, "_%":     0.12,
                 "COMM_BSC": { "_calls": 10, "_time":        0.181, "_%":     0.02},
                 "GXC-CellXC": { "_calls": 5, "_time":        1.076, "_%":     0.10,
                   "gridxc@cellXC": { "_calls": 5, "_time":        1.076, "_%":     0.10}
                 }
               },
               "vmat": { "_calls": 5, "_time":        0.047, "_%":     0.00}
             }
           }
         },
         "compute_dm": { "_calls": 5, "_time":     1025.340, "_%":    98.76,
           "redist_orbs_fwd": { "_calls": 80, "_time":       30.740, "_%":     2.96},
           "elsi-complex-solver": { "_calls": 5, "_time":      993.817, "_%":    95.73,
             "elsi-solver": { "_calls": 5, "_time":      993.796, "_%":    95.73}
           },
           "redist_dm-edm_bck": { "_calls": 5, "_time":        0.741, "_%":     0.07}
         },
         "MIXER": { "_calls": 5, "_time":        0.006, "_%":     0.00}
       },
       "state_analysis": { "_calls": 1, "_time":        0.046, "_%":     0.00},
       "siesta_move": { "_calls": 1, "_time":        0.000, "_%":     0.00}
     },
     "Analysis": { "_calls": 1, "_time":        0.145, "_%":     0.01,
       "optical": { "_calls": 1, "_time":        0.001, "_%":     0.00}
     }
   }
 }}
