{
 "global_section": { "_calls": 1, "_time":    11423.235, "_%":   100.00,
   "siesta": { "_calls": 1, "_time":    11423.235, "_%":   100.00,
     "Setup": { "_calls": 1, "_time":        2.827, "_%":     0.02,
       "bands": { "_calls": 1, "_time":        0.002, "_%":     0.00},
       "KSV_init": { "_calls": 1, "_time":        0.000, "_%":     0.00}
     },
     "IterGeom": { "_calls": 1, "_time":    10762.500, "_%":    94.22,
       "geom_init": { "_calls": 1, "_time":       13.383, "_%":     0.12,
         "state_init": { "_calls": 1, "_time":        0.487, "_%":     0.00,
           "hsparse": { "_calls": 1, "_time":        0.098, "_%":     0.00},
           "overlap": { "_calls": 1, "_time":        0.027, "_%":     0.00}
         },
         "Setup_H0": { "_calls": 1, "_time":       12.895, "_%":     0.11,
           "naefs": { "_calls": 1, "_time":        0.014, "_%":     0.00},
           "MolMec": { "_calls": 1, "_time":        0.000, "_%":     0.00},
           "kinefsm": { "_calls": 1, "_time":        0.022, "_%":     0.00},
           "nlefsm": { "_calls": 1, "_time":        0.088, "_%":     0.00},
           "DHSCF_Init": { "_calls": 1, "_time":       12.762, "_%":     0.11,
             "DHSCF1": { "_calls": 1, "_time":        0.026, "_%":     0.00,
               "INITMESH": { "_calls": 1, "_time":        0.000, "_%":     0.00}
             },
             "DHSCF2": { "_calls": 1, "_time":       12.723, "_%":     0.11,
               "REMESH": { "_calls": 1, "_time":       11.370, "_%":     0.10,
                 "INITMESH": { "_calls": 2, "_time":       11.039, "_%":     0.10,
                   "SPLOAD": { "_calls": 2, "_time":        1.774, "_%":     0.02}
                 }
               },
               "REORD": { "_calls": 2, "_time":        0.001, "_%":     0.00},
               "PHION": { "_calls": 1, "_time":        0.008, "_%":     0.00},
               "COMM_BSC": { "_calls": 1, "_time":        0.029, "_%":     0.00},
               "POISON": { "_calls": 1, "_time":        0.289, "_%":     0.00,
                 "fft": { "_calls": 2, "_time":        0.280, "_%":     0.00}
               }
             }
           }
         }
       },
       "IterSCF": { "_calls": 5, "_time":    10748.526, "_%":    94.09,
         "setup_H": { "_calls": 5, "_time":        2.313, "_%":     0.02,
           "DHSCF": { "_calls": 5, "_time":        2.284, "_%":     0.02,
             "DHSCF3": { "_calls": 5, "_time":        2.284, "_%":     0.02,
               "rhoofd": { "_calls": 5, "_time":        0.041, "_%":     0.00},
               "COMM_BSC": { "_calls": 10, "_time":        0.161, "_%":     0.00},
               "POISON": { "_calls": 5, "_time":        1.083, "_%":     0.01,
                 "fft": { "_calls": 10, "_time":        1.036, "_%":     0.01}
               },
               "XC": { "_calls": 5, "_time":        0.851, "_%":     0.01,
                 "COMM_BSC": { "_calls": 10, "_time":        0.155, "_%":     0.00},
                 "GXC-CellXC": { "_calls": 5, "_time":        0.688, "_%":     0.01,
                   "gridxc@cellXC": { "_calls": 5, "_time":        0.688, "_%":     0.01}
                 }
               },
               "vmat": { "_calls": 5, "_time":        0.035, "_%":     0.00}
             }
           }
         },
         "compute_dm": { "_calls": 5, "_time":    10746.128, "_%":    94.07,
           "diagon": { "_calls": 5, "_time":    10746.125, "_%":    94.07,
             "c-eigval": { "_calls": 160, "_time":     4625.493, "_%":    40.49,
               "c-buildHS": { "_calls": 160, "_time":        0.174, "_%":     0.00},
               "cdiag": { "_calls": 160, "_time":     4625.318, "_%":    40.49,
                 "cdiag1": { "_calls": 160, "_time":      293.202, "_%":     2.57},
                 "cdiag2": { "_calls": 160, "_time":      764.032, "_%":     6.69},
                 "cdiag3": { "_calls": 160, "_time":     3551.998, "_%":    31.09}
               }
             },
             "c-eigvec": { "_calls": 160, "_time":     5268.288, "_%":    46.12,
               "cdiag": { "_calls": 160, "_time":     5267.934, "_%":    46.12,
                 "cdiag1": { "_calls": 160, "_time":      313.101, "_%":     2.74},
                 "cdiag2": { "_calls": 160, "_time":      751.656, "_%":     6.58},
                 "cdiag3": { "_calls": 160, "_time":     3617.286, "_%":    31.67},
                 "cdiag4": { "_calls": 160, "_time":      569.030, "_%":     4.98}
               }
             },
             "c-buildD": { "_calls": 160, "_time":      851.084, "_%":     7.45}
           }
         },
         "MIXER": { "_calls": 5, "_time":        0.069, "_%":     0.00}
       },
       "state_analysis": { "_calls": 1, "_time":        0.365, "_%":     0.00},
       "siesta_move": { "_calls": 1, "_time":        0.000, "_%":     0.00}
     },
     "Analysis": { "_calls": 1, "_time":      481.405, "_%":     4.21,
       "optical": { "_calls": 1, "_time":        0.001, "_%":     0.00}
     }
   }
 }}
