       JobID     JobIDRaw    JobName  Partition  MaxVMSize  MaxVMSizeNode  MaxVMSizeTask  AveVMSize     MaxRSS MaxRSSNode MaxRSSTask     AveRSS MaxPages MaxPagesNode   MaxPagesTask   AvePages     MinCPU MinCPUNode MinCPUTask     AveCPU   NTasks  AllocCPUS    Elapsed      State ExitCode AveCPUFreq ReqCPUFreqMin ReqCPUFreqMax ReqCPUFreqGov     ReqMem ConsumedEnergy  MaxDiskRead MaxDiskReadNode MaxDiskReadTask    AveDiskRead MaxDiskWrite MaxDiskWriteNode MaxDiskWriteTask   AveDiskWrite    AllocGRES      ReqGRES    ReqTRES  AllocTRES TRESUsageInAve TRESUsageInMax TRESUsageInMaxNode TRESUsageInMaxTask TRESUsageInMin TRESUsageInMinNode TRESUsageInMinTask TRESUsageInTot TRESUsageOutMax TRESUsageOutMaxNode TRESUsageOutMaxTask TRESUsageOutAve TRESUsageOutTot 
------------ ------------ ---------- ---------- ---------- -------------- -------------- ---------- ---------- ---------- ---------- ---------- -------- ------------ -------------- ---------- ---------- ---------- ---------- ---------- -------- ---------- ---------- ---------- -------- ---------- ------------- ------------- ------------- ---------- -------------- ------------ --------------- --------------- -------------- ------------ ---------------- ---------------- -------------- ------------ ------------ ---------- ---------- -------------- -------------- ------------------ ------------------ -------------- ------------------ ------------------ -------------- --------------- ------------------- ------------------- --------------- --------------- 
244506       244506       CovidWeak+         cn                                                                                                                                                                                                             512   01:30:54    RUNNING      0:0                  Unknown       Unknown       Unknown        1Gc                                                                                                                                                                    billing=5+ billing=5+                                                                                                                                                                                                                                 
244506.batch 244506.batch      batch                                                                                                                                                                                                               1        128   01:30:54    RUNNING      0:0          0             0             0             0        1Gc              0                                                                                                                                                                cpu=128,m+                                                                                                                                                                                                                                 
244506.0     244506.0         siesta              1535812K         cn0323              0   1216060K    436952K     cn0323          1  358565544      146       cn0323              0         26   01:29:19     cn0330        493   01:29:57      512        512   01:30:52  COMPLETED      0:0       398K       Unknown       Unknown       Unknown        1Gc          9.48M       10.10M          cn0323               0          8.34M       17.66M           cn0323                0          5.75M                                      cpu=512,m+ cpu=01:29:57,+ cpu=01:30:06,+ cpu=cn0330,energy+ cpu=425,fs/disk=0+ cpu=01:29:19,+ cpu=cn0330,energy+ cpu=493,fs/disk=1+ cpu=31-23:42:+ energy=480,fs/+ energy=cn0330,fs/d+           fs/disk=0 energy=15,fs/d+ energy=7690,fs+ 
