{
 "global_section": { "_calls": 1, "_time":     5446.926, "_%":   100.00,
   "siesta": { "_calls": 1, "_time":     5446.926, "_%":   100.00,
     "Setup": { "_calls": 1, "_time":        2.059, "_%":     0.04,
       "bands": { "_calls": 1, "_time":        0.004, "_%":     0.00},
       "KSV_init": { "_calls": 1, "_time":        0.001, "_%":     0.00}
     },
     "IterGeom": { "_calls": 1, "_time":     5444.277, "_%":    99.95,
       "geom_init": { "_calls": 1, "_time":        6.972, "_%":     0.13,
         "state_init": { "_calls": 1, "_time":        0.751, "_%":     0.01,
           "hsparse": { "_calls": 1, "_time":        0.176, "_%":     0.00},
           "overlap": { "_calls": 1, "_time":        0.079, "_%":     0.00}
         },
         "Setup_H0": { "_calls": 1, "_time":        6.220, "_%":     0.11,
           "naefs": { "_calls": 1, "_time":        0.035, "_%":     0.00},
           "MolMec": { "_calls": 1, "_time":        0.000, "_%":     0.00},
           "kinefsm": { "_calls": 1, "_time":        0.066, "_%":     0.00},
           "nlefsm": { "_calls": 1, "_time":        0.252, "_%":     0.00},
           "DHSCF_Init": { "_calls": 1, "_time":        5.847, "_%":     0.11,
             "DHSCF1": { "_calls": 1, "_time":        0.068, "_%":     0.00,
               "INITMESH": { "_calls": 1, "_time":        0.000, "_%":     0.00}
             },
             "DHSCF2": { "_calls": 1, "_time":        5.746, "_%":     0.11,
               "REMESH": { "_calls": 1, "_time":        0.695, "_%":     0.01,
                 "INITMESH": { "_calls": 2, "_time":        0.635, "_%":     0.01,
                   "SPLOAD": { "_calls": 2, "_time":        0.281, "_%":     0.01}
                 }
               },
               "REORD": { "_calls": 2, "_time":        0.036, "_%":     0.00},
               "PHION": { "_calls": 1, "_time":        0.118, "_%":     0.00},
               "COMM_BSC": { "_calls": 1, "_time":        0.079, "_%":     0.00},
               "POISON": { "_calls": 1, "_time":        4.269, "_%":     0.08,
                 "fft": { "_calls": 2, "_time":        4.080, "_%":     0.07}
               }
             }
           }
         }
       },
       "IterSCF": { "_calls": 5, "_time":     5437.208, "_%":    99.82,
         "setup_H": { "_calls": 5, "_time":       32.013, "_%":     0.59,
           "DHSCF": { "_calls": 5, "_time":       31.975, "_%":     0.59,
             "DHSCF3": { "_calls": 5, "_time":       31.975, "_%":     0.59,
               "rhoofd": { "_calls": 5, "_time":        0.243, "_%":     0.00},
               "COMM_BSC": { "_calls": 10, "_time":        0.864, "_%":     0.02},
               "POISON": { "_calls": 5, "_time":       21.360, "_%":     0.39,
                 "fft": { "_calls": 10, "_time":       20.304, "_%":     0.37}
               },
               "XC": { "_calls": 5, "_time":        7.449, "_%":     0.14,
                 "COMM_BSC": { "_calls": 10, "_time":        0.951, "_%":     0.02},
                 "GXC-CellXC": { "_calls": 5, "_time":        6.246, "_%":     0.11,
                   "gridxc@cellXC": { "_calls": 5, "_time":        6.246, "_%":     0.11}
                 }
               },
               "vmat": { "_calls": 5, "_time":        0.204, "_%":     0.00}
             }
           }
         },
         "compute_dm": { "_calls": 5, "_time":     5405.155, "_%":    99.23,
           "diagon": { "_calls": 5, "_time":     5405.121, "_%":    99.23,
             "c-eigval": { "_calls": 20, "_time":     2554.746, "_%":    46.90,
               "c-buildHS": { "_calls": 20, "_time":        1.159, "_%":     0.02},
               "cdiag": { "_calls": 20, "_time":     2553.586, "_%":    46.88,
                 "cdiag1": { "_calls": 20, "_time":       84.472, "_%":     1.55},
                 "cdiag2": { "_calls": 20, "_time":      247.616, "_%":     4.55},
                 "cdiag3": { "_calls": 20, "_time":     2211.563, "_%":    40.60}
               }
             },
             "c-eigvec": { "_calls": 20, "_time":     2719.046, "_%":    49.92,
               "cdiag": { "_calls": 20, "_time":     2717.220, "_%":    49.89,
                 "cdiag1": { "_calls": 20, "_time":       84.291, "_%":     1.55},
                 "cdiag2": { "_calls": 20, "_time":      247.565, "_%":     4.55},
                 "cdiag3": { "_calls": 20, "_time":     2208.880, "_%":    40.55},
                 "cdiag4": { "_calls": 20, "_time":      167.234, "_%":     3.07}
               }
             },
             "c-buildD": { "_calls": 20, "_time":      129.824, "_%":     2.38}
           }
         },
         "MIXER": { "_calls": 5, "_time":        0.007, "_%":     0.00}
       },
       "state_analysis": { "_calls": 1, "_time":        0.084, "_%":     0.00},
       "siesta_move": { "_calls": 1, "_time":        0.000, "_%":     0.00}
     },
     "Analysis": { "_calls": 1, "_time":        0.583, "_%":     0.01,
       "optical": { "_calls": 1, "_time":        0.001, "_%":     0.00}
     }
   }
 }}
