{
 "global_section": { "_calls": 1, "_time":     1444.589, "_%":   100.00,
   "siesta": { "_calls": 1, "_time":     1444.589, "_%":   100.00,
     "Setup": { "_calls": 1, "_time":        1.017, "_%":     0.07,
       "bands": { "_calls": 1, "_time":        0.001, "_%":     0.00},
       "KSV_init": { "_calls": 1, "_time":        0.000, "_%":     0.00}
     },
     "IterGeom": { "_calls": 1, "_time":     1433.500, "_%":    99.23,
       "geom_init": { "_calls": 1, "_time":        4.571, "_%":     0.32,
         "state_init": { "_calls": 1, "_time":        0.880, "_%":     0.06,
           "hsparse": { "_calls": 1, "_time":        0.092, "_%":     0.01},
           "overlap": { "_calls": 1, "_time":        0.360, "_%":     0.02}
         },
         "Setup_H0": { "_calls": 1, "_time":        3.690, "_%":     0.26,
           "naefs": { "_calls": 1, "_time":        0.019, "_%":     0.00},
           "MolMec": { "_calls": 1, "_time":        0.000, "_%":     0.00},
           "kinefsm": { "_calls": 1, "_time":        0.367, "_%":     0.03},
           "nlefsm": { "_calls": 1, "_time":        0.476, "_%":     0.03},
           "DHSCF_Init": { "_calls": 1, "_time":        2.817, "_%":     0.19,
             "DHSCF1": { "_calls": 1, "_time":        0.019, "_%":     0.00,
               "INITMESH": { "_calls": 1, "_time":        0.000, "_%":     0.00}
             },
             "DHSCF2": { "_calls": 1, "_time":        2.784, "_%":     0.19,
               "REMESH": { "_calls": 1, "_time":        1.402, "_%":     0.10,
                 "INITMESH": { "_calls": 2, "_time":        1.327, "_%":     0.09,
                   "SPLOAD": { "_calls": 2, "_time":        0.649, "_%":     0.04}
                 }
               },
               "REORD": { "_calls": 2, "_time":        0.002, "_%":     0.00},
               "PHION": { "_calls": 1, "_time":        0.112, "_%":     0.01},
               "COMM_BSC": { "_calls": 1, "_time":        0.031, "_%":     0.00},
               "POISON": { "_calls": 1, "_time":        0.914, "_%":     0.06,
                 "fft": { "_calls": 2, "_time":        0.883, "_%":     0.06}
               }
             }
           }
         }
       },
       "IterSCF": { "_calls": 5, "_time":     1428.892, "_%":    98.91,
         "setup_H": { "_calls": 5, "_time":        7.594, "_%":     0.53,
           "DHSCF": { "_calls": 5, "_time":        7.571, "_%":     0.52,
             "DHSCF3": { "_calls": 5, "_time":        7.571, "_%":     0.52,
               "rhoofd": { "_calls": 5, "_time":        0.112, "_%":     0.01},
               "COMM_BSC": { "_calls": 10, "_time":        0.274, "_%":     0.02},
               "POISON": { "_calls": 5, "_time":        4.388, "_%":     0.30,
                 "fft": { "_calls": 10, "_time":        4.167, "_%":     0.29}
               },
               "XC": { "_calls": 5, "_time":        2.268, "_%":     0.16,
                 "COMM_BSC": { "_calls": 10, "_time":        0.240, "_%":     0.02},
                 "GXC-CellXC": { "_calls": 5, "_time":        1.964, "_%":     0.14,
                   "gridxc@cellXC": { "_calls": 5, "_time":        1.964, "_%":     0.14}
                 }
               },
               "vmat": { "_calls": 5, "_time":        0.126, "_%":     0.01}
             }
           }
         },
         "compute_dm": { "_calls": 5, "_time":     1421.240, "_%":    98.38,
           "diagon": { "_calls": 5, "_time":     1421.176, "_%":    98.38,
             "r-eigvec": { "_calls": 5, "_time":     1155.908, "_%":    80.02,
               "r-buildHS": { "_calls": 5, "_time":        0.361, "_%":     0.03},
               "rdiag": { "_calls": 5, "_time":     1155.547, "_%":    79.99,
                 "rdiag1": { "_calls": 5, "_time":       33.264, "_%":     2.30},
                 "rdiag2": { "_calls": 5, "_time":      100.035, "_%":     6.92},
                 "rdiag3": { "_calls": 5, "_time":      913.975, "_%":    63.27},
                 "rdiag4": { "_calls": 5, "_time":      104.782, "_%":     7.25}
               }
             },
             "r-buildD": { "_calls": 5, "_time":      264.634, "_%":    18.32}
           }
         },
         "MIXER": { "_calls": 5, "_time":        0.049, "_%":     0.00}
       },
       "state_analysis": { "_calls": 1, "_time":        0.023, "_%":     0.00},
       "siesta_move": { "_calls": 1, "_time":        0.000, "_%":     0.00}
     },
     "Analysis": { "_calls": 1, "_time":        9.477, "_%":     0.66,
       "optical": { "_calls": 1, "_time":        0.000, "_%":     0.00}
     }
   }
 }}
