{
 "global_section": { "_calls": 1, "_time":     2950.369, "_%":   100.00,
   "siesta": { "_calls": 1, "_time":     2950.369, "_%":   100.00,
     "Setup": { "_calls": 1, "_time":        2.637, "_%":     0.09,
       "bands": { "_calls": 1, "_time":        0.003, "_%":     0.00},
       "KSV_init": { "_calls": 1, "_time":        0.001, "_%":     0.00}
     },
     "IterGeom": { "_calls": 1, "_time":     2947.024, "_%":    99.89,
       "geom_init": { "_calls": 1, "_time":       11.352, "_%":     0.38,
         "state_init": { "_calls": 1, "_time":        2.421, "_%":     0.08,
           "hsparse": { "_calls": 1, "_time":        0.190, "_%":     0.01},
           "overlap": { "_calls": 1, "_time":        1.127, "_%":     0.04}
         },
         "Setup_H0": { "_calls": 1, "_time":        8.930, "_%":     0.30,
           "naefs": { "_calls": 1, "_time":        0.032, "_%":     0.00},
           "MolMec": { "_calls": 1, "_time":        0.000, "_%":     0.00},
           "kinefsm": { "_calls": 1, "_time":        1.117, "_%":     0.04},
           "nlefsm": { "_calls": 1, "_time":        2.593, "_%":     0.09},
           "DHSCF_Init": { "_calls": 1, "_time":        5.167, "_%":     0.18,
             "DHSCF1": { "_calls": 1, "_time":        0.062, "_%":     0.00,
               "INITMESH": { "_calls": 1, "_time":        0.000, "_%":     0.00}
             },
             "DHSCF2": { "_calls": 1, "_time":        5.079, "_%":     0.17,
               "REMESH": { "_calls": 1, "_time":        3.161, "_%":     0.11,
                 "INITMESH": { "_calls": 2, "_time":        2.981, "_%":     0.10,
                   "SPLOAD": { "_calls": 2, "_time":        1.778, "_%":     0.06}
                 }
               },
               "REORD": { "_calls": 2, "_time":        0.002, "_%":     0.00},
               "PHION": { "_calls": 1, "_time":        0.188, "_%":     0.01},
               "COMM_BSC": { "_calls": 1, "_time":        0.078, "_%":     0.00},
               "POISON": { "_calls": 1, "_time":        1.190, "_%":     0.04,
                 "fft": { "_calls": 2, "_time":        1.156, "_%":     0.04}
               }
             }
           }
         }
       },
       "IterSCF": { "_calls": 5, "_time":     2935.517, "_%":    99.50,
         "setup_H": { "_calls": 5, "_time":       11.002, "_%":     0.37,
           "DHSCF": { "_calls": 5, "_time":       10.986, "_%":     0.37,
             "DHSCF3": { "_calls": 5, "_time":       10.986, "_%":     0.37,
               "rhoofd": { "_calls": 5, "_time":        0.147, "_%":     0.00},
               "COMM_BSC": { "_calls": 10, "_time":        0.699, "_%":     0.02},
               "POISON": { "_calls": 5, "_time":        5.461, "_%":     0.19,
                 "fft": { "_calls": 10, "_time":        5.207, "_%":     0.18}
               },
               "XC": { "_calls": 5, "_time":        3.873, "_%":     0.13,
                 "COMM_BSC": { "_calls": 10, "_time":        0.631, "_%":     0.02},
                 "GXC-CellXC": { "_calls": 5, "_time":        3.183, "_%":     0.11,
                   "gridxc@cellXC": { "_calls": 5, "_time":        3.183, "_%":     0.11}
                 }
               },
               "vmat": { "_calls": 5, "_time":        0.256, "_%":     0.01}
             }
           }
         },
         "compute_dm": { "_calls": 5, "_time":     2924.485, "_%":    99.12,
           "diagon": { "_calls": 5, "_time":     2924.460, "_%":    99.12,
             "r-eigvec": { "_calls": 5, "_time":     1457.045, "_%":    49.39,
               "r-buildHS": { "_calls": 5, "_time":        0.282, "_%":     0.01},
               "rdiag": { "_calls": 5, "_time":     1456.764, "_%":    49.38,
                 "rdiag1": { "_calls": 5, "_time":       45.332, "_%":     1.54},
                 "rdiag2": { "_calls": 5, "_time":      137.147, "_%":     4.65},
                 "rdiag3": { "_calls": 5, "_time":     1143.474, "_%":    38.76},
                 "rdiag4": { "_calls": 5, "_time":      126.788, "_%":     4.30}
               }
             },
             "r-buildD": { "_calls": 5, "_time":     1466.559, "_%":    49.71}
           }
         },
         "MIXER": { "_calls": 5, "_time":        0.008, "_%":     0.00}
       },
       "state_analysis": { "_calls": 1, "_time":        0.113, "_%":     0.00},
       "siesta_move": { "_calls": 1, "_time":        0.000, "_%":     0.00}
     },
     "Analysis": { "_calls": 1, "_time":        0.571, "_%":     0.02,
       "optical": { "_calls": 1, "_time":        0.001, "_%":     0.00}
     }
   }
 }}
