JobId=155779 JobName=CovidWeakKPoints
   UserId=aalcaraz(30093) GroupId=aalcaraz(40093) MCS_label=N/A
   Priority=1 Nice=0 Account=eehpc-ben-2024b07-051g QOS=normal
   JobState=RUNNING Reason=None Dependency=(null)
   Requeue=1 Restarts=0 BatchFlag=1 Reboot=0 ExitCode=0:0
   DerivedExitCode=0:0
   RunTime=00:00:02 TimeLimit=00:59:00 TimeMin=N/A
   SubmitTime=2024-10-04T13:13:18 EligibleTime=2024-10-04T13:13:19
   AccrueTime=2024-10-04T13:13:19
   StartTime=2024-10-04T13:14:13 EndTime=2024-10-04T14:13:13 Deadline=N/A
   SuspendTime=None SecsPreSuspend=0 LastSchedEval=2024-10-04T13:14:13 Scheduler=Main
   Partition=normal-a100-40 AllocNode:Sid=ln01-x86:1296123
   ReqNodeList=(null) ExcNodeList=(null)
   NodeList=gnx513
   BatchHost=gnx513
   NumNodes=1 NumCPUs=128 NumTasks=32 CPUs/Task=1 ReqB:S:C:T=0:0:*:1
   ReqTRES=cpu=32,mem=484G,node=1,billing=32
   AllocTRES=cpu=128,mem=484G,node=1,billing=128
   Socks/Node=* NtasksPerN:B:S:C=32:0:*:* CoreSpec=*
   JOB_GRES=(null)
     Nodes=gnx513 CPU_IDs=0-127 Mem=495616 GRES=
   MinCPUsNode=32 MinMemoryNode=0 MinTmpDiskNode=0
   Features=(null) DelayBoot=00:00:00
   OverSubscribe=NO Contiguous=0 Licenses=(null) Network=(null)
   Command=/projects/EEHPC-BEN-2024B07-051/JUBE4MaX_GPU/max-inputs/interface/siesta/_CovidWeakKPoints/000000/000000_submit/work/submit.job
   WorkDir=/projects/EEHPC-BEN-2024B07-051/JUBE4MaX_GPU/max-inputs/interface/siesta/_CovidWeakKPoints/000000/000000_submit/work
   StdErr=/projects/EEHPC-BEN-2024B07-051/JUBE4MaX_GPU/max-inputs/interface/siesta/_CovidWeakKPoints/000000/000000_submit/work/slurm-155779.out
   StdIn=/dev/null
   StdOut=/projects/EEHPC-BEN-2024B07-051/JUBE4MaX_GPU/max-inputs/interface/siesta/_CovidWeakKPoints/000000/000000_submit/work/slurm-155779.out
   Power=
   

