{
 "global_section": { "_calls": 1, "_time":     3463.284, "_%":   100.00,
   "siesta": { "_calls": 1, "_time":     3463.284, "_%":   100.00,
     "Setup": { "_calls": 1, "_time":        2.431, "_%":     0.07,
       "bands": { "_calls": 1, "_time":        0.004, "_%":     0.00},
       "KSV_init": { "_calls": 1, "_time":        0.001, "_%":     0.00}
     },
     "IterGeom": { "_calls": 1, "_time":     3459.787, "_%":    99.90,
       "geom_init": { "_calls": 1, "_time":       63.948, "_%":     1.85,
         "state_init": { "_calls": 1, "_time":        1.375, "_%":     0.04,
           "hsparse": { "_calls": 1, "_time":        0.353, "_%":     0.01},
           "overlap": { "_calls": 1, "_time":        0.137, "_%":     0.00}
         },
         "Setup_H0": { "_calls": 1, "_time":       62.572, "_%":     1.81,
           "naefs": { "_calls": 1, "_time":        0.056, "_%":     0.00},
           "MolMec": { "_calls": 1, "_time":        0.000, "_%":     0.00},
           "kinefsm": { "_calls": 1, "_time":        0.110, "_%":     0.00},
           "nlefsm": { "_calls": 1, "_time":        0.343, "_%":     0.01},
           "DHSCF_Init": { "_calls": 1, "_time":       62.026, "_%":     1.79,
             "DHSCF1": { "_calls": 1, "_time":        0.092, "_%":     0.00,
               "INITMESH": { "_calls": 1, "_time":        0.000, "_%":     0.00}
             },
             "DHSCF2": { "_calls": 1, "_time":       61.875, "_%":     1.79,
               "REMESH": { "_calls": 1, "_time":       56.430, "_%":     1.63,
                 "INITMESH": { "_calls": 2, "_time":       52.993, "_%":     1.53,
                   "SPLOAD": { "_calls": 2, "_time":        2.585, "_%":     0.07}
                 }
               },
               "REORD": { "_calls": 2, "_time":        0.001, "_%":     0.00},
               "PHION": { "_calls": 1, "_time":        0.055, "_%":     0.00},
               "COMM_BSC": { "_calls": 1, "_time":        0.035, "_%":     0.00},
               "POISON": { "_calls": 1, "_time":        1.070, "_%":     0.03,
                 "fft": { "_calls": 2, "_time":        1.028, "_%":     0.03}
               }
             }
           }
         }
       },
       "IterSCF": { "_calls": 5, "_time":     3395.672, "_%":    98.05,
         "setup_H": { "_calls": 5, "_time":        7.800, "_%":     0.23,
           "DHSCF": { "_calls": 5, "_time":        7.789, "_%":     0.22,
             "DHSCF3": { "_calls": 5, "_time":        7.789, "_%":     0.22,
               "rhoofd": { "_calls": 5, "_time":        0.098, "_%":     0.00},
               "COMM_BSC": { "_calls": 10, "_time":        0.245, "_%":     0.01},
               "POISON": { "_calls": 5, "_time":        4.765, "_%":     0.14,
                 "fft": { "_calls": 10, "_time":        4.503, "_%":     0.13}
               },
               "XC": { "_calls": 5, "_time":        2.049, "_%":     0.06,
                 "COMM_BSC": { "_calls": 10, "_time":        0.262, "_%":     0.01},
                 "GXC-CellXC": { "_calls": 5, "_time":        1.733, "_%":     0.05,
                   "gridxc@cellXC": { "_calls": 5, "_time":        1.733, "_%":     0.05}
                 }
               },
               "vmat": { "_calls": 5, "_time":        0.115, "_%":     0.00}
             }
           }
         },
         "compute_dm": { "_calls": 5, "_time":     3387.841, "_%":    97.82,
           "diagon": { "_calls": 5, "_time":     3387.734, "_%":    97.82,
             "r-eigvec": { "_calls": 5, "_time":     1948.731, "_%":    56.27,
               "r-buildHS": { "_calls": 5, "_time":        0.282, "_%":     0.01},
               "rdiag": { "_calls": 5, "_time":     1948.449, "_%":    56.26,
                 "rdiag1": { "_calls": 5, "_time":       79.362, "_%":     2.29},
                 "rdiag2": { "_calls": 5, "_time":      325.786, "_%":     9.41},
                 "rdiag3": { "_calls": 5, "_time":     1396.472, "_%":    40.32},
                 "rdiag4": { "_calls": 5, "_time":      144.978, "_%":     4.19}
               }
             },
             "r-buildD": { "_calls": 5, "_time":     1438.010, "_%":    41.52}
           }
         },
         "MIXER": { "_calls": 5, "_time":        0.009, "_%":     0.00}
       },
       "state_analysis": { "_calls": 1, "_time":        0.156, "_%":     0.00},
       "siesta_move": { "_calls": 1, "_time":        0.000, "_%":     0.00}
     },
     "Analysis": { "_calls": 1, "_time":        1.029, "_%":     0.03,
       "optical": { "_calls": 1, "_time":        0.001, "_%":     0.00}
     }
   }
 }}
