JobID        JobIDRaw        JobName  Partition  MaxVMSize  MaxVMSizeNode  MaxVMSizeTask  AveVMSize     MaxRSS MaxRSSNode MaxRSSTask     AveRSS MaxPages MaxPagesNode   MaxPagesTask   AvePages     MinCPU MinCPUNode MinCPUTask     AveCPU   NTasks  AllocCPUS    Elapsed      State ExitCode AveCPUFreq ReqCPUFreqMin ReqCPUFreqMax ReqCPUFreqGov     ReqMem ConsumedEnergy  MaxDiskRead MaxDiskReadNode MaxDiskReadTask    AveDiskRead MaxDiskWrite MaxDiskWriteNode MaxDiskWriteTask   AveDiskWrite    ReqTRES  AllocTRES TRESUsageInAve TRESUsageInMax TRESUsageInMaxNode TRESUsageInMaxTask TRESUsageInMin TRESUsageInMinNode TRESUsageInMinTask TRESUsageInTot TRESUsageOutMax TRESUsageOutMaxNode TRESUsageOutMaxTask TRESUsageOutAve TRESUsageOutTot 
------------ ------------ ---------- ---------- ---------- -------------- -------------- ---------- ---------- ---------- ---------- ---------- -------- ------------ -------------- ---------- ---------- ---------- ---------- ---------- -------- ---------- ---------- ---------- -------- ---------- ------------- ------------- ------------- ---------- -------------- ------------ --------------- --------------- -------------- ------------ ---------------- ---------------- -------------- ---------- ---------- -------------- -------------- ------------------ ------------------ -------------- ------------------ ------------------ -------------- --------------- ------------------- ------------------- --------------- --------------- 
34415360     34415360     CovidStro+   largemem                                                                                                                                                                                                             256   02:23:13    RUNNING      0:0                  Unknown       Unknown       Unknown   1031613M                                                                                                                                          billing=2+ billing=2+                                                                                                                                                                                                                                 
34415360.ba+ 34415360.ba+      batch                                                                                                                                                                                                               1        256   02:23:13    RUNNING      0:0          0             0             0             0                         0                                                                                                                                      cpu=256,m+                                                                                                                                                                                                                                 
34415360.ex+ 34415360.ex+     extern                                                                                                                                                                                                               1        256   02:23:13    RUNNING      0:0          0             0             0             0                         0                                                                                                                                      billing=2+                                                                                                                                                                                                                                 
34415360.0   34415360.0       siesta              2066516K         cn0487             34 1894194848   2058276K     cn0487         34 1883744512       66       cn0487              0         14   02:20:04     cn0487         72   02:20:31      128        256   02:23:11  COMPLETED      0:0     30.88M       Unknown       Unknown       Unknown                     5.69M       28.01M          cn0487               0         26.82M       20.02M           cn0487                0          5.28M            cpu=256,m+ cpu=02:20:31,+ cpu=02:20:40,+ cpu=cn0487,energy+ cpu=2,fs/disk=0,m+ cpu=02:20:04,+ cpu=cn0487,energy+ cpu=72,fs/disk=96+ cpu=12-11:47:+ energy=770,fs/+ energy=cn0487,fs/d+           fs/disk=0 energy=3,fs/di+ energy=459,fs/+ 
