JobId=34415360 JobName=CovidStrong
   UserId=eufedericop(1977552410) GroupId=eufedericop(1977552410) MCS_label=N/A
   Priority=66197014 Nice=0 Account=b2024b06-053-users QOS=normal
   JobState=RUNNING Reason=None Dependency=(null)
   Requeue=1 Restarts=0 BatchFlag=1 Reboot=0 ExitCode=0:0
   DerivedExitCode=0:0
   RunTime=00:00:01 TimeLimit=1-00:00:00 TimeMin=N/A
   SubmitTime=2024-09-10T09:00:00 EligibleTime=2024-09-10T09:00:00
   AccrueTime=2024-09-10T09:00:00
   StartTime=2024-09-11T10:12:30 EndTime=2024-09-12T10:12:30 Deadline=N/A
   SuspendTime=None SecsPreSuspend=0 LastSchedEval=2024-09-11T10:12:30 Scheduler=Backfill
   Partition=largemem AllocNode:Sid=login0007-dmz:3061085
   ReqNodeList=(null) ExcNodeList=(null)
   NodeList=cn0487
   BatchHost=cn0487
   NumNodes=1 NumCPUs=256 NumTasks=128 CPUs/Task=1 ReqB:S:C:T=0:0:*:1
   ReqTRES=cpu=128,mem=1031613M,node=1,billing=251
   AllocTRES=cpu=256,mem=1031613M,node=1,billing=256
   Socks/Node=* NtasksPerN:B:S:C=128:0:*:* CoreSpec=*
   JOB_GRES=(null)
     Nodes=cn0487 CPU_IDs=0-255 Mem=1031613 GRES=
   MinCPUsNode=128 MinMemoryNode=0 MinTmpDiskNode=0
   Features=(null) DelayBoot=00:00:00
   OverSubscribe=NO Contiguous=0 Licenses=(null) Network=(null)
   Command=/ceph/hpc/home/eufedericop/JUBE4MaX/max-inputs/interface/siesta/_CovidStrong/000000/000000_submit/work/submit.job
   WorkDir=/ceph/hpc/home/eufedericop/JUBE4MaX/max-inputs/interface/siesta/_CovidStrong/000000/000000_submit/work
   StdErr=/ceph/hpc/home/eufedericop/JUBE4MaX/max-inputs/interface/siesta/_CovidStrong/000000/000000_submit/work/slurm-34415360.out
   StdIn=/dev/null
   StdOut=/ceph/hpc/home/eufedericop/JUBE4MaX/max-inputs/interface/siesta/_CovidStrong/000000/000000_submit/work/slurm-34415360.out
   Power=
   TresPerTask=cpu:1
   

