{
 "global_section": { "_calls": 1, "_time":      515.315, "_%":   100.00,
   "siesta": { "_calls": 1, "_time":      515.315, "_%":   100.00,
     "Setup": { "_calls": 1, "_time":        0.752, "_%":     0.15,
       "bands": { "_calls": 1, "_time":        0.001, "_%":     0.00},
       "KSV_init": { "_calls": 1, "_time":        0.000, "_%":     0.00}
     },
     "IterGeom": { "_calls": 1, "_time":      492.987, "_%":    95.67,
       "geom_init": { "_calls": 1, "_time":        4.359, "_%":     0.85,
         "state_init": { "_calls": 1, "_time":        0.619, "_%":     0.12,
           "hsparse": { "_calls": 1, "_time":        0.177, "_%":     0.03},
           "overlap": { "_calls": 1, "_time":        0.052, "_%":     0.01}
         },
         "Setup_H0": { "_calls": 1, "_time":        3.740, "_%":     0.73,
           "naefs": { "_calls": 1, "_time":        0.035, "_%":     0.01},
           "MolMec": { "_calls": 1, "_time":        0.000, "_%":     0.00},
           "kinefsm": { "_calls": 1, "_time":        0.048, "_%":     0.01},
           "nlefsm": { "_calls": 1, "_time":        0.090, "_%":     0.02},
           "DHSCF_Init": { "_calls": 1, "_time":        3.545, "_%":     0.69,
             "DHSCF1": { "_calls": 1, "_time":        0.036, "_%":     0.01,
               "INITMESH": { "_calls": 1, "_time":        0.000, "_%":     0.00}
             },
             "DHSCF2": { "_calls": 1, "_time":        3.485, "_%":     0.68,
               "REMESH": { "_calls": 1, "_time":        1.895, "_%":     0.37,
                 "INITMESH": { "_calls": 2, "_time":        1.829, "_%":     0.35,
                   "SPLOAD": { "_calls": 2, "_time":        0.461, "_%":     0.09}
                 }
               },
               "REORD": { "_calls": 2, "_time":        0.006, "_%":     0.00},
               "PHION": { "_calls": 1, "_time":        0.113, "_%":     0.02},
               "COMM_BSC": { "_calls": 1, "_time":        0.031, "_%":     0.01},
               "POISON": { "_calls": 1, "_time":        0.992, "_%":     0.19,
                 "fft": { "_calls": 2, "_time":        0.947, "_%":     0.18}
               }
             }
           }
         }
       },
       "IterSCF": { "_calls": 5, "_time":      488.579, "_%":    94.81,
         "setup_H": { "_calls": 5, "_time":       10.239, "_%":     1.99,
           "DHSCF": { "_calls": 5, "_time":       10.196, "_%":     1.98,
             "DHSCF3": { "_calls": 5, "_time":       10.196, "_%":     1.98,
               "rhoofd": { "_calls": 5, "_time":        0.073, "_%":     0.01},
               "COMM_BSC": { "_calls": 10, "_time":        0.420, "_%":     0.08},
               "POISON": { "_calls": 5, "_time":        4.702, "_%":     0.91,
                 "fft": { "_calls": 10, "_time":        4.457, "_%":     0.86}
               },
               "XC": { "_calls": 5, "_time":        4.490, "_%":     0.87,
                 "COMM_BSC": { "_calls": 10, "_time":        0.271, "_%":     0.05},
                 "GXC-CellXC": { "_calls": 5, "_time":        4.175, "_%":     0.81,
                   "gridxc@cellXC": { "_calls": 5, "_time":        4.175, "_%":     0.81}
                 }
               },
               "vmat": { "_calls": 5, "_time":        0.098, "_%":     0.02}
             }
           }
         },
         "compute_dm": { "_calls": 5, "_time":      478.293, "_%":    92.82,
           "elsi": { "_calls": 5, "_time":      478.286, "_%":    92.81,
             "find nnz_g": { "_calls": 5, "_time":        0.000, "_%":     0.00},
             "elsi-solver": { "_calls": 5, "_time":      478.273, "_%":    92.81}
           }
         },
         "MIXER": { "_calls": 5, "_time":        0.042, "_%":     0.01}
       },
       "state_analysis": { "_calls": 1, "_time":        0.041, "_%":     0.01},
       "siesta_move": { "_calls": 1, "_time":        0.000, "_%":     0.00}
     },
     "Analysis": { "_calls": 1, "_time":       21.502, "_%":     4.17,
       "optical": { "_calls": 1, "_time":        0.000, "_%":     0.00}
     }
   }
 }}
