JobID        JobIDRaw        JobName  Partition  MaxVMSize  MaxVMSizeNode  MaxVMSizeTask  AveVMSize     MaxRSS MaxRSSNode MaxRSSTask     AveRSS MaxPages MaxPagesNode   MaxPagesTask   AvePages     MinCPU MinCPUNode MinCPUTask     AveCPU   NTasks  AllocCPUS    Elapsed      State ExitCode AveCPUFreq ReqCPUFreqMin ReqCPUFreqMax ReqCPUFreqGov     ReqMem ConsumedEnergy  MaxDiskRead MaxDiskReadNode MaxDiskReadTask    AveDiskRead MaxDiskWrite MaxDiskWriteNode MaxDiskWriteTask   AveDiskWrite    ReqTRES  AllocTRES TRESUsageInAve TRESUsageInMax TRESUsageInMaxNode TRESUsageInMaxTask TRESUsageInMin TRESUsageInMinNode TRESUsageInMinTask TRESUsageInTot TRESUsageOutMax TRESUsageOutMaxNode TRESUsageOutMaxTask TRESUsageOutAve TRESUsageOutTot 
------------ ------------ ---------- ---------- ---------- -------------- -------------- ---------- ---------- ---------- ---------- ---------- -------- ------------ -------------- ---------- ---------- ---------- ---------- ---------- -------- ---------- ---------- ---------- -------- ---------- ------------- ------------- ------------- ---------- -------------- ------------ --------------- --------------- -------------- ------------ ---------------- ---------------- -------------- ---------- ---------- -------------- -------------- ------------------ ------------------ -------------- ------------------ ------------------ -------------- --------------- ------------------- ------------------- --------------- --------------- 
35111126     35111126      CovidWeak        cpu                                                                                                                                                                                                             256   00:10:31    RUNNING      0:0                  Unknown       Unknown       Unknown       125G                                                                                                                                          billing=1+ billing=2+                                                                                                                                                                                                                                 
35111126.ba+ 35111126.ba+      batch                                                                                                                                                                                                               1        256   00:10:31    RUNNING      0:0          0             0             0             0                         0                                                                                                                                      cpu=256,m+                                                                                                                                                                                                                                 
35111126.ex+ 35111126.ex+     extern                                                                                                                                                                                                               1        256   00:10:31    RUNNING      0:0          0             0             0             0                         0                                                                                                                                      billing=2+                                                                                                                                                                                                                                 
35111126.0   35111126.0       siesta               348372K         cn0615            103  315712768    341316K     cn0615        103 300590.50K       76       cn0615              0         13   00:10:11     cn0615         66   00:10:16      128        256   00:10:27  COMPLETED      0:0    442.07M       Unknown       Unknown       Unknown                         0       28.04M          cn0615               0         26.90M       22.55M           cn0615                0          4.66M            cpu=256,m+ cpu=00:10:16,+ cpu=00:10:17,+ cpu=cn0615,energy+ cpu=23,fs/disk=0,+ cpu=00:10:11,+ cpu=cn0615,energy+ cpu=66,fs/disk=42+ cpu=21:54:36,+ energy=0,fs/di+ energy=cn0615,fs/d+           fs/disk=0 energy=0,fs/di+ energy=0,fs/di+ 
