JobID        JobIDRaw        JobName  Partition  MaxVMSize  MaxVMSizeNode  MaxVMSizeTask  AveVMSize     MaxRSS MaxRSSNode MaxRSSTask     AveRSS MaxPages MaxPagesNode   MaxPagesTask   AvePages     MinCPU MinCPUNode MinCPUTask     AveCPU   NTasks  AllocCPUS    Elapsed      State ExitCode AveCPUFreq ReqCPUFreqMin ReqCPUFreqMax ReqCPUFreqGov     ReqMem ConsumedEnergy  MaxDiskRead MaxDiskReadNode MaxDiskReadTask    AveDiskRead MaxDiskWrite MaxDiskWriteNode MaxDiskWriteTask   AveDiskWrite    ReqTRES  AllocTRES TRESUsageInAve TRESUsageInMax TRESUsageInMaxNode TRESUsageInMaxTask TRESUsageInMin TRESUsageInMinNode TRESUsageInMinTask TRESUsageInTot TRESUsageOutMax TRESUsageOutMaxNode TRESUsageOutMaxTask TRESUsageOutAve TRESUsageOutTot 
------------ ------------ ---------- ---------- ---------- -------------- -------------- ---------- ---------- ---------- ---------- ---------- -------- ------------ -------------- ---------- ---------- ---------- ---------- ---------- -------- ---------- ---------- ---------- -------- ---------- ------------- ------------- ------------- ---------- -------------- ------------ --------------- --------------- -------------- ------------ ---------------- ---------------- -------------- ---------- ---------- -------------- -------------- ------------------ ------------------ -------------- ------------------ ------------------ -------------- --------------- ------------------- ------------------- --------------- --------------- 
1425781      1425781      CovidWeak+        gpu                                                                                                                                                                                                             128   00:18:47    RUNNING      0:0                  Unknown       Unknown       Unknown       480G                                                                                                                                          billing=3+ billing=1+                                                                                                                                                                                                                                 
1425781.bat+ 1425781.bat+      batch                                                                                                                                                                                                               1        128   00:18:47    RUNNING      0:0          0             0             0             0                         0                                                                                                                                      cpu=128,g+                                                                                                                                                                                                                                 
1425781.0    1425781.0    meluxina-+                                                                                                                                                                                                              32        128   00:18:38    RUNNING      0:0          0       Unknown       Unknown       Unknown                         0                                                                                                                                      cpu=128,g+                                                                                                                                                                                                                                 
