JobId=1425781 JobName=CovidWeakKPoints
   UserId=u102010(102010) GroupId=hpcusers(555) MCS_label=N/A
   Priority=268304 Nice=0 Account=p200585 QOS=default
   JobState=RUNNING Reason=None Dependency=(null)
   Requeue=0 Restarts=0 BatchFlag=1 Reboot=0 ExitCode=0:0
   DerivedExitCode=0:0
   RunTime=00:00:09 TimeLimit=00:59:00 TimeMin=N/A
   SubmitTime=2024-10-02T09:59:53 EligibleTime=2024-10-02T09:59:53
   AccrueTime=2024-10-02T09:59:53
   StartTime=2024-10-02T10:05:41 EndTime=2024-10-02T11:04:47 Deadline=N/A
   PreemptEligibleTime=2024-10-02T10:05:41 PreemptTime=None
   SuspendTime=None SecsPreSuspend=0 LastSchedEval=2024-10-02T10:05:41 Scheduler=Backfill
   Partition=gpu AllocNode:Sid=login03.meluxina.lxp.lu:617120
   ReqNodeList=(null) ExcNodeList=(null)
   NodeList=mel2112
   BatchHost=mel2112
   NumNodes=1 NumCPUs=128 NumTasks=32 CPUs/Task=4 ReqB:S:C:T=0:0:*:*
   ReqTRES=cpu=32,mem=480G,node=1,billing=32,gres/gpu=4
   AllocTRES=cpu=128,mem=480G,node=1,billing=128,gres/gpu=4,gres/gpun=1
   Socks/Node=* NtasksPerN:B:S:C=32:0:*:* CoreSpec=*
   JOB_GRES=gpuN:1,gpu:4
     Nodes=mel2112 CPU_IDs=0-127 Mem=491520 GRES=gpuN(CNT:1),gpu:4(IDX:0-3)
   MinCPUsNode=128 MinMemoryNode=0 MinTmpDiskNode=0
   Features=(null) DelayBoot=00:00:00
   OverSubscribe=NO Contiguous=0 Licenses=(null) Network=(null)
   Command=/mnt/tier2/users/u102010/JUBE4MaX-GPU/max-inputs/interface/siesta/_CovidWeakKPoints/000000/000000_submit/work/submit.job
   WorkDir=/mnt/tier2/users/u102010/JUBE4MaX-GPU/max-inputs/interface/siesta/_CovidWeakKPoints/000000/000000_submit/work
   StdErr=/mnt/tier2/users/u102010/JUBE4MaX-GPU/max-inputs/interface/siesta/_CovidWeakKPoints/000000/000000_submit/work/slurm-1425781.out
   StdIn=/dev/null
   StdOut=/mnt/tier2/users/u102010/JUBE4MaX-GPU/max-inputs/interface/siesta/_CovidWeakKPoints/000000/000000_submit/work/slurm-1425781.out
   Power=
   TresPerNode=gres/gpu:4
   

