JobID        JobIDRaw        JobName  Partition  MaxVMSize  MaxVMSizeNode  MaxVMSizeTask  AveVMSize     MaxRSS MaxRSSNode MaxRSSTask     AveRSS MaxPages MaxPagesNode   MaxPagesTask   AvePages     MinCPU MinCPUNode MinCPUTask     AveCPU   NTasks  AllocCPUS    Elapsed      State ExitCode AveCPUFreq ReqCPUFreqMin ReqCPUFreqMax ReqCPUFreqGov     ReqMem ConsumedEnergy  MaxDiskRead MaxDiskReadNode MaxDiskReadTask    AveDiskRead MaxDiskWrite MaxDiskWriteNode MaxDiskWriteTask   AveDiskWrite    ReqTRES  AllocTRES TRESUsageInAve TRESUsageInMax TRESUsageInMaxNode TRESUsageInMaxTask TRESUsageInMin TRESUsageInMinNode TRESUsageInMinTask TRESUsageInTot TRESUsageOutMax TRESUsageOutMaxNode TRESUsageOutMaxTask TRESUsageOutAve TRESUsageOutTot 
------------ ------------ ---------- ---------- ---------- -------------- -------------- ---------- ---------- ---------- ---------- ---------- -------- ------------ -------------- ---------- ---------- ---------- ---------- ---------- -------- ---------- ---------- ---------- -------- ---------- ------------- ------------- ------------- ---------- -------------- ------------ --------------- --------------- -------------- ------------ ---------------- ---------------- -------------- ---------- ---------- -------------- -------------- ------------------ ------------------ -------------- ------------------ ------------------ -------------- --------------- ------------------- ------------------- --------------- --------------- 
4905741      4905741      submit.job standard-g                                                                                                                                                                                                             112   00:25:04    RUNNING      0:0                  Unknown       Unknown       Unknown       480G                                                                                                                                          billing=2+ billing=1+                                                                                                                                                                                                                                 
4905741.bat+ 4905741.bat+      batch                                                                                                                                                                                                               1        112   00:25:04    RUNNING      0:0          0             0             0             0                         0                                                                                                                                      cpu=112,g+                                                                                                                                                                                                                                 
4905741.0    4905741.0    select_gpu            140244524K      nid006001              1 139843972K  96083732K  nid006001          0  95702718K     5367    nid006001              0       5263   00:26:01  nid006001          0   00:26:14        2        112   00:24:55  COMPLETED      0:0      4.42M       Unknown       Unknown       Unknown                     1.11M      131.27M       nid006001               0        129.99M        2.90M        nid006001                1          2.89M            cpu=112,g+ cpu=00:26:14,+ cpu=00:26:28,+ cpu=nid006001,ene+ cpu=1,fs/disk=0,m+ cpu=00:26:01,+ cpu=nid006001,ene+ cpu=0,fs/disk=1,m+ cpu=00:52:29,+ energy=1123,fs+ energy=nid006001,f+           fs/disk=1 energy=353,fs/+ energy=706,fs/+ 
