{
 "global_section": { "_calls": 1, "_time":      823.601, "_%":   100.00,
   "siesta": { "_calls": 1, "_time":      823.601, "_%":   100.00,
     "Setup": { "_calls": 1, "_time":        0.782, "_%":     0.09,
       "bands": { "_calls": 1, "_time":        0.002, "_%":     0.00},
       "KSV_init": { "_calls": 1, "_time":        0.000, "_%":     0.00}
     },
     "IterGeom": { "_calls": 1, "_time":      822.719, "_%":    99.89,
       "geom_init": { "_calls": 1, "_time":        3.413, "_%":     0.41,
         "state_init": { "_calls": 1, "_time":        0.813, "_%":     0.10,
           "hsparse": { "_calls": 1, "_time":        0.121, "_%":     0.01},
           "overlap": { "_calls": 1, "_time":        0.040, "_%":     0.00}
         },
         "Setup_H0": { "_calls": 1, "_time":        2.599, "_%":     0.32,
           "naefs": { "_calls": 1, "_time":        0.017, "_%":     0.00},
           "MolMec": { "_calls": 1, "_time":        0.000, "_%":     0.00},
           "kinefsm": { "_calls": 1, "_time":        0.039, "_%":     0.00},
           "nlefsm": { "_calls": 1, "_time":        0.210, "_%":     0.03},
           "DHSCF_Init": { "_calls": 1, "_time":        2.322, "_%":     0.28,
             "DHSCF1": { "_calls": 1, "_time":        0.030, "_%":     0.00,
               "INITMESH": { "_calls": 1, "_time":        0.000, "_%":     0.00}
             },
             "DHSCF2": { "_calls": 1, "_time":        2.276, "_%":     0.28,
               "REMESH": { "_calls": 1, "_time":        0.996, "_%":     0.12,
                 "INITMESH": { "_calls": 2, "_time":        0.959, "_%":     0.12,
                   "SPLOAD": { "_calls": 2, "_time":        0.711, "_%":     0.09}
                 }
               },
               "REORD": { "_calls": 2, "_time":        0.005, "_%":     0.00},
               "PHION": { "_calls": 1, "_time":        0.043, "_%":     0.01},
               "COMM_BSC": { "_calls": 1, "_time":        0.039, "_%":     0.00},
               "POISON": { "_calls": 1, "_time":        0.762, "_%":     0.09,
                 "fft": { "_calls": 2, "_time":        0.731, "_%":     0.09}
               }
             }
           }
         }
       },
       "IterSCF": { "_calls": 5, "_time":      819.201, "_%":    99.47,
         "setup_H": { "_calls": 5, "_time":        6.078, "_%":     0.74,
           "DHSCF": { "_calls": 5, "_time":        6.064, "_%":     0.74,
             "DHSCF3": { "_calls": 5, "_time":        6.064, "_%":     0.74,
               "rhoofd": { "_calls": 5, "_time":        0.066, "_%":     0.01},
               "COMM_BSC": { "_calls": 10, "_time":        0.256, "_%":     0.03},
               "POISON": { "_calls": 5, "_time":        3.340, "_%":     0.41,
                 "fft": { "_calls": 10, "_time":        3.179, "_%":     0.39}
               },
               "XC": { "_calls": 5, "_time":        2.022, "_%":     0.25,
                 "COMM_BSC": { "_calls": 10, "_time":        0.230, "_%":     0.03},
                 "GXC-CellXC": { "_calls": 5, "_time":        1.749, "_%":     0.21,
                   "gridxc@cellXC": { "_calls": 5, "_time":        1.749, "_%":     0.21}
                 }
               },
               "vmat": { "_calls": 5, "_time":        0.056, "_%":     0.01}
             }
           }
         },
         "compute_dm": { "_calls": 5, "_time":      813.078, "_%":    98.72,
           "redist_orbs_fwd": { "_calls": 40, "_time":        1.289, "_%":     0.16},
           "elsi-complex-solver": { "_calls": 5, "_time":      811.695, "_%":    98.55,
             "elsi-solver": { "_calls": 5, "_time":      811.650, "_%":    98.55}
           },
           "redist_dm-edm_bck": { "_calls": 5, "_time":        0.073, "_%":     0.01}
         },
         "MIXER": { "_calls": 5, "_time":        0.008, "_%":     0.00}
       },
       "state_analysis": { "_calls": 1, "_time":        0.034, "_%":     0.00},
       "siesta_move": { "_calls": 1, "_time":        0.000, "_%":     0.00}
     },
     "Analysis": { "_calls": 1, "_time":        0.086, "_%":     0.01,
       "optical": { "_calls": 1, "_time":        0.001, "_%":     0.00}
     }
   }
 }}
