JobID        JobIDRaw        JobName  Partition  MaxVMSize  MaxVMSizeNode  MaxVMSizeTask  AveVMSize     MaxRSS MaxRSSNode MaxRSSTask     AveRSS MaxPages MaxPagesNode   MaxPagesTask   AvePages     MinCPU MinCPUNode MinCPUTask     AveCPU   NTasks  AllocCPUS    Elapsed      State ExitCode AveCPUFreq ReqCPUFreqMin ReqCPUFreqMax ReqCPUFreqGov     ReqMem ConsumedEnergy  MaxDiskRead MaxDiskReadNode MaxDiskReadTask    AveDiskRead MaxDiskWrite MaxDiskWriteNode MaxDiskWriteTask   AveDiskWrite    ReqTRES  AllocTRES TRESUsageInAve TRESUsageInMax TRESUsageInMaxNode TRESUsageInMaxTask TRESUsageInMin TRESUsageInMinNode TRESUsageInMinTask TRESUsageInTot TRESUsageOutMax TRESUsageOutMaxNode TRESUsageOutMaxTask TRESUsageOutAve TRESUsageOutTot 
------------ ------------ ---------- ---------- ---------- -------------- -------------- ---------- ---------- ---------- ---------- ---------- -------- ------------ -------------- ---------- ---------- ---------- ---------- ---------- -------- ---------- ---------- ---------- -------- ---------- ------------- ------------- ------------- ---------- -------------- ------------ --------------- --------------- -------------- ------------ ---------------- ---------------- -------------- ---------- ---------- -------------- -------------- ------------------ ------------------ -------------- ------------------ ------------------ -------------- --------------- ------------------- ------------------- --------------- --------------- 
4905769      4905769      submit.job standard-g                                                                                                                                                                                                             112   00:14:27    RUNNING      0:0                  Unknown       Unknown       Unknown       480G                                                                                                                                          billing=8+ billing=1+                                                                                                                                                                                                                                 
4905769.bat+ 4905769.bat+      batch                                                                                                                                                                                                               1        112   00:14:27    RUNNING      0:0          0             0             0             0                         0                                                                                                                                      cpu=112,g+                                                                                                                                                                                                                                 
4905769.0    4905769.0    select_gpu             47665608K      nid007302              3 44879964.+  26398692K  nid007302          3  24562047K    16743    nid007302              2      15473   00:14:28  nid007302          5   00:14:38        8        112   00:14:18  COMPLETED      0:0     21.06M       Unknown       Unknown       Unknown                        69      131.27M       nid007302               0        129.02M        2.90M        nid007302                0          2.89M            cpu=112,g+ cpu=00:14:38,+ cpu=00:14:49,+ cpu=nid007302,ene+ cpu=3,fs/disk=0,m+ cpu=00:14:28,+ cpu=nid007302,ene+ cpu=5,fs/disk=5,m+ cpu=01:57:07,+ energy=1061,fs+ energy=nid007302,f+           fs/disk=0 energy=85,fs/d+ energy=684,fs/+ 
