[2024-10-18 11:35:11,957]:DEBUG: Command: jube run max-inputs/interface/siesta/weak-scaling-covid.xml --tag lumi gpu
[2024-10-18 11:35:11,958]:DEBUG: Version: 2.7.1
[2024-10-18 11:35:11,958]:DEBUG: Parsing max-inputs/interface/siesta/weak-scaling-covid.xml
[2024-10-18 11:35:11,980]:DEBUG:   --> Preprocess run 1 <--
[2024-10-18 11:35:11,980]:DEBUG:   Remove invalid tags
[2024-10-18 11:35:11,980]:DEBUG:     Available tags: lumi,gpu
[2024-10-18 11:35:11,984]:DEBUG:   Remove invalid tags
[2024-10-18 11:35:11,984]:DEBUG:     Available tags: lumi,gpu
[2024-10-18 11:35:11,985]:DEBUG:   Parsing <include-path>
[2024-10-18 11:35:11,986]:DEBUG:     New path: /users/pedronfe/project/JUBE4MaX-GPU/max-inputs//platforms/lumi/lumi-gpu
[2024-10-18 11:35:11,986]:DEBUG:     New path: /users/pedronfe/project/JUBE4MaX-GPU/max-inputs//applications/siesta/deployment
[2024-10-18 11:35:11,986]:DEBUG:     New path: /users/pedronfe/project/JUBE4MaX-GPU/max-inputs//workloads/siesta/covid-spike/
[2024-10-18 11:35:11,986]:DEBUG:   Read $JUBE_INCLUDE_PATH
[2024-10-18 11:35:11,986]:DEBUG:   Preprocess xml tree
[2024-10-18 11:35:11,986]:DEBUG:     path: /users/pedronfe/project/JUBE4MaX-GPU/max-inputs//platforms/lumi/lumi-gpu
[2024-10-18 11:35:11,986]:DEBUG:     path: /users/pedronfe/project/JUBE4MaX-GPU/max-inputs//applications/siesta/deployment
[2024-10-18 11:35:11,986]:DEBUG:     path: /users/pedronfe/project/JUBE4MaX-GPU/max-inputs//workloads/siesta/covid-spike/
[2024-10-18 11:35:11,986]:DEBUG:     path: max-inputs/interface/siesta
[2024-10-18 11:35:11,986]:DEBUG:   No preprocessing changes were detected, stop additional include-preprocess runs.
[2024-10-18 11:35:11,987]:DEBUG:   Remove invalid tags
[2024-10-18 11:35:11,987]:DEBUG:     Available tags: lumi,gpu
[2024-10-18 11:35:11,988]:DEBUG:   Preprocess done
[2024-10-18 11:35:11,988]:DEBUG:   Parsing <parameterset name="deployParameter">
[2024-10-18 11:35:11,988]:DEBUG:     Searching for <parameterset name="deployParameter"> in deploy.xml
[2024-10-18 11:35:11,991]:DEBUG:   Preprocess benchmark xml tree
[2024-10-18 11:35:11,992]:DEBUG:   Parsing <parameterset name="systemParameter">
[2024-10-18 11:35:11,992]:DEBUG:     Searching for <parameterset name="systemParameter"> in platform.xml
[2024-10-18 11:35:11,993]:DEBUG:   Parsing <parameterset name="testcaseset">
[2024-10-18 11:35:11,993]:DEBUG:     Searching for <parameterset name="testcaseset"> in workload.xml
[2024-10-18 11:35:11,995]:DEBUG:   Parsing <parameterset name="executeset">
[2024-10-18 11:35:11,995]:DEBUG:     Searching for <parameterset name="executeset"> in platform.xml
[2024-10-18 11:35:11,996]:DEBUG:   Parsing <substituteset name="fdfsub">
[2024-10-18 11:35:11,996]:DEBUG:     Searching for <substituteset name="fdfsub"> in workload.xml
[2024-10-18 11:35:11,997]:DEBUG:   Parsing <substituteset name="executesub">
[2024-10-18 11:35:11,997]:DEBUG:     Searching for <substituteset name="executesub"> in platform.xml
[2024-10-18 11:35:11,999]:DEBUG:   Parsing <fileset name="jobfiles">
[2024-10-18 11:35:11,999]:DEBUG:     Searching for <fileset name="jobfiles"> in platform.xml
[2024-10-18 11:35:12,000]:DEBUG:   Parsing <patternset name="pattern">
[2024-10-18 11:35:12,000]:DEBUG:   Parsing <step name="submit">
[2024-10-18 11:35:12,000]:DEBUG:   Parsing <analyser name="analyse">
[2024-10-18 11:35:12,001]:DEBUG: Start consistency check
[2024-10-18 11:35:12,001]:DEBUG: Create benchmark directory
