JobId=248103 JobName=CovidWeak
   UserId=fpedron(5340) GroupId=fpedron(5340) MCS_label=N/A
   Priority=1 Nice=0 Account=ehpc-ben-2024b06-053 QOS=ehpc-ben-2024b06-053
   JobState=RUNNING Reason=None Dependency=(null)
   Requeue=1 Restarts=0 BatchFlag=1 Reboot=0 ExitCode=0:0
   DerivedExitCode=0:0
   RunTime=00:00:01 TimeLimit=12:00:00 TimeMin=N/A
   SubmitTime=2024-09-25T11:23:18 EligibleTime=2024-09-25T11:23:18
   AccrueTime=2024-09-25T11:23:18
   StartTime=2024-09-25T11:35:24 EndTime=2024-09-25T23:35:24 Deadline=N/A
   SuspendTime=None SecsPreSuspend=0 LastSchedEval=2024-09-25T11:35:24
   Partition=cn AllocNode:Sid=login1:517187
   ReqNodeList=(null) ExcNodeList=(null)
   NodeList=cn[0040,0043-0044,0047]
   BatchHost=cn0040
   NumNodes=4 NumCPUs=512 NumTasks=512 CPUs/Task=1 ReqB:S:C:T=0:0:*:*
   TRES=cpu=512,mem=512G,node=4,billing=512
   Socks/Node=* NtasksPerN:B:S:C=128:0:*:* CoreSpec=*
   JOB_GRES=(null)
     Nodes=cn[0040,0043-0044,0047] CPU_IDs=0-127 Mem=131072 GRES=
   MinCPUsNode=128 MinMemoryCPU=1G MinTmpDiskNode=0
   Features=(null) DelayBoot=00:00:00
   OverSubscribe=OK Contiguous=0 Licenses=(null) Network=(null)
   Command=/home/fpedron/JUBE4MaX/max-inputs/interface/siesta/_CovidWeak/000000/000007_submit/work/submit.job
   WorkDir=/home/fpedron/JUBE4MaX/max-inputs/interface/siesta/_CovidWeak/000000/000007_submit/work
   StdErr=/home/fpedron/JUBE4MaX/max-inputs/interface/siesta/_CovidWeak/000000/000007_submit/work/slurm-248103.out
   StdIn=/dev/null
   StdOut=/home/fpedron/JUBE4MaX/max-inputs/interface/siesta/_CovidWeak/000000/000007_submit/work/slurm-248103.out
   Power=
   MailUser=fpedron MailType=NONE

