JobId=9554448 JobName=CovidWeak
   UserId=icn2553284(51005) GroupId=icn2(50004) MCS_label=N/A
   Priority=67376 Nice=0 Account=icn85 QOS=gp_resa
   JobState=RUNNING Reason=None Dependency=(null)
   Requeue=0 Restarts=0 BatchFlag=1 Reboot=0 ExitCode=0:0
   RunTime=00:00:04 TimeLimit=02:00:00 TimeMin=N/A
   SubmitTime=2024-09-30T12:08:44 EligibleTime=2024-09-30T12:08:44
   AccrueTime=2024-09-30T12:08:44
   StartTime=2024-09-30T12:09:54 EndTime=2024-09-30T14:09:54 Deadline=N/A
   SuspendTime=None SecsPreSuspend=0 LastSchedEval=2024-09-30T12:09:54 Scheduler=Backfill
   Partition=gpp AllocNode:Sid=glogin1:2011625
   ReqNodeList=(null) ExcNodeList=(null)
   NodeList=gs15r3b[35-50]
   BatchHost=gs15r3b35
   NumNodes=16 NumCPUs=3584 NumTasks=1792 CPUs/Task=1 ReqB:S:C:T=0:0:*:1
   ReqTRES=cpu=1792,mem=3500G,node=16,billing=1792
   AllocTRES=cpu=3584,mem=3500G,node=16,billing=3584
   Socks/Node=* NtasksPerN:B:S:C=112:0:*:* CoreSpec=*
   MinCPUsNode=112 MinMemoryCPU=2000M MinTmpDiskNode=0
   Features=(null) DelayBoot=00:00:00
   OverSubscribe=NO Contiguous=0 Licenses=(null) Network=(null)
   Command=/gpfs/home/icn2/icn2553284/jube4max/max-inputs/interface/siesta/_CovidWeak/000000/000013_submit/work/submit.job
   WorkDir=/gpfs/home/icn2/icn2553284/jube4max/max-inputs/interface/siesta/_CovidWeak/000000/000013_submit/work
   StdErr=/gpfs/home/icn2/icn2553284/jube4max/max-inputs/interface/siesta/_CovidWeak/000000/000013_submit/work/job_9554448.err
   StdIn=/dev/null
   StdOut=/gpfs/home/icn2/icn2553284/jube4max/max-inputs/interface/siesta/_CovidWeak/000000/000013_submit/work/job_9554448.out
   Power=
   

