Nodes;Tasks/Node;Threads/Task;Solution Method;ELSI Solver;compute_dm;setup_H;walltime
1;128;1;diagon;elpa;534.63;72.99;622.78
2;128;1;diagon;elpa;2223.30;77.65;2318.09
4;128;1;diagon;elpa;;;
8;128;1;diagon;elpa;;;
16;128;1;diagon;elpa;;;
1;128;1;elsi;elpa;521.30;72.86;609.33
2;128;1;elsi;elpa;2081.52;77.28;2176.11
4;128;1;elsi;elpa;;;
8;128;1;elsi;elpa;;;
16;128;1;elsi;elpa;;;
1;128;1;elsi;pexsi;4.36;73.00;92.00
2;128;1;elsi;pexsi;5.17;79.03;101.29
4;128;1;elsi;pexsi;9.44;88.13;120.14
8;128;1;elsi;pexsi;;;
16;128;1;elsi;pexsi;;;
