       JobID     JobIDRaw    JobName  Partition  MaxVMSize  MaxVMSizeNode  MaxVMSizeTask  AveVMSize     MaxRSS MaxRSSNode MaxRSSTask     AveRSS MaxPages MaxPagesNode   MaxPagesTask   AvePages     MinCPU MinCPUNode MinCPUTask     AveCPU   NTasks  AllocCPUS    Elapsed      State ExitCode AveCPUFreq ReqCPUFreqMin ReqCPUFreqMax ReqCPUFreqGov     ReqMem ConsumedEnergy  MaxDiskRead MaxDiskReadNode MaxDiskReadTask    AveDiskRead MaxDiskWrite MaxDiskWriteNode MaxDiskWriteTask   AveDiskWrite    AllocGRES      ReqGRES    ReqTRES  AllocTRES TRESUsageInAve TRESUsageInMax TRESUsageInMaxNode TRESUsageInMaxTask TRESUsageInMin TRESUsageInMinNode TRESUsageInMinTask TRESUsageInTot TRESUsageOutMax TRESUsageOutMaxNode TRESUsageOutMaxTask TRESUsageOutAve TRESUsageOutTot 
------------ ------------ ---------- ---------- ---------- -------------- -------------- ---------- ---------- ---------- ---------- ---------- -------- ------------ -------------- ---------- ---------- ---------- ---------- ---------- -------- ---------- ---------- ---------- -------- ---------- ------------- ------------- ------------- ---------- -------------- ------------ --------------- --------------- -------------- ------------ ---------------- ---------------- -------------- ------------ ------------ ---------- ---------- -------------- -------------- ------------------ ------------------ -------------- ------------------ ------------------ -------------- --------------- ------------------- ------------------- --------------- --------------- 
244503       244503       CovidStro+         cn                                                                                                                                                                                                            2048   00:18:43    RUNNING      0:0                  Unknown       Unknown       Unknown        1Gc                                                                                                                                                                    billing=2+ billing=2+                                                                                                                                                                                                                                 
244503.batch 244503.batch      batch                                                                                                                                                                                                               1        128   00:18:43    RUNNING      0:0          0             0             0             0        1Gc              0                                                                                                                                                                cpu=128,m+                                                                                                                                                                                                                                 
244503.0     244503.0         siesta              1816752K         cn0625              0 1340149826    478856K     cn0625          0  367448700      119       cn0625              0         21   00:18:11     cn0634       1277   00:18:21     2048       2048   00:18:41  COMPLETED      0:0      2.00M       Unknown       Unknown       Unknown        1Gc          8.14M       11.10M          cn0625               0          8.54M       20.12M           cn0625                0          5.16M                                      cpu=2048,+ cpu=00:18:21,+ cpu=00:18:22,+ cpu=cn0627,energy+ cpu=292,fs/disk=0+ cpu=00:18:11,+ cpu=cn0634,energy+ cpu=1277,fs/disk=+ cpu=26-02:40:+ energy=510,fs/+ energy=cn0654,fs/d+           fs/disk=0 energy=11,fs/d+ energy=24470,f+ 
