JobID        JobIDRaw        JobName  Partition  MaxVMSize  MaxVMSizeNode  MaxVMSizeTask  AveVMSize     MaxRSS MaxRSSNode MaxRSSTask     AveRSS MaxPages MaxPagesNode   MaxPagesTask   AvePages     MinCPU MinCPUNode MinCPUTask     AveCPU   NTasks  AllocCPUS    Elapsed      State ExitCode AveCPUFreq ReqCPUFreqMin ReqCPUFreqMax ReqCPUFreqGov     ReqMem ConsumedEnergy  MaxDiskRead MaxDiskReadNode MaxDiskReadTask    AveDiskRead MaxDiskWrite MaxDiskWriteNode MaxDiskWriteTask   AveDiskWrite    ReqTRES  AllocTRES TRESUsageInAve TRESUsageInMax TRESUsageInMaxNode TRESUsageInMaxTask TRESUsageInMin TRESUsageInMinNode TRESUsageInMinTask TRESUsageInTot TRESUsageOutMax TRESUsageOutMaxNode TRESUsageOutMaxTask TRESUsageOutAve TRESUsageOutTot 
------------ ------------ ---------- ---------- ---------- -------------- -------------- ---------- ---------- ---------- ---------- ---------- -------- ------------ -------------- ---------- ---------- ---------- ---------- ---------- -------- ---------- ---------- ---------- -------- ---------- ------------- ------------- ------------- ---------- -------------- ------------ --------------- --------------- -------------- ------------ ---------------- ---------------- -------------- ---------- ---------- -------------- -------------- ------------------ ------------------ -------------- ------------------ ------------------ -------------- --------------- ------------------- ------------------- --------------- --------------- 
7668678      7668678      submit.job boost_usr+                                                                                                                                                                                                              32   01:14:56    RUNNING      0:0                  Unknown       Unknown       Unknown    492800M                                                                                                                                          billing=3+ billing=3+                                                                                                                                                                                                                                 
7668678.bat+ 7668678.bat+      batch                                                                                                                                                                                                               1         32   01:14:56    RUNNING      0:0          0             0             0             0                         0                                                                                                                                      cpu=32,gr+                                                                                                                                                                                                                                 
7668678.ext+ 7668678.ext+     extern                                                                                                                                                                                                               1         32   01:14:56    RUNNING      0:0          0             0             0             0                         0                                                                                                                                      billing=3+                                                                                                                                                                                                                                 
7668678.0    7668678.0    leonardo-+              9557100K       lrdn2892             16 9311752.5+   9215304K   lrdn2892         16 9328918656      592     lrdn2892              6        317   01:14:01   lrdn2892          4   01:14:08       32         32   01:14:51  COMPLETED      0:0     16.38M       Unknown       Unknown       Unknown                         0        2.31M        lrdn2892               0          1.39M       19.95M         lrdn2892                0          5.59M            cpu=32,gr+ cpu=01:14:08,+ cpu=01:14:12,+ cpu=lrdn2892,ener+ cpu=27,fs/disk=0,+ cpu=01:14:01,+ cpu=lrdn2892,ener+ cpu=4,fs/disk=25,+ cpu=1-15:32:4+ energy=0,fs/di+ energy=lrdn2892,fs+           fs/disk=0 energy=0,fs/di+ energy=0,fs/di+ 
