{
 "global_section": { "_calls": 1, "_time":     4484.406, "_%":   100.00,
   "siesta": { "_calls": 1, "_time":     4484.406, "_%":   100.00,
     "Setup": { "_calls": 1, "_time":        1.379, "_%":     0.03,
       "bands": { "_calls": 1, "_time":        0.002, "_%":     0.00},
       "KSV_init": { "_calls": 1, "_time":        0.001, "_%":     0.00}
     },
     "IterGeom": { "_calls": 1, "_time":     4482.783, "_%":    99.96,
       "geom_init": { "_calls": 1, "_time":       36.038, "_%":     0.80,
         "state_init": { "_calls": 1, "_time":        2.591, "_%":     0.06,
           "hsparse": { "_calls": 1, "_time":        0.135, "_%":     0.00},
           "overlap": { "_calls": 1, "_time":        2.131, "_%":     0.05}
         },
         "Setup_H0": { "_calls": 1, "_time":       33.446, "_%":     0.75,
           "naefs": { "_calls": 1, "_time":        0.018, "_%":     0.00},
           "MolMec": { "_calls": 1, "_time":        0.000, "_%":     0.00},
           "kinefsm": { "_calls": 1, "_time":        2.117, "_%":     0.05},
           "nlefsm": { "_calls": 1, "_time":        5.404, "_%":     0.12},
           "DHSCF_Init": { "_calls": 1, "_time":       25.897, "_%":     0.58,
             "DHSCF1": { "_calls": 1, "_time":        0.080, "_%":     0.00,
               "INITMESH": { "_calls": 1, "_time":        0.000, "_%":     0.00}
             },
             "DHSCF2": { "_calls": 1, "_time":       25.803, "_%":     0.58,
               "REMESH": { "_calls": 1, "_time":        0.301, "_%":     0.01,
                 "INITMESH": { "_calls": 2, "_time":        0.095, "_%":     0.00,
                   "SPLOAD": { "_calls": 2, "_time":        0.091, "_%":     0.00}
                 }
               },
               "REORD": { "_calls": 2, "_time":        0.125, "_%":     0.00},
               "PHION": { "_calls": 1, "_time":        3.103, "_%":     0.07},
               "COMM_BSC": { "_calls": 1, "_time":        0.424, "_%":     0.01},
               "POISON": { "_calls": 1, "_time":       20.046, "_%":     0.45,
                 "fft": { "_calls": 2, "_time":       19.248, "_%":     0.43}
               }
             }
           }
         }
       },
       "IterSCF": { "_calls": 5, "_time":     4445.682, "_%":    99.14,
         "setup_H": { "_calls": 5, "_time":      173.635, "_%":     3.87,
           "DHSCF": { "_calls": 5, "_time":      172.574, "_%":     3.85,
             "DHSCF3": { "_calls": 5, "_time":      172.574, "_%":     3.85,
               "rhoofd": { "_calls": 5, "_time":        2.214, "_%":     0.05},
               "COMM_BSC": { "_calls": 10, "_time":        4.749, "_%":     0.11},
               "POISON": { "_calls": 5, "_time":       96.687, "_%":     2.16,
                 "fft": { "_calls": 10, "_time":       92.456, "_%":     2.06}
               },
               "XC": { "_calls": 5, "_time":       57.760, "_%":     1.29,
                 "COMM_BSC": { "_calls": 10, "_time":        9.750, "_%":     0.22},
                 "GXC-CellXC": { "_calls": 5, "_time":       47.020, "_%":     1.05,
                   "gridxc@cellXC": { "_calls": 5, "_time":       47.020, "_%":     1.05}
                 }
               },
               "vmat": { "_calls": 5, "_time":        3.168, "_%":     0.07}
             }
           }
         },
         "compute_dm": { "_calls": 5, "_time":     4271.978, "_%":    95.26,
           "elsi": { "_calls": 5, "_time":     4271.543, "_%":    95.25,
             "find nnz_g": { "_calls": 5, "_time":        0.000, "_%":     0.00},
             "elsi-solver": { "_calls": 5, "_time":     4271.520, "_%":    95.25}
           }
         },
         "MIXER": { "_calls": 5, "_time":        0.018, "_%":     0.00}
       },
       "state_analysis": { "_calls": 1, "_time":        0.043, "_%":     0.00},
       "siesta_move": { "_calls": 1, "_time":        0.000, "_%":     0.00}
     },
     "Analysis": { "_calls": 1, "_time":        0.155, "_%":     0.00,
       "optical": { "_calls": 1, "_time":        0.001, "_%":     0.00}
     }
   }
 }}
