{
 "global_section": { "_calls": 1, "_time":       77.200, "_%":   100.00,
   "siesta": { "_calls": 1, "_time":       77.200, "_%":   100.00,
     "Setup": { "_calls": 1, "_time":        0.733, "_%":     0.95,
       "bands": { "_calls": 1, "_time":        0.001, "_%":     0.00},
       "KSV_init": { "_calls": 1, "_time":        0.000, "_%":     0.00}
     },
     "IterGeom": { "_calls": 1, "_time":       76.384, "_%":    98.94,
       "geom_init": { "_calls": 1, "_time":       10.434, "_%":    13.52,
         "state_init": { "_calls": 1, "_time":        0.275, "_%":     0.36,
           "hsparse": { "_calls": 1, "_time":        0.092, "_%":     0.12},
           "overlap": { "_calls": 1, "_time":        0.042, "_%":     0.05}
         },
         "Setup_H0": { "_calls": 1, "_time":        9.583, "_%":    12.41,
           "naefs": { "_calls": 1, "_time":        0.019, "_%":     0.02},
           "MolMec": { "_calls": 1, "_time":        0.000, "_%":     0.00},
           "kinefsm": { "_calls": 1, "_time":        0.041, "_%":     0.05},
           "nlefsm": { "_calls": 1, "_time":        0.115, "_%":     0.15},
           "DHSCF_Init": { "_calls": 1, "_time":        9.396, "_%":    12.17,
             "DHSCF1": { "_calls": 1, "_time":        0.024, "_%":     0.03,
               "INITMESH": { "_calls": 1, "_time":        0.000, "_%":     0.00}
             },
             "DHSCF2": { "_calls": 1, "_time":        9.358, "_%":    12.12,
               "REMESH": { "_calls": 1, "_time":        0.075, "_%":     0.10,
                 "INITMESH": { "_calls": 2, "_time":        0.063, "_%":     0.08,
                   "SPLOAD": { "_calls": 2, "_time":        0.056, "_%":     0.07}
                 }
               },
               "REORD": { "_calls": 2, "_time":        0.050, "_%":     0.06},
               "PHION": { "_calls": 1, "_time":        0.285, "_%":     0.37},
               "COMM_BSC": { "_calls": 1, "_time":        0.342, "_%":     0.44},
               "POISON": { "_calls": 1, "_time":        7.932, "_%":    10.27,
                 "fft": { "_calls": 2, "_time":        7.560, "_%":     9.79}
               }
             }
           }
         }
       },
       "IterSCF": { "_calls": 5, "_time":       65.914, "_%":    85.38,
         "setup_H": { "_calls": 5, "_time":       62.185, "_%":    80.55,
           "DHSCF": { "_calls": 5, "_time":       62.136, "_%":    80.49,
             "DHSCF3": { "_calls": 5, "_time":       62.136, "_%":    80.49,
               "rhoofd": { "_calls": 5, "_time":        0.377, "_%":     0.49},
               "COMM_BSC": { "_calls": 10, "_time":        2.573, "_%":     3.33},
               "POISON": { "_calls": 5, "_time":       38.749, "_%":    50.19,
                 "fft": { "_calls": 10, "_time":       36.991, "_%":    47.92}
               },
               "XC": { "_calls": 5, "_time":       16.893, "_%":    21.88,
                 "COMM_BSC": { "_calls": 10, "_time":        2.287, "_%":     2.96},
                 "GXC-CellXC": { "_calls": 5, "_time":       14.359, "_%":    18.60,
                   "gridxc@cellXC": { "_calls": 5, "_time":       14.359, "_%":    18.60}
                 }
               },
               "vmat": { "_calls": 5, "_time":        0.325, "_%":     0.42}
             }
           }
         },
         "compute_dm": { "_calls": 5, "_time":        3.685, "_%":     4.77,
           "elsi": { "_calls": 5, "_time":        3.683, "_%":     4.77,
             "find nnz_g": { "_calls": 5, "_time":        0.000, "_%":     0.00},
             "elsi-solver": { "_calls": 5, "_time":        3.638, "_%":     4.71}
           }
         },
         "MIXER": { "_calls": 5, "_time":        0.036, "_%":     0.05}
       },
       "state_analysis": { "_calls": 1, "_time":        0.022, "_%":     0.03},
       "siesta_move": { "_calls": 1, "_time":        0.000, "_%":     0.00}
     },
     "Analysis": { "_calls": 1, "_time":        0.076, "_%":     0.10,
       "optical": { "_calls": 1, "_time":        0.000, "_%":     0.00}
     }
   }
 }}
