{
 "global_section": { "_calls": 1, "_time":      865.334, "_%":   100.00,
   "siesta": { "_calls": 1, "_time":      865.334, "_%":   100.00,
     "Setup": { "_calls": 1, "_time":        0.802, "_%":     0.09,
       "bands": { "_calls": 1, "_time":        0.002, "_%":     0.00},
       "KSV_init": { "_calls": 1, "_time":        0.000, "_%":     0.00}
     },
     "IterGeom": { "_calls": 1, "_time":      848.353, "_%":    98.04,
       "geom_init": { "_calls": 1, "_time":       12.294, "_%":     1.42,
         "state_init": { "_calls": 1, "_time":        2.421, "_%":     0.28,
           "hsparse": { "_calls": 1, "_time":        0.123, "_%":     0.01},
           "overlap": { "_calls": 1, "_time":        1.012, "_%":     0.12}
         },
         "Setup_H0": { "_calls": 1, "_time":        9.871, "_%":     1.14,
           "naefs": { "_calls": 1, "_time":        0.018, "_%":     0.00},
           "MolMec": { "_calls": 1, "_time":        0.000, "_%":     0.00},
           "kinefsm": { "_calls": 1, "_time":        1.003, "_%":     0.12},
           "nlefsm": { "_calls": 1, "_time":        2.802, "_%":     0.32},
           "DHSCF_Init": { "_calls": 1, "_time":        6.037, "_%":     0.70,
             "DHSCF1": { "_calls": 1, "_time":        0.029, "_%":     0.00,
               "INITMESH": { "_calls": 1, "_time":        0.000, "_%":     0.00}
             },
             "DHSCF2": { "_calls": 1, "_time":        5.993, "_%":     0.69,
               "REMESH": { "_calls": 1, "_time":        4.560, "_%":     0.53,
                 "INITMESH": { "_calls": 2, "_time":        4.520, "_%":     0.52,
                   "SPLOAD": { "_calls": 2, "_time":        4.271, "_%":     0.49}
                 }
               },
               "REORD": { "_calls": 2, "_time":        0.005, "_%":     0.00},
               "PHION": { "_calls": 1, "_time":        0.140, "_%":     0.02},
               "COMM_BSC": { "_calls": 1, "_time":        0.043, "_%":     0.00},
               "POISON": { "_calls": 1, "_time":        0.753, "_%":     0.09,
                 "fft": { "_calls": 2, "_time":        0.723, "_%":     0.08}
               }
             }
           }
         }
       },
       "IterSCF": { "_calls": 5, "_time":      835.894, "_%":    96.60,
         "setup_H": { "_calls": 5, "_time":        6.182, "_%":     0.71,
           "DHSCF": { "_calls": 5, "_time":        6.166, "_%":     0.71,
             "DHSCF3": { "_calls": 5, "_time":        6.166, "_%":     0.71,
               "rhoofd": { "_calls": 5, "_time":        0.112, "_%":     0.01},
               "COMM_BSC": { "_calls": 10, "_time":        0.253, "_%":     0.03},
               "POISON": { "_calls": 5, "_time":        3.363, "_%":     0.39,
                 "fft": { "_calls": 10, "_time":        3.209, "_%":     0.37}
               },
               "XC": { "_calls": 5, "_time":        1.989, "_%":     0.23,
                 "COMM_BSC": { "_calls": 10, "_time":        0.226, "_%":     0.03},
                 "GXC-CellXC": { "_calls": 5, "_time":        1.725, "_%":     0.20,
                   "gridxc@cellXC": { "_calls": 5, "_time":        1.725, "_%":     0.20}
                 }
               },
               "vmat": { "_calls": 5, "_time":        0.119, "_%":     0.01}
             }
           }
         },
         "compute_dm": { "_calls": 5, "_time":      829.672, "_%":    95.88,
           "elsi": { "_calls": 5, "_time":      829.253, "_%":    95.83,
             "find nnz_g": { "_calls": 5, "_time":        0.000, "_%":     0.00},
             "elsi-solver": { "_calls": 5, "_time":      829.238, "_%":    95.83}
           }
         },
         "MIXER": { "_calls": 5, "_time":        0.010, "_%":     0.00}
       },
       "state_analysis": { "_calls": 1, "_time":        0.034, "_%":     0.00},
       "siesta_move": { "_calls": 1, "_time":        0.000, "_%":     0.00}
     },
     "Analysis": { "_calls": 1, "_time":       15.522, "_%":     1.79,
       "optical": { "_calls": 1, "_time":        0.001, "_%":     0.00}
     }
   }
 }}
