JobId=9552690 JobName=CovidWeakKPoints
   UserId=icn2553284(51005) GroupId=icn2(50004) MCS_label=N/A
   Priority=67425 Nice=0 Account=icn85 QOS=gp_resa
   JobState=RUNNING Reason=None Dependency=(null)
   Requeue=0 Restarts=0 BatchFlag=1 Reboot=0 ExitCode=0:0
   RunTime=00:00:03 TimeLimit=02:00:00 TimeMin=N/A
   SubmitTime=2024-09-30T11:27:05 EligibleTime=2024-09-30T11:27:05
   AccrueTime=2024-09-30T11:27:05
   StartTime=2024-09-30T11:27:18 EndTime=2024-09-30T13:27:18 Deadline=N/A
   SuspendTime=None SecsPreSuspend=0 LastSchedEval=2024-09-30T11:27:18 Scheduler=Backfill
   Partition=gpp AllocNode:Sid=glogin1:2011625
   ReqNodeList=(null) ExcNodeList=(null)
   NodeList=gs04r2b[38-41]
   BatchHost=gs04r2b38
   NumNodes=4 NumCPUs=896 NumTasks=448 CPUs/Task=1 ReqB:S:C:T=0:0:*:1
   ReqTRES=cpu=448,mem=875G,node=4,billing=448
   AllocTRES=cpu=896,mem=875G,node=4,billing=896
   Socks/Node=* NtasksPerN:B:S:C=112:0:*:* CoreSpec=*
   MinCPUsNode=112 MinMemoryCPU=2000M MinTmpDiskNode=0
   Features=(null) DelayBoot=00:00:00
   OverSubscribe=NO Contiguous=0 Licenses=(null) Network=(null)
   Command=/gpfs/home/icn2/icn2553284/jube4max/max-inputs/interface/siesta/_CovidWeakKPoints/000000/000010_submit/work/submit.job
   WorkDir=/gpfs/home/icn2/icn2553284/jube4max/max-inputs/interface/siesta/_CovidWeakKPoints/000000/000010_submit/work
   StdErr=/gpfs/home/icn2/icn2553284/jube4max/max-inputs/interface/siesta/_CovidWeakKPoints/000000/000010_submit/work/job_9552690.err
   StdIn=/dev/null
   StdOut=/gpfs/home/icn2/icn2553284/jube4max/max-inputs/interface/siesta/_CovidWeakKPoints/000000/000010_submit/work/job_9552690.out
   Power=
   

