JobID        JobIDRaw        JobName  Partition  MaxVMSize  MaxVMSizeNode  MaxVMSizeTask  AveVMSize     MaxRSS MaxRSSNode MaxRSSTask     AveRSS MaxPages MaxPagesNode   MaxPagesTask   AvePages     MinCPU MinCPUNode MinCPUTask     AveCPU   NTasks  AllocCPUS    Elapsed      State ExitCode AveCPUFreq ReqCPUFreqMin ReqCPUFreqMax ReqCPUFreqGov     ReqMem ConsumedEnergy  MaxDiskRead MaxDiskReadNode MaxDiskReadTask    AveDiskRead MaxDiskWrite MaxDiskWriteNode MaxDiskWriteTask   AveDiskWrite    ReqTRES  AllocTRES TRESUsageInAve TRESUsageInMax TRESUsageInMaxNode TRESUsageInMaxTask TRESUsageInMin TRESUsageInMinNode TRESUsageInMinTask TRESUsageInTot TRESUsageOutMax TRESUsageOutMaxNode TRESUsageOutMaxTask TRESUsageOutAve TRESUsageOutTot 
------------ ------------ ---------- ---------- ---------- -------------- -------------- ---------- ---------- ---------- ---------- ---------- -------- ------------ -------------- ---------- ---------- ---------- ---------- ---------- -------- ---------- ---------- ---------- -------- ---------- ------------- ------------- ------------- ---------- -------------- ------------ --------------- --------------- -------------- ------------ ---------------- ---------------- -------------- ---------- ---------- -------------- -------------- ------------------ ------------------ -------------- ------------------ ------------------ -------------- --------------- ------------------- ------------------- --------------- --------------- 
8092030      8092030      submit.job boost_usr+                                                                                                                                                                                                             128   00:03:27    RUNNING      0:0                  Unknown       Unknown       Unknown      1925G                                                                                                                                          billing=1+ billing=1+                                                                                                                                                                                                                                 
8092030.bat+ 8092030.bat+      batch                                                                                                                                                                                                               1         32   00:03:27    RUNNING      0:0          0             0             0             0                         0                                                                                                                                      cpu=32,gr+                                                                                                                                                                                                                                 
8092030.ext+ 8092030.ext+     extern                                                                                                                                                                                                               4        128   00:03:27    RUNNING      0:0          0             0             0             0                         0                                                                                                                                      billing=1+                                                                                                                                                                                                                                 
8092030.0    8092030.0          pw.x             16839312K       lrdn0097              0 4259318528   6377088K   lrdn0097          0 1575757.5+     3434     lrdn0097              0        595   00:04:07   lrdn0154          6   00:04:49       16        128   00:03:24  COMPLETED      0:0     24.26M       Unknown       Unknown       Unknown                         0       12.42M        lrdn0097               0          4.73M        4.16M         lrdn0097                0          4.15M            cpu=128,g+ cpu=00:04:49,+ cpu=00:05:28,+ cpu=lrdn1830,ener+ cpu=9,fs/disk=0,m+ cpu=00:04:07,+ cpu=lrdn0154,ener+ cpu=6,fs/disk=10,+ cpu=01:17:09,+ energy=0,fs/di+ energy=lrdn1830,fs+           fs/disk=0 energy=0,fs/di+ energy=0,fs/di+ 
