       JobID     JobIDRaw    JobName  Partition  MaxVMSize  MaxVMSizeNode  MaxVMSizeTask  AveVMSize     MaxRSS MaxRSSNode MaxRSSTask     AveRSS MaxPages MaxPagesNode   MaxPagesTask   AvePages     MinCPU MinCPUNode MinCPUTask     AveCPU   NTasks  AllocCPUS    Elapsed      State ExitCode AveCPUFreq ReqCPUFreqMin ReqCPUFreqMax ReqCPUFreqGov     ReqMem ConsumedEnergy  MaxDiskRead MaxDiskReadNode MaxDiskReadTask    AveDiskRead MaxDiskWrite MaxDiskWriteNode MaxDiskWriteTask   AveDiskWrite    AllocGRES      ReqGRES    ReqTRES  AllocTRES TRESUsageInAve TRESUsageInMax TRESUsageInMaxNode TRESUsageInMaxTask TRESUsageInMin TRESUsageInMinNode TRESUsageInMinTask TRESUsageInTot TRESUsageOutMax TRESUsageOutMaxNode TRESUsageOutMaxTask TRESUsageOutAve TRESUsageOutTot 
------------ ------------ ---------- ---------- ---------- -------------- -------------- ---------- ---------- ---------- ---------- ---------- -------- ------------ -------------- ---------- ---------- ---------- ---------- ---------- -------- ---------- ---------- ---------- -------- ---------- ------------- ------------- ------------- ---------- -------------- ------------ --------------- --------------- -------------- ------------ ---------------- ---------------- -------------- ------------ ------------ ---------- ---------- -------------- -------------- ------------------ ------------------ -------------- ------------------ ------------------ -------------- --------------- ------------------- ------------------- --------------- --------------- 
244514       244514       CovidWeak+         cn                                                                                                                                                                                                             512   00:32:29    RUNNING      0:0                  Unknown       Unknown       Unknown        1Gc                                                                                                                                                                    billing=5+ billing=5+                                                                                                                                                                                                                                 
244514.batch 244514.batch      batch                                                                                                                                                                                                               1        128   00:32:29    RUNNING      0:0          0             0             0             0        1Gc              0                                                                                                                                                                cpu=128,m+                                                                                                                                                                                                                                 
244514.0     244514.0         siesta              5279728K         cn0021            335 4823423128    832176K     cn0022        420  786940136      104       cn0018              0         25   00:31:46     cn0021        274   00:32:01      512        512   00:32:27  COMPLETED      0:0      1.24M       Unknown       Unknown       Unknown        1Gc          3.52M       14.67M          cn0019             251         12.81M       16.06M           cn0018                0          4.13M                                      cpu=512,m+ cpu=00:32:01,+ cpu=00:32:03,+ cpu=cn0019,energy+ cpu=220,fs/disk=2+ cpu=00:31:46,+ cpu=cn0021,energy+ cpu=274,fs/disk=2+ cpu=11-09:20:+ energy=500,fs/+ energy=cn0019,fs/d+           fs/disk=0 energy=24,fs/d+ energy=12710,f+ 
