JobID        JobIDRaw        JobName  Partition  MaxVMSize  MaxVMSizeNode  MaxVMSizeTask  AveVMSize     MaxRSS MaxRSSNode MaxRSSTask     AveRSS MaxPages MaxPagesNode   MaxPagesTask   AvePages     MinCPU MinCPUNode MinCPUTask     AveCPU   NTasks  AllocCPUS    Elapsed      State ExitCode AveCPUFreq ReqCPUFreqMin ReqCPUFreqMax ReqCPUFreqGov     ReqMem ConsumedEnergy  MaxDiskRead MaxDiskReadNode MaxDiskReadTask    AveDiskRead MaxDiskWrite MaxDiskWriteNode MaxDiskWriteTask   AveDiskWrite    ReqTRES  AllocTRES TRESUsageInAve TRESUsageInMax TRESUsageInMaxNode TRESUsageInMaxTask TRESUsageInMin TRESUsageInMinNode TRESUsageInMinTask TRESUsageInTot TRESUsageOutMax TRESUsageOutMaxNode TRESUsageOutMaxTask TRESUsageOutAve TRESUsageOutTot 
------------ ------------ ---------- ---------- ---------- -------------- -------------- ---------- ---------- ---------- ---------- ---------- -------- ------------ -------------- ---------- ---------- ---------- ---------- ---------- -------- ---------- ---------- ---------- -------- ---------- ------------- ------------- ------------- ---------- -------------- ------------ --------------- --------------- -------------- ------------ ---------------- ---------------- -------------- ---------- ---------- -------------- -------------- ------------------ ------------------ -------------- ------------------ ------------------ -------------- --------------- ------------------- ------------------- --------------- --------------- 
7464824      7464824      submit.job dcgp_usr_+                                                                                                                                                                                                             112   00:19:08    RUNNING      0:0                  Unknown       Unknown       Unknown    492800M                                                                                                                                          billing=1+ billing=1+                                                                                                                                                                                                                                 
7464824.bat+ 7464824.bat+      batch                                                                                                                                                                                                               1        112   00:19:08    RUNNING      0:0          0             0             0             0                         0                                                                                                                                      cpu=112,g+                                                                                                                                                                                                                                 
7464824.ext+ 7464824.ext+     extern                                                                                                                                                                                                               1        112   00:19:08    RUNNING      0:0          0             0             0             0                         0                                                                                                                                      billing=1+                                                                                                                                                                                                                                 
7464824.0    7464824.0          pw.x             15756756K       lrdn3607             11 157487044+  15725440K   lrdn3607         11 157331134+      247     lrdn3607              0        113   01:12:32   lrdn3607         27   01:13:21       28        112   00:19:03  COMPLETED      0:0     13.65M       Unknown       Unknown       Unknown                         0        4.61M        lrdn3607               0          2.38M        0.33M         lrdn3607                0          0.31M            cpu=112,g+ cpu=01:13:21,+ cpu=01:13:33,+ cpu=lrdn3607,ener+ cpu=12,fs/disk=0,+ cpu=01:12:32,+ cpu=lrdn3607,ener+ cpu=27,fs/disk=16+ cpu=1-10:13:4+ energy=0,fs/di+ energy=lrdn3607,fs+           fs/disk=0 energy=0,fs/di+ energy=0,fs/di+ 
