load mkl/2024.0 (LD_LIBRARY_PATH)
load HDF5/1.14.1-2 (PATH, LD_LIBRARY_PATH, LIBRARY_PATH, C_INCLUDE_PATH,
CPLUS_INCLUDE_PATH, HDF5_DIR, HDF5_ROOT) 
load QUANTUMESPRESSO/7.3.1 (PATH)
Warning: ieee_inexact is signaling
FORTRAN STOP
Warning: ieee_inexact is signaling
FORTRAN STOP
[as01r2b28:1506839:0:1506839] Caught signal 11 (Segmentation fault: address not mapped to object at address 0xffffffffb58ca058)
[as01r2b28:1506837:0:1506837] Caught signal 11 (Segmentation fault: address not mapped to object at address 0xffffffffd6449058)
Warning: ieee_inexact is signaling
FORTRAN STOP
[as01r2b28:1506838:0:1506838] Caught signal 11 (Segmentation fault: address not mapped to object at address 0xffffffffc2ada058)
Warning: ieee_inexact is signaling
FORTRAN STOP
[as01r2b28:1506836:0:1506836] Caught signal 11 (Segmentation fault: address not mapped to object at address 0x53dda058)
Warning: ieee_inexact is signaling
FORTRAN STOP
Warning: ieee_inexact is signaling
FORTRAN STOP
Warning: ieee_inexact is signaling
FORTRAN STOP
Warning: ieee_inexact is signaling
FORTRAN STOP
Warning: ieee_inexact is signaling
FORTRAN STOP
Warning: ieee_inexact is signaling
FORTRAN STOP
Warning: ieee_inexact is signaling
FORTRAN STOP
[as01r2b17:2048404:0:2048404] Caught signal 11 (Segmentation fault: address not mapped to object at address 0x57027058)
[as01r2b17:2048402:0:2048402] Caught signal 11 (Segmentation fault: address not mapped to object at address 0x489be058)
[as01r2b25:2089366:0:2089366] Caught signal 11 (Segmentation fault: address not mapped to object at address 0xffffffffe1d96058)
[as01r2b25:2089368:0:2089368] Caught signal 11 (Segmentation fault: address not mapped to object at address 0xfffffffff9ad3058)
[as01r2b25:2089365:0:2089365] Caught signal 11 (Segmentation fault: address not mapped to object at address 0xffffffffd1828058)
[as01r2b17:2048403:0:2048403] Caught signal 11 (Segmentation fault: invalid permissions for mapped object at address 0xd180058)
[as01r2b25:2089367:0:2089367] Caught signal 11 (Segmentation fault: address not mapped to object at address 0x51ae4058)
Warning: ieee_inexact is signaling
FORTRAN STOP
Warning: ieee_inexact is signaling
FORTRAN STOP
Warning: ieee_inexact is signaling
FORTRAN STOP
Warning: ieee_inexact is signaling
FORTRAN STOP
[as01r2b21:3159969:0:3159969] Caught signal 11 (Segmentation fault: address not mapped to object at address 0x5de23058)
[as01r2b21:3159970:0:3159970] Caught signal 11 (Segmentation fault: address not mapped to object at address 0xffffffffdbac8058)
[as01r2b21:3159968:0:3159968] Caught signal 11 (Segmentation fault: address not mapped to object at address 0xffffffff913ba058)
[as01r2b21:3159967:0:3159967] Caught signal 11 (Segmentation fault: address not mapped to object at address 0x3c956058)
Warning: ieee_inexact is signaling
FORTRAN STOP
Warning: ieee_inexact is signaling
FORTRAN STOP
Warning: ieee_inexact is signaling
FORTRAN STOP
Warning: ieee_inexact is signaling
FORTRAN STOP
Warning: ieee_inexact is signaling
FORTRAN STOP
Warning: ieee_inexact is signaling
FORTRAN STOP
Warning: ieee_inexact is signaling
FORTRAN STOP
Warning: ieee_inexact is signaling
FORTRAN STOP
Warning: ieee_inexact is signaling
FORTRAN STOP
Warning: ieee_inexact is signaling
FORTRAN STOP
Warning: ieee_inexact is signaling
FORTRAN STOP
[as01r2b24:2250552:0:2250552] Caught signal 11 (Segmentation fault: address not mapped to object at address 0x3e887058)
Warning: ieee_inexact is signaling
FORTRAN STOP
Warning: ieee_inexact is signaling
FORTRAN STOP
[as01r2b24:2250550:0:2250550] Caught signal 11 (Segmentation fault: invalid permissions for mapped object at address 0x6a8e058)
[as01r2b24:2250551:0:2250551] Caught signal 11 (Segmentation fault: address not mapped to object at address 0x5732f058)
Warning: ieee_inexact is signaling
FORTRAN STOP
Warning: ieee_inexact is signaling
FORTRAN STOP
Warning: ieee_inexact is signaling
FORTRAN STOP
Warning: ieee_inexact is signaling
FORTRAN STOP
Warning: ieee_inexact is signaling
FORTRAN STOP
[as01r2b26:397403:0:397403] Caught signal 11 (Segmentation fault: address not mapped to object at address 0xffffffffce721058)
[as01r2b22:1582659:0:1582659] Caught signal 11 (Segmentation fault: address not mapped to object at address 0xffffffff9e2d1058)
Warning: ieee_divide_by_zero is signaling
Warning: ieee_inexact is signaling
FORTRAN STOP
[as01r2b18:2116316:0:2116316] Caught signal 11 (Segmentation fault: address not mapped to object at address 0xffffffffbfd72058)
[as01r2b20:1942451:0:1942451] Caught signal 11 (Segmentation fault: address not mapped to object at address 0x207c5058)
[as01r2b26:397402:0:397402] Caught signal 11 (Segmentation fault: address not mapped to object at address 0x514fa058)
[as01r2b22:1582661:0:1582661] Caught signal 11 (Segmentation fault: address not mapped to object at address 0xffffffffc45a8058)
[as01r2b18:2116318:0:2116318] Caught signal 11 (Segmentation fault: address not mapped to object at address 0x2828d058)
[as01r2b20:1942453:0:1942453] Caught signal 11 (Segmentation fault: address not mapped to object at address 0x46d20058)
Warning: ieee_inexact is signaling
FORTRAN STOP
[as01r2b22:1582658:0:1582658] Caught signal 11 (Segmentation fault: address not mapped to object at address 0x7c989058)
[as01r2b18:2116319:0:2116319] Caught signal 11 (Segmentation fault: address not mapped to object at address 0xfffffffff00e7058)
[as01r2b20:1942452:0:1942452] Caught signal 11 (Segmentation fault: invalid permissions for mapped object at address 0x13b88058)
[as01r2b26:397401:0:397401] Caught signal 11 (Segmentation fault: address not mapped to object at address 0xffffffffd3e3e058)
[as01r2b18:2116317:0:2116317] Caught signal 11 (Segmentation fault: address not mapped to object at address 0x2761a058)
[as01r2b26:397400:0:397400] Caught signal 11 (Segmentation fault: address not mapped to object at address 0x57e1d058)
Warning: ieee_inexact is signaling
FORTRAN STOP
[as01r2b24:2250549:0:2250549] Caught signal 11 (Segmentation fault: address not mapped to object at address 0xffffffffa9803058)
[as01r2b22:1582660:0:1582660] Caught signal 11 (Segmentation fault: address not mapped to object at address 0xffffffffb6e4a058)
Warning: ieee_inexact is signaling
FORTRAN STOP
Warning: ieee_inexact is signaling
FORTRAN STOP
Warning: ieee_inexact is signaling
FORTRAN STOP
[as01r2b20:1942450:0:1942450] Caught signal 11 (Segmentation fault: address not mapped to object at address 0xffffffffdb230058)
[as01r2b17:2048401:0:2048401] Caught signal 11 (Segmentation fault: address not mapped to object at address 0xffffffffbfd95058)
[as01r2b27:2057747:0:2057747] Caught signal 11 (Segmentation fault: invalid permissions for mapped object at address 0x10747058)
[as01r2b27:2057749:0:2057749] Caught signal 11 (Segmentation fault: address not mapped to object at address 0x4517b058)
[as01r2b27:2057748:0:2057748] Caught signal 11 (Segmentation fault: address not mapped to object at address 0x1e7ad058)
Warning: ieee_inexact is signaling
FORTRAN STOP
[as01r2b27:2057746:0:2057746] Caught signal 11 (Segmentation fault: address not mapped to object at address 0xffffffff89412058)
Warning: ieee_inexact is signaling
FORTRAN STOP
Warning: ieee_inexact is signaling
FORTRAN STOP
Warning: ieee_inexact is signaling
FORTRAN STOP
Warning: ieee_inexact is signaling
FORTRAN STOP
[as01r2b19:1826019:0:1826019] Caught signal 11 (Segmentation fault: address not mapped to object at address 0xfffffffff210f058)
[as01r2b19:1826020:0:1826020] Caught signal 11 (Segmentation fault: address not mapped to object at address 0x6ee60058)
[as01r2b19:1826018:0:1826018] Caught signal 11 (Segmentation fault: address not mapped to object at address 0x24f41058)
[as01r2b19:1826017:0:1826017] Caught signal 11 (Segmentation fault: address not mapped to object at address 0xffffffff8068c058)
==== backtrace (tid:2250550) ====
 0 0x0000000000054df0 __GI___sigaction()  :0
=================================
[as01r2b24:2250550] *** Process received signal ***
[as01r2b24:2250550] Signal: Segmentation fault (11)
[as01r2b24:2250550] Signal code:  (-6)
[as01r2b24:2250550] Failing at address: 0xbe800225736
[as01r2b24:2250550] [ 0] /lib64/libc.so.6(+0x54df0)[0x7f7c1bdd7df0]
[as01r2b24:2250550] [ 1] [0x6a8e058]
[as01r2b24:2250550] *** End of error message ***
==== backtrace (tid:2048403) ====
 0 0x0000000000054df0 __GI___sigaction()  :0
=================================
[as01r2b17:2048403] *** Process received signal ***
[as01r2b17:2048403] Signal: Segmentation fault (11)
[as01r2b17:2048403] Signal code:  (-6)
[as01r2b17:2048403] Failing at address: 0xbe8001f4193
[as01r2b17:2048403] [ 0] /lib64/libc.so.6(+0x54df0)[0x7fe7224c9df0]
[as01r2b17:2048403] [ 1] [0xd180058]
[as01r2b17:2048403] *** End of error message ***
==== backtrace (tid:1942452) ====
 0 0x0000000000054df0 __GI___sigaction()  :0
=================================
[as01r2b20:1942452] *** Process received signal ***
[as01r2b20:1942452] Signal: Segmentation fault (11)
[as01r2b20:1942452] Signal code:  (-6)
[as01r2b20:1942452] Failing at address: 0xbe8001da3b4
[as01r2b20:1942452] [ 0] /lib64/libc.so.6(+0x54df0)[0x7fcf28ed1df0]
[as01r2b20:1942452] [ 1] [0x13b88058]
[as01r2b20:1942452] *** End of error message ***
==== backtrace (tid:2057747) ====
 0 0x0000000000054df0 __GI___sigaction()  :0
=================================
[as01r2b27:2057747] *** Process received signal ***
[as01r2b27:2057747] Signal: Segmentation fault (11)
[as01r2b27:2057747] Signal code:  (-6)
[as01r2b27:2057747] Failing at address: 0xbe8001f6613
[as01r2b27:2057747] [ 0] /lib64/libc.so.6(+0x54df0)[0x7fcf25a90df0]
[as01r2b27:2057747] [ 1] [0x10747058]
[as01r2b27:2057747] *** End of error message ***
Warning: ieee_inexact is signaling
FORTRAN STOP
Warning: ieee_inexact is signaling
FORTRAN STOP
Warning: ieee_inexact is signaling
FORTRAN STOP
Warning: ieee_inexact is signaling
FORTRAN STOP
--------------------------------------------------------------------------
Primary job  terminated normally, but 1 process returned
a non-zero exit code. Per user-direction, the job has been aborted.
--------------------------------------------------------------------------
[as01r2b29:2180965:0:2180965] Caught signal 11 (Segmentation fault: address not mapped to object at address 0xfffffffffef3f058)
[as01r2b29:2180966:0:2180966] Caught signal 11 (Segmentation fault: address not mapped to object at address 0xffffffffc190a058)
[as01r2b29:2180967:0:2180967] Caught signal 11 (Segmentation fault: address not mapped to object at address 0x4f21b058)
[as01r2b29:2180968:0:2180968] Caught signal 11 (Segmentation fault: address not mapped to object at address 0xffffffffe7e3b058)
--------------------------------------------------------------------------
mpirun noticed that process rank 40 with PID 1506836 on node as01r2b28 exited on signal 11 (Segmentation fault).
--------------------------------------------------------------------------
