JobID        JobIDRaw        JobName  Partition  MaxVMSize  MaxVMSizeNode  MaxVMSizeTask  AveVMSize     MaxRSS MaxRSSNode MaxRSSTask     AveRSS MaxPages MaxPagesNode   MaxPagesTask   AvePages     MinCPU MinCPUNode MinCPUTask     AveCPU   NTasks  AllocCPUS    Elapsed      State ExitCode AveCPUFreq ReqCPUFreqMin ReqCPUFreqMax ReqCPUFreqGov     ReqMem ConsumedEnergy  MaxDiskRead MaxDiskReadNode MaxDiskReadTask    AveDiskRead MaxDiskWrite MaxDiskWriteNode MaxDiskWriteTask   AveDiskWrite    ReqTRES  AllocTRES TRESUsageInAve TRESUsageInMax TRESUsageInMaxNode TRESUsageInMaxTask TRESUsageInMin TRESUsageInMinNode TRESUsageInMinTask TRESUsageInTot TRESUsageOutMax TRESUsageOutMaxNode TRESUsageOutMaxTask TRESUsageOutAve TRESUsageOutTot 
------------ ------------ ---------- ---------- ---------- -------------- -------------- ---------- ---------- ---------- ---------- ---------- -------- ------------ -------------- ---------- ---------- ---------- ---------- ---------- -------- ---------- ---------- ---------- -------- ---------- ------------- ------------- ------------- ---------- -------------- ------------ --------------- --------------- -------------- ------------ ---------------- ---------------- -------------- ---------- ---------- -------------- -------------- ------------------ ------------------ -------------- ------------------ ------------------ -------------- --------------- ------------------- ------------------- --------------- --------------- 
3218816      3218816      qe-pw-ben+        acc                                                                                                                                                                                                            1920   00:05:38    RUNNING      0:0                  Unknown       Unknown       Unknown   6000000M                                                                                                                                          billing=9+ billing=1+                                                                                                                                                                                                                                 
3218816.bat+ 3218816.bat+      batch                                                                                                                                                                                                               1        160   00:05:38    RUNNING      0:0          0             0             0             0                         0                                                                                                                                      cpu=160,g+                                                                                                                                                                                                                                 
3218816.ext+ 3218816.ext+     extern                                                                                                                                                                                                              12       1920   00:05:38    RUNNING      0:0          0             0             0             0                         0                                                                                                                                      billing=1+                                                                                                                                                                                                                                 
3218816.0    3218816.0         orted                                                                                                                                                                                                              11        440   00:05:32    RUNNING      0:0          0       Unknown       Unknown       Unknown                         0                                                                                                                                      cpu=440,g+                                                                                                                                                                                                                                 
