JobId=3218816 JobName=qe-pw-benchmark
   UserId=bsc021507(3048) GroupId=bsc(50000) MCS_label=N/A
   Priority=5575 Nice=0 Account=bsc21 QOS=acc_bsccase
   JobState=RUNNING Reason=None Dependency=(null)
   Requeue=0 Restarts=0 BatchFlag=1 Reboot=0 ExitCode=0:0
   RunTime=00:00:06 TimeLimit=02:00:00 TimeMin=N/A
   SubmitTime=2024-06-20T13:57:07 EligibleTime=2024-06-20T13:57:07
   AccrueTime=2024-06-20T13:57:07
   StartTime=2024-06-20T13:57:10 EndTime=2024-06-20T15:57:10 Deadline=N/A
   SuspendTime=None SecsPreSuspend=0 LastSchedEval=2024-06-20T13:57:10 Scheduler=Main
   Partition=acc AllocNode:Sid=alogin1:1297330
   ReqNodeList=(null) ExcNodeList=(null)
   NodeList=as01r2b[17-22,24-29]
   BatchHost=as01r2b17
   NumNodes=12 NumCPUs=1920 NumTasks=48 CPUs/Task=20 ReqB:S:C:T=0:0:*:1
   ReqTRES=cpu=960,mem=6000000M,node=12,billing=960,gres/gpu=48
   AllocTRES=cpu=1920,mem=6000000M,node=12,billing=1920,gres/gpu=48
   Socks/Node=* NtasksPerN:B:S:C=4:0:*:* CoreSpec=*
   MinCPUsNode=80 MinMemoryCPU=6250M MinTmpDiskNode=0
   Features=(null) DelayBoot=00:00:00
   OverSubscribe=NO Contiguous=0 Licenses=(null) Network=(null)
   Command=/gpfs/projects/bsc21/bsc21507/JUBE4MaX/max-inputs/interface/julio-MN/cnt10por8-MN5ACC-731module/000000/000004_submit_N12nth20np4/work/submit.job
   WorkDir=/gpfs/projects/bsc21/bsc21507/JUBE4MaX/max-inputs/interface/julio-MN/cnt10por8-MN5ACC-731module/000000/000004_submit_N12nth20np4/work
   StdErr=/gpfs/projects/bsc21/bsc21507/JUBE4MaX/max-inputs/interface/julio-MN/cnt10por8-MN5ACC-731module/000000/000004_submit_N12nth20np4/work/job_3218816.err
   StdIn=/dev/null
   StdOut=/gpfs/projects/bsc21/bsc21507/JUBE4MaX/max-inputs/interface/julio-MN/cnt10por8-MN5ACC-731module/000000/000004_submit_N12nth20np4/work/job_3218816.out
   Power=
   TresPerNode=gres:gpu:4
   

