JobID        JobIDRaw        JobName  Partition  MaxVMSize  MaxVMSizeNode  MaxVMSizeTask  AveVMSize     MaxRSS MaxRSSNode MaxRSSTask     AveRSS MaxPages MaxPagesNode   MaxPagesTask   AvePages     MinCPU MinCPUNode MinCPUTask     AveCPU   NTasks  AllocCPUS    Elapsed      State ExitCode AveCPUFreq ReqCPUFreqMin ReqCPUFreqMax ReqCPUFreqGov     ReqMem ConsumedEnergy  MaxDiskRead MaxDiskReadNode MaxDiskReadTask    AveDiskRead MaxDiskWrite MaxDiskWriteNode MaxDiskWriteTask   AveDiskWrite    ReqTRES  AllocTRES TRESUsageInAve TRESUsageInMax TRESUsageInMaxNode TRESUsageInMaxTask TRESUsageInMin TRESUsageInMinNode TRESUsageInMinTask TRESUsageInTot TRESUsageOutMax TRESUsageOutMaxNode TRESUsageOutMaxTask TRESUsageOutAve TRESUsageOutTot 
------------ ------------ ---------- ---------- ---------- -------------- -------------- ---------- ---------- ---------- ---------- ---------- -------- ------------ -------------- ---------- ---------- ---------- ---------- ---------- -------- ---------- ---------- ---------- -------- ---------- ------------- ------------- ------------- ---------- -------------- ------------ --------------- --------------- -------------- ------------ ---------------- ---------------- -------------- ---------- ---------- -------------- -------------- ------------------ ------------------ -------------- ------------------ ------------------ -------------- --------------- ------------------- ------------------- --------------- --------------- 
9592904      9592904      CovidWeak+        gpp                                                                                                                                                                                                             896   00:56:42    RUNNING      0:0                  Unknown       Unknown       Unknown       875G                                                                                                                                          billing=4+ billing=8+                                                                                                                                                                                                                                 
9592904.bat+ 9592904.bat+      batch                                                                                                                                                                                                               1        224   00:56:42    RUNNING      0:0          0             0             0             0                         0                                                                                                                                      cpu=224,m+                                                                                                                                                                                                                                 
9592904.ext+ 9592904.ext+     extern                                                                                                                                                                                                               4        896   00:56:42    RUNNING      0:0          0             0             0             0                         0                                                                                                                                      billing=8+                                                                                                                                                                                                                                 
9592904.0    9592904.0        siesta              8598600K      gs22r2b51            308 7665594.5+   1681201K  gs22r2b52        434 1571514173       36    gs22r2b50            136          3   00:55:03  gs22r2b51        224   00:55:31      448        896   00:56:28  COMPLETED      0:0    136.72M       Unknown       Unknown       Unknown                    11.95M       14.59M       gs22r2b52             440         12.43M       45.47M        gs22r2b49                0          4.26M            cpu=896,m+ cpu=00:55:31,+ cpu=00:55:36,+ cpu=gs22r2b50,ene+ cpu=116,fs/disk=4+ cpu=00:55:03,+ cpu=gs22r2b51,ene+ cpu=224,fs/disk=1+ cpu=17-06:37:+ energy=1009,fs+ energy=gs22r2b50,f+           fs/disk=0 energy=2,fs/di+ energy=1318,fs+ 
