JobID        JobIDRaw        JobName  Partition  MaxVMSize  MaxVMSizeNode  MaxVMSizeTask  AveVMSize     MaxRSS MaxRSSNode MaxRSSTask     AveRSS MaxPages MaxPagesNode   MaxPagesTask   AvePages     MinCPU MinCPUNode MinCPUTask     AveCPU   NTasks  AllocCPUS    Elapsed      State ExitCode AveCPUFreq ReqCPUFreqMin ReqCPUFreqMax ReqCPUFreqGov     ReqMem ConsumedEnergy  MaxDiskRead MaxDiskReadNode MaxDiskReadTask    AveDiskRead MaxDiskWrite MaxDiskWriteNode MaxDiskWriteTask   AveDiskWrite    ReqTRES  AllocTRES TRESUsageInAve TRESUsageInMax TRESUsageInMaxNode TRESUsageInMaxTask TRESUsageInMin TRESUsageInMinNode TRESUsageInMinTask TRESUsageInTot TRESUsageOutMax TRESUsageOutMaxNode TRESUsageOutMaxTask TRESUsageOutAve TRESUsageOutTot 
------------ ------------ ---------- ---------- ---------- -------------- -------------- ---------- ---------- ---------- ---------- ---------- -------- ------------ -------------- ---------- ---------- ---------- ---------- ---------- -------- ---------- ---------- ---------- -------- ---------- ------------- ------------- ------------- ---------- -------------- ------------ --------------- --------------- -------------- ------------ ---------------- ---------------- -------------- ---------- ---------- -------------- -------------- ------------------ ------------------ -------------- ------------------ ------------------ -------------- --------------- ------------------- ------------------- --------------- --------------- 
9552722      9552722       CovidWeak        gpp                                                                                                                                                                                                            1792   00:01:15    RUNNING      0:0                  Unknown       Unknown       Unknown      1750G                                                                                                                                          billing=8+ billing=1+                                                                                                                                                                                                                                 
9552722.bat+ 9552722.bat+      batch                                                                                                                                                                                                               1        224   00:01:15    RUNNING      0:0          0             0             0             0                         0                                                                                                                                      cpu=224,m+                                                                                                                                                                                                                                 
9552722.ext+ 9552722.ext+     extern                                                                                                                                                                                                               8       1792   00:01:15    RUNNING      0:0          0             0             0             0                         0                                                                                                                                      billing=1+                                                                                                                                                                                                                                 
9552722.0    9552722.0        siesta              5644596K      gs03r3b52              0 5495489476    556916K  gs03r3b56        532  469736731       35    gs03r3b54            280          3   00:00:25  gs03r3b56        468   00:00:31      896       1792   00:01:08  COMPLETED      0:0      3.40G       Unknown       Unknown       Unknown                   334.58K       12.72M       gs03r3b52               0         10.18M       26.88M        gs03r3b52                0          4.25M            cpu=1792,+ cpu=00:00:31,+ cpu=00:00:44,+ cpu=gs03r3b52,ene+ cpu=0,fs/disk=0,m+ cpu=00:00:25,+ cpu=gs03r3b56,ene+ cpu=468,fs/disk=5+ cpu=07:57:04,+ energy=974,fs/+ energy=gs03r3b59,f+           fs/disk=0 energy=3,fs/di+ energy=3022,fs+ 
