{
 "global_section": { "_calls": 1, "_time":      851.584, "_%":   100.00,
   "siesta": { "_calls": 1, "_time":      851.584, "_%":   100.00,
     "Setup": { "_calls": 1, "_time":        2.050, "_%":     0.24,
       "bands": { "_calls": 1, "_time":        0.004, "_%":     0.00},
       "KSV_init": { "_calls": 1, "_time":        0.001, "_%":     0.00}
     },
     "IterGeom": { "_calls": 1, "_time":      849.396, "_%":    99.74,
       "geom_init": { "_calls": 1, "_time":        3.427, "_%":     0.40,
         "state_init": { "_calls": 1, "_time":        0.840, "_%":     0.10,
           "hsparse": { "_calls": 1, "_time":        0.100, "_%":     0.01},
           "overlap": { "_calls": 1, "_time":        0.033, "_%":     0.00}
         },
         "Setup_H0": { "_calls": 1, "_time":        2.585, "_%":     0.30,
           "naefs": { "_calls": 1, "_time":        0.014, "_%":     0.00},
           "MolMec": { "_calls": 1, "_time":        0.000, "_%":     0.00},
           "kinefsm": { "_calls": 1, "_time":        0.031, "_%":     0.00},
           "nlefsm": { "_calls": 1, "_time":        0.112, "_%":     0.01},
           "DHSCF_Init": { "_calls": 1, "_time":        2.419, "_%":     0.28,
             "DHSCF1": { "_calls": 1, "_time":        0.028, "_%":     0.00,
               "INITMESH": { "_calls": 1, "_time":        0.000, "_%":     0.00}
             },
             "DHSCF2": { "_calls": 1, "_time":        2.380, "_%":     0.28,
               "REMESH": { "_calls": 1, "_time":        0.963, "_%":     0.11,
                 "INITMESH": { "_calls": 2, "_time":        0.938, "_%":     0.11,
                   "SPLOAD": { "_calls": 2, "_time":        0.613, "_%":     0.07}
                 }
               },
               "REORD": { "_calls": 2, "_time":        0.004, "_%":     0.00},
               "PHION": { "_calls": 1, "_time":        0.033, "_%":     0.00},
               "COMM_BSC": { "_calls": 1, "_time":        0.031, "_%":     0.00},
               "POISON": { "_calls": 1, "_time":        0.961, "_%":     0.11,
                 "fft": { "_calls": 2, "_time":        0.924, "_%":     0.11}
               }
             }
           }
         }
       },
       "IterSCF": { "_calls": 5, "_time":      845.898, "_%":    99.33,
         "setup_H": { "_calls": 5, "_time":        7.537, "_%":     0.89,
           "DHSCF": { "_calls": 5, "_time":        7.529, "_%":     0.88,
             "DHSCF3": { "_calls": 5, "_time":        7.529, "_%":     0.88,
               "rhoofd": { "_calls": 5, "_time":        0.061, "_%":     0.01},
               "COMM_BSC": { "_calls": 10, "_time":        0.255, "_%":     0.03},
               "POISON": { "_calls": 5, "_time":        4.714, "_%":     0.55,
                 "fft": { "_calls": 10, "_time":        4.524, "_%":     0.53}
               },
               "XC": { "_calls": 5, "_time":        2.124, "_%":     0.25,
                 "COMM_BSC": { "_calls": 10, "_time":        0.251, "_%":     0.03},
                 "GXC-CellXC": { "_calls": 5, "_time":        1.831, "_%":     0.22,
                   "gridxc@cellXC": { "_calls": 5, "_time":        1.831, "_%":     0.22}
                 }
               },
               "vmat": { "_calls": 5, "_time":        0.038, "_%":     0.00}
             }
           }
         },
         "compute_dm": { "_calls": 5, "_time":      838.324, "_%":    98.44,
           "redist_orbs_fwd": { "_calls": 40, "_time":        2.321, "_%":     0.27},
           "elsi-complex-solver": { "_calls": 5, "_time":      835.869, "_%":    98.15,
             "elsi-solver": { "_calls": 5, "_time":      832.237, "_%":    97.73}
           },
           "redist_dm-edm_bck": { "_calls": 5, "_time":        0.108, "_%":     0.01}
         },
         "MIXER": { "_calls": 5, "_time":        0.006, "_%":     0.00}
       },
       "state_analysis": { "_calls": 1, "_time":        0.051, "_%":     0.01},
       "siesta_move": { "_calls": 1, "_time":        0.000, "_%":     0.00}
     },
     "Analysis": { "_calls": 1, "_time":        0.128, "_%":     0.02,
       "optical": { "_calls": 1, "_time":        0.001, "_%":     0.00}
     }
   }
 }}
