JobID        JobIDRaw        JobName  Partition  MaxVMSize  MaxVMSizeNode  MaxVMSizeTask  AveVMSize     MaxRSS MaxRSSNode MaxRSSTask     AveRSS MaxPages MaxPagesNode   MaxPagesTask   AvePages     MinCPU MinCPUNode MinCPUTask     AveCPU   NTasks  AllocCPUS    Elapsed      State ExitCode AveCPUFreq ReqCPUFreqMin ReqCPUFreqMax ReqCPUFreqGov     ReqMem ConsumedEnergy  MaxDiskRead MaxDiskReadNode MaxDiskReadTask    AveDiskRead MaxDiskWrite MaxDiskWriteNode MaxDiskWriteTask   AveDiskWrite    ReqTRES  AllocTRES TRESUsageInAve TRESUsageInMax TRESUsageInMaxNode TRESUsageInMaxTask TRESUsageInMin TRESUsageInMinNode TRESUsageInMinTask TRESUsageInTot TRESUsageOutMax TRESUsageOutMaxNode TRESUsageOutMaxTask TRESUsageOutAve TRESUsageOutTot 
------------ ------------ ---------- ---------- ---------- -------------- -------------- ---------- ---------- ---------- ---------- ---------- -------- ------------ -------------- ---------- ---------- ---------- ---------- ---------- -------- ---------- ---------- ---------- -------- ---------- ------------- ------------- ------------- ---------- -------------- ------------ --------------- --------------- -------------- ------------ ---------------- ---------------- -------------- ---------- ---------- -------------- -------------- ------------------ ------------------ -------------- ------------------ ------------------ -------------- --------------- ------------------- ------------------- --------------- --------------- 
151863       151863        CovidWeak normal-x86                                                                                                                                                                                                            2048   00:12:26    RUNNING      0:0                  Unknown       Unknown       Unknown      3872G                                                                                                                                          billing=2+ billing=2+                                                                                                                                                                                                                                 
151863.batch 151863.batch      batch                                                                                                                                                                                                               1        128   00:12:26    RUNNING      0:0          0             0             0             0                         0                                                                                                                                      cpu=128,m+                                                                                                                                                                                                                                 
151863.exte+ 151863.exte+     extern                                                                                                                                                                                                              16       2048   00:12:26    RUNNING      0:0          0             0             0             0                         0                                                                                                                                      billing=2+                                                                                                                                                                                                                                 
151863.0     151863.0          orted             39752148K         cnx295              7 389017657+  38494716K     cnx295          7 376152776+      693       cnx295              7        558 1-01:46:28     cnx331         11 1-01:48:52       15       2048   00:12:26  COMPLETED      0:0       351K             0             0             0                               2842.43M          cnx343              13       2630.17M      531.01M           cnx022                0        531.00M            billing=2+ cpu=1-01:48:5+ cpu=1-01:50:3+ cpu=cnx180,energy+ cpu=3,fs/disk=13,+ cpu=1-01:46:2+ cpu=cnx331,energy+ cpu=11,fs/disk=12+ cpu=16-03:13:+ energy=0,fs/di+ energy=cnx295,fs/d+           fs/disk=0 energy=0,fs/di+ energy=0,fs/di+ 
