JobId=151863 JobName=CovidWeak
   UserId=aalcaraz(30093) GroupId=aalcaraz(40093) MCS_label=N/A
   Priority=1 Nice=0 Account=eehpc-ben-2024b07-051x QOS=normal
   JobState=RUNNING Reason=None Dependency=(null)
   Requeue=1 Restarts=0 BatchFlag=1 Reboot=0 ExitCode=0:0
   DerivedExitCode=0:0
   RunTime=00:00:04 TimeLimit=00:59:00 TimeMin=N/A
   SubmitTime=2024-10-02T12:09:03 EligibleTime=2024-10-02T12:09:03
   AccrueTime=2024-10-02T12:09:03
   StartTime=2024-10-02T14:37:31 EndTime=2024-10-02T15:36:31 Deadline=N/A
   SuspendTime=None SecsPreSuspend=0 LastSchedEval=2024-10-02T14:37:31 Scheduler=Backfill
   Partition=normal-x86 AllocNode:Sid=ln04-x86:1974837
   ReqNodeList=(null) ExcNodeList=(null)
   NodeList=cnx[021-022,150-151,180,199,212,215,295,311,329-331,342-344]
   BatchHost=cnx021
   NumNodes=16 NumCPUs=2048 NumTasks=2048 CPUs/Task=1 ReqB:S:C:T=0:0:*:1
   ReqTRES=cpu=2048,mem=3872G,node=16,billing=2048
   AllocTRES=cpu=2048,mem=3872G,node=16,billing=2048
   Socks/Node=* NtasksPerN:B:S:C=128:0:*:* CoreSpec=*
   JOB_GRES=(null)
     Nodes=cnx[021-022,150-151,180,199,212,215,295,311,329-331,342-344] CPU_IDs=0-127 Mem=247808 GRES=
   MinCPUsNode=128 MinMemoryNode=0 MinTmpDiskNode=0
   Features=(null) DelayBoot=00:00:00
   OverSubscribe=NO Contiguous=0 Licenses=(null) Network=(null)
   Command=/projects/EEHPC-BEN-2024B07-051/JUBE4MaX/max-inputs/interface/siesta/_CovidWeak/000000/000014_submit/work/submit.job
   WorkDir=/projects/EEHPC-BEN-2024B07-051/JUBE4MaX/max-inputs/interface/siesta/_CovidWeak/000000/000014_submit/work
   StdErr=/projects/EEHPC-BEN-2024B07-051/JUBE4MaX/max-inputs/interface/siesta/_CovidWeak/000000/000014_submit/work/slurm-151863.out
   StdIn=/dev/null
   StdOut=/projects/EEHPC-BEN-2024B07-051/JUBE4MaX/max-inputs/interface/siesta/_CovidWeak/000000/000014_submit/work/slurm-151863.out
   Power=
   TresPerTask=cpu:1
   

