{
 "global_section": { "_calls": 1, "_time":      727.607, "_%":   100.00,
   "siesta": { "_calls": 1, "_time":      727.607, "_%":   100.00,
     "Setup": { "_calls": 1, "_time":        1.867, "_%":     0.26,
       "bands": { "_calls": 1, "_time":        0.002, "_%":     0.00},
       "KSV_init": { "_calls": 1, "_time":        0.001, "_%":     0.00}
     },
     "IterGeom": { "_calls": 1, "_time":      725.326, "_%":    99.69,
       "geom_init": { "_calls": 1, "_time":       13.579, "_%":     1.87,
         "state_init": { "_calls": 1, "_time":        0.788, "_%":     0.11,
           "hsparse": { "_calls": 1, "_time":        0.261, "_%":     0.04},
           "overlap": { "_calls": 1, "_time":        0.096, "_%":     0.01}
         },
         "Setup_H0": { "_calls": 1, "_time":       12.790, "_%":     1.76,
           "naefs": { "_calls": 1, "_time":        0.042, "_%":     0.01},
           "MolMec": { "_calls": 1, "_time":        0.000, "_%":     0.00},
           "kinefsm": { "_calls": 1, "_time":        0.092, "_%":     0.01},
           "nlefsm": { "_calls": 1, "_time":        0.285, "_%":     0.04},
           "DHSCF_Init": { "_calls": 1, "_time":       12.342, "_%":     1.70,
             "DHSCF1": { "_calls": 1, "_time":        0.075, "_%":     0.01,
               "INITMESH": { "_calls": 1, "_time":        0.000, "_%":     0.00}
             },
             "DHSCF2": { "_calls": 1, "_time":       12.234, "_%":     1.68,
               "REMESH": { "_calls": 1, "_time":        9.034, "_%":     1.24,
                 "INITMESH": { "_calls": 2, "_time":        8.553, "_%":     1.18,
                   "SPLOAD": { "_calls": 2, "_time":        0.899, "_%":     0.12}
                 }
               },
               "REORD": { "_calls": 2, "_time":        0.004, "_%":     0.00},
               "PHION": { "_calls": 1, "_time":        0.051, "_%":     0.01},
               "COMM_BSC": { "_calls": 1, "_time":        0.166, "_%":     0.02},
               "POISON": { "_calls": 1, "_time":        1.481, "_%":     0.20,
                 "fft": { "_calls": 2, "_time":        1.449, "_%":     0.20}
               }
             }
           }
         }
       },
       "IterSCF": { "_calls": 5, "_time":      711.611, "_%":    97.80,
         "setup_H": { "_calls": 5, "_time":       12.352, "_%":     1.70,
           "DHSCF": { "_calls": 5, "_time":       12.338, "_%":     1.70,
             "DHSCF3": { "_calls": 5, "_time":       12.338, "_%":     1.70,
               "rhoofd": { "_calls": 5, "_time":        0.081, "_%":     0.01},
               "COMM_BSC": { "_calls": 10, "_time":        1.045, "_%":     0.14},
               "POISON": { "_calls": 5, "_time":        7.242, "_%":     1.00,
                 "fft": { "_calls": 10, "_time":        6.989, "_%":     0.96}
               },
               "XC": { "_calls": 5, "_time":        3.193, "_%":     0.44,
                 "COMM_BSC": { "_calls": 10, "_time":        0.633, "_%":     0.09},
                 "GXC-CellXC": { "_calls": 5, "_time":        2.496, "_%":     0.34,
                   "gridxc@cellXC": { "_calls": 5, "_time":        2.496, "_%":     0.34}
                 }
               },
               "vmat": { "_calls": 5, "_time":        0.134, "_%":     0.02}
             }
           }
         },
         "compute_dm": { "_calls": 5, "_time":      699.204, "_%":    96.10,
           "elsi": { "_calls": 5, "_time":      698.788, "_%":    96.04,
             "find nnz_g": { "_calls": 5, "_time":        0.000, "_%":     0.00},
             "elsi-solver": { "_calls": 5, "_time":      698.767, "_%":    96.04}
           }
         },
         "MIXER": { "_calls": 5, "_time":        0.021, "_%":     0.00}
       },
       "state_analysis": { "_calls": 1, "_time":        0.123, "_%":     0.02},
       "siesta_move": { "_calls": 1, "_time":        0.000, "_%":     0.00}
     },
     "Analysis": { "_calls": 1, "_time":        0.379, "_%":     0.05,
       "optical": { "_calls": 1, "_time":        0.001, "_%":     0.00}
     }
   }
 }}
