JobID        JobIDRaw        JobName  Partition  MaxVMSize  MaxVMSizeNode  MaxVMSizeTask  AveVMSize     MaxRSS MaxRSSNode MaxRSSTask     AveRSS MaxPages MaxPagesNode   MaxPagesTask   AvePages     MinCPU MinCPUNode MinCPUTask     AveCPU   NTasks  AllocCPUS    Elapsed      State ExitCode AveCPUFreq ReqCPUFreqMin ReqCPUFreqMax ReqCPUFreqGov     ReqMem ConsumedEnergy  MaxDiskRead MaxDiskReadNode MaxDiskReadTask    AveDiskRead MaxDiskWrite MaxDiskWriteNode MaxDiskWriteTask   AveDiskWrite    ReqTRES  AllocTRES TRESUsageInAve TRESUsageInMax TRESUsageInMaxNode TRESUsageInMaxTask TRESUsageInMin TRESUsageInMinNode TRESUsageInMinTask TRESUsageInTot TRESUsageOutMax TRESUsageOutMaxNode TRESUsageOutMaxTask TRESUsageOutAve TRESUsageOutTot 
------------ ------------ ---------- ---------- ---------- -------------- -------------- ---------- ---------- ---------- ---------- ---------- -------- ------------ -------------- ---------- ---------- ---------- ---------- ---------- -------- ---------- ---------- ---------- -------- ---------- ------------- ------------- ------------- ---------- -------------- ------------ --------------- --------------- -------------- ------------ ---------------- ---------------- -------------- ---------- ---------- -------------- -------------- ------------------ ------------------ -------------- ------------------ ------------------ -------------- --------------- ------------------- ------------------- --------------- --------------- 
9552680      9552680      CovidWeak+        gpp                                                                                                                                                                                                             224   00:22:16    RUNNING      0:0                  Unknown       Unknown       Unknown    224000M                                                                                                                                          billing=1+ billing=2+                                                                                                                                                                                                                                 
9552680.bat+ 9552680.bat+      batch                                                                                                                                                                                                               1        224   00:22:16    RUNNING      0:0          0             0             0             0                         0                                                                                                                                      cpu=224,m+                                                                                                                                                                                                                                 
9552680.ext+ 9552680.ext+     extern                                                                                                                                                                                                               1        224   00:22:16    RUNNING      0:0          0             0             0             0                         0                                                                                                                                      billing=2+                                                                                                                                                                                                                                 
9552680.0    9552680.0        siesta              6943016K      gs09r3b31             72 7030421174   1692002K  gs09r3b31         16 1659834075       26    gs09r3b31             98          2   00:20:42  gs09r3b31         47   00:21:37      112        224   00:22:00  COMPLETED      0:0     54.76M       Unknown       Unknown       Unknown                     1.16M       11.77M       gs09r3b31               0         10.46M       16.40M        gs09r3b31                0          4.24M            cpu=224,m+ cpu=00:21:37,+ cpu=00:21:38,+ cpu=gs09r3b31,ene+ cpu=3,fs/disk=0,m+ cpu=00:20:42,+ cpu=gs09r3b31,ene+ cpu=47,fs/disk=47+ cpu=1-16:21:4+ energy=1005,fs+ energy=gs09r3b31,f+           fs/disk=0 energy=3,fs/di+ energy=369,fs/+ 
