{
 "global_section": { "_calls": 1, "_time":     1305.765, "_%":   100.00,
   "siesta": { "_calls": 1, "_time":     1305.765, "_%":   100.00,
     "Setup": { "_calls": 1, "_time":        1.973, "_%":     0.15,
       "bands": { "_calls": 1, "_time":        0.003, "_%":     0.00},
       "KSV_init": { "_calls": 1, "_time":        0.001, "_%":     0.00}
     },
     "IterGeom": { "_calls": 1, "_time":     1303.655, "_%":    99.84,
       "geom_init": { "_calls": 1, "_time":        8.531, "_%":     0.65,
         "state_init": { "_calls": 1, "_time":        0.331, "_%":     0.03,
           "hsparse": { "_calls": 1, "_time":        0.101, "_%":     0.01},
           "overlap": { "_calls": 1, "_time":        0.036, "_%":     0.00}
         },
         "Setup_H0": { "_calls": 1, "_time":        8.199, "_%":     0.63,
           "naefs": { "_calls": 1, "_time":        0.014, "_%":     0.00},
           "MolMec": { "_calls": 1, "_time":        0.000, "_%":     0.00},
           "kinefsm": { "_calls": 1, "_time":        0.034, "_%":     0.00},
           "nlefsm": { "_calls": 1, "_time":        0.118, "_%":     0.01},
           "DHSCF_Init": { "_calls": 1, "_time":        8.024, "_%":     0.61,
             "DHSCF1": { "_calls": 1, "_time":        0.039, "_%":     0.00,
               "INITMESH": { "_calls": 1, "_time":        0.000, "_%":     0.00}
             },
             "DHSCF2": { "_calls": 1, "_time":        7.967, "_%":     0.61,
               "REMESH": { "_calls": 1, "_time":        0.102, "_%":     0.01,
                 "INITMESH": { "_calls": 2, "_time":        0.081, "_%":     0.01,
                   "SPLOAD": { "_calls": 2, "_time":        0.074, "_%":     0.01}
                 }
               },
               "REORD": { "_calls": 2, "_time":        0.036, "_%":     0.00},
               "PHION": { "_calls": 1, "_time":        0.289, "_%":     0.02},
               "COMM_BSC": { "_calls": 1, "_time":        0.187, "_%":     0.01},
               "POISON": { "_calls": 1, "_time":        6.823, "_%":     0.52,
                 "fft": { "_calls": 2, "_time":        6.548, "_%":     0.50}
               }
             }
           }
         }
       },
       "IterSCF": { "_calls": 5, "_time":     1295.065, "_%":    99.18,
         "setup_H": { "_calls": 5, "_time":       54.794, "_%":     4.20,
           "DHSCF": { "_calls": 5, "_time":       54.783, "_%":     4.20,
             "DHSCF3": { "_calls": 5, "_time":       54.783, "_%":     4.20,
               "rhoofd": { "_calls": 5, "_time":        0.312, "_%":     0.02},
               "COMM_BSC": { "_calls": 10, "_time":        2.049, "_%":     0.16},
               "POISON": { "_calls": 5, "_time":       34.307, "_%":     2.63,
                 "fft": { "_calls": 10, "_time":       32.803, "_%":     2.51}
               },
               "XC": { "_calls": 5, "_time":       15.464, "_%":     1.18,
                 "COMM_BSC": { "_calls": 10, "_time":        1.846, "_%":     0.14},
                 "GXC-CellXC": { "_calls": 5, "_time":       13.319, "_%":     1.02,
                   "gridxc@cellXC": { "_calls": 5, "_time":       13.319, "_%":     1.02}
                 }
               },
               "vmat": { "_calls": 5, "_time":        0.205, "_%":     0.02}
             }
           }
         },
         "compute_dm": { "_calls": 5, "_time":     1240.248, "_%":    94.98,
           "diagon": { "_calls": 5, "_time":     1240.243, "_%":    94.98,
             "c-eigval": { "_calls": 5, "_time":      576.097, "_%":    44.12,
               "c-buildHS": { "_calls": 5, "_time":        0.215, "_%":     0.02},
               "cdiag": { "_calls": 5, "_time":      575.881, "_%":    44.10,
                 "cdiag1": { "_calls": 5, "_time":       26.692, "_%":     2.04},
                 "cdiag2": { "_calls": 5, "_time":       93.616, "_%":     7.17},
                 "cdiag3": { "_calls": 5, "_time":      451.119, "_%":    34.55}
               }
             },
             "c-eigvec": { "_calls": 5, "_time":      610.778, "_%":    46.78,
               "cdiag": { "_calls": 5, "_time":      610.464, "_%":    46.75,
                 "cdiag1": { "_calls": 5, "_time":       26.605, "_%":     2.04},
                 "cdiag2": { "_calls": 5, "_time":       93.541, "_%":     7.16},
                 "cdiag3": { "_calls": 5, "_time":      450.269, "_%":    34.48},
                 "cdiag4": { "_calls": 5, "_time":       35.450, "_%":     2.71}
               }
             },
             "c-buildD": { "_calls": 5, "_time":       52.497, "_%":     4.02}
           }
         },
         "MIXER": { "_calls": 5, "_time":        0.004, "_%":     0.00}
       },
       "state_analysis": { "_calls": 1, "_time":        0.052, "_%":     0.00},
       "siesta_move": { "_calls": 1, "_time":        0.000, "_%":     0.00}
     },
     "Analysis": { "_calls": 1, "_time":        0.134, "_%":     0.01,
       "optical": { "_calls": 1, "_time":        0.001, "_%":     0.00}
     }
   }
 }}
