JobID        JobIDRaw        JobName  Partition  MaxVMSize  MaxVMSizeNode  MaxVMSizeTask  AveVMSize     MaxRSS MaxRSSNode MaxRSSTask     AveRSS MaxPages MaxPagesNode   MaxPagesTask   AvePages     MinCPU MinCPUNode MinCPUTask     AveCPU   NTasks  AllocCPUS    Elapsed      State ExitCode AveCPUFreq ReqCPUFreqMin ReqCPUFreqMax ReqCPUFreqGov     ReqMem ConsumedEnergy  MaxDiskRead MaxDiskReadNode MaxDiskReadTask    AveDiskRead MaxDiskWrite MaxDiskWriteNode MaxDiskWriteTask   AveDiskWrite    ReqTRES  AllocTRES TRESUsageInAve TRESUsageInMax TRESUsageInMaxNode TRESUsageInMaxTask TRESUsageInMin TRESUsageInMinNode TRESUsageInMinTask TRESUsageInTot TRESUsageOutMax TRESUsageOutMaxNode TRESUsageOutMaxTask TRESUsageOutAve TRESUsageOutTot 
------------ ------------ ---------- ---------- ---------- -------------- -------------- ---------- ---------- ---------- ---------- ---------- -------- ------------ -------------- ---------- ---------- ---------- ---------- ---------- -------- ---------- ---------- ---------- -------- ---------- ------------- ------------- ------------- ---------- -------------- ------------ --------------- --------------- -------------- ------------ ---------------- ---------------- -------------- ---------- ---------- -------------- -------------- ------------------ ------------------ -------------- ------------------ ------------------ -------------- --------------- ------------------- ------------------- --------------- --------------- 
151894       151894       CovidStro+ normal-x86                                                                                                                                                                                                            1024   00:20:18    RUNNING      0:0                  Unknown       Unknown       Unknown      1936G                                                                                                                                          billing=1+ billing=1+                                                                                                                                                                                                                                 
151894.batch 151894.batch      batch                                                                                                                                                                                                               1        128   00:20:18    RUNNING      0:0          0             0             0             0                         0                                                                                                                                      cpu=128,m+                                                                                                                                                                                                                                 
151894.exte+ 151894.exte+     extern                                                                                                                                                                                                               8       1024   00:20:18    RUNNING      0:0          0             0             0             0                         0                                                                                                                                      billing=1+                                                                                                                                                                                                                                 
151894.0     151894.0          orted             52509348K         cnx199              1 520268138+  51460080K     cnx199          1 509396769+      627       cnx151              0        513 1-18:32:13     cnx311          5 1-18:34:46        7       1024   00:20:18  COMPLETED      0:0        90K             0             0             0                               2613.07M          cnx215               3       2612.95M      529.01M           cnx151                0        529.00M            billing=1+ cpu=1-18:34:4+ cpu=1-18:37:1+ cpu=cnx199,energy+ cpu=1,fs/disk=3,m+ cpu=1-18:32:1+ cpu=cnx311,energy+ cpu=5,fs/disk=0,m+ cpu=12-10:03:+ energy=0,fs/di+ energy=cnx295,fs/d+           fs/disk=0 energy=0,fs/di+ energy=0,fs/di+ 
