JobId=7756666 JobName=submit.job
   UserId=fpedron0(126159) GroupId=interactive(25200) MCS_label=N/A
   Priority=142278 Nice=0 Account=euhpc_b13_053 QOS=normal
   JobState=RUNNING Reason=None Dependency=(null)
   Requeue=0 Restarts=0 BatchFlag=1 Reboot=0 ExitCode=0:0
   DerivedExitCode=0:0
   RunTime=00:00:03 TimeLimit=1-00:00:00 TimeMin=N/A
   SubmitTime=2024-09-18T13:57:02 EligibleTime=2024-09-18T13:57:02
   AccrueTime=2024-09-18T13:57:02
   StartTime=2024-09-18T14:03:34 EndTime=2024-09-19T14:03:34 Deadline=N/A
   SuspendTime=None SecsPreSuspend=0 LastSchedEval=2024-09-18T14:03:34 Scheduler=Main
   Partition=boost_usr_prod AllocNode:Sid=slurm-controller:2777051
   ReqNodeList=(null) ExcNodeList=(null)
   NodeList=lrdn[0538,1828,1964,2430]
   BatchHost=lrdn0538
   NumNodes=4 NumCPUs=128 NumTasks=128 CPUs/Task=1 ReqB:S:C:T=0:0:*:*
   TRES=cpu=128,mem=1925G,node=4,billing=128,gres/gpu=16
   Socks/Node=* NtasksPerN:B:S:C=32:0:*:* CoreSpec=*
   JOB_GRES=gpu:a100:16
     Nodes=lrdn[0538,1828,1964,2430] CPU_IDs=0-31 Mem=492800 GRES=gpu:a100:4(IDX:0-3)
   MinCPUsNode=32 MinMemoryCPU=15400M MinTmpDiskNode=0
   Features=(null) DelayBoot=00:00:00
   OverSubscribe=NO Contiguous=0 Licenses=(null) Network=(null)
   Command=/leonardo/home/userexternal/fpedron0/JUBE4MaX-GPU/max-inputs/interface/siesta/_CovidWeak/000000/000002_submit/work/submit.job
   WorkDir=/leonardo/home/userexternal/fpedron0/JUBE4MaX-GPU/max-inputs/interface/siesta/_CovidWeak/000000/000002_submit/work
   StdErr=/leonardo/home/userexternal/fpedron0/JUBE4MaX-GPU/max-inputs/interface/siesta/_CovidWeak/000000/000002_submit/work/slurm-7756666.out
   StdIn=/dev/null
   StdOut=/leonardo/home/userexternal/fpedron0/JUBE4MaX-GPU/max-inputs/interface/siesta/_CovidWeak/000000/000002_submit/work/slurm-7756666.out
   Power=
   TresPerNode=gres:gpu:4
   

