Unloading profile/base
  ERROR: Module evaluation aborted
Loading fftw/3.3.10--openmpi--4.1.6--gcc--12.2.0
  Loading requirement: openmpi/4.1.6--gcc--12.2.0
Loading netcdf-fortran/4.6.1--openmpi--4.1.6--gcc--12.2.0
  Loading requirement: bzip2/1.0.8--gcc--12.2.0-cc63fjd
    lz4/1.9.4--gcc--12.2.0-airzjr3 snappy/1.1.10--gcc--12.2.0-oikfvst
    zlib/1.3--gcc--12.2.0 c-blosc/1.21.5--gcc--12.2.0-s3edzii
    pkgconf/1.9.5--gcc--12.2.0-vplyjax hdf5/1.14.3--openmpi--4.1.6--gcc--12.2.0
    libszip/2.1.1--gcc--12.2.0
    parallel-netcdf/1.12.3--openmpi--4.1.6--gcc--12.2.0
    zstd/1.5.5--gcc--12.2.0-h6hxgmk netcdf-c/4.9.2--openmpi--4.1.6--gcc--12.2.0
Loading cmake/3.27.7
  Loading requirement: nghttp2/1.57.0-wcc3jen zlib-ng/2.1.4-6htiapk curl/8.4.0
    ncurses/6.4-asx3jea
Current loaded modules
----------------------
Currently Loaded Modulefiles:
 1) profile/base(default)                                              
 2) gcc/12.2.0(default)                                                
 3) openmpi/4.1.6--gcc--12.2.0(default) <aL>                           
 4) fftw/3.3.10--openmpi--4.1.6--gcc--12.2.0(default)                  
 5) openblas/0.3.24--gcc--12.2.0(default)                              
 6) netlib-scalapack/2.2.0--openmpi--4.1.6--gcc--12.2.0(default)       
 7) bzip2/1.0.8--gcc--12.2.0-cc63fjd <aL>                              
 8) lz4/1.9.4--gcc--12.2.0-airzjr3 <aL>                                
 9) snappy/1.1.10--gcc--12.2.0-oikfvst <aL>                            
10) zlib/1.3--gcc--12.2.0(default) <aL>                                
11) c-blosc/1.21.5--gcc--12.2.0-s3edzii <aL>                           
12) pkgconf/1.9.5--gcc--12.2.0-vplyjax <aL>                            
13) hdf5/1.14.3--openmpi--4.1.6--gcc--12.2.0(default) <aL>             
14) libszip/2.1.1--gcc--12.2.0(default) <aL>                           
15) parallel-netcdf/1.12.3--openmpi--4.1.6--gcc--12.2.0(default) <aL>  
16) zstd/1.5.5--gcc--12.2.0-h6hxgmk <aL>                               
17) netcdf-c/4.9.2--openmpi--4.1.6--gcc--12.2.0(default) <aL>          
18) netcdf-fortran/4.6.1--openmpi--4.1.6--gcc--12.2.0(default)         
19) cuda/12.1(default)                                                 
20) nghttp2/1.57.0-wcc3jen <aL>                                        
21) zlib-ng/2.1.4-6htiapk <aL>                                         
22) curl/8.4.0 <aL>                                                    
23) ncurses/6.4-asx3jea <aL>                                           
24) cmake/3.27.7                                                       
25) ninja/1.11.1                                                       

Key:
(symbolic-version)  <module-tag>  <aL>=auto-loaded  

Current environment variables
-----------------------------
__MODULES_LMINIT=module use --append /leonardo/prod/spack/03/install/0.19/linux-rhel8-icelake/gcc-8.5.0/environment-modules-5.2.0-rz47odw4phlhzhhbz7b65nv5s5othgmi/modulefiles
HDF5_INCLUDE=/leonardo/prod/spack/5.2/install/0.21/linux-rhel8-icelake/gcc-12.2.0/hdf5-1.14.3-flr43qytzge67qvbmjx4mszcm23s4d3b/include
SLURM_MEM_PER_CPU=15400
LD_LIBRARY_PATH=/leonardo/prod/spack/5.2/install/0.21/linux-rhel8-icelake/gcc-8.5.0/ncurses-6.4-asx3jea367shsxjt6bdj2bu5olxll6ni/lib:/leonardo/prod/spack/5.2/install/0.21/linux-rhel8-icelake/gcc-8.5.0/curl-8.4.0-wviwro2plzr7kk2n3drdyvvruetnyt3w/lib:/leonardo/prod/spack/5.2/install/0.21/linux-rhel8-icelake/gcc-8.5.0/zlib-ng-2.1.4-6htiapkoa6fx2medhyabzo575skozuir/lib:/leonardo/prod/spack/5.2/install/0.21/linux-rhel8-icelake/gcc-8.5.0/nghttp2-1.57.0-wcc3jensfwtu4qatex72m433nz66g56t/lib:/leonardo/prod/opt/compilers/cuda/12.1/none/lib64:/leonardo/prod/spack/5.2/install/0.21/linux-rhel8-icelake/gcc-12.2.0/netcdf-fortran-4.6.1-6ioe263mamir3dlic6nau7i2p3svn4q4/lib:/leonardo/prod/spack/5.2/install/0.21/linux-rhel8-icelake/gcc-12.2.0/netcdf-c-4.9.2-dnkfe3mn3ppoiqikffx5cgmdjoshzyak/lib:/leonardo/prod/spack/5.2/install/0.21/linux-rhel8-icelake/gcc-12.2.0/zstd-1.5.5-h6hxgmkwz3ti7tu33y4uhhwilralgibj/lib:/leonardo/prod/spack/5.2/install/0.21/linux-rhel8-icelake/gcc-12.2.0/parallel-netcdf-1.12.3-y4e3nyfxgtsz36njprlac7y2ljvxlra7/lib:/leonardo/prod/spack/5.2/install/0.21/linux-rhel8-icelake/gcc-12.2.0/libszip-2.1.1-seujxlmwecjzeykce7wn5khcg6hce4ih/lib:/leonardo/prod/spack/5.2/install/0.21/linux-rhel8-icelake/gcc-12.2.0/hdf5-1.14.3-flr43qytzge67qvbmjx4mszcm23s4d3b/lib:/leonardo/prod/spack/5.2/install/0.21/linux-rhel8-icelake/gcc-8.5.0/pkgconf-1.9.5-gr2lx34cuparz7tqcckt73neufgol7tz/lib:/leonardo/prod/spack/5.2/install/0.21/linux-rhel8-icelake/gcc-12.2.0/c-blosc-1.21.5-s3edziiwpwqsjjbfyqmtfj7tz4mpac6y/lib64:/leonardo/prod/spack/5.2/install/0.21/linux-rhel8-icelake/gcc-12.2.0/zlib-1.3-zz7sbfysldbr32mq3xuksztqfruqqtek/lib:/leonardo/prod/spack/5.2/install/0.21/linux-rhel8-icelake/gcc-12.2.0/snappy-1.1.10-oikfvstykogvegfzufrlijgwq3snyr6x/lib:/leonardo/prod/spack/5.2/install/0.21/linux-rhel8-icelake/gcc-12.2.0/lz4-1.9.4-airzjr33y2opch3tssn2wfiz44nud4ng/lib:/leonardo/prod/spack/5.2/install/0.21/linux-rhel8-icelake/gcc-12.2.0/bzip2-1.0.8-cc63fjd7tlgjcisyxrlbuz5d3aryxsal/lib:/leonardo/prod/spack/5.2/install/0.21/linux-rhel8-icelake/gcc-12.2.0/netlib-scalapack-2.2.0-aw7g74ew6bk34b4vq6mbyzjpnmsu7hjq/lib:/leonardo/prod/spack/5.2/install/0.21/linux-rhel8-icelake/gcc-12.2.0/openblas-0.3.24-kytrjfxkavk6fcucnujsdsfqqsjfv5t7/lib:/leonardo/prod/spack/5.2/install/0.21/linux-rhel8-icelake/gcc-12.2.0/fftw-3.3.10-kau3lmxr2fm72enmw3a42drdjvwexdsp/lib:/leonardo/prod/opt/libraries/openmpi/4.1.6/gcc--12.2.0/lib:/leonardo/prod/spack/5.2/install/0.21/linux-rhel8-icelake/gcc-8.5.0/gcc-12.2.0-gmhym3kmbzqlpwkzhgab2xsoygsdwxcl/lib64:/leonardo/prod/spack/5.2/install/0.21/linux-rhel8-icelake/gcc-8.5.0/gcc-12.2.0-gmhym3kmbzqlpwkzhgab2xsoygsdwxcl/lib:/leonardo/home/userexternal/fpedron0/Siesta/elpa-gpu/lib/
LS_COLORS=rs=0:di=38;5;33:ln=38;5;51:mh=00:pi=40;38;5;11:so=38;5;13:do=38;5;5:bd=48;5;232;38;5;11:cd=48;5;232;38;5;3:or=48;5;232;38;5;9:mi=01;05;37;41:su=48;5;196;38;5;15:sg=48;5;11;38;5;16:ca=48;5;196;38;5;226:tw=48;5;10;38;5;16:ow=48;5;10;38;5;21:st=48;5;21;38;5;15:ex=38;5;40:*.tar=38;5;9:*.tgz=38;5;9:*.arc=38;5;9:*.arj=38;5;9:*.taz=38;5;9:*.lha=38;5;9:*.lz4=38;5;9:*.lzh=38;5;9:*.lzma=38;5;9:*.tlz=38;5;9:*.txz=38;5;9:*.tzo=38;5;9:*.t7z=38;5;9:*.zip=38;5;9:*.z=38;5;9:*.dz=38;5;9:*.gz=38;5;9:*.lrz=38;5;9:*.lz=38;5;9:*.lzo=38;5;9:*.xz=38;5;9:*.zst=38;5;9:*.tzst=38;5;9:*.bz2=38;5;9:*.bz=38;5;9:*.tbz=38;5;9:*.tbz2=38;5;9:*.tz=38;5;9:*.deb=38;5;9:*.rpm=38;5;9:*.jar=38;5;9:*.war=38;5;9:*.ear=38;5;9:*.sar=38;5;9:*.rar=38;5;9:*.alz=38;5;9:*.ace=38;5;9:*.zoo=38;5;9:*.cpio=38;5;9:*.7z=38;5;9:*.rz=38;5;9:*.cab=38;5;9:*.wim=38;5;9:*.swm=38;5;9:*.dwm=38;5;9:*.esd=38;5;9:*.jpg=38;5;13:*.jpeg=38;5;13:*.mjpg=38;5;13:*.mjpeg=38;5;13:*.gif=38;5;13:*.bmp=38;5;13:*.pbm=38;5;13:*.pgm=38;5;13:*.ppm=38;5;13:*.tga=38;5;13:*.xbm=38;5;13:*.xpm=38;5;13:*.tif=38;5;13:*.tiff=38;5;13:*.png=38;5;13:*.svg=38;5;13:*.svgz=38;5;13:*.mng=38;5;13:*.pcx=38;5;13:*.mov=38;5;13:*.mpg=38;5;13:*.mpeg=38;5;13:*.m2v=38;5;13:*.mkv=38;5;13:*.webm=38;5;13:*.ogm=38;5;13:*.mp4=38;5;13:*.m4v=38;5;13:*.mp4v=38;5;13:*.vob=38;5;13:*.qt=38;5;13:*.nuv=38;5;13:*.wmv=38;5;13:*.asf=38;5;13:*.rm=38;5;13:*.rmvb=38;5;13:*.flc=38;5;13:*.avi=38;5;13:*.fli=38;5;13:*.flv=38;5;13:*.gl=38;5;13:*.dl=38;5;13:*.xcf=38;5;13:*.xwd=38;5;13:*.yuv=38;5;13:*.cgm=38;5;13:*.emf=38;5;13:*.ogv=38;5;13:*.ogx=38;5;13:*.aac=38;5;45:*.au=38;5;45:*.flac=38;5;45:*.m4a=38;5;45:*.mid=38;5;45:*.midi=38;5;45:*.mka=38;5;45:*.mp3=38;5;45:*.mpc=38;5;45:*.ogg=38;5;45:*.ra=38;5;45:*.wav=38;5;45:*.oga=38;5;45:*.opus=38;5;45:*.spx=38;5;45:*.xspf=38;5;45:
NINJA_HOME=/leonardo/prod/spack/5.2/install/0.21/linux-rhel8-icelake/gcc-8.5.0/ninja-1.11.1-fx3jut6mf2i7z5bqpqaseo4bqqmtrbbc
NGHTTP2_INCLUDE=/leonardo/prod/spack/5.2/install/0.21/linux-rhel8-icelake/gcc-8.5.0/nghttp2-1.57.0-wcc3jensfwtu4qatex72m433nz66g56t/include
J4M_ACCOUNT=euhpc_b13_053
SLURM_NODEID=0
SLURM_TASK_PID=743573
NETCDF_FORTRAN_HOME=/leonardo/prod/spack/5.2/install/0.21/linux-rhel8-icelake/gcc-12.2.0/netcdf-fortran-4.6.1-6ioe263mamir3dlic6nau7i2p3svn4q4
SSH_CONNECTION=83.46.85.124 58066 10.137.0.9 22
OPENBLAS_LIB=/leonardo/prod/spack/5.2/install/0.21/linux-rhel8-icelake/gcc-12.2.0/openblas-0.3.24-kytrjfxkavk6fcucnujsdsfqqsjfv5t7/lib
SLURM_PRIO_PROCESS=0
GOTO_NUM_THREADS=1
MODULES_RUN_QUARANTINE=LD_LIBRARY_PATH LD_PRELOAD
NETCDF_C_INC=/leonardo/prod/spack/5.2/install/0.21/linux-rhel8-icelake/gcc-12.2.0/netcdf-c-4.9.2-dnkfe3mn3ppoiqikffx5cgmdjoshzyak/include
LANG=C.UTF-8
SLURM_SUBMIT_DIR=/leonardo/home/userexternal/fpedron0/JUBE4MaX-GPU/max-inputs/interface/siesta/_CovidWeak/000000/000002_submit/work
LIBSZIP_HOME=/leonardo/prod/spack/5.2/install/0.21/linux-rhel8-icelake/gcc-12.2.0/libszip-2.1.1-seujxlmwecjzeykce7wn5khcg6hce4ih
HISTCONTROL=ignoredups
ZLIB_NG_HOME=/leonardo/prod/spack/5.2/install/0.21/linux-rhel8-icelake/gcc-8.5.0/zlib-ng-2.1.4-6htiapkoa6fx2medhyabzo575skozuir
ZSTD_INC=/leonardo/prod/spack/5.2/install/0.21/linux-rhel8-icelake/gcc-12.2.0/zstd-1.5.5-h6hxgmkwz3ti7tu33y4uhhwilralgibj/include
NETLIB_SCALAPACK_HOME=/leonardo/prod/spack/5.2/install/0.21/linux-rhel8-icelake/gcc-12.2.0/netlib-scalapack-2.2.0-aw7g74ew6bk34b4vq6mbyzjpnmsu7hjq
HDF5_INC=/leonardo/prod/spack/5.2/install/0.21/linux-rhel8-icelake/gcc-12.2.0/hdf5-1.14.3-flr43qytzge67qvbmjx4mszcm23s4d3b/include
HDF5_HOME=/leonardo/prod/spack/5.2/install/0.21/linux-rhel8-icelake/gcc-12.2.0/hdf5-1.14.3-flr43qytzge67qvbmjx4mszcm23s4d3b
HOSTNAME=lrdn0538
OPENBLAS_NUM_THREADS=1
PUBLIC=/leonardo/pub/userexternal/fpedron0
OLDPWD=/leonardo/home/userexternal/fpedron0
PKGCONF_INC=/leonardo/prod/spack/5.2/install/0.21/linux-rhel8-icelake/gcc-8.5.0/pkgconf-1.9.5-gr2lx34cuparz7tqcckt73neufgol7tz/include
J4M_BIN_PATH=/leonardo/home/userexternal/fpedron0/Siesta/siesta-gpu/bin/
BZIP2_LIB=/leonardo/prod/spack/5.2/install/0.21/linux-rhel8-icelake/gcc-12.2.0/bzip2-1.0.8-cc63fjd7tlgjcisyxrlbuz5d3aryxsal/lib
SLURM_CPUS_PER_TASK=1
C_INCLUDE_PATH=/leonardo/prod/spack/5.2/install/0.21/linux-rhel8-icelake/gcc-8.5.0/ncurses-6.4-asx3jea367shsxjt6bdj2bu5olxll6ni/include:/leonardo/prod/spack/5.2/install/0.21/linux-rhel8-icelake/gcc-8.5.0/curl-8.4.0-wviwro2plzr7kk2n3drdyvvruetnyt3w/include:/leonardo/prod/spack/5.2/install/0.21/linux-rhel8-icelake/gcc-8.5.0/zlib-ng-2.1.4-6htiapkoa6fx2medhyabzo575skozuir/include:/leonardo/prod/spack/5.2/install/0.21/linux-rhel8-icelake/gcc-8.5.0/nghttp2-1.57.0-wcc3jensfwtu4qatex72m433nz66g56t/include:/leonardo/prod/opt/compilers/cuda/12.1/none/include:/leonardo/prod/spack/5.2/install/0.21/linux-rhel8-icelake/gcc-12.2.0/netcdf-fortran-4.6.1-6ioe263mamir3dlic6nau7i2p3svn4q4/include:/leonardo/prod/spack/5.2/install/0.21/linux-rhel8-icelake/gcc-12.2.0/netcdf-c-4.9.2-dnkfe3mn3ppoiqikffx5cgmdjoshzyak/include:/leonardo/prod/spack/5.2/install/0.21/linux-rhel8-icelake/gcc-12.2.0/zstd-1.5.5-h6hxgmkwz3ti7tu33y4uhhwilralgibj/include:/leonardo/prod/spack/5.2/install/0.21/linux-rhel8-icelake/gcc-12.2.0/parallel-netcdf-1.12.3-y4e3nyfxgtsz36njprlac7y2ljvxlra7/include:/leonardo/prod/spack/5.2/install/0.21/linux-rhel8-icelake/gcc-12.2.0/libszip-2.1.1-seujxlmwecjzeykce7wn5khcg6hce4ih/include:/leonardo/prod/spack/5.2/install/0.21/linux-rhel8-icelake/gcc-12.2.0/hdf5-1.14.3-flr43qytzge67qvbmjx4mszcm23s4d3b/include:/leonardo/prod/spack/5.2/install/0.21/linux-rhel8-icelake/gcc-8.5.0/pkgconf-1.9.5-gr2lx34cuparz7tqcckt73neufgol7tz/include:/leonardo/prod/spack/5.2/install/0.21/linux-rhel8-icelake/gcc-12.2.0/c-blosc-1.21.5-s3edziiwpwqsjjbfyqmtfj7tz4mpac6y/include:/leonardo/prod/spack/5.2/install/0.21/linux-rhel8-icelake/gcc-12.2.0/zlib-1.3-zz7sbfysldbr32mq3xuksztqfruqqtek/include:/leonardo/prod/spack/5.2/install/0.21/linux-rhel8-icelake/gcc-12.2.0/snappy-1.1.10-oikfvstykogvegfzufrlijgwq3snyr6x/include:/leonardo/prod/spack/5.2/install/0.21/linux-rhel8-icelake/gcc-12.2.0/lz4-1.9.4-airzjr33y2opch3tssn2wfiz44nud4ng/include:/leonardo/prod/spack/5.2/install/0.21/linux-rhel8-icelake/gcc-12.2.0/bzip2-1.0.8-cc63fjd7tlgjcisyxrlbuz5d3aryxsal/include:/leonardo/prod/spack/5.2/install/0.21/linux-rhel8-icelake/gcc-12.2.0/openblas-0.3.24-kytrjfxkavk6fcucnujsdsfqqsjfv5t7/include:/leonardo/prod/spack/5.2/install/0.21/linux-rhel8-icelake/gcc-12.2.0/fftw-3.3.10-kau3lmxr2fm72enmw3a42drdjvwexdsp/include:/leonardo/prod/opt/libraries/openmpi/4.1.6/gcc--12.2.0/include:/leonardo/prod/spack/5.2/install/0.21/linux-rhel8-icelake/gcc-8.5.0/gcc-12.2.0-gmhym3kmbzqlpwkzhgab2xsoygsdwxcl/include
OMP_PROC_BIND=true
HDF5_LIB=/leonardo/prod/spack/5.2/install/0.21/linux-rhel8-icelake/gcc-12.2.0/hdf5-1.14.3-flr43qytzge67qvbmjx4mszcm23s4d3b/lib
ENVIRONMENT=BATCH
OPENMPI_HOME=/leonardo/prod/opt/libraries/openmpi/4.1.6/gcc--12.2.0
CINECA_SCRATCH=/leonardo_scratch/large/userexternal/fpedron0
IOI_JOB_ARGC=1
NETCDF_FORTRAN_INC=/leonardo/prod/spack/5.2/install/0.21/linux-rhel8-icelake/gcc-12.2.0/netcdf-fortran-4.6.1-6ioe263mamir3dlic6nau7i2p3svn4q4/include
ROCR_VISIBLE_DEVICES=0,1,2,3
ZSTD_INCLUDE=/leonardo/prod/spack/5.2/install/0.21/linux-rhel8-icelake/gcc-12.2.0/zstd-1.5.5-h6hxgmkwz3ti7tu33y4uhhwilralgibj/include
NCURSES_INC=/leonardo/prod/spack/5.2/install/0.21/linux-rhel8-icelake/gcc-8.5.0/ncurses-6.4-asx3jea367shsxjt6bdj2bu5olxll6ni/include
SLURM_PROCID=0
ZSTD_LIB=/leonardo/prod/spack/5.2/install/0.21/linux-rhel8-icelake/gcc-12.2.0/zstd-1.5.5-h6hxgmkwz3ti7tu33y4uhhwilralgibj/lib
SLURM_JOB_GID=25200
MODULES_SITECONFIG=/leonardo/prod/opt/environment/module/current/etc/siteconfig.tcl
SLURM_CPU_BIND=
DRES=/no/project/defined
OPENBLAS_INC=/leonardo/prod/spack/5.2/install/0.21/linux-rhel8-icelake/gcc-12.2.0/openblas-0.3.24-kytrjfxkavk6fcucnujsdsfqqsjfv5t7/include
__MODULES_LMPREREQ=openmpi/4.1.6--gcc--12.2.0&gcc/12.2.0:fftw/3.3.10--openmpi--4.1.6--gcc--12.2.0&openmpi/4.1.6--gcc--12.2.0:netlib-scalapack/2.2.0--openmpi--4.1.6--gcc--12.2.0&openblas/0.3.24--gcc--12.2.0&openmpi/4.1.6--gcc--12.2.0:c-blosc/1.21.5--gcc--12.2.0-s3edzii&lz4/1.9.4--gcc--12.2.0-airzjr3&snappy/1.1.10--gcc--12.2.0-oikfvst&zlib/1.3--gcc--12.2.0:hdf5/1.14.3--openmpi--4.1.6--gcc--12.2.0&openmpi/4.1.6--gcc--12.2.0&pkgconf/1.9.5--gcc--12.2.0-vplyjax&zlib/1.3--gcc--12.2.0:parallel-netcdf/1.12.3--openmpi--4.1.6--gcc--12.2.0&openmpi/4.1.6--gcc--12.2.0:netcdf-c/4.9.2--openmpi--4.1.6--gcc--12.2.0&bzip2/1.0.8--gcc--12.2.0-cc63fjd&c-blosc/1.21.5--gcc--12.2.0-s3edzii&hdf5/1.14.3--openmpi--4.1.6--gcc--12.2.0&libszip/2.1.1--gcc--12.2.0&openmpi/4.1.6--gcc--12.2.0&parallel-netcdf/1.12.3--openmpi--4.1.6--gcc--12.2.0&zlib/1.3--gcc--12.2.0&zstd/1.5.5--gcc--12.2.0-h6hxgmk:netcdf-fortran/4.6.1--openmpi--4.1.6--gcc--12.2.0&netcdf-c/4.9.2--openmpi--4.1.6--gcc--12.2.0:curl/8.4.0&nghttp2/1.57.0-wcc3jen&zlib-ng/2.1.4-6htiapk:cmake/3.27.7&curl/8.4.0&ncurses/6.4-asx3jea&zlib-ng/2.1.4-6htiapk
NETCDF_FORTRAN_LIB=/leonardo/prod/spack/5.2/install/0.21/linux-rhel8-icelake/gcc-12.2.0/netcdf-fortran-4.6.1-6ioe263mamir3dlic6nau7i2p3svn4q4/lib
SLURMD_NODENAME=lrdn0538
FFTW_INC=/leonardo/prod/spack/5.2/install/0.21/linux-rhel8-icelake/gcc-12.2.0/fftw-3.3.10-kau3lmxr2fm72enmw3a42drdjvwexdsp/include
NCURSES_LIB=/leonardo/prod/spack/5.2/install/0.21/linux-rhel8-icelake/gcc-8.5.0/ncurses-6.4-asx3jea367shsxjt6bdj2bu5olxll6ni/lib
SLURM_TASKS_PER_NODE=32(x4)
S_COLORS=auto
C_BLOSC_INCLUDE=/leonardo/prod/spack/5.2/install/0.21/linux-rhel8-icelake/gcc-12.2.0/c-blosc-1.21.5-s3edziiwpwqsjjbfyqmtfj7tz4mpac6y/include
which_declare=declare -f
HDF5_PLUGIN_PATH=/leonardo/prod/spack/5.2/install/0.21/linux-rhel8-icelake/gcc-12.2.0/netcdf-c-4.9.2-dnkfe3mn3ppoiqikffx5cgmdjoshzyak/plugins
LIBSZIP_INC=/leonardo/prod/spack/5.2/install/0.21/linux-rhel8-icelake/gcc-12.2.0/libszip-2.1.1-seujxlmwecjzeykce7wn5khcg6hce4ih/include
LIBSZIP_INCLUDE=/leonardo/prod/spack/5.2/install/0.21/linux-rhel8-icelake/gcc-12.2.0/libszip-2.1.1-seujxlmwecjzeykce7wn5khcg6hce4ih/include
HPC_SYSTEM=leonardo
CC=gcc
MPIF90=/leonardo/prod/opt/libraries/openmpi/4.1.6/gcc--12.2.0/bin/mpif90
XDG_SESSION_ID=1705059
MODULES_CMD=/leonardo/prod/spack/03/install/0.19/linux-rhel8-icelake/gcc-8.5.0/environment-modules-5.2.0-rz47odw4phlhzhhbz7b65nv5s5othgmi/libexec/modulecmd.tcl
SLURM_NNODES=4
USER=fpedron0
__MODULES_LMTAG=openmpi/4.1.6--gcc--12.2.0&auto-loaded:bzip2/1.0.8--gcc--12.2.0-cc63fjd&auto-loaded:lz4/1.9.4--gcc--12.2.0-airzjr3&auto-loaded:snappy/1.1.10--gcc--12.2.0-oikfvst&auto-loaded:zlib/1.3--gcc--12.2.0&auto-loaded:c-blosc/1.21.5--gcc--12.2.0-s3edzii&auto-loaded:pkgconf/1.9.5--gcc--12.2.0-vplyjax&auto-loaded:hdf5/1.14.3--openmpi--4.1.6--gcc--12.2.0&auto-loaded:libszip/2.1.1--gcc--12.2.0&auto-loaded:parallel-netcdf/1.12.3--openmpi--4.1.6--gcc--12.2.0&auto-loaded:zstd/1.5.5--gcc--12.2.0-h6hxgmk&auto-loaded:netcdf-c/4.9.2--openmpi--4.1.6--gcc--12.2.0&auto-loaded:nghttp2/1.57.0-wcc3jen&auto-loaded:zlib-ng/2.1.4-6htiapk&auto-loaded:curl/8.4.0&auto-loaded:ncurses/6.4-asx3jea&auto-loaded
NGHTTP2_INC=/leonardo/prod/spack/5.2/install/0.21/linux-rhel8-icelake/gcc-8.5.0/nghttp2-1.57.0-wcc3jensfwtu4qatex72m433nz66g56t/include
CUDA_LIB=/leonardo/prod/opt/compilers/cuda/12.1/none/lib64
IOI_JOB_ARGV0=/leonardo/home/userexternal/fpedron0/JUBE4MaX-GPU/max-inputs/interface/siesta/_CovidWeak/000000/000002_submit/work/submit.job
GCC_INC=/leonardo/prod/spack/5.2/install/0.21/linux-rhel8-icelake/gcc-8.5.0/gcc-12.2.0-gmhym3kmbzqlpwkzhgab2xsoygsdwxcl/include
SNAPPY_INCLUDE=/leonardo/prod/spack/5.2/install/0.21/linux-rhel8-icelake/gcc-12.2.0/snappy-1.1.10-oikfvstykogvegfzufrlijgwq3snyr6x/include
CURL_LIB=/leonardo/prod/spack/5.2/install/0.21/linux-rhel8-icelake/gcc-8.5.0/curl-8.4.0-wviwro2plzr7kk2n3drdyvvruetnyt3w/lib
MPICXX=/leonardo/prod/opt/libraries/openmpi/4.1.6/gcc--12.2.0/bin/mpic++
SLURM_NTASKS_PER_NODE=32
SELINUX_ROLE_REQUESTED=
OPENMPI_LIB=/leonardo/prod/opt/libraries/openmpi/4.1.6/gcc--12.2.0/lib
LZ4_INC=/leonardo/prod/spack/5.2/install/0.21/linux-rhel8-icelake/gcc-12.2.0/lz4-1.9.4-airzjr33y2opch3tssn2wfiz44nud4ng/include
PWD=/leonardo/home/userexternal/fpedron0/JUBE4MaX-GPU/max-inputs/interface/siesta/_CovidWeak/000000/000002_submit/work
FFTW_INCLUDE=/leonardo/prod/spack/5.2/install/0.21/linux-rhel8-icelake/gcc-12.2.0/fftw-3.3.10-kau3lmxr2fm72enmw3a42drdjvwexdsp/include
NETCDF_FORTRAN_INCLUDE=/leonardo/prod/spack/5.2/install/0.21/linux-rhel8-icelake/gcc-12.2.0/netcdf-fortran-4.6.1-6ioe263mamir3dlic6nau7i2p3svn4q4/include
LZ4_HOME=/leonardo/prod/spack/5.2/install/0.21/linux-rhel8-icelake/gcc-12.2.0/lz4-1.9.4-airzjr33y2opch3tssn2wfiz44nud4ng
SLURM_JOB_NODELIST=lrdn[0538,1828,1964,2430]
HOME=/leonardo/home/userexternal/fpedron0
CURL_INCLUDE=/leonardo/prod/spack/5.2/install/0.21/linux-rhel8-icelake/gcc-8.5.0/curl-8.4.0-wviwro2plzr7kk2n3drdyvvruetnyt3w/include
SLURM_CLUSTER_NAME=leonardo
CMAKE_PREFIX_PATH=/leonardo/prod/spack/5.2/install/0.21/linux-rhel8-icelake/gcc-8.5.0/ninja-1.11.1-fx3jut6mf2i7z5bqpqaseo4bqqmtrbbc/.:/leonardo/prod/spack/5.2/install/0.21/linux-rhel8-icelake/gcc-8.5.0/cmake-3.27.7-vatukecmu7wnbi2tnfogps5x4pitvriu/.:/leonardo/prod/spack/5.2/install/0.21/linux-rhel8-icelake/gcc-8.5.0/ncurses-6.4-asx3jea367shsxjt6bdj2bu5olxll6ni/.:/leonardo/prod/spack/5.2/install/0.21/linux-rhel8-icelake/gcc-8.5.0/curl-8.4.0-wviwro2plzr7kk2n3drdyvvruetnyt3w/.:/leonardo/prod/spack/5.2/install/0.21/linux-rhel8-icelake/gcc-8.5.0/zlib-ng-2.1.4-6htiapkoa6fx2medhyabzo575skozuir/.:/leonardo/prod/spack/5.2/install/0.21/linux-rhel8-icelake/gcc-8.5.0/nghttp2-1.57.0-wcc3jensfwtu4qatex72m433nz66g56t/.:/leonardo/prod/opt/compilers/cuda/12.1/none/.:/leonardo/prod/spack/5.2/install/0.21/linux-rhel8-icelake/gcc-12.2.0/netcdf-fortran-4.6.1-6ioe263mamir3dlic6nau7i2p3svn4q4/.:/leonardo/prod/spack/5.2/install/0.21/linux-rhel8-icelake/gcc-12.2.0/netcdf-c-4.9.2-dnkfe3mn3ppoiqikffx5cgmdjoshzyak/.:/leonardo/prod/spack/5.2/install/0.21/linux-rhel8-icelake/gcc-12.2.0/zstd-1.5.5-h6hxgmkwz3ti7tu33y4uhhwilralgibj/.:/leonardo/prod/spack/5.2/install/0.21/linux-rhel8-icelake/gcc-12.2.0/parallel-netcdf-1.12.3-y4e3nyfxgtsz36njprlac7y2ljvxlra7/.:/leonardo/prod/spack/5.2/install/0.21/linux-rhel8-icelake/gcc-12.2.0/libszip-2.1.1-seujxlmwecjzeykce7wn5khcg6hce4ih/.:/leonardo/prod/spack/5.2/install/0.21/linux-rhel8-icelake/gcc-12.2.0/hdf5-1.14.3-flr43qytzge67qvbmjx4mszcm23s4d3b/.:/leonardo/prod/spack/5.2/install/0.21/linux-rhel8-icelake/gcc-8.5.0/pkgconf-1.9.5-gr2lx34cuparz7tqcckt73neufgol7tz/.:/leonardo/prod/spack/5.2/install/0.21/linux-rhel8-icelake/gcc-12.2.0/c-blosc-1.21.5-s3edziiwpwqsjjbfyqmtfj7tz4mpac6y/.:/leonardo/prod/spack/5.2/install/0.21/linux-rhel8-icelake/gcc-12.2.0/zlib-1.3-zz7sbfysldbr32mq3xuksztqfruqqtek/.:/leonardo/prod/spack/5.2/install/0.21/linux-rhel8-icelake/gcc-12.2.0/snappy-1.1.10-oikfvstykogvegfzufrlijgwq3snyr6x/.:/leonardo/prod/spack/5.2/install/0.21/linux-rhel8-icelake/gcc-12.2.0/lz4-1.9.4-airzjr33y2opch3tssn2wfiz44nud4ng/.:/leonardo/prod/spack/5.2/install/0.21/linux-rhel8-icelake/gcc-12.2.0/bzip2-1.0.8-cc63fjd7tlgjcisyxrlbuz5d3aryxsal/.:/leonardo/prod/spack/5.2/install/0.21/linux-rhel8-icelake/gcc-12.2.0/netlib-scalapack-2.2.0-aw7g74ew6bk34b4vq6mbyzjpnmsu7hjq/.:/leonardo/prod/spack/5.2/install/0.21/linux-rhel8-icelake/gcc-12.2.0/openblas-0.3.24-kytrjfxkavk6fcucnujsdsfqqsjfv5t7/.:/leonardo/prod/spack/5.2/install/0.21/linux-rhel8-icelake/gcc-12.2.0/fftw-3.3.10-kau3lmxr2fm72enmw3a42drdjvwexdsp/.:/leonardo/prod/opt/libraries/openmpi/4.1.6/gcc--12.2.0/.:/leonardo/prod/spack/5.2/install/0.21/linux-rhel8-icelake/gcc-8.5.0/gcc-12.2.0-gmhym3kmbzqlpwkzhgab2xsoygsdwxcl/.
SLURM_NODELIST=lrdn[0538,1828,1964,2430]
SLURM_GPUS_ON_NODE=4
SSH_CLIENT=83.46.85.124 58066 22
OPENMPI_INCLUDE=/leonardo/prod/opt/libraries/openmpi/4.1.6/gcc--12.2.0/include
NGHTTP2_HOME=/leonardo/prod/spack/5.2/install/0.21/linux-rhel8-icelake/gcc-8.5.0/nghttp2-1.57.0-wcc3jensfwtu4qatex72m433nz66g56t
CUDA_HOME=/leonardo/prod/opt/compilers/cuda/12.1/none
CPATH=/leonardo/prod/spack/5.2/install/0.21/linux-rhel8-icelake/gcc-8.5.0/ncurses-6.4-asx3jea367shsxjt6bdj2bu5olxll6ni/include:/leonardo/prod/spack/5.2/install/0.21/linux-rhel8-icelake/gcc-8.5.0/curl-8.4.0-wviwro2plzr7kk2n3drdyvvruetnyt3w/include:/leonardo/prod/spack/5.2/install/0.21/linux-rhel8-icelake/gcc-8.5.0/zlib-ng-2.1.4-6htiapkoa6fx2medhyabzo575skozuir/include:/leonardo/prod/spack/5.2/install/0.21/linux-rhel8-icelake/gcc-8.5.0/nghttp2-1.57.0-wcc3jensfwtu4qatex72m433nz66g56t/include:/leonardo/prod/opt/compilers/cuda/12.1/none/include:/leonardo/prod/spack/5.2/install/0.21/linux-rhel8-icelake/gcc-12.2.0/netcdf-fortran-4.6.1-6ioe263mamir3dlic6nau7i2p3svn4q4/include:/leonardo/prod/spack/5.2/install/0.21/linux-rhel8-icelake/gcc-12.2.0/netcdf-c-4.9.2-dnkfe3mn3ppoiqikffx5cgmdjoshzyak/include:/leonardo/prod/spack/5.2/install/0.21/linux-rhel8-icelake/gcc-12.2.0/zstd-1.5.5-h6hxgmkwz3ti7tu33y4uhhwilralgibj/include:/leonardo/prod/spack/5.2/install/0.21/linux-rhel8-icelake/gcc-12.2.0/parallel-netcdf-1.12.3-y4e3nyfxgtsz36njprlac7y2ljvxlra7/include:/leonardo/prod/spack/5.2/install/0.21/linux-rhel8-icelake/gcc-12.2.0/libszip-2.1.1-seujxlmwecjzeykce7wn5khcg6hce4ih/include:/leonardo/prod/spack/5.2/install/0.21/linux-rhel8-icelake/gcc-12.2.0/hdf5-1.14.3-flr43qytzge67qvbmjx4mszcm23s4d3b/include:/leonardo/prod/spack/5.2/install/0.21/linux-rhel8-icelake/gcc-8.5.0/pkgconf-1.9.5-gr2lx34cuparz7tqcckt73neufgol7tz/include:/leonardo/prod/spack/5.2/install/0.21/linux-rhel8-icelake/gcc-12.2.0/c-blosc-1.21.5-s3edziiwpwqsjjbfyqmtfj7tz4mpac6y/include:/leonardo/prod/spack/5.2/install/0.21/linux-rhel8-icelake/gcc-12.2.0/zlib-1.3-zz7sbfysldbr32mq3xuksztqfruqqtek/include:/leonardo/prod/spack/5.2/install/0.21/linux-rhel8-icelake/gcc-12.2.0/snappy-1.1.10-oikfvstykogvegfzufrlijgwq3snyr6x/include:/leonardo/prod/spack/5.2/install/0.21/linux-rhel8-icelake/gcc-12.2.0/lz4-1.9.4-airzjr33y2opch3tssn2wfiz44nud4ng/include:/leonardo/prod/spack/5.2/install/0.21/linux-rhel8-icelake/gcc-12.2.0/bzip2-1.0.8-cc63fjd7tlgjcisyxrlbuz5d3aryxsal/include:/leonardo/prod/spack/5.2/install/0.21/linux-rhel8-icelake/gcc-12.2.0/openblas-0.3.24-kytrjfxkavk6fcucnujsdsfqqsjfv5t7/include:/leonardo/prod/spack/5.2/install/0.21/linux-rhel8-icelake/gcc-12.2.0/fftw-3.3.10-kau3lmxr2fm72enmw3a42drdjvwexdsp/include:/leonardo/prod/opt/libraries/openmpi/4.1.6/gcc--12.2.0/include:/leonardo/prod/spack/5.2/install/0.21/linux-rhel8-icelake/gcc-8.5.0/gcc-12.2.0-gmhym3kmbzqlpwkzhgab2xsoygsdwxcl/include
SLURM_NTASKS=128
WORK=/leonardo_work/Max3_devel_2
F77=gfortran
SELINUX_LEVEL_REQUESTED=
SLURM_JOB_CPUS_PER_NODE=32(x4)
NCURSES_INCLUDE=/leonardo/prod/spack/5.2/install/0.21/linux-rhel8-icelake/gcc-8.5.0/ncurses-6.4-asx3jea367shsxjt6bdj2bu5olxll6ni/include
I_MPI_SHM_CMA=0
PARALLEL_NETCDF_INCLUDE=/leonardo/prod/spack/5.2/install/0.21/linux-rhel8-icelake/gcc-12.2.0/parallel-netcdf-1.12.3-y4e3nyfxgtsz36njprlac7y2ljvxlra7/include
SLURM_TOPOLOGY_ADDR=HeadSwitche.isw-L2-CELLG3.isw20602.lrdn0538
C_BLOSC_INC=/leonardo/prod/spack/5.2/install/0.21/linux-rhel8-icelake/gcc-12.2.0/c-blosc-1.21.5-s3edziiwpwqsjjbfyqmtfj7tz4mpac6y/include
NVHPC_CUDA_HOME=/leonardo/prod/opt/compilers/cuda/12.1/none
OPENBLAS_HOME=/leonardo/prod/spack/5.2/install/0.21/linux-rhel8-icelake/gcc-12.2.0/openblas-0.3.24-kytrjfxkavk6fcucnujsdsfqqsjfv5t7
PARALLEL_NETCDF_HOME=/leonardo/prod/spack/5.2/install/0.21/linux-rhel8-icelake/gcc-12.2.0/parallel-netcdf-1.12.3-y4e3nyfxgtsz36njprlac7y2ljvxlra7
SLURM_WORKING_CLUSTER=leonardo:10.128.255.221:6817:9728:109
SNAPPY_LIB=/leonardo/prod/spack/5.2/install/0.21/linux-rhel8-icelake/gcc-12.2.0/snappy-1.1.10-oikfvstykogvegfzufrlijgwq3snyr6x/lib
__MODULES_SHARE_MANPATH=:15
__MODULES_LMALTNAME=profile/base&profile/default&profile:gcc/12.2.0&gcc/default&gcc&as|gcc/latest:openmpi/4.1.6--gcc--12.2.0&openmpi/default&openmpi:fftw/3.3.10--openmpi--4.1.6--gcc--12.2.0&fftw/default&fftw:openblas/0.3.24--gcc--12.2.0&openblas/default&openblas:netlib-scalapack/2.2.0--openmpi--4.1.6--gcc--12.2.0&netlib-scalapack/default&netlib-scalapack:bzip2/1.0.8--gcc--12.2.0-cc63fjd&as|bzip2/default&as|bzip2/latest:lz4/1.9.4--gcc--12.2.0-airzjr3&as|lz4/default&as|lz4/latest:snappy/1.1.10--gcc--12.2.0-oikfvst&as|snappy/default&as|snappy/latest:zlib/1.3--gcc--12.2.0&zlib/default&zlib&as|zlib/latest:c-blosc/1.21.5--gcc--12.2.0-s3edzii&as|c-blosc/default&as|c-blosc/latest:pkgconf/1.9.5--gcc--12.2.0-vplyjax&as|pkgconf/default&as|pkgconf/latest:hdf5/1.14.3--openmpi--4.1.6--gcc--12.2.0&hdf5/default&hdf5:libszip/2.1.1--gcc--12.2.0&libszip/default&libszip:parallel-netcdf/1.12.3--openmpi--4.1.6--gcc--12.2.0&parallel-netcdf/default&parallel-netcdf:zstd/1.5.5--gcc--12.2.0-h6hxgmk&as|zstd/default&as|zstd/latest:netcdf-c/4.9.2--openmpi--4.1.6--gcc--12.2.0&netcdf-c/default&netcdf-c:netcdf-fortran/4.6.1--openmpi--4.1.6--gcc--12.2.0&netcdf-fortran/default&netcdf-fortran:cuda/12.1&cuda/default&cuda:nghttp2/1.57.0-wcc3jen&as|nghttp2/default&as|nghttp2/latest:zlib-ng/2.1.4-6htiapk&as|zlib-ng/default&as|zlib-ng/latest:curl/8.4.0&as|curl/default&as|curl/latest:ncurses/6.4-asx3jea&as|ncurses/default&as|ncurses/latest:cmake/3.27.7&as|cmake/default&as|cmake/latest:ninja/1.11.1&as|ninja/default&as|ninja/latest
NGHTTP2_LIB=/leonardo/prod/spack/5.2/install/0.21/linux-rhel8-icelake/gcc-8.5.0/nghttp2-1.57.0-wcc3jensfwtu4qatex72m433nz66g56t/lib
NETCDF_C_HOME=/leonardo/prod/spack/5.2/install/0.21/linux-rhel8-icelake/gcc-12.2.0/netcdf-c-4.9.2-dnkfe3mn3ppoiqikffx5cgmdjoshzyak
ZLIB_INC=/leonardo/prod/spack/5.2/install/0.21/linux-rhel8-icelake/gcc-12.2.0/zlib-1.3-zz7sbfysldbr32mq3xuksztqfruqqtek/include
GCC_HOME=/leonardo/prod/spack/5.2/install/0.21/linux-rhel8-icelake/gcc-8.5.0/gcc-12.2.0-gmhym3kmbzqlpwkzhgab2xsoygsdwxcl
SLURM_JOB_NAME=submit.job
TMPDIR=/tmp
LIBRARY_PATH=/leonardo/prod/spack/5.2/install/0.21/linux-rhel8-icelake/gcc-8.5.0/ncurses-6.4-asx3jea367shsxjt6bdj2bu5olxll6ni/lib:/leonardo/prod/spack/5.2/install/0.21/linux-rhel8-icelake/gcc-8.5.0/curl-8.4.0-wviwro2plzr7kk2n3drdyvvruetnyt3w/lib:/leonardo/prod/spack/5.2/install/0.21/linux-rhel8-icelake/gcc-8.5.0/zlib-ng-2.1.4-6htiapkoa6fx2medhyabzo575skozuir/lib:/leonardo/prod/spack/5.2/install/0.21/linux-rhel8-icelake/gcc-8.5.0/nghttp2-1.57.0-wcc3jensfwtu4qatex72m433nz66g56t/lib:/leonardo/prod/opt/compilers/cuda/12.1/none/lib64:/leonardo/prod/spack/5.2/install/0.21/linux-rhel8-icelake/gcc-12.2.0/netcdf-fortran-4.6.1-6ioe263mamir3dlic6nau7i2p3svn4q4/lib:/leonardo/prod/spack/5.2/install/0.21/linux-rhel8-icelake/gcc-12.2.0/netcdf-c-4.9.2-dnkfe3mn3ppoiqikffx5cgmdjoshzyak/lib:/leonardo/prod/spack/5.2/install/0.21/linux-rhel8-icelake/gcc-12.2.0/zstd-1.5.5-h6hxgmkwz3ti7tu33y4uhhwilralgibj/lib:/leonardo/prod/spack/5.2/install/0.21/linux-rhel8-icelake/gcc-12.2.0/parallel-netcdf-1.12.3-y4e3nyfxgtsz36njprlac7y2ljvxlra7/lib:/leonardo/prod/spack/5.2/install/0.21/linux-rhel8-icelake/gcc-12.2.0/libszip-2.1.1-seujxlmwecjzeykce7wn5khcg6hce4ih/lib:/leonardo/prod/spack/5.2/install/0.21/linux-rhel8-icelake/gcc-12.2.0/hdf5-1.14.3-flr43qytzge67qvbmjx4mszcm23s4d3b/lib:/leonardo/prod/spack/5.2/install/0.21/linux-rhel8-icelake/gcc-8.5.0/pkgconf-1.9.5-gr2lx34cuparz7tqcckt73neufgol7tz/lib:/leonardo/prod/spack/5.2/install/0.21/linux-rhel8-icelake/gcc-12.2.0/c-blosc-1.21.5-s3edziiwpwqsjjbfyqmtfj7tz4mpac6y/lib64:/leonardo/prod/spack/5.2/install/0.21/linux-rhel8-icelake/gcc-12.2.0/zlib-1.3-zz7sbfysldbr32mq3xuksztqfruqqtek/lib:/leonardo/prod/spack/5.2/install/0.21/linux-rhel8-icelake/gcc-12.2.0/snappy-1.1.10-oikfvstykogvegfzufrlijgwq3snyr6x/lib:/leonardo/prod/spack/5.2/install/0.21/linux-rhel8-icelake/gcc-12.2.0/lz4-1.9.4-airzjr33y2opch3tssn2wfiz44nud4ng/lib:/leonardo/prod/spack/5.2/install/0.21/linux-rhel8-icelake/gcc-12.2.0/bzip2-1.0.8-cc63fjd7tlgjcisyxrlbuz5d3aryxsal/lib:/leonardo/prod/spack/5.2/install/0.21/linux-rhel8-icelake/gcc-12.2.0/netlib-scalapack-2.2.0-aw7g74ew6bk34b4vq6mbyzjpnmsu7hjq/lib:/leonardo/prod/spack/5.2/install/0.21/linux-rhel8-icelake/gcc-12.2.0/openblas-0.3.24-kytrjfxkavk6fcucnujsdsfqqsjfv5t7/lib:/leonardo/prod/spack/5.2/install/0.21/linux-rhel8-icelake/gcc-12.2.0/fftw-3.3.10-kau3lmxr2fm72enmw3a42drdjvwexdsp/lib:/leonardo/prod/opt/libraries/openmpi/4.1.6/gcc--12.2.0/lib:/leonardo/prod/spack/5.2/install/0.21/linux-rhel8-icelake/gcc-8.5.0/gcc-12.2.0-gmhym3kmbzqlpwkzhgab2xsoygsdwxcl/lib64:/leonardo/prod/spack/5.2/install/0.21/linux-rhel8-icelake/gcc-8.5.0/gcc-12.2.0-gmhym3kmbzqlpwkzhgab2xsoygsdwxcl/lib:/leonardo/home/userexternal/fpedron0/Siesta/elpa-gpu/lib/
SNAPPY_INC=/leonardo/prod/spack/5.2/install/0.21/linux-rhel8-icelake/gcc-12.2.0/snappy-1.1.10-oikfvstykogvegfzufrlijgwq3snyr6x/include
SLURM_JOB_GPUS=0,1,2,3
SLURM_JOBID=7756666
SLURM_CONF=/var/spool/slurmd/conf-cache/slurm.conf
ZLIB_NG_INCLUDE=/leonardo/prod/spack/5.2/install/0.21/linux-rhel8-icelake/gcc-8.5.0/zlib-ng-2.1.4-6htiapkoa6fx2medhyabzo575skozuir/include
LOADEDMODULES=profile/base:gcc/12.2.0:openmpi/4.1.6--gcc--12.2.0:fftw/3.3.10--openmpi--4.1.6--gcc--12.2.0:openblas/0.3.24--gcc--12.2.0:netlib-scalapack/2.2.0--openmpi--4.1.6--gcc--12.2.0:bzip2/1.0.8--gcc--12.2.0-cc63fjd:lz4/1.9.4--gcc--12.2.0-airzjr3:snappy/1.1.10--gcc--12.2.0-oikfvst:zlib/1.3--gcc--12.2.0:c-blosc/1.21.5--gcc--12.2.0-s3edzii:pkgconf/1.9.5--gcc--12.2.0-vplyjax:hdf5/1.14.3--openmpi--4.1.6--gcc--12.2.0:libszip/2.1.1--gcc--12.2.0:parallel-netcdf/1.12.3--openmpi--4.1.6--gcc--12.2.0:zstd/1.5.5--gcc--12.2.0-h6hxgmk:netcdf-c/4.9.2--openmpi--4.1.6--gcc--12.2.0:netcdf-fortran/4.6.1--openmpi--4.1.6--gcc--12.2.0:cuda/12.1:nghttp2/1.57.0-wcc3jen:zlib-ng/2.1.4-6htiapk:curl/8.4.0:ncurses/6.4-asx3jea:cmake/3.27.7:ninja/1.11.1
FC=gfortran
ZLIB_INCLUDE=/leonardo/prod/spack/5.2/install/0.21/linux-rhel8-icelake/gcc-12.2.0/zlib-1.3-zz7sbfysldbr32mq3xuksztqfruqqtek/include
SLURM_SPANK_IOINSTRUMENTATION_ENABLED=0
SCRATCH=/leonardo_scratch/large/userexternal/fpedron0
NETCDF_C_LIB=/leonardo/prod/spack/5.2/install/0.21/linux-rhel8-icelake/gcc-12.2.0/netcdf-c-4.9.2-dnkfe3mn3ppoiqikffx5cgmdjoshzyak/lib
SLURM_NODE_ALIASES=(null)
MPICC=/leonardo/prod/opt/libraries/openmpi/4.1.6/gcc--12.2.0/bin/mpicc
SLURM_JOB_QOS=normal
SLURM_TOPOLOGY_ADDR_PATTERN=switch.switch.switch.node
SSH_TTY=/dev/pts/423
BZIP2_HOME=/leonardo/prod/spack/5.2/install/0.21/linux-rhel8-icelake/gcc-12.2.0/bzip2-1.0.8-cc63fjd7tlgjcisyxrlbuz5d3aryxsal
MAIL=/var/spool/mail/fpedron0
ZE_AFFINITY_MASK=0,1,2,3
SLURM_CPUS_ON_NODE=32
CXX=g++
GCC_LIB=/leonardo/prod/spack/5.2/install/0.21/linux-rhel8-icelake/gcc-8.5.0/gcc-12.2.0-gmhym3kmbzqlpwkzhgab2xsoygsdwxcl/lib64:/leonardo/prod/spack/5.2/install/0.21/linux-rhel8-icelake/gcc-8.5.0/gcc-12.2.0-gmhym3kmbzqlpwkzhgab2xsoygsdwxcl/lib
FFTW_HOME=/leonardo/prod/spack/5.2/install/0.21/linux-rhel8-icelake/gcc-12.2.0/fftw-3.3.10-kau3lmxr2fm72enmw3a42drdjvwexdsp
SLURM_JOB_NUM_NODES=4
OMP_PLACES=cores
SHELL=/bin/bash
TERM=xterm-256color
PKGCONF_HOME=/leonardo/prod/spack/5.2/install/0.21/linux-rhel8-icelake/gcc-8.5.0/pkgconf-1.9.5-gr2lx34cuparz7tqcckt73neufgol7tz
CMAKE_HOME=/leonardo/prod/spack/5.2/install/0.21/linux-rhel8-icelake/gcc-8.5.0/cmake-3.27.7-vatukecmu7wnbi2tnfogps5x4pitvriu
J4M_LIB_PATH=/leonardo/home/userexternal/fpedron0/Siesta/elpa-gpu/lib/
BZIP2_INCLUDE=/leonardo/prod/spack/5.2/install/0.21/linux-rhel8-icelake/gcc-12.2.0/bzip2-1.0.8-cc63fjd7tlgjcisyxrlbuz5d3aryxsal/include
__MODULES_SHARE_LD_LIBRARY_PATH=/leonardo/prod/spack/5.2/install/0.21/linux-rhel8-icelake/gcc-12.2.0/hdf5-1.14.3-flr43qytzge67qvbmjx4mszcm23s4d3b/lib:2
SLURM_JOB_UID=126159
__MODULES_LMCONFLICT=gcc/12.2.0&gcc:openmpi/4.1.6--gcc--12.2.0&openmpi:fftw/3.3.10--openmpi--4.1.6--gcc--12.2.0&fftw:openblas/0.3.24--gcc--12.2.0&openblas:netlib-scalapack/2.2.0--openmpi--4.1.6--gcc--12.2.0&netlib-scalapack:bzip2/1.0.8--gcc--12.2.0-cc63fjd&bzip2:lz4/1.9.4--gcc--12.2.0-airzjr3&lz4:snappy/1.1.10--gcc--12.2.0-oikfvst&snappy:zlib/1.3--gcc--12.2.0&zlib:c-blosc/1.21.5--gcc--12.2.0-s3edzii&c-blosc:pkgconf/1.9.5--gcc--12.2.0-vplyjax&pkgconf:hdf5/1.14.3--openmpi--4.1.6--gcc--12.2.0&hdf5:libszip/2.1.1--gcc--12.2.0&libszip:parallel-netcdf/1.12.3--openmpi--4.1.6--gcc--12.2.0&parallel-netcdf:zstd/1.5.5--gcc--12.2.0-h6hxgmk&zstd:netcdf-c/4.9.2--openmpi--4.1.6--gcc--12.2.0&netcdf-c:netcdf-fortran/4.6.1--openmpi--4.1.6--gcc--12.2.0&netcdf-fortran:cuda/12.1&cuda:nghttp2/1.57.0-wcc3jen&nghttp2:zlib-ng/2.1.4-6htiapk&zlib-ng:curl/8.4.0&curl:ncurses/6.4-asx3jea&ncurses:cmake/3.27.7&cmake:ninja/1.11.1&ninja
BZIP2_INC=/leonardo/prod/spack/5.2/install/0.21/linux-rhel8-icelake/gcc-12.2.0/bzip2-1.0.8-cc63fjd7tlgjcisyxrlbuz5d3aryxsal/include
SLURM_JOB_PARTITION=boost_usr_prod
ZLIB_NG_LIB=/leonardo/prod/spack/5.2/install/0.21/linux-rhel8-icelake/gcc-8.5.0/zlib-ng-2.1.4-6htiapkoa6fx2medhyabzo575skozuir/lib
SLURM_SCRIPT_CONTEXT=prolog_task
FAST=/leonardo_scratch/fast/Max3_devel_2
CUDA_INCLUDE=/leonardo/prod/opt/compilers/cuda/12.1/none/include
SELINUX_USE_CURRENT_RANGE=
PKGCONF_INCLUDE=/leonardo/prod/spack/5.2/install/0.21/linux-rhel8-icelake/gcc-8.5.0/pkgconf-1.9.5-gr2lx34cuparz7tqcckt73neufgol7tz/include
CUDA_INC=/leonardo/prod/opt/compilers/cuda/12.1/none/include
BA_MPM_PROFILE=base
SLURM_JOB_USER=fpedron0
CUDA_VISIBLE_DEVICES=0,1,2,3
PARALLEL_NETCDF_LIB=/leonardo/prod/spack/5.2/install/0.21/linux-rhel8-icelake/gcc-12.2.0/parallel-netcdf-1.12.3-y4e3nyfxgtsz36njprlac7y2ljvxlra7/lib
SLURM_NPROCS=128
SHLVL=4
SLURM_SUBMIT_HOST=login05.leonardo.local
PYTHONPATH=/leonardo/prod/spack/5.2/install/0.21/linux-rhel8-icelake/gcc-8.5.0/ninja-1.11.1-fx3jut6mf2i7z5bqpqaseo4bqqmtrbbc/misc
PKGCONF_LIB=/leonardo/prod/spack/5.2/install/0.21/linux-rhel8-icelake/gcc-8.5.0/pkgconf-1.9.5-gr2lx34cuparz7tqcckt73neufgol7tz/lib
MPIF77=/leonardo/prod/opt/libraries/openmpi/4.1.6/gcc--12.2.0/bin/mpif77
SLURM_JOB_ACCOUNT=euhpc_b13_053
FFTW_LIB=/leonardo/prod/spack/5.2/install/0.21/linux-rhel8-icelake/gcc-12.2.0/fftw-3.3.10-kau3lmxr2fm72enmw3a42drdjvwexdsp/lib
GCC_INCLUDE=/leonardo/prod/spack/5.2/install/0.21/linux-rhel8-icelake/gcc-8.5.0/gcc-12.2.0-gmhym3kmbzqlpwkzhgab2xsoygsdwxcl/include
ACLOCAL_PATH=/leonardo/prod/spack/5.2/install/0.21/linux-rhel8-icelake/gcc-8.5.0/cmake-3.27.7-vatukecmu7wnbi2tnfogps5x4pitvriu/share/aclocal:/leonardo/prod/spack/5.2/install/0.21/linux-rhel8-icelake/gcc-8.5.0/curl-8.4.0-wviwro2plzr7kk2n3drdyvvruetnyt3w/share/aclocal:/leonardo/prod/spack/5.2/install/0.21/linux-rhel8-icelake/gcc-8.5.0/pkgconf-1.9.5-gr2lx34cuparz7tqcckt73neufgol7tz/share/aclocal
OPENMPI_INC=/leonardo/prod/opt/libraries/openmpi/4.1.6/gcc--12.2.0/include
PARALLEL_NETCDF_INC=/leonardo/prod/spack/5.2/install/0.21/linux-rhel8-icelake/gcc-12.2.0/parallel-netcdf-1.12.3-y4e3nyfxgtsz36njprlac7y2ljvxlra7/include
NETCDF_C_INCLUDE=/leonardo/prod/spack/5.2/install/0.21/linux-rhel8-icelake/gcc-12.2.0/netcdf-c-4.9.2-dnkfe3mn3ppoiqikffx5cgmdjoshzyak/include
MANPATH=/leonardo/prod/spack/5.2/install/0.21/linux-rhel8-icelake/gcc-8.5.0/curl-8.4.0-wviwro2plzr7kk2n3drdyvvruetnyt3w/share/man:/leonardo/prod/spack/5.2/install/0.21/linux-rhel8-icelake/gcc-8.5.0/zlib-ng-2.1.4-6htiapkoa6fx2medhyabzo575skozuir/share/man:/leonardo/prod/spack/5.2/install/0.21/linux-rhel8-icelake/gcc-8.5.0/nghttp2-1.57.0-wcc3jensfwtu4qatex72m433nz66g56t/share/man:/leonardo/prod/opt/compilers/cuda/12.1/none/share/man:/leonardo/prod/opt/compilers/cuda/12.1/none/man:/leonardo/prod/spack/5.2/install/0.21/linux-rhel8-icelake/gcc-12.2.0/netcdf-fortran-4.6.1-6ioe263mamir3dlic6nau7i2p3svn4q4/share/man:/leonardo/prod/spack/5.2/install/0.21/linux-rhel8-icelake/gcc-12.2.0/netcdf-c-4.9.2-dnkfe3mn3ppoiqikffx5cgmdjoshzyak/share/man:/leonardo/prod/spack/5.2/install/0.21/linux-rhel8-icelake/gcc-12.2.0/zstd-1.5.5-h6hxgmkwz3ti7tu33y4uhhwilralgibj/share/man:/leonardo/prod/spack/5.2/install/0.21/linux-rhel8-icelake/gcc-12.2.0/parallel-netcdf-1.12.3-y4e3nyfxgtsz36njprlac7y2ljvxlra7/share/man:/leonardo/prod/spack/5.2/install/0.21/linux-rhel8-icelake/gcc-8.5.0/pkgconf-1.9.5-gr2lx34cuparz7tqcckt73neufgol7tz/share/man:/leonardo/prod/spack/5.2/install/0.21/linux-rhel8-icelake/gcc-12.2.0/zlib-1.3-zz7sbfysldbr32mq3xuksztqfruqqtek/share/man:/leonardo/prod/spack/5.2/install/0.21/linux-rhel8-icelake/gcc-12.2.0/lz4-1.9.4-airzjr33y2opch3tssn2wfiz44nud4ng/share/man:/leonardo/prod/spack/5.2/install/0.21/linux-rhel8-icelake/gcc-12.2.0/bzip2-1.0.8-cc63fjd7tlgjcisyxrlbuz5d3aryxsal/man:/leonardo/prod/spack/5.2/install/0.21/linux-rhel8-icelake/gcc-12.2.0/fftw-3.3.10-kau3lmxr2fm72enmw3a42drdjvwexdsp/share/man:/leonardo/prod/opt/libraries/openmpi/4.1.6/gcc--12.2.0/share/man:/leonardo/prod/spack/5.2/install/0.21/linux-rhel8-icelake/gcc-8.5.0/gcc-12.2.0-gmhym3kmbzqlpwkzhgab2xsoygsdwxcl/share/man:
OMPI_MCA_coll_hcoll_enable=0
NCURSES_HOME=/leonardo/prod/spack/5.2/install/0.21/linux-rhel8-icelake/gcc-8.5.0/ncurses-6.4-asx3jea367shsxjt6bdj2bu5olxll6ni
LIBSZIP_LIB=/leonardo/prod/spack/5.2/install/0.21/linux-rhel8-icelake/gcc-12.2.0/libszip-2.1.1-seujxlmwecjzeykce7wn5khcg6hce4ih/lib
C_BLOSC_HOME=/leonardo/prod/spack/5.2/install/0.21/linux-rhel8-icelake/gcc-12.2.0/c-blosc-1.21.5-s3edziiwpwqsjjbfyqmtfj7tz4mpac6y
F90=gfortran
ZSTD_HOME=/leonardo/prod/spack/5.2/install/0.21/linux-rhel8-icelake/gcc-12.2.0/zstd-1.5.5-h6hxgmkwz3ti7tu33y4uhhwilralgibj
MODULEPATH=/leonardo/prod/spack/03/install/0.19/linux-rhel8-icelake/gcc-8.5.0/environment-modules-5.2.0-rz47odw4phlhzhhbz7b65nv5s5othgmi/modulefiles:/leonardo/prod/opt/modulefiles/profiles:/leonardo/prod/opt/modulefiles/base/archive:/leonardo/prod/opt/modulefiles/base/dependencies:/leonardo/prod/opt/modulefiles/base/data:/leonardo/prod/opt/modulefiles/base/environment:/leonardo/prod/opt/modulefiles/base/libraries:/leonardo/prod/opt/modulefiles/base/tools:/leonardo/prod/opt/modulefiles/base/compilers:/leonardo/prod/opt/modulefiles/base/applications
ZLIB_LIB=/leonardo/prod/spack/5.2/install/0.21/linux-rhel8-icelake/gcc-12.2.0/zlib-1.3-zz7sbfysldbr32mq3xuksztqfruqqtek/lib
SLURM_GTIDS=0
LZ4_LIB=/leonardo/prod/spack/5.2/install/0.21/linux-rhel8-icelake/gcc-12.2.0/lz4-1.9.4-airzjr33y2opch3tssn2wfiz44nud4ng/lib
LOGNAME=fpedron0
DBUS_SESSION_BUS_ADDRESS=unix:path=/run/user/126159/bus
XDG_RUNTIME_DIR=/run/user/126159
CPLUS_INCLUDE_PATH=/leonardo/prod/spack/5.2/install/0.21/linux-rhel8-icelake/gcc-8.5.0/ncurses-6.4-asx3jea367shsxjt6bdj2bu5olxll6ni/include:/leonardo/prod/spack/5.2/install/0.21/linux-rhel8-icelake/gcc-8.5.0/curl-8.4.0-wviwro2plzr7kk2n3drdyvvruetnyt3w/include:/leonardo/prod/spack/5.2/install/0.21/linux-rhel8-icelake/gcc-8.5.0/zlib-ng-2.1.4-6htiapkoa6fx2medhyabzo575skozuir/include:/leonardo/prod/spack/5.2/install/0.21/linux-rhel8-icelake/gcc-8.5.0/nghttp2-1.57.0-wcc3jensfwtu4qatex72m433nz66g56t/include:/leonardo/prod/opt/compilers/cuda/12.1/none/include:/leonardo/prod/spack/5.2/install/0.21/linux-rhel8-icelake/gcc-12.2.0/netcdf-fortran-4.6.1-6ioe263mamir3dlic6nau7i2p3svn4q4/include:/leonardo/prod/spack/5.2/install/0.21/linux-rhel8-icelake/gcc-12.2.0/netcdf-c-4.9.2-dnkfe3mn3ppoiqikffx5cgmdjoshzyak/include:/leonardo/prod/spack/5.2/install/0.21/linux-rhel8-icelake/gcc-12.2.0/zstd-1.5.5-h6hxgmkwz3ti7tu33y4uhhwilralgibj/include:/leonardo/prod/spack/5.2/install/0.21/linux-rhel8-icelake/gcc-12.2.0/parallel-netcdf-1.12.3-y4e3nyfxgtsz36njprlac7y2ljvxlra7/include:/leonardo/prod/spack/5.2/install/0.21/linux-rhel8-icelake/gcc-12.2.0/libszip-2.1.1-seujxlmwecjzeykce7wn5khcg6hce4ih/include:/leonardo/prod/spack/5.2/install/0.21/linux-rhel8-icelake/gcc-12.2.0/hdf5-1.14.3-flr43qytzge67qvbmjx4mszcm23s4d3b/include:/leonardo/prod/spack/5.2/install/0.21/linux-rhel8-icelake/gcc-8.5.0/pkgconf-1.9.5-gr2lx34cuparz7tqcckt73neufgol7tz/include:/leonardo/prod/spack/5.2/install/0.21/linux-rhel8-icelake/gcc-12.2.0/c-blosc-1.21.5-s3edziiwpwqsjjbfyqmtfj7tz4mpac6y/include:/leonardo/prod/spack/5.2/install/0.21/linux-rhel8-icelake/gcc-12.2.0/zlib-1.3-zz7sbfysldbr32mq3xuksztqfruqqtek/include:/leonardo/prod/spack/5.2/install/0.21/linux-rhel8-icelake/gcc-12.2.0/snappy-1.1.10-oikfvstykogvegfzufrlijgwq3snyr6x/include:/leonardo/prod/spack/5.2/install/0.21/linux-rhel8-icelake/gcc-12.2.0/lz4-1.9.4-airzjr33y2opch3tssn2wfiz44nud4ng/include:/leonardo/prod/spack/5.2/install/0.21/linux-rhel8-icelake/gcc-12.2.0/bzip2-1.0.8-cc63fjd7tlgjcisyxrlbuz5d3aryxsal/include:/leonardo/prod/spack/5.2/install/0.21/linux-rhel8-icelake/gcc-12.2.0/openblas-0.3.24-kytrjfxkavk6fcucnujsdsfqqsjfv5t7/include:/leonardo/prod/spack/5.2/install/0.21/linux-rhel8-icelake/gcc-12.2.0/fftw-3.3.10-kau3lmxr2fm72enmw3a42drdjvwexdsp/include:/leonardo/prod/opt/libraries/openmpi/4.1.6/gcc--12.2.0/include:/leonardo/prod/spack/5.2/install/0.21/linux-rhel8-icelake/gcc-8.5.0/gcc-12.2.0-gmhym3kmbzqlpwkzhgab2xsoygsdwxcl/include
CURL_INC=/leonardo/prod/spack/5.2/install/0.21/linux-rhel8-icelake/gcc-8.5.0/curl-8.4.0-wviwro2plzr7kk2n3drdyvvruetnyt3w/include
SNAPPY_HOME=/leonardo/prod/spack/5.2/install/0.21/linux-rhel8-icelake/gcc-12.2.0/snappy-1.1.10-oikfvstykogvegfzufrlijgwq3snyr6x
PATH=/leonardo/prod/spack/5.2/install/0.21/linux-rhel8-icelake/gcc-8.5.0/ninja-1.11.1-fx3jut6mf2i7z5bqpqaseo4bqqmtrbbc/bin:/leonardo/prod/spack/5.2/install/0.21/linux-rhel8-icelake/gcc-8.5.0/cmake-3.27.7-vatukecmu7wnbi2tnfogps5x4pitvriu/bin:/leonardo/prod/spack/5.2/install/0.21/linux-rhel8-icelake/gcc-8.5.0/ncurses-6.4-asx3jea367shsxjt6bdj2bu5olxll6ni/bin:/leonardo/prod/spack/5.2/install/0.21/linux-rhel8-icelake/gcc-8.5.0/curl-8.4.0-wviwro2plzr7kk2n3drdyvvruetnyt3w/bin:/leonardo/prod/spack/5.2/install/0.21/linux-rhel8-icelake/gcc-8.5.0/nghttp2-1.57.0-wcc3jensfwtu4qatex72m433nz66g56t/bin:/leonardo/prod/opt/compilers/cuda/12.1/none/cuda-samples/bin/x86_64/linux/release/:/leonardo/prod/opt/compilers/cuda/12.1/none/bin:/leonardo/prod/spack/5.2/install/0.21/linux-rhel8-icelake/gcc-12.2.0/netcdf-fortran-4.6.1-6ioe263mamir3dlic6nau7i2p3svn4q4/bin:/leonardo/prod/spack/5.2/install/0.21/linux-rhel8-icelake/gcc-12.2.0/netcdf-c-4.9.2-dnkfe3mn3ppoiqikffx5cgmdjoshzyak/bin:/leonardo/prod/spack/5.2/install/0.21/linux-rhel8-icelake/gcc-12.2.0/zstd-1.5.5-h6hxgmkwz3ti7tu33y4uhhwilralgibj/bin:/leonardo/prod/spack/5.2/install/0.21/linux-rhel8-icelake/gcc-12.2.0/parallel-netcdf-1.12.3-y4e3nyfxgtsz36njprlac7y2ljvxlra7/bin:/leonardo/prod/spack/5.2/install/0.21/linux-rhel8-icelake/gcc-12.2.0/hdf5-1.14.3-flr43qytzge67qvbmjx4mszcm23s4d3b/bin:/leonardo/prod/spack/5.2/install/0.21/linux-rhel8-icelake/gcc-8.5.0/pkgconf-1.9.5-gr2lx34cuparz7tqcckt73neufgol7tz/bin:/leonardo/prod/spack/5.2/install/0.21/linux-rhel8-icelake/gcc-12.2.0/lz4-1.9.4-airzjr33y2opch3tssn2wfiz44nud4ng/bin:/leonardo/prod/spack/5.2/install/0.21/linux-rhel8-icelake/gcc-12.2.0/bzip2-1.0.8-cc63fjd7tlgjcisyxrlbuz5d3aryxsal/bin:/leonardo/prod/spack/5.2/install/0.21/linux-rhel8-icelake/gcc-12.2.0/openblas-0.3.24-kytrjfxkavk6fcucnujsdsfqqsjfv5t7/bin:/leonardo/prod/spack/5.2/install/0.21/linux-rhel8-icelake/gcc-12.2.0/fftw-3.3.10-kau3lmxr2fm72enmw3a42drdjvwexdsp/bin:/leonardo/prod/opt/libraries/openmpi/4.1.6/gcc--12.2.0/bin:/leonardo/prod/spack/5.2/install/0.21/linux-rhel8-icelake/gcc-8.5.0/gcc-12.2.0-gmhym3kmbzqlpwkzhgab2xsoygsdwxcl/bin:/leonardo/home/userexternal/fpedron0/.local/bin:/leonardo/home/userexternal/fpedron0/bin:/cineca/bin:/leonardo/prod/spack/03/install/0.19/linux-rhel8-icelake/gcc-8.5.0/environment-modules-5.2.0-rz47odw4phlhzhhbz7b65nv5s5othgmi/bin:/usr/local/bin:/usr/bin:/usr/local/sbin:/usr/sbin:/leonardo/home/userexternal/fpedron0/Siesta/siesta-gpu/bin/
SLURM_JOB_ID=7756666
_LMFILES_=/leonardo/prod/opt/modulefiles/profiles/profile/base:/leonardo/prod/opt/modulefiles/base/compilers/gcc/12.2.0:/leonardo/prod/opt/modulefiles/base/libraries/openmpi/4.1.6--gcc--12.2.0:/leonardo/prod/opt/modulefiles/base/libraries/fftw/3.3.10--openmpi--4.1.6--gcc--12.2.0:/leonardo/prod/opt/modulefiles/base/libraries/openblas/0.3.24--gcc--12.2.0:/leonardo/prod/opt/modulefiles/base/libraries/netlib-scalapack/2.2.0--openmpi--4.1.6--gcc--12.2.0:/leonardo/prod/opt/modulefiles/base/dependencies/bzip2/1.0.8--gcc--12.2.0-cc63fjd:/leonardo/prod/opt/modulefiles/base/dependencies/lz4/1.9.4--gcc--12.2.0-airzjr3:/leonardo/prod/opt/modulefiles/base/dependencies/snappy/1.1.10--gcc--12.2.0-oikfvst:/leonardo/prod/opt/modulefiles/base/libraries/zlib/1.3--gcc--12.2.0:/leonardo/prod/opt/modulefiles/base/dependencies/c-blosc/1.21.5--gcc--12.2.0-s3edzii:/leonardo/prod/opt/modulefiles/base/dependencies/pkgconf/1.9.5--gcc--12.2.0-vplyjax:/leonardo/prod/opt/modulefiles/base/libraries/hdf5/1.14.3--openmpi--4.1.6--gcc--12.2.0:/leonardo/prod/opt/modulefiles/base/libraries/libszip/2.1.1--gcc--12.2.0:/leonardo/prod/opt/modulefiles/base/libraries/parallel-netcdf/1.12.3--openmpi--4.1.6--gcc--12.2.0:/leonardo/prod/opt/modulefiles/base/dependencies/zstd/1.5.5--gcc--12.2.0-h6hxgmk:/leonardo/prod/opt/modulefiles/base/libraries/netcdf-c/4.9.2--openmpi--4.1.6--gcc--12.2.0:/leonardo/prod/opt/modulefiles/base/libraries/netcdf-fortran/4.6.1--openmpi--4.1.6--gcc--12.2.0:/leonardo/prod/opt/modulefiles/base/compilers/cuda/12.1:/leonardo/prod/opt/modulefiles/base/dependencies/nghttp2/1.57.0-wcc3jen:/leonardo/prod/opt/modulefiles/base/dependencies/zlib-ng/2.1.4-6htiapk:/leonardo/prod/opt/modulefiles/base/tools/curl/8.4.0:/leonardo/prod/opt/modulefiles/base/dependencies/ncurses/6.4-asx3jea:/leonardo/prod/opt/modulefiles/base/tools/cmake/3.27.7:/leonardo/prod/opt/modulefiles/base/tools/ninja/1.11.1
CURL_HOME=/leonardo/prod/spack/5.2/install/0.21/linux-rhel8-icelake/gcc-8.5.0/curl-8.4.0-wviwro2plzr7kk2n3drdyvvruetnyt3w
LZ4_INCLUDE=/leonardo/prod/spack/5.2/install/0.21/linux-rhel8-icelake/gcc-12.2.0/lz4-1.9.4-airzjr33y2opch3tssn2wfiz44nud4ng/include
MODULESHOME=/leonardo/prod/spack/03/install/0.19/linux-rhel8-icelake/gcc-8.5.0/environment-modules-5.2.0-rz47odw4phlhzhhbz7b65nv5s5othgmi
PKG_CONFIG_PATH=/leonardo/prod/spack/5.2/install/0.21/linux-rhel8-icelake/gcc-8.5.0/ncurses-6.4-asx3jea367shsxjt6bdj2bu5olxll6ni/lib/pkgconfig:/leonardo/prod/spack/5.2/install/0.21/linux-rhel8-icelake/gcc-8.5.0/curl-8.4.0-wviwro2plzr7kk2n3drdyvvruetnyt3w/lib/pkgconfig:/leonardo/prod/spack/5.2/install/0.21/linux-rhel8-icelake/gcc-8.5.0/zlib-ng-2.1.4-6htiapkoa6fx2medhyabzo575skozuir/lib/pkgconfig:/leonardo/prod/spack/5.2/install/0.21/linux-rhel8-icelake/gcc-8.5.0/nghttp2-1.57.0-wcc3jensfwtu4qatex72m433nz66g56t/lib/pkgconfig:/leonardo/prod/opt/compilers/cuda/12.1/none/lib64/pkgconfig:/leonardo/prod/spack/5.2/install/0.21/linux-rhel8-icelake/gcc-12.2.0/netcdf-fortran-4.6.1-6ioe263mamir3dlic6nau7i2p3svn4q4/lib/pkgconfig:/leonardo/prod/spack/5.2/install/0.21/linux-rhel8-icelake/gcc-12.2.0/netcdf-c-4.9.2-dnkfe3mn3ppoiqikffx5cgmdjoshzyak/lib/pkgconfig:/leonardo/prod/spack/5.2/install/0.21/linux-rhel8-icelake/gcc-12.2.0/zstd-1.5.5-h6hxgmkwz3ti7tu33y4uhhwilralgibj/lib/pkgconfig:/leonardo/prod/spack/5.2/install/0.21/linux-rhel8-icelake/gcc-12.2.0/parallel-netcdf-1.12.3-y4e3nyfxgtsz36njprlac7y2ljvxlra7/lib/pkgconfig:/leonardo/prod/spack/5.2/install/0.21/linux-rhel8-icelake/gcc-12.2.0/hdf5-1.14.3-flr43qytzge67qvbmjx4mszcm23s4d3b/lib/pkgconfig:/leonardo/prod/spack/5.2/install/0.21/linux-rhel8-icelake/gcc-8.5.0/pkgconf-1.9.5-gr2lx34cuparz7tqcckt73neufgol7tz/lib/pkgconfig:/leonardo/prod/spack/5.2/install/0.21/linux-rhel8-icelake/gcc-12.2.0/c-blosc-1.21.5-s3edziiwpwqsjjbfyqmtfj7tz4mpac6y/lib64/pkgconfig:/leonardo/prod/spack/5.2/install/0.21/linux-rhel8-icelake/gcc-12.2.0/zlib-1.3-zz7sbfysldbr32mq3xuksztqfruqqtek/lib/pkgconfig:/leonardo/prod/spack/5.2/install/0.21/linux-rhel8-icelake/gcc-12.2.0/snappy-1.1.10-oikfvstykogvegfzufrlijgwq3snyr6x/lib/pkgconfig:/leonardo/prod/spack/5.2/install/0.21/linux-rhel8-icelake/gcc-12.2.0/lz4-1.9.4-airzjr33y2opch3tssn2wfiz44nud4ng/lib/pkgconfig:/leonardo/prod/spack/5.2/install/0.21/linux-rhel8-icelake/gcc-12.2.0/bzip2-1.0.8-cc63fjd7tlgjcisyxrlbuz5d3aryxsal/lib/pkgconfig:/leonardo/prod/spack/5.2/install/0.21/linux-rhel8-icelake/gcc-12.2.0/netlib-scalapack-2.2.0-aw7g74ew6bk34b4vq6mbyzjpnmsu7hjq/lib/pkgconfig:/leonardo/prod/spack/5.2/install/0.21/linux-rhel8-icelake/gcc-12.2.0/openblas-0.3.24-kytrjfxkavk6fcucnujsdsfqqsjfv5t7/lib/pkgconfig:/leonardo/prod/spack/5.2/install/0.21/linux-rhel8-icelake/gcc-12.2.0/fftw-3.3.10-kau3lmxr2fm72enmw3a42drdjvwexdsp/lib/pkgconfig:/leonardo/prod/opt/libraries/openmpi/4.1.6/gcc--12.2.0/lib/pkgconfig
ZLIB_HOME=/leonardo/prod/spack/5.2/install/0.21/linux-rhel8-icelake/gcc-12.2.0/zlib-1.3-zz7sbfysldbr32mq3xuksztqfruqqtek
NETLIB_SCALAPACK_LIB=/leonardo/prod/spack/5.2/install/0.21/linux-rhel8-icelake/gcc-12.2.0/netlib-scalapack-2.2.0-aw7g74ew6bk34b4vq6mbyzjpnmsu7hjq/lib
HISTSIZE=1000
ZLIB_NG_INC=/leonardo/prod/spack/5.2/install/0.21/linux-rhel8-icelake/gcc-8.5.0/zlib-ng-2.1.4-6htiapkoa6fx2medhyabzo575skozuir/include
J4M_HOME=/leonardo/home/userexternal/fpedron0/JUBE4MaX-GPU/max-inputs/
C_BLOSC_LIB=/leonardo/prod/spack/5.2/install/0.21/linux-rhel8-icelake/gcc-12.2.0/c-blosc-1.21.5-s3edziiwpwqsjjbfyqmtfj7tz4mpac6y/lib64
OPENBLAS_INCLUDE=/leonardo/prod/spack/5.2/install/0.21/linux-rhel8-icelake/gcc-12.2.0/openblas-0.3.24-kytrjfxkavk6fcucnujsdsfqqsjfv5t7/include
SLURM_LOCALID=0
GPU_DEVICE_ORDINAL=0,1,2,3
OMP_NUM_THREADS=1
LESSOPEN=||/usr/bin/lesspipe.sh %s
BASH_FUNC_which%%=() {  ( alias;
 eval ${which_declare} ) | /usr/bin/which --tty-only --read-alias --read-functions --show-tilde --show-dot $@
}
BASH_FUNC_module%%=() {  local _mlredir=1;
 if [ -n "${MODULES_REDIRECT_OUTPUT+x}" ]; then
 if [ "$MODULES_REDIRECT_OUTPUT" = '0' ]; then
 _mlredir=0;
 else
 if [ "$MODULES_REDIRECT_OUTPUT" = '1' ]; then
 _mlredir=1;
 fi;
 fi;
 fi;
 case " $@ " in 
 *' --no-redirect '*)
 _mlredir=0
 ;;
 *' --redirect '*)
 _mlredir=1
 ;;
 esac;
 if [ $_mlredir -eq 0 ]; then
 _module_raw "$@";
 else
 _module_raw "$@" 2>&1;
 fi
}
BASH_FUNC__module_raw%%=() {  eval "$(/leonardo/prod/spack/03/install/0.19/linux-rhel8-icelake/gcc-8.5.0/tcl-8.6.12-rdtv2pt4tnckxsgwtowik3sbexmxolve/bin/tclsh '/leonardo/prod/spack/03/install/0.19/linux-rhel8-icelake/gcc-8.5.0/environment-modules-5.2.0-rz47odw4phlhzhhbz7b65nv5s5othgmi/libexec/modulecmd.tcl' bash "$@")";
 _mlstatus=$?;
 return $_mlstatus
}
BASH_FUNC_ml%%=() {  module ml "$@"
}
_=/usr/bin/env

Current SIESTA linked libraries
-------------------------------
	linux-vdso.so.1 (0x00007ffcf9d72000)
	libnetcdff.so.7 => /leonardo/prod/spack/5.2/install/0.21/linux-rhel8-icelake/gcc-12.2.0/netcdf-fortran-4.6.1-6ioe263mamir3dlic6nau7i2p3svn4q4/lib/libnetcdff.so.7 (0x000014db51c81000)
	libnetcdf.so.19 => /leonardo/prod/spack/5.2/install/0.21/linux-rhel8-icelake/gcc-12.2.0/netcdf-c-4.9.2-dnkfe3mn3ppoiqikffx5cgmdjoshzyak/lib/libnetcdf.so.19 (0x000014db51930000)
	libdl.so.2 => /lib64/libdl.so.2 (0x000014db5172c000)
	libgfortran.so.5 => /leonardo/prod/spack/5.2/install/0.21/linux-rhel8-icelake/gcc-8.5.0/gcc-12.2.0-gmhym3kmbzqlpwkzhgab2xsoygsdwxcl/lib64/libgfortran.so.5 (0x000014db5145d000)
	libm.so.6 => /lib64/libm.so.6 (0x000014db510db000)
	libmvec.so.1 => /lib64/libmvec.so.1 (0x000014db50eb0000)
	libreadline.so.7 => /lib64/libreadline.so.7 (0x000014db50c61000)
	libelpa.so.19 => /leonardo/home/userexternal/fpedron0/Siesta/elpa-gpu/lib/libelpa.so.19 (0x000014db508be000)
	libcusolver.so.11 => /leonardo/prod/opt/compilers/cuda/12.1/none/lib64/libcusolver.so.11 (0x000014db3e44a000)
	libcudart.so.12 => /leonardo/prod/opt/compilers/cuda/12.1/none/lib64/libcudart.so.12 (0x000014db3e1a3000)
	libcublasLt.so.12 => /leonardo/prod/opt/compilers/cuda/12.1/none/lib64/libcublasLt.so.12 (0x000014db1d393000)
	libcublas.so.12 => /leonardo/prod/opt/compilers/cuda/12.1/none/lib64/libcublas.so.12 (0x000014db16b16000)
	libscalapack.so => /leonardo/prod/spack/5.2/install/0.21/linux-rhel8-icelake/gcc-12.2.0/netlib-scalapack-2.2.0-aw7g74ew6bk34b4vq6mbyzjpnmsu7hjq/lib/libscalapack.so (0x000014db16584000)
	libopenblas.so.0 => /leonardo/prod/spack/5.2/install/0.21/linux-rhel8-icelake/gcc-12.2.0/openblas-0.3.24-kytrjfxkavk6fcucnujsdsfqqsjfv5t7/lib/libopenblas.so.0 (0x000014db1591b000)
	libmpi_usempif08.so.40 => /leonardo/prod/opt/libraries/openmpi/4.1.6/gcc--12.2.0/lib/libmpi_usempif08.so.40 (0x000014db51c36000)
	libmpi_usempi_ignore_tkr.so.40 => /leonardo/prod/opt/libraries/openmpi/4.1.6/gcc--12.2.0/lib/libmpi_usempi_ignore_tkr.so.40 (0x000014db51c27000)
	libmpi_mpifh.so.40 => /leonardo/prod/opt/libraries/openmpi/4.1.6/gcc--12.2.0/lib/libmpi_mpifh.so.40 (0x000014db51bbb000)
	libmpi.so.40 => /leonardo/prod/opt/libraries/openmpi/4.1.6/gcc--12.2.0/lib/libmpi.so.40 (0x000014db157fc000)
	libgomp.so.1 => /leonardo/prod/spack/5.2/install/0.21/linux-rhel8-icelake/gcc-8.5.0/gcc-12.2.0-gmhym3kmbzqlpwkzhgab2xsoygsdwxcl/lib64/libgomp.so.1 (0x000014db51b72000)
	libpthread.so.0 => /lib64/libpthread.so.0 (0x000014db155dc000)
	libgcc_s.so.1 => /leonardo/prod/spack/5.2/install/0.21/linux-rhel8-icelake/gcc-8.5.0/gcc-12.2.0-gmhym3kmbzqlpwkzhgab2xsoygsdwxcl/lib64/libgcc_s.so.1 (0x000014db51b4f000)
	libquadmath.so.0 => /leonardo/prod/spack/5.2/install/0.21/linux-rhel8-icelake/gcc-8.5.0/gcc-12.2.0-gmhym3kmbzqlpwkzhgab2xsoygsdwxcl/lib64/libquadmath.so.0 (0x000014db15595000)
	libc.so.6 => /lib64/libc.so.6 (0x000014db151cf000)
	libstdc++.so.6 => /leonardo/prod/spack/5.2/install/0.21/linux-rhel8-icelake/gcc-8.5.0/gcc-12.2.0-gmhym3kmbzqlpwkzhgab2xsoygsdwxcl/lib64/libstdc++.so.6 (0x000014db14fa7000)
	libpnetcdf.so.4 => /leonardo/prod/spack/5.2/install/0.21/linux-rhel8-icelake/gcc-12.2.0/parallel-netcdf-1.12.3-y4e3nyfxgtsz36njprlac7y2ljvxlra7/lib/libpnetcdf.so.4 (0x000014db14a02000)
	libhdf5_hl.so.310 => /leonardo/prod/spack/5.2/install/0.21/linux-rhel8-icelake/gcc-12.2.0/hdf5-1.14.3-flr43qytzge67qvbmjx4mszcm23s4d3b/lib/libhdf5_hl.so.310 (0x000014db51b27000)
	libhdf5.so.310 => /leonardo/prod/spack/5.2/install/0.21/linux-rhel8-icelake/gcc-12.2.0/hdf5-1.14.3-flr43qytzge67qvbmjx4mszcm23s4d3b/lib/libhdf5.so.310 (0x000014db14573000)
	libz.so.1 => /leonardo/prod/spack/5.2/install/0.21/linux-rhel8-icelake/gcc-12.2.0/zlib-1.3-zz7sbfysldbr32mq3xuksztqfruqqtek/lib/libz.so.1 (0x000014db14559000)
	libsz.so.2 => /leonardo/prod/spack/5.2/install/0.21/linux-rhel8-icelake/gcc-12.2.0/libszip-2.1.1-seujxlmwecjzeykce7wn5khcg6hce4ih/lib/libsz.so.2 (0x000014db14544000)
	libbz2.so.1.0 => /leonardo/prod/spack/5.2/install/0.21/linux-rhel8-icelake/gcc-12.2.0/bzip2-1.0.8-cc63fjd7tlgjcisyxrlbuz5d3aryxsal/lib/libbz2.so.1.0 (0x000014db14531000)
	libzstd.so.1 => /leonardo/prod/spack/5.2/install/0.21/linux-rhel8-icelake/gcc-12.2.0/zstd-1.5.5-h6hxgmkwz3ti7tu33y4uhhwilralgibj/lib/libzstd.so.1 (0x000014db14446000)
	libblosc.so.1 => /leonardo/prod/spack/5.2/install/0.21/linux-rhel8-icelake/gcc-12.2.0/c-blosc-1.21.5-s3edziiwpwqsjjbfyqmtfj7tz4mpac6y/lib64/libblosc.so.1 (0x000014db14434000)
	/lib64/ld-linux-x86-64.so.2 (0x000014db51af7000)
	libtinfo.so.6 => /leonardo/prod/spack/5.2/install/0.21/linux-rhel8-icelake/gcc-8.5.0/ncurses-6.4-asx3jea367shsxjt6bdj2bu5olxll6ni/lib/libtinfo.so.6 (0x000014db141f5000)
	libopen-rte.so.40 => /leonardo/prod/opt/libraries/openmpi/4.1.6/gcc--12.2.0/lib/libopen-rte.so.40 (0x000014db1413a000)
	libopen-pal.so.40 => /leonardo/prod/opt/libraries/openmpi/4.1.6/gcc--12.2.0/lib/libopen-pal.so.40 (0x000014db14082000)
	librt.so.1 => /lib64/librt.so.1 (0x000014db13e78000)
	libutil.so.1 => /lib64/libutil.so.1 (0x000014db13c74000)
	libhwloc.so.15 => /lib64/libhwloc.so.15 (0x000014db13a24000)
	libevent_core-2.1.so.6 => /lib64/libevent_core-2.1.so.6 (0x000014db137eb000)
	libevent_pthreads-2.1.so.6 => /lib64/libevent_pthreads-2.1.so.6 (0x000014db135e8000)
	libnvJitLink.so.12 => /leonardo/prod/opt/compilers/cuda/12.1/none/lib64/libnvJitLink.so.12 (0x000014db10532000)
	liblz4.so.1 => /leonardo/prod/spack/5.2/install/0.21/linux-rhel8-icelake/gcc-12.2.0/lz4-1.9.4-airzjr33y2opch3tssn2wfiz44nud4ng/lib/liblz4.so.1 (0x000014db104bc000)
	libcrypto.so.1.1 => /lib64/libcrypto.so.1.1 (0x000014db0ffd2000)

SCF_NOT_CONV: SCF did not converge  in maximum number of steps.
Geom step, scf iteration, dDmax, dHmax:    0     5   1209.252836     2.112432
Job completed
