JobID        JobIDRaw        JobName  Partition  MaxVMSize  MaxVMSizeNode  MaxVMSizeTask  AveVMSize     MaxRSS MaxRSSNode MaxRSSTask     AveRSS MaxPages MaxPagesNode   MaxPagesTask   AvePages     MinCPU MinCPUNode MinCPUTask     AveCPU   NTasks  AllocCPUS    Elapsed      State ExitCode AveCPUFreq ReqCPUFreqMin ReqCPUFreqMax ReqCPUFreqGov     ReqMem ConsumedEnergy  MaxDiskRead MaxDiskReadNode MaxDiskReadTask    AveDiskRead MaxDiskWrite MaxDiskWriteNode MaxDiskWriteTask   AveDiskWrite    ReqTRES  AllocTRES TRESUsageInAve TRESUsageInMax TRESUsageInMaxNode TRESUsageInMaxTask TRESUsageInMin TRESUsageInMinNode TRESUsageInMinTask TRESUsageInTot TRESUsageOutMax TRESUsageOutMaxNode TRESUsageOutMaxTask TRESUsageOutAve TRESUsageOutTot 
------------ ------------ ---------- ---------- ---------- -------------- -------------- ---------- ---------- ---------- ---------- ---------- -------- ------------ -------------- ---------- ---------- ---------- ---------- ---------- -------- ---------- ---------- ---------- -------- ---------- ------------- ------------- ------------- ---------- -------------- ------------ --------------- --------------- -------------- ------------ ---------------- ---------------- -------------- ---------- ---------- -------------- -------------- ------------------ ------------------ -------------- ------------------ ------------------ -------------- --------------- ------------------- ------------------- --------------- --------------- 
7715925      7715925       CovidWeak        acc                                                                                                                                                                                                            1280   00:10:31    RUNNING      0:0                  Unknown       Unknown       Unknown   4000000M                                                                                                                                          billing=6+ billing=1+                                                                                                                                                                                                                                 
7715925.bat+ 7715925.bat+      batch                                                                                                                                                                                                               1        160   00:10:31    RUNNING      0:0          0             0             0             0                         0                                                                                                                                      cpu=160,g+                                                                                                                                                                                                                                 
7715925.ext+ 7715925.ext+     extern                                                                                                                                                                                                               8       1280   00:10:31    RUNNING      0:0          0             0             0             0                         0                                                                                                                                      billing=1+                                                                                                                                                                                                                                 
7715925.0    7715925.0    marenostr+             25802172K      as03r2b01              0 261560210+    975114K  as03r2b07        384  930800020       37    as03r2b06            306          4   00:09:33  as03r2b06        240   00:09:42      640       1280   00:10:23  COMPLETED      0:0      2.37G       Unknown       Unknown       Unknown                         0       45.20M       as03r2b01               0         44.06M       26.27M        as03r2b01                0          5.05M            cpu=1280,+ cpu=00:09:42,+ cpu=00:09:53,+ cpu=as03r2b11,ene+ cpu=637,fs/disk=0+ cpu=00:09:33,+ cpu=as03r2b06,ene+ cpu=240,fs/disk=5+ cpu=4-07:35:4+ energy=0,fs/di+ energy=as03r2b08,f+           fs/disk=0 energy=0,fs/di+ energy=0,fs/di+ 
