JobId=7682164 JobName=submit.job
   UserId=fpedron0(126159) GroupId=interactive(25200) MCS_label=N/A
   Priority=120956 Nice=0 Account=euhpc_b13_053_0 QOS=normal
   JobState=RUNNING Reason=None Dependency=(null)
   Requeue=0 Restarts=0 BatchFlag=1 Reboot=0 ExitCode=0:0
   DerivedExitCode=0:0
   RunTime=00:00:03 TimeLimit=1-00:00:00 TimeMin=N/A
   SubmitTime=2024-09-13T15:51:35 EligibleTime=2024-09-13T15:51:35
   AccrueTime=2024-09-13T15:51:35
   StartTime=2024-09-13T15:51:37 EndTime=2024-09-14T15:51:38 Deadline=N/A
   SuspendTime=None SecsPreSuspend=0 LastSchedEval=2024-09-13T15:51:37 Scheduler=Main
   Partition=dcgp_usr_prod AllocNode:Sid=slurm-controller:3895506
   ReqNodeList=(null) ExcNodeList=(null)
   NodeList=lrdn[4486,4501-4503,4512,4516-4517,4522]
   BatchHost=lrdn4486
   NumNodes=8 NumCPUs=896 NumTasks=896 CPUs/Task=1 ReqB:S:C:T=0:0:*:*
   TRES=cpu=896,mem=3850G,node=8,billing=896,gres/tmpfs=26388279066624
   Socks/Node=* NtasksPerN:B:S:C=112:0:*:* CoreSpec=*
   JOB_GRES=tmpfs:26388279066624
     Nodes=lrdn[4486,4501-4503,4512,4516-4517,4522] CPU_IDs=0-111 Mem=492800 GRES=tmpfs(CNT:3298534883328)
   MinCPUsNode=112 MinMemoryCPU=4400M MinTmpDiskNode=0
   Features=(null) DelayBoot=00:00:00
   OverSubscribe=NO Contiguous=0 Licenses=(null) Network=(null)
   Command=/leonardo/home/userexternal/fpedron0/JUBE4MaX/max-inputs/interface/siesta/_CovidStrong/000000/000011_submit/work/submit.job
   WorkDir=/leonardo/home/userexternal/fpedron0/JUBE4MaX/max-inputs/interface/siesta/_CovidStrong/000000/000011_submit/work
   StdErr=/leonardo/home/userexternal/fpedron0/JUBE4MaX/max-inputs/interface/siesta/_CovidStrong/000000/000011_submit/work/slurm-7682164.out
   StdIn=/dev/null
   StdOut=/leonardo/home/userexternal/fpedron0/JUBE4MaX/max-inputs/interface/siesta/_CovidStrong/000000/000011_submit/work/slurm-7682164.out
   Power=
   TresPerNode=gres:tmpfs:10g
   

