JobID        JobIDRaw        JobName  Partition  MaxVMSize  MaxVMSizeNode  MaxVMSizeTask  AveVMSize     MaxRSS MaxRSSNode MaxRSSTask     AveRSS MaxPages MaxPagesNode   MaxPagesTask   AvePages     MinCPU MinCPUNode MinCPUTask     AveCPU   NTasks  AllocCPUS    Elapsed      State ExitCode AveCPUFreq ReqCPUFreqMin ReqCPUFreqMax ReqCPUFreqGov     ReqMem ConsumedEnergy  MaxDiskRead MaxDiskReadNode MaxDiskReadTask    AveDiskRead MaxDiskWrite MaxDiskWriteNode MaxDiskWriteTask   AveDiskWrite    ReqTRES  AllocTRES TRESUsageInAve TRESUsageInMax TRESUsageInMaxNode TRESUsageInMaxTask TRESUsageInMin TRESUsageInMinNode TRESUsageInMinTask TRESUsageInTot TRESUsageOutMax TRESUsageOutMaxNode TRESUsageOutMaxTask TRESUsageOutAve TRESUsageOutTot 
------------ ------------ ---------- ---------- ---------- -------------- -------------- ---------- ---------- ---------- ---------- ---------- -------- ------------ -------------- ---------- ---------- ---------- ---------- ---------- -------- ---------- ---------- ---------- -------- ---------- ------------- ------------- ------------- ---------- -------------- ------------ --------------- --------------- -------------- ------------ ---------------- ---------------- -------------- ---------- ---------- -------------- -------------- ------------------ ------------------ -------------- ------------------ ------------------ -------------- --------------- ------------------- ------------------- --------------- --------------- 
151861       151861        CovidWeak normal-x86                                                                                                                                                                                                            1024   00:10:36    RUNNING      0:0                  Unknown       Unknown       Unknown      1936G                                                                                                                                          billing=1+ billing=1+                                                                                                                                                                                                                                 
151861.batch 151861.batch      batch                                                                                                                                                                                                               1        128   00:10:36    RUNNING      0:0          0             0             0             0                         0                                                                                                                                      cpu=128,m+                                                                                                                                                                                                                                 
151861.exte+ 151861.exte+     extern                                                                                                                                                                                                               8       1024   00:10:36    RUNNING      0:0          0             0             0             0                         0                                                                                                                                      billing=1+                                                                                                                                                                                                                                 
151861.0     151861.0          orted             44808456K         cnx295              2 444311113+  43756020K     cnx295          2 433608510+      759       cnx215              1        589   22:02:06     cnx342          4   22:03:04        7       1024   00:10:36  COMPLETED      0:0       209K             0             0             0                               2840.37M          cnx343               5       2645.44M      529.01M           cnx199                0        529.00M            billing=1+ cpu=22:03:04,+ cpu=22:04:28,+ cpu=cnx199,energy+ cpu=0,fs/disk=5,m+ cpu=22:02:06,+ cpu=cnx342,energy+ cpu=4,fs/disk=4,m+ cpu=6-10:21:3+ energy=0,fs/di+ energy=cnx215,fs/d+           fs/disk=0 energy=0,fs/di+ energy=0,fs/di+ 
