JobID        JobIDRaw        JobName  Partition  MaxVMSize  MaxVMSizeNode  MaxVMSizeTask  AveVMSize     MaxRSS MaxRSSNode MaxRSSTask     AveRSS MaxPages MaxPagesNode   MaxPagesTask   AvePages     MinCPU MinCPUNode MinCPUTask     AveCPU   NTasks  AllocCPUS    Elapsed      State ExitCode AveCPUFreq ReqCPUFreqMin ReqCPUFreqMax ReqCPUFreqGov     ReqMem ConsumedEnergy  MaxDiskRead MaxDiskReadNode MaxDiskReadTask    AveDiskRead MaxDiskWrite MaxDiskWriteNode MaxDiskWriteTask   AveDiskWrite    ReqTRES  AllocTRES TRESUsageInAve TRESUsageInMax TRESUsageInMaxNode TRESUsageInMaxTask TRESUsageInMin TRESUsageInMinNode TRESUsageInMinTask TRESUsageInTot TRESUsageOutMax TRESUsageOutMaxNode TRESUsageOutMaxTask TRESUsageOutAve TRESUsageOutTot 
------------ ------------ ---------- ---------- ---------- -------------- -------------- ---------- ---------- ---------- ---------- ---------- -------- ------------ -------------- ---------- ---------- ---------- ---------- ---------- -------- ---------- ---------- ---------- -------- ---------- ------------- ------------- ------------- ---------- -------------- ------------ --------------- --------------- -------------- ------------ ---------------- ---------------- -------------- ---------- ---------- -------------- -------------- ------------------ ------------------ -------------- ------------------ ------------------ -------------- --------------- ------------------- ------------------- --------------- --------------- 
1589214      1589214      CovidStro+       qcpu                                                                                                                                                                                                             256   00:01:21    RUNNING      0:0                  Unknown       Unknown       Unknown       460G                                                                                                                                          billing=2+ billing=2+                                                                                                                                                                                                                                 
1589214.bat+ 1589214.bat+      batch                                                                                                                                                                                                               1        128   00:01:21    RUNNING      0:0          0             0             0             0                         0                                                                                                                                      cpu=128,m+                                                                                                                                                                                                                                 
1589214.ext+ 1589214.ext+     extern                                                                                                                                                                                                               2        256   00:01:21    RUNNING      0:0          0             0             0             0                         0                                                                                                                                      billing=2+                                                                                                                                                                                                                                 
1589214.0    1589214.0        siesta               596920K          cn354            228  528023600    589636K      cn354        228  520559824       84        cn354            194         29   00:01:06      cn353          0   00:01:08      256        256   00:01:18  COMPLETED      0:0      3.61G       Unknown       Unknown       Unknown                         0       14.97M           cn353               0         13.66M       20.90M            cn353                0          4.19M            cpu=256,m+ cpu=00:01:08,+ cpu=00:01:09,+ cpu=cn354,energy=+ cpu=238,fs/disk=0+ cpu=00:01:06,+ cpu=cn353,energy=+ cpu=0,fs/disk=140+ cpu=04:53:00,+ energy=0,fs/di+ energy=cn354,fs/di+           fs/disk=0 energy=0,fs/di+ energy=0,fs/di+ 
