JobID        JobIDRaw        JobName  Partition  MaxVMSize  MaxVMSizeNode  MaxVMSizeTask  AveVMSize     MaxRSS MaxRSSNode MaxRSSTask     AveRSS MaxPages MaxPagesNode   MaxPagesTask   AvePages     MinCPU MinCPUNode MinCPUTask     AveCPU   NTasks  AllocCPUS    Elapsed      State ExitCode AveCPUFreq ReqCPUFreqMin ReqCPUFreqMax ReqCPUFreqGov     ReqMem ConsumedEnergy  MaxDiskRead MaxDiskReadNode MaxDiskReadTask    AveDiskRead MaxDiskWrite MaxDiskWriteNode MaxDiskWriteTask   AveDiskWrite    ReqTRES  AllocTRES TRESUsageInAve TRESUsageInMax TRESUsageInMaxNode TRESUsageInMaxTask TRESUsageInMin TRESUsageInMinNode TRESUsageInMinTask TRESUsageInTot TRESUsageOutMax TRESUsageOutMaxNode TRESUsageOutMaxTask TRESUsageOutAve TRESUsageOutTot 
------------ ------------ ---------- ---------- ---------- -------------- -------------- ---------- ---------- ---------- ---------- ---------- -------- ------------ -------------- ---------- ---------- ---------- ---------- ---------- -------- ---------- ---------- ---------- -------- ---------- ------------- ------------- ------------- ---------- -------------- ------------ --------------- --------------- -------------- ------------ ---------------- ---------------- -------------- ---------- ---------- -------------- -------------- ------------------ ------------------ -------------- ------------------ ------------------ -------------- --------------- ------------------- ------------------- --------------- --------------- 
9592936      9592936       CovidWeak        gpp                                                                                                                                                                                                            7168   00:16:28    RUNNING      0:0                  Unknown       Unknown       Unknown      7000G                                                                                                                                          billing=3+ billing=7+                                                                                                                                                                                                                                 
9592936.bat+ 9592936.bat+      batch                                                                                                                                                                                                               1        224   00:16:28    RUNNING      0:0          0             0             0             0                         0                                                                                                                                      cpu=224,m+                                                                                                                                                                                                                                 
9592936.ext+ 9592936.ext+     extern                                                                                                                                                                                                              32       7168   00:16:28    RUNNING      0:0          0             0             0             0                         0                                                                                                                                      billing=7+                                                                                                                                                                                                                                 
9592936.0    9592936.0        siesta                                                                                                                                                                                                            3584       7168   00:10:15    RUNNING      0:0          0       Unknown       Unknown       Unknown                         0                                                                                                                                      cpu=7168,+                                                                                                                                                                                                                                 
