{
 "global_section": { "_calls": 1, "_time":      596.923, "_%":   100.00,
   "siesta": { "_calls": 1, "_time":      596.923, "_%":   100.00,
     "Setup": { "_calls": 1, "_time":        2.289, "_%":     0.38,
       "bands": { "_calls": 1, "_time":        0.002, "_%":     0.00},
       "KSV_init": { "_calls": 1, "_time":        0.001, "_%":     0.00}
     },
     "IterGeom": { "_calls": 1, "_time":      594.333, "_%":    99.57,
       "geom_init": { "_calls": 1, "_time":       20.007, "_%":     3.35,
         "state_init": { "_calls": 1, "_time":        0.794, "_%":     0.13,
           "hsparse": { "_calls": 1, "_time":        0.199, "_%":     0.03},
           "overlap": { "_calls": 1, "_time":        0.057, "_%":     0.01}
         },
         "Setup_H0": { "_calls": 1, "_time":       19.213, "_%":     3.22,
           "naefs": { "_calls": 1, "_time":        0.027, "_%":     0.00},
           "MolMec": { "_calls": 1, "_time":        0.000, "_%":     0.00},
           "kinefsm": { "_calls": 1, "_time":        0.054, "_%":     0.01},
           "nlefsm": { "_calls": 1, "_time":        0.159, "_%":     0.03},
           "DHSCF_Init": { "_calls": 1, "_time":       18.955, "_%":     3.18,
             "DHSCF1": { "_calls": 1, "_time":        0.040, "_%":     0.01,
               "INITMESH": { "_calls": 1, "_time":        0.000, "_%":     0.00}
             },
             "DHSCF2": { "_calls": 1, "_time":       18.893, "_%":     3.17,
               "REMESH": { "_calls": 1, "_time":       15.976, "_%":     2.68,
                 "INITMESH": { "_calls": 2, "_time":       15.639, "_%":     2.62,
                   "SPLOAD": { "_calls": 2, "_time":        4.641, "_%":     0.78}
                 }
               },
               "REORD": { "_calls": 2, "_time":        0.001, "_%":     0.00},
               "PHION": { "_calls": 1, "_time":        0.035, "_%":     0.01},
               "COMM_BSC": { "_calls": 1, "_time":        0.062, "_%":     0.01},
               "POISON": { "_calls": 1, "_time":        0.650, "_%":     0.11,
                 "fft": { "_calls": 2, "_time":        0.635, "_%":     0.11}
               }
             }
           }
         }
       },
       "IterSCF": { "_calls": 5, "_time":      574.215, "_%":    96.20,
         "setup_H": { "_calls": 5, "_time":        4.640, "_%":     0.78,
           "DHSCF": { "_calls": 5, "_time":        4.623, "_%":     0.77,
             "DHSCF3": { "_calls": 5, "_time":        4.623, "_%":     0.77,
               "rhoofd": { "_calls": 5, "_time":        0.047, "_%":     0.01},
               "COMM_BSC": { "_calls": 10, "_time":        0.223, "_%":     0.04},
               "POISON": { "_calls": 5, "_time":        2.665, "_%":     0.45,
                 "fft": { "_calls": 10, "_time":        2.559, "_%":     0.43}
               },
               "XC": { "_calls": 5, "_time":        1.424, "_%":     0.24,
                 "COMM_BSC": { "_calls": 10, "_time":        0.214, "_%":     0.04},
                 "GXC-CellXC": { "_calls": 5, "_time":        1.182, "_%":     0.20,
                   "gridxc@cellXC": { "_calls": 5, "_time":        1.182, "_%":     0.20}
                 }
               },
               "vmat": { "_calls": 5, "_time":        0.046, "_%":     0.01}
             }
           }
         },
         "compute_dm": { "_calls": 5, "_time":      569.535, "_%":    95.41,
           "elsi": { "_calls": 5, "_time":      568.955, "_%":    95.31,
             "find nnz_g": { "_calls": 5, "_time":        0.000, "_%":     0.00},
             "elsi-solver": { "_calls": 5, "_time":      568.818, "_%":    95.29}
           }
         },
         "MIXER": { "_calls": 5, "_time":        0.009, "_%":     0.00}
       },
       "state_analysis": { "_calls": 1, "_time":        0.099, "_%":     0.02},
       "siesta_move": { "_calls": 1, "_time":        0.000, "_%":     0.00}
     },
     "Analysis": { "_calls": 1, "_time":        0.296, "_%":     0.05,
       "optical": { "_calls": 1, "_time":        0.001, "_%":     0.00}
     }
   }
 }}
