{
 "global_section": { "_calls": 1, "_time":       31.976, "_%":   100.00,
   "siesta": { "_calls": 1, "_time":       31.976, "_%":   100.00,
     "Setup": { "_calls": 1, "_time":        1.900, "_%":     5.94,
       "bands": { "_calls": 1, "_time":        0.001, "_%":     0.00},
       "KSV_init": { "_calls": 1, "_time":        0.000, "_%":     0.00}
     },
     "IterGeom": { "_calls": 1, "_time":       29.984, "_%":    93.77,
       "geom_init": { "_calls": 1, "_time":        3.296, "_%":    10.31,
         "state_init": { "_calls": 1, "_time":        0.289, "_%":     0.90,
           "hsparse": { "_calls": 1, "_time":        0.092, "_%":     0.29},
           "overlap": { "_calls": 1, "_time":        0.031, "_%":     0.10}
         },
         "Setup_H0": { "_calls": 1, "_time":        3.007, "_%":     9.40,
           "naefs": { "_calls": 1, "_time":        0.020, "_%":     0.06},
           "MolMec": { "_calls": 1, "_time":        0.000, "_%":     0.00},
           "kinefsm": { "_calls": 1, "_time":        0.031, "_%":     0.10},
           "nlefsm": { "_calls": 1, "_time":        0.074, "_%":     0.23},
           "DHSCF_Init": { "_calls": 1, "_time":        2.870, "_%":     8.98,
             "DHSCF1": { "_calls": 1, "_time":        0.021, "_%":     0.06,
               "INITMESH": { "_calls": 1, "_time":        0.000, "_%":     0.00}
             },
             "DHSCF2": { "_calls": 1, "_time":        2.837, "_%":     8.87,
               "REMESH": { "_calls": 1, "_time":        0.360, "_%":     1.12,
                 "INITMESH": { "_calls": 2, "_time":        0.337, "_%":     1.05,
                   "SPLOAD": { "_calls": 2, "_time":        0.164, "_%":     0.51}
                 }
               },
               "REORD": { "_calls": 2, "_time":        0.011, "_%":     0.04},
               "PHION": { "_calls": 1, "_time":        0.066, "_%":     0.21},
               "COMM_BSC": { "_calls": 1, "_time":        0.056, "_%":     0.17},
               "POISON": { "_calls": 1, "_time":        2.073, "_%":     6.48,
                 "fft": { "_calls": 2, "_time":        2.004, "_%":     6.27}
               }
             }
           }
         }
       },
       "IterSCF": { "_calls": 5, "_time":       26.654, "_%":    83.35,
         "setup_H": { "_calls": 5, "_time":       16.558, "_%":    51.78,
           "DHSCF": { "_calls": 5, "_time":       16.514, "_%":    51.64,
             "DHSCF3": { "_calls": 5, "_time":       16.514, "_%":    51.64,
               "rhoofd": { "_calls": 5, "_time":        0.112, "_%":     0.35},
               "COMM_BSC": { "_calls": 10, "_time":        0.518, "_%":     1.62},
               "POISON": { "_calls": 5, "_time":       10.060, "_%":    31.46,
                 "fft": { "_calls": 10, "_time":        9.620, "_%":    30.08}
               },
               "XC": { "_calls": 5, "_time":        4.698, "_%":    14.69,
                 "COMM_BSC": { "_calls": 10, "_time":        0.502, "_%":     1.57},
                 "GXC-CellXC": { "_calls": 5, "_time":        4.096, "_%":    12.81,
                   "gridxc@cellXC": { "_calls": 5, "_time":        4.096, "_%":    12.81}
                 }
               },
               "vmat": { "_calls": 5, "_time":        0.147, "_%":     0.46}
             }
           }
         },
         "compute_dm": { "_calls": 5, "_time":       10.036, "_%":    31.39,
           "redist_orbs_fwd": { "_calls": 20, "_time":        0.128, "_%":     0.40},
           "elsi-complex-solver": { "_calls": 5, "_time":        9.872, "_%":    30.87,
             "elsi-solver": { "_calls": 5, "_time":        7.221, "_%":    22.58}
           },
           "redist_dm-edm_bck": { "_calls": 5, "_time":        0.009, "_%":     0.03}
         },
         "MIXER": { "_calls": 5, "_time":        0.049, "_%":     0.15}
       },
       "state_analysis": { "_calls": 1, "_time":        0.023, "_%":     0.07},
       "siesta_move": { "_calls": 1, "_time":        0.000, "_%":     0.00}
     },
     "Analysis": { "_calls": 1, "_time":        0.078, "_%":     0.24,
       "optical": { "_calls": 1, "_time":        0.000, "_%":     0.00}
     }
   }
 }}
