JobId=7705342 JobName=CovidWeak
   UserId=icn2553284(51005) GroupId=icn2(50004) MCS_label=N/A
   Priority=193698 Nice=0 Account=ehpc37 QOS=acc_debug
   JobState=RUNNING Reason=None Dependency=(null)
   Requeue=0 Restarts=0 BatchFlag=1 Reboot=0 ExitCode=0:0
   RunTime=00:00:07 TimeLimit=02:00:00 TimeMin=N/A
   SubmitTime=2024-09-18T13:22:17 EligibleTime=2024-09-18T13:22:17
   AccrueTime=2024-09-18T13:22:17
   StartTime=2024-09-18T13:59:51 EndTime=2024-09-18T15:59:51 Deadline=N/A
   SuspendTime=None SecsPreSuspend=0 LastSchedEval=2024-09-18T13:59:51 Scheduler=Main
   Partition=acc AllocNode:Sid=alogin2:3357546
   ReqNodeList=(null) ExcNodeList=(null)
   NodeList=as01r4b[08,16]
   BatchHost=as01r4b08
   NumNodes=2 NumCPUs=320 NumTasks=160 CPUs/Task=1 ReqB:S:C:T=0:0:*:1
   ReqTRES=cpu=160,mem=1000000M,node=2,billing=160,gres/gpu=8
   AllocTRES=cpu=320,mem=1000000M,node=2,billing=320,gres/gpu=8
   Socks/Node=* NtasksPerN:B:S:C=80:0:*:* CoreSpec=*
   MinCPUsNode=80 MinMemoryCPU=6250M MinTmpDiskNode=0
   Features=(null) DelayBoot=00:00:00
   OverSubscribe=NO Contiguous=0 Licenses=(null) Network=(null)
   Command=/gpfs/home/icn2/icn2553284/jube4max-gpu/max-inputs/interface/siesta/_CovidWeak/000000/000001_submit/work/submit.job
   WorkDir=/gpfs/home/icn2/icn2553284/jube4max-gpu/max-inputs/interface/siesta/_CovidWeak/000000/000001_submit/work
   StdErr=/gpfs/home/icn2/icn2553284/jube4max-gpu/max-inputs/interface/siesta/_CovidWeak/000000/000001_submit/work/job_7705342.err
   StdIn=/dev/null
   StdOut=/gpfs/home/icn2/icn2553284/jube4max-gpu/max-inputs/interface/siesta/_CovidWeak/000000/000001_submit/work/job_7705342.out
   Power=
   TresPerNode=gres:gpu:4
   

