{
 "global_section": { "_calls": 1, "_time":      399.253, "_%":   100.00,
   "siesta": { "_calls": 1, "_time":      399.253, "_%":   100.00,
     "Setup": { "_calls": 1, "_time":        0.847, "_%":     0.21,
       "bands": { "_calls": 1, "_time":        0.002, "_%":     0.00},
       "KSV_init": { "_calls": 1, "_time":        0.000, "_%":     0.00}
     },
     "IterGeom": { "_calls": 1, "_time":      396.978, "_%":    99.43,
       "geom_init": { "_calls": 1, "_time":        4.199, "_%":     1.05,
         "state_init": { "_calls": 1, "_time":        1.137, "_%":     0.28,
           "hsparse": { "_calls": 1, "_time":        0.658, "_%":     0.16},
           "overlap": { "_calls": 1, "_time":        0.130, "_%":     0.03}
         },
         "Setup_H0": { "_calls": 1, "_time":        3.059, "_%":     0.77,
           "naefs": { "_calls": 1, "_time":        0.054, "_%":     0.01},
           "MolMec": { "_calls": 1, "_time":        0.000, "_%":     0.00},
           "kinefsm": { "_calls": 1, "_time":        0.130, "_%":     0.03},
           "nlefsm": { "_calls": 1, "_time":        0.712, "_%":     0.18},
           "DHSCF_Init": { "_calls": 1, "_time":        2.133, "_%":     0.53,
             "DHSCF1": { "_calls": 1, "_time":        0.014, "_%":     0.00,
               "INITMESH": { "_calls": 1, "_time":        0.000, "_%":     0.00}
             },
             "DHSCF2": { "_calls": 1, "_time":        2.113, "_%":     0.53,
               "REMESH": { "_calls": 1, "_time":        0.940, "_%":     0.24,
                 "INITMESH": { "_calls": 2, "_time":        0.922, "_%":     0.23,
                   "SPLOAD": { "_calls": 2, "_time":        0.910, "_%":     0.23}
                 }
               },
               "REORD": { "_calls": 2, "_time":        0.002, "_%":     0.00},
               "PHION": { "_calls": 1, "_time":        0.215, "_%":     0.05},
               "COMM_BSC": { "_calls": 1, "_time":        0.019, "_%":     0.00},
               "POISON": { "_calls": 1, "_time":        0.361, "_%":     0.09,
                 "fft": { "_calls": 2, "_time":        0.345, "_%":     0.09}
               }
             }
           }
         }
       },
       "IterSCF": { "_calls": 5, "_time":      392.609, "_%":    98.34,
         "setup_H": { "_calls": 5, "_time":        5.372, "_%":     1.35,
           "DHSCF": { "_calls": 5, "_time":        5.357, "_%":     1.34,
             "DHSCF3": { "_calls": 5, "_time":        5.357, "_%":     1.34,
               "rhoofd": { "_calls": 5, "_time":        0.161, "_%":     0.04},
               "COMM_BSC": { "_calls": 10, "_time":        0.126, "_%":     0.03},
               "POISON": { "_calls": 5, "_time":        1.750, "_%":     0.44,
                 "fft": { "_calls": 10, "_time":        1.664, "_%":     0.42}
               },
               "XC": { "_calls": 5, "_time":        3.021, "_%":     0.76,
                 "COMM_BSC": { "_calls": 10, "_time":        0.099, "_%":     0.02},
                 "GXC-CellXC": { "_calls": 5, "_time":        2.902, "_%":     0.73,
                   "gridxc@cellXC": { "_calls": 5, "_time":        2.902, "_%":     0.73}
                 }
               },
               "vmat": { "_calls": 5, "_time":        0.165, "_%":     0.04}
             }
           }
         },
         "compute_dm": { "_calls": 5, "_time":      387.198, "_%":    96.98,
           "elsi": { "_calls": 5, "_time":      385.442, "_%":    96.54,
             "find nnz_g": { "_calls": 5, "_time":        0.000, "_%":     0.00},
             "elsi-solver": { "_calls": 5, "_time":      385.425, "_%":    96.54}
           }
         },
         "MIXER": { "_calls": 5, "_time":        0.010, "_%":     0.00}
       },
       "state_analysis": { "_calls": 1, "_time":        0.033, "_%":     0.01},
       "siesta_move": { "_calls": 1, "_time":        0.000, "_%":     0.00}
     },
     "Analysis": { "_calls": 1, "_time":        1.425, "_%":     0.36,
       "optical": { "_calls": 1, "_time":        0.001, "_%":     0.00}
     }
   }
 }}
