JobId=1590671 JobName=CovidWeakKPoints
   UserId=it4i-fpedron(9897) GroupId=it4i-fpedron(11979) MCS_label=N/A
   Priority=202239020 Nice=0 Account=dd-24-70 QOS=2820_4663
   JobState=RUNNING Reason=None Dependency=(null)
   Requeue=1 Restarts=0 BatchFlag=1 Reboot=0 ExitCode=0:0
   DerivedExitCode=0:0
   RunTime=00:00:04 TimeLimit=00:59:00 TimeMin=N/A
   SubmitTime=2024-09-06T15:56:07 EligibleTime=2024-09-06T15:56:07
   AccrueTime=2024-09-06T15:56:07
   StartTime=2024-09-06T15:56:40 EndTime=2024-09-06T16:55:40 Deadline=N/A
   PreemptEligibleTime=2024-09-06T15:56:40 PreemptTime=None
   SuspendTime=None SecsPreSuspend=0 LastSchedEval=2024-09-06T15:56:40 Scheduler=Backfill
   Partition=qcpu AllocNode:Sid=login3.karolina.it4i.cz:2241179
   ReqNodeList=(null) ExcNodeList=(null)
   NodeList=cn222
   BatchHost=cn222
   NumNodes=1 NumCPUs=128 NumTasks=128 CPUs/Task=1 ReqB:S:C:T=0:0:*:*
   ReqTRES=cpu=128,mem=230G,node=1,billing=1
   AllocTRES=cpu=128,mem=230G,node=1,billing=1
   Socks/Node=* NtasksPerN:B:S:C=128:0:*:* CoreSpec=*
   JOB_GRES=(null)
     Nodes=cn222 CPU_IDs=0-127 Mem=235520 GRES=
   MinCPUsNode=128 MinMemoryNode=230G MinTmpDiskNode=0
   Features=(null) DelayBoot=00:00:00
   OverSubscribe=NO Contiguous=0 Licenses=(null) Network=(null)
   Command=/home/it4i-fpedron/JUBE4MaX/max-inputs/interface/siesta/_CovidWeakKPoints/000000/000000_submit/work/submit.job
   WorkDir=/home/it4i-fpedron/JUBE4MaX/max-inputs/interface/siesta/_CovidWeakKPoints/000000/000000_submit/work
   StdErr=/home/it4i-fpedron/JUBE4MaX/max-inputs/interface/siesta/_CovidWeakKPoints/000000/000000_submit/work/slurm-1590671.out
   StdIn=/dev/null
   StdOut=/home/it4i-fpedron/JUBE4MaX/max-inputs/interface/siesta/_CovidWeakKPoints/000000/000000_submit/work/slurm-1590671.out
   Power=
   TresPerTask=cpu:1
   

