{
 "global_section": { "_calls": 1, "_time":      777.790, "_%":   100.00,
   "siesta": { "_calls": 1, "_time":      777.790, "_%":   100.00,
     "Setup": { "_calls": 1, "_time":        0.796, "_%":     0.10,
       "bands": { "_calls": 1, "_time":        0.002, "_%":     0.00},
       "KSV_init": { "_calls": 1, "_time":        0.001, "_%":     0.00}
     },
     "IterGeom": { "_calls": 1, "_time":      776.891, "_%":    99.88,
       "geom_init": { "_calls": 1, "_time":        4.926, "_%":     0.63,
         "state_init": { "_calls": 1, "_time":        1.051, "_%":     0.14,
           "hsparse": { "_calls": 1, "_time":        0.120, "_%":     0.02},
           "overlap": { "_calls": 1, "_time":        0.040, "_%":     0.01}
         },
         "Setup_H0": { "_calls": 1, "_time":        3.873, "_%":     0.50,
           "naefs": { "_calls": 1, "_time":        0.017, "_%":     0.00},
           "MolMec": { "_calls": 1, "_time":        0.000, "_%":     0.00},
           "kinefsm": { "_calls": 1, "_time":        0.038, "_%":     0.00},
           "nlefsm": { "_calls": 1, "_time":        0.207, "_%":     0.03},
           "DHSCF_Init": { "_calls": 1, "_time":        3.599, "_%":     0.46,
             "DHSCF1": { "_calls": 1, "_time":        0.027, "_%":     0.00,
               "INITMESH": { "_calls": 1, "_time":        0.000, "_%":     0.00}
             },
             "DHSCF2": { "_calls": 1, "_time":        3.557, "_%":     0.46,
               "REMESH": { "_calls": 1, "_time":        2.474, "_%":     0.32,
                 "INITMESH": { "_calls": 2, "_time":        2.340, "_%":     0.30,
                   "SPLOAD": { "_calls": 2, "_time":        1.394, "_%":     0.18}
                 }
               },
               "REORD": { "_calls": 2, "_time":        0.002, "_%":     0.00},
               "PHION": { "_calls": 1, "_time":        0.023, "_%":     0.00},
               "COMM_BSC": { "_calls": 1, "_time":        0.029, "_%":     0.00},
               "POISON": { "_calls": 1, "_time":        0.391, "_%":     0.05,
                 "fft": { "_calls": 2, "_time":        0.378, "_%":     0.05}
               }
             }
           }
         }
       },
       "IterSCF": { "_calls": 5, "_time":      771.777, "_%":    99.23,
         "setup_H": { "_calls": 5, "_time":        3.136, "_%":     0.40,
           "DHSCF": { "_calls": 5, "_time":        3.118, "_%":     0.40,
             "DHSCF3": { "_calls": 5, "_time":        3.118, "_%":     0.40,
               "rhoofd": { "_calls": 5, "_time":        0.041, "_%":     0.01},
               "COMM_BSC": { "_calls": 10, "_time":        0.148, "_%":     0.02},
               "POISON": { "_calls": 5, "_time":        1.438, "_%":     0.18,
                 "fft": { "_calls": 10, "_time":        1.360, "_%":     0.17}
               },
               "XC": { "_calls": 5, "_time":        1.265, "_%":     0.16,
                 "COMM_BSC": { "_calls": 10, "_time":        0.158, "_%":     0.02},
                 "GXC-CellXC": { "_calls": 5, "_time":        1.084, "_%":     0.14,
                   "gridxc@cellXC": { "_calls": 5, "_time":        1.084, "_%":     0.14}
                 }
               },
               "vmat": { "_calls": 5, "_time":        0.047, "_%":     0.01}
             }
           }
         },
         "compute_dm": { "_calls": 5, "_time":      768.603, "_%":    98.82,
           "redist_orbs_fwd": { "_calls": 80, "_time":        9.747, "_%":     1.25},
           "elsi-complex-solver": { "_calls": 5, "_time":      758.567, "_%":    97.53,
             "elsi-solver": { "_calls": 5, "_time":      755.542, "_%":    97.14}
           },
           "redist_dm-edm_bck": { "_calls": 5, "_time":        0.256, "_%":     0.03}
         },
         "MIXER": { "_calls": 5, "_time":        0.010, "_%":     0.00}
       },
       "state_analysis": { "_calls": 1, "_time":        0.034, "_%":     0.00},
       "siesta_move": { "_calls": 1, "_time":        0.000, "_%":     0.00}
     },
     "Analysis": { "_calls": 1, "_time":        0.091, "_%":     0.01,
       "optical": { "_calls": 1, "_time":        0.001, "_%":     0.00}
     }
   }
 }}
