JobID        JobIDRaw        JobName  Partition  MaxVMSize  MaxVMSizeNode  MaxVMSizeTask  AveVMSize     MaxRSS MaxRSSNode MaxRSSTask     AveRSS MaxPages MaxPagesNode   MaxPagesTask   AvePages     MinCPU MinCPUNode MinCPUTask     AveCPU   NTasks  AllocCPUS    Elapsed      State ExitCode AveCPUFreq ReqCPUFreqMin ReqCPUFreqMax ReqCPUFreqGov     ReqMem ConsumedEnergy  MaxDiskRead MaxDiskReadNode MaxDiskReadTask    AveDiskRead MaxDiskWrite MaxDiskWriteNode MaxDiskWriteTask   AveDiskWrite    ReqTRES  AllocTRES TRESUsageInAve TRESUsageInMax TRESUsageInMaxNode TRESUsageInMaxTask TRESUsageInMin TRESUsageInMinNode TRESUsageInMinTask TRESUsageInTot TRESUsageOutMax TRESUsageOutMaxNode TRESUsageOutMaxTask TRESUsageOutAve TRESUsageOutTot 
------------ ------------ ---------- ---------- ---------- -------------- -------------- ---------- ---------- ---------- ---------- ---------- -------- ------------ -------------- ---------- ---------- ---------- ---------- ---------- -------- ---------- ---------- ---------- -------- ---------- ------------- ------------- ------------- ---------- -------------- ------------ --------------- --------------- -------------- ------------ ---------------- ---------------- -------------- ---------- ---------- -------------- -------------- ------------------ ------------------ -------------- ------------------ ------------------ -------------- --------------- ------------------- ------------------- --------------- --------------- 
4905780      4905780      submit.job standard-g                                                                                                                                                                                                             224   00:13:27    RUNNING      0:0                  Unknown       Unknown       Unknown       960G                                                                                                                                          billing=1+ billing=2+                                                                                                                                                                                                                                 
4905780.bat+ 4905780.bat+      batch                                                                                                                                                                                                               1        112   00:13:27    RUNNING      0:0          0             0             0             0                         0                                                                                                                                      cpu=112,g+                                                                                                                                                                                                                                 
4905780.0    4905780.0    select_gpu             31459540K      nid006265             12 297030950+  16549592K  nid006265         12 150455600+    16969    nid006264              4      15953   00:13:07  nid006265         14   00:13:23       16        224   00:13:18  COMPLETED      0:0     18.77M       Unknown       Unknown       Unknown                   654.49K      131.79M       nid006264               0        129.00M        3.14M        nid006265                8          3.07M            cpu=224,g+ cpu=00:13:23,+ cpu=00:13:35,+ cpu=nid006264,ene+ cpu=5,fs/disk=0,m+ cpu=00:13:07,+ cpu=nid006265,ene+ cpu=14,fs/disk=4,+ cpu=03:34:10,+ energy=1368,fs+ energy=nid006264,f+           fs/disk=8 energy=96,fs/d+ energy=1544,fs+ 
