JobID        JobIDRaw        JobName  Partition  MaxVMSize  MaxVMSizeNode  MaxVMSizeTask  AveVMSize     MaxRSS MaxRSSNode MaxRSSTask     AveRSS MaxPages MaxPagesNode   MaxPagesTask   AvePages     MinCPU MinCPUNode MinCPUTask     AveCPU   NTasks  AllocCPUS    Elapsed      State ExitCode AveCPUFreq ReqCPUFreqMin ReqCPUFreqMax ReqCPUFreqGov     ReqMem ConsumedEnergy  MaxDiskRead MaxDiskReadNode MaxDiskReadTask    AveDiskRead MaxDiskWrite MaxDiskWriteNode MaxDiskWriteTask   AveDiskWrite    ReqTRES  AllocTRES TRESUsageInAve TRESUsageInMax TRESUsageInMaxNode TRESUsageInMaxTask TRESUsageInMin TRESUsageInMinNode TRESUsageInMinTask TRESUsageInTot TRESUsageOutMax TRESUsageOutMaxNode TRESUsageOutMaxTask TRESUsageOutAve TRESUsageOutTot 
------------ ------------ ---------- ---------- ---------- -------------- -------------- ---------- ---------- ---------- ---------- ---------- -------- ------------ -------------- ---------- ---------- ---------- ---------- ---------- -------- ---------- ---------- ---------- -------- ---------- ------------- ------------- ------------- ---------- -------------- ------------ --------------- --------------- -------------- ------------ ---------------- ---------------- -------------- ---------- ---------- -------------- -------------- ------------------ ------------------ -------------- ------------------ ------------------ -------------- --------------- ------------------- ------------------- --------------- --------------- 
1589567      1589567      CovidWeak+       qcpu                                                                                                                                                                                                            2048   04:22:47    RUNNING      0:0                  Unknown       Unknown       Unknown      3680G                                                                                                                                          billing=1+ billing=1+                                                                                                                                                                                                                                 
1589567.bat+ 1589567.bat+      batch                                                                                                                                                                                                               1        128   04:22:47    RUNNING      0:0          0             0             0             0                         0                                                                                                                                      cpu=128,m+                                                                                                                                                                                                                                 
1589567.ext+ 1589567.ext+     extern                                                                                                                                                                                                              16       2048   04:22:47    RUNNING      0:0          0             0             0             0                         0                                                                                                                                      billing=1+                                                                                                                                                                                                                                 
1589567.0    1589567.0        siesta               254424K          cn167              0  171657406    204936K      cn167          0  159953814       92        cn388           1258         43   04:20:05      cn275        256   04:20:57     2048       2048   04:22:43  COMPLETED      0:0    279.85M       Unknown       Unknown       Unknown                         0       14.96M           cn167               0         13.76M       22.66M            cn167                0         10.58M            cpu=2048,+ cpu=04:20:57,+ cpu=04:21:10,+ cpu=cn393,energy=+ cpu=1309,fs/disk=+ cpu=04:20:05,+ cpu=cn275,energy=+ cpu=256,fs/disk=1+ cpu=371-03:14+ energy=0,fs/di+ energy=cn325,fs/di+           fs/disk=0 energy=0,fs/di+ energy=0,fs/di+ 
