{
 "global_section": { "_calls": 1, "_time":    15749.966, "_%":   100.00,
   "siesta": { "_calls": 1, "_time":    15749.966, "_%":   100.00,
     "Setup": { "_calls": 1, "_time":        2.581, "_%":     0.02,
       "bands": { "_calls": 1, "_time":        0.004, "_%":     0.00},
       "KSV_init": { "_calls": 1, "_time":        0.001, "_%":     0.00}
     },
     "IterGeom": { "_calls": 1, "_time":    15745.619, "_%":    99.97,
       "geom_init": { "_calls": 1, "_time":        9.118, "_%":     0.06,
         "state_init": { "_calls": 1, "_time":        0.927, "_%":     0.01,
           "hsparse": { "_calls": 1, "_time":        0.186, "_%":     0.00},
           "overlap": { "_calls": 1, "_time":        0.058, "_%":     0.00}
         },
         "Setup_H0": { "_calls": 1, "_time":        8.190, "_%":     0.05,
           "naefs": { "_calls": 1, "_time":        0.031, "_%":     0.00},
           "MolMec": { "_calls": 1, "_time":        0.000, "_%":     0.00},
           "kinefsm": { "_calls": 1, "_time":        0.054, "_%":     0.00},
           "nlefsm": { "_calls": 1, "_time":        0.199, "_%":     0.00},
           "DHSCF_Init": { "_calls": 1, "_time":        7.885, "_%":     0.05,
             "DHSCF1": { "_calls": 1, "_time":        0.058, "_%":     0.00,
               "INITMESH": { "_calls": 1, "_time":        0.000, "_%":     0.00}
             },
             "DHSCF2": { "_calls": 1, "_time":        7.801, "_%":     0.05,
               "REMESH": { "_calls": 1, "_time":        5.918, "_%":     0.04,
                 "INITMESH": { "_calls": 2, "_time":        5.217, "_%":     0.03,
                   "SPLOAD": { "_calls": 2, "_time":        0.514, "_%":     0.00}
                 }
               },
               "REORD": { "_calls": 2, "_time":        0.001, "_%":     0.00},
               "PHION": { "_calls": 1, "_time":        0.025, "_%":     0.00},
               "COMM_BSC": { "_calls": 1, "_time":        0.077, "_%":     0.00},
               "POISON": { "_calls": 1, "_time":        0.632, "_%":     0.00,
                 "fft": { "_calls": 2, "_time":        0.614, "_%":     0.00}
               }
             }
           }
         }
       },
       "IterSCF": { "_calls": 5, "_time":    15736.359, "_%":    99.91,
         "setup_H": { "_calls": 5, "_time":        6.804, "_%":     0.04,
           "DHSCF": { "_calls": 5, "_time":        6.799, "_%":     0.04,
             "DHSCF3": { "_calls": 5, "_time":        6.799, "_%":     0.04,
               "rhoofd": { "_calls": 5, "_time":        0.050, "_%":     0.00},
               "COMM_BSC": { "_calls": 10, "_time":        0.748, "_%":     0.00},
               "POISON": { "_calls": 5, "_time":        2.991, "_%":     0.02,
                 "fft": { "_calls": 10, "_time":        2.847, "_%":     0.02}
               },
               "XC": { "_calls": 5, "_time":        2.159, "_%":     0.01,
                 "COMM_BSC": { "_calls": 10, "_time":        0.423, "_%":     0.00},
                 "GXC-CellXC": { "_calls": 5, "_time":        1.714, "_%":     0.01,
                   "gridxc@cellXC": { "_calls": 5, "_time":        1.714, "_%":     0.01}
                 }
               },
               "vmat": { "_calls": 5, "_time":        0.147, "_%":     0.00}
             }
           }
         },
         "compute_dm": { "_calls": 5, "_time":    15729.531, "_%":    99.87,
           "diagon": { "_calls": 5, "_time":    15729.519, "_%":    99.87,
             "c-eigval": { "_calls": 80, "_time":     3301.744, "_%":    20.96,
               "c-buildHS": { "_calls": 80, "_time":        0.139, "_%":     0.00},
               "cdiag": { "_calls": 80, "_time":     3301.605, "_%":    20.96,
                 "cdiag1": { "_calls": 80, "_time":      169.523, "_%":     1.08},
                 "cdiag2": { "_calls": 80, "_time":      794.359, "_%":     5.04},
                 "cdiag3": { "_calls": 80, "_time":     2317.086, "_%":    14.71}
               }
             },
             "c-eigvec": { "_calls": 80, "_time":     3296.971, "_%":    20.93,
               "cdiag": { "_calls": 80, "_time":     3296.239, "_%":    20.93,
                 "cdiag1": { "_calls": 80, "_time":      144.607, "_%":     0.92},
                 "cdiag2": { "_calls": 80, "_time":      715.699, "_%":     4.54},
                 "cdiag3": { "_calls": 80, "_time":     2245.140, "_%":    14.25},
                 "cdiag4": { "_calls": 80, "_time":      175.574, "_%":     1.11}
               }
             },
             "c-buildD": { "_calls": 80, "_time":     9129.245, "_%":    57.96}
           }
         },
         "MIXER": { "_calls": 5, "_time":        0.009, "_%":     0.00}
       },
       "state_analysis": { "_calls": 1, "_time":        0.101, "_%":     0.00},
       "siesta_move": { "_calls": 1, "_time":        0.000, "_%":     0.00}
     },
     "Analysis": { "_calls": 1, "_time":        1.639, "_%":     0.01,
       "optical": { "_calls": 1, "_time":        0.001, "_%":     0.00}
     }
   }
 }}
