JobID        JobIDRaw        JobName  Partition  MaxVMSize  MaxVMSizeNode  MaxVMSizeTask  AveVMSize     MaxRSS MaxRSSNode MaxRSSTask     AveRSS MaxPages MaxPagesNode   MaxPagesTask   AvePages     MinCPU MinCPUNode MinCPUTask     AveCPU   NTasks  AllocCPUS    Elapsed      State ExitCode AveCPUFreq ReqCPUFreqMin ReqCPUFreqMax ReqCPUFreqGov     ReqMem ConsumedEnergy  MaxDiskRead MaxDiskReadNode MaxDiskReadTask    AveDiskRead MaxDiskWrite MaxDiskWriteNode MaxDiskWriteTask   AveDiskWrite    ReqTRES  AllocTRES TRESUsageInAve TRESUsageInMax TRESUsageInMaxNode TRESUsageInMaxTask TRESUsageInMin TRESUsageInMinNode TRESUsageInMinTask TRESUsageInTot TRESUsageOutMax TRESUsageOutMaxNode TRESUsageOutMaxTask TRESUsageOutAve TRESUsageOutTot 
------------ ------------ ---------- ---------- ---------- -------------- -------------- ---------- ---------- ---------- ---------- ---------- -------- ------------ -------------- ---------- ---------- ---------- ---------- ---------- -------- ---------- ---------- ---------- -------- ---------- ------------- ------------- ------------- ---------- -------------- ------------ --------------- --------------- -------------- ------------ ---------------- ---------------- -------------- ---------- ---------- -------------- -------------- ------------------ ------------------ -------------- ------------------ ------------------ -------------- --------------- ------------------- ------------------- --------------- --------------- 
34389357     34389357     CovidWeak+        cpu                                                                                                                                                                                                            4096   00:01:15    RUNNING      0:0                  Unknown       Unknown       Unknown      2000G                                                                                                                                          billing=2+ billing=4+                                                                                                                                                                                                                                 
34389357.ba+ 34389357.ba+      batch                                                                                                                                                                                                               1        256   00:01:15    RUNNING      0:0          0             0             0             0                         0                                                                                                                                      cpu=256,m+                                                                                                                                                                                                                                 
34389357.ex+ 34389357.ex+     extern                                                                                                                                                                                                              16       4096   00:01:15    RUNNING      0:0          0             0             0             0                         0                                                                                                                                      billing=4+                                                                                                                                                                                                                                 
34389357.0   34389357.0       siesta               192624K         cn0728           1472  149275552    173724K     cn0709          0  142019016       47       cn0727           1400          0   00:00:59     cn0712        152   00:01:01     2048       4096   00:01:13  COMPLETED      0:0     71.52G       Unknown       Unknown       Unknown                    36.51K       28.91M          cn0709               0         27.73M       16.94M           cn0709                0          4.14M            cpu=4096,+ cpu=00:01:01,+ cpu=00:01:05,+ cpu=cn0722,energy+ cpu=666,fs/disk=0+ cpu=00:00:59,+ cpu=cn0712,energy+ cpu=152,fs/disk=2+ cpu=1-10:51:4+ energy=630,fs/+ energy=cn0729,fs/d+           fs/disk=0 energy=0,fs/di+ energy=220,fs/+ 
