JobID        JobIDRaw        JobName  Partition  MaxVMSize  MaxVMSizeNode  MaxVMSizeTask  AveVMSize     MaxRSS MaxRSSNode MaxRSSTask     AveRSS MaxPages MaxPagesNode   MaxPagesTask   AvePages     MinCPU MinCPUNode MinCPUTask     AveCPU   NTasks  AllocCPUS    Elapsed      State ExitCode AveCPUFreq ReqCPUFreqMin ReqCPUFreqMax ReqCPUFreqGov     ReqMem ConsumedEnergy  MaxDiskRead MaxDiskReadNode MaxDiskReadTask    AveDiskRead MaxDiskWrite MaxDiskWriteNode MaxDiskWriteTask   AveDiskWrite    ReqTRES  AllocTRES TRESUsageInAve TRESUsageInMax TRESUsageInMaxNode TRESUsageInMaxTask TRESUsageInMin TRESUsageInMinNode TRESUsageInMinTask TRESUsageInTot TRESUsageOutMax TRESUsageOutMaxNode TRESUsageOutMaxTask TRESUsageOutAve TRESUsageOutTot 
------------ ------------ ---------- ---------- ---------- -------------- -------------- ---------- ---------- ---------- ---------- ---------- -------- ------------ -------------- ---------- ---------- ---------- ---------- ---------- -------- ---------- ---------- ---------- -------- ---------- ------------- ------------- ------------- ---------- -------------- ------------ --------------- --------------- -------------- ------------ ---------------- ---------------- -------------- ---------- ---------- -------------- -------------- ------------------ ------------------ -------------- ------------------ ------------------ -------------- --------------- ------------------- ------------------- --------------- --------------- 
6836376      6836376      submit.job ju-standa+                                                                                                                                                                                                            1680   00:13:23    RUNNING      0:0                  Unknown       Unknown       Unknown      7200G                                                                                                                                          billing=1+ billing=1+                                                                                                                                                                                                                                 
6836376.bat+ 6836376.bat+      batch                                                                                                                                                                                                               1        112   00:13:23    RUNNING      0:0          0             0             0             0                         0                                                                                                                                      cpu=112,g+                                                                                                                                                                                                                                 
6836376.0    6836376.0    select_gpu            100377952K      nid005434             64 911884745+  21271436K  nid005381         10 193213014+     7369    nid005395             50       6125   00:13:16  nid006456        117   00:13:41      120       1680   00:13:13  COMPLETED      0:0    296.80M       Unknown       Unknown       Unknown                                139.74M       nid005380               0        129.84M        3.38M        nid005393               33          3.26M            cpu=1680,+ cpu=00:13:41,+ cpu=00:13:51,+ cpu=nid005434,ene+ cpu=64,fs/disk=0,+ cpu=00:13:16,+ cpu=nid006456,ene+ cpu=117,fs/disk=9+ cpu=1-03:22:2+ energy=2277,fs+ energy=nid006456,f+          fs/disk=33 energy=85,fs/d+ energy=10238,f+ 
