JobId=6836376 JobName=submit.job
   UserId=bellenta(327000822) GroupId=pepr_bellenta(327000822) MCS_label=N/A
   Priority=689 Nice=0 Account=project_465000857 QOS=normal
   JobState=RUNNING Reason=None Dependency=(null)
   Requeue=1 Restarts=0 BatchFlag=1 Reboot=0 ExitCode=0:0
   DerivedExitCode=0:0
   RunTime=00:00:01 TimeLimit=01:00:00 TimeMin=N/A
   SubmitTime=2024-04-08T12:16:03 EligibleTime=2024-04-08T12:16:03
   AccrueTime=2024-04-08T12:16:03
   StartTime=2024-04-08T12:16:19 EndTime=2024-04-08T13:16:19 Deadline=N/A
   SuspendTime=None SecsPreSuspend=0 LastSchedEval=2024-04-08T12:16:19 Scheduler=Backfill
   Partition=ju-standard-g AllocNode:Sid=ln03-nmn:36610
   ReqNodeList=(null) ExcNodeList=(null)
   NodeList=nid[005380-005382,005390,005393-005396,005434-005436,006453-006456]
   BatchHost=nid005380
   NumNodes=15 NumCPUs=1680 NumTasks=120 CPUs/Task=1 ReqB:S:C:T=0:0:*:1
   TRES=cpu=1680,node=15,billing=1680,gres/gpu:mi250=120
   Socks/Node=* NtasksPerN:B:S:C=8:0:*:1 CoreSpec=*
   JOB_GRES=gpu:mi250:120
     Nodes=nid[005380-005382,005390,005393-005396,005434-005436,006453-006456] CPU_IDs=2-15,18-31,34-47,50-63,66-79,82-95,98-111,114-127 Mem=0 GRES=gpu:mi250:8(IDX:0-7)
   MinCPUsNode=8 MinMemoryCPU=0 MinTmpDiskNode=0
   Features=(null) DelayBoot=00:00:00
   OverSubscribe=NO Contiguous=0 Licenses=(null) Network=(null)
   Command=/pfs/lustrep2/scratch/project_465000641/bellenta/quantumespresso/csi/lumi-15nodes/submit.job
   WorkDir=/pfs/lustrep2/scratch/project_465000641/bellenta/quantumespresso/csi/lumi-15nodes
   StdErr=/pfs/lustrep2/scratch/project_465000641/bellenta/quantumespresso/csi/lumi-15nodes/slurm-6836376.out
   StdIn=/dev/null
   StdOut=/pfs/lustrep2/scratch/project_465000641/bellenta/quantumespresso/csi/lumi-15nodes/slurm-6836376.out
   Power=
   TresPerNode=gres:gpu:8
   

