{
 "global_section": { "_calls": 1, "_time":       39.829, "_%":   100.00,
   "siesta": { "_calls": 1, "_time":       39.829, "_%":   100.00,
     "Setup": { "_calls": 1, "_time":        1.861, "_%":     4.67,
       "bands": { "_calls": 1, "_time":        0.002, "_%":     0.01},
       "KSV_init": { "_calls": 1, "_time":        0.001, "_%":     0.00}
     },
     "IterGeom": { "_calls": 1, "_time":       37.757, "_%":    94.80,
       "geom_init": { "_calls": 1, "_time":       10.336, "_%":    25.95,
         "state_init": { "_calls": 1, "_time":        1.961, "_%":     4.92,
           "hsparse": { "_calls": 1, "_time":        0.136, "_%":     0.34},
           "overlap": { "_calls": 1, "_time":        0.779, "_%":     1.96}
         },
         "Setup_H0": { "_calls": 1, "_time":        8.373, "_%":    21.02,
           "naefs": { "_calls": 1, "_time":        0.022, "_%":     0.06},
           "MolMec": { "_calls": 1, "_time":        0.000, "_%":     0.00},
           "kinefsm": { "_calls": 1, "_time":        0.771, "_%":     1.93},
           "nlefsm": { "_calls": 1, "_time":        1.753, "_%":     4.40},
           "DHSCF_Init": { "_calls": 1, "_time":        5.813, "_%":    14.59,
             "DHSCF1": { "_calls": 1, "_time":        0.053, "_%":     0.13,
               "INITMESH": { "_calls": 1, "_time":        0.000, "_%":     0.00}
             },
             "DHSCF2": { "_calls": 1, "_time":        5.739, "_%":    14.41,
               "REMESH": { "_calls": 1, "_time":        2.524, "_%":     6.34,
                 "INITMESH": { "_calls": 2, "_time":        2.481, "_%":     6.23,
                   "SPLOAD": { "_calls": 2, "_time":        2.263, "_%":     5.68}
                 }
               },
               "REORD": { "_calls": 2, "_time":        0.017, "_%":     0.04},
               "PHION": { "_calls": 1, "_time":        0.260, "_%":     0.65},
               "COMM_BSC": { "_calls": 1, "_time":        0.182, "_%":     0.46},
               "POISON": { "_calls": 1, "_time":        2.385, "_%":     5.99,
                 "fft": { "_calls": 2, "_time":        2.291, "_%":     5.75}
               }
             }
           }
         }
       },
       "IterSCF": { "_calls": 5, "_time":       27.322, "_%":    68.60,
         "setup_H": { "_calls": 5, "_time":       18.624, "_%":    46.76,
           "DHSCF": { "_calls": 5, "_time":       18.613, "_%":    46.73,
             "DHSCF3": { "_calls": 5, "_time":       18.613, "_%":    46.73,
               "rhoofd": { "_calls": 5, "_time":        0.170, "_%":     0.43},
               "COMM_BSC": { "_calls": 10, "_time":        0.890, "_%":     2.23},
               "POISON": { "_calls": 5, "_time":       11.475, "_%":    28.81,
                 "fft": { "_calls": 10, "_time":       11.006, "_%":    27.63}
               },
               "XC": { "_calls": 5, "_time":        4.794, "_%":    12.04,
                 "COMM_BSC": { "_calls": 10, "_time":        0.643, "_%":     1.62},
                 "GXC-CellXC": { "_calls": 5, "_time":        4.035, "_%":    10.13,
                   "gridxc@cellXC": { "_calls": 5, "_time":        4.035, "_%":    10.13}
                 }
               },
               "vmat": { "_calls": 5, "_time":        0.219, "_%":     0.55}
             }
           }
         },
         "compute_dm": { "_calls": 5, "_time":        8.636, "_%":    21.68,
           "elsi": { "_calls": 5, "_time":        8.633, "_%":    21.68,
             "find nnz_g": { "_calls": 5, "_time":        0.000, "_%":     0.00},
             "elsi-solver": { "_calls": 5, "_time":        8.612, "_%":    21.62}
           }
         },
         "MIXER": { "_calls": 5, "_time":        0.031, "_%":     0.08}
       },
       "state_analysis": { "_calls": 1, "_time":        0.069, "_%":     0.17},
       "siesta_move": { "_calls": 1, "_time":        0.000, "_%":     0.00}
     },
     "Analysis": { "_calls": 1, "_time":        0.169, "_%":     0.43,
       "optical": { "_calls": 1, "_time":        0.001, "_%":     0.00}
     }
   }
 }}
