       JobID     JobIDRaw    JobName  Partition  MaxVMSize  MaxVMSizeNode  MaxVMSizeTask  AveVMSize     MaxRSS MaxRSSNode MaxRSSTask     AveRSS MaxPages MaxPagesNode   MaxPagesTask   AvePages     MinCPU MinCPUNode MinCPUTask     AveCPU   NTasks  AllocCPUS    Elapsed      State ExitCode AveCPUFreq ReqCPUFreqMin ReqCPUFreqMax ReqCPUFreqGov     ReqMem ConsumedEnergy  MaxDiskRead MaxDiskReadNode MaxDiskReadTask    AveDiskRead MaxDiskWrite MaxDiskWriteNode MaxDiskWriteTask   AveDiskWrite    AllocGRES      ReqGRES    ReqTRES  AllocTRES TRESUsageInAve TRESUsageInMax TRESUsageInMaxNode TRESUsageInMaxTask TRESUsageInMin TRESUsageInMinNode TRESUsageInMinTask TRESUsageInTot TRESUsageOutMax TRESUsageOutMaxNode TRESUsageOutMaxTask TRESUsageOutAve TRESUsageOutTot 
------------ ------------ ---------- ---------- ---------- -------------- -------------- ---------- ---------- ---------- ---------- ---------- -------- ------------ -------------- ---------- ---------- ---------- ---------- ---------- -------- ---------- ---------- ---------- -------- ---------- ------------- ------------- ------------- ---------- -------------- ------------ --------------- --------------- -------------- ------------ ---------------- ---------------- -------------- ------------ ------------ ---------- ---------- -------------- -------------- ------------------ ------------------ -------------- ------------------ ------------------ -------------- --------------- ------------------- ------------------- --------------- --------------- 
244499       244499       CovidStro+         cn                                                                                                                                                                                                             512   01:00:40    RUNNING      0:0                  Unknown       Unknown       Unknown        1Gc                                                                                                                                                                    billing=5+ billing=5+                                                                                                                                                                                                                                 
244499.batch 244499.batch      batch                                                                                                                                                                                                               1        128   01:00:40    RUNNING      0:0          0             0             0             0        1Gc              0                                                                                                                                                                cpu=128,m+                                                                                                                                                                                                                                 
244499.0     244499.0         siesta              2098668K         cn0017            464 1871570976    866612K     cn0017        464  744138336      117       cn0013              0         22   00:59:27     cn0014        130   00:59:55      512        512   01:00:37  COMPLETED      0:0       591K       Unknown       Unknown       Unknown        1Gc          6.73M       11.00M          cn0013               0          8.96M       20.05M           cn0013                0          5.18M                                      cpu=512,m+ cpu=00:59:55,+ cpu=00:59:58,+ cpu=cn0017,energy+ cpu=463,fs/disk=0+ cpu=00:59:27,+ cpu=cn0014,energy+ cpu=130,fs/disk=2+ cpu=21-07:23:+ energy=510,fs/+ energy=cn0017,fs/d+           fs/disk=0 energy=12,fs/d+ energy=6160,fs+ 
