{
 "global_section": { "_calls": 1, "_time":     3626.838, "_%":   100.00,
   "siesta": { "_calls": 1, "_time":     3626.838, "_%":   100.00,
     "Setup": { "_calls": 1, "_time":        2.061, "_%":     0.06,
       "bands": { "_calls": 1, "_time":        0.004, "_%":     0.00},
       "KSV_init": { "_calls": 1, "_time":        0.001, "_%":     0.00}
     },
     "IterGeom": { "_calls": 1, "_time":     3624.365, "_%":    99.93,
       "geom_init": { "_calls": 1, "_time":       16.222, "_%":     0.45,
         "state_init": { "_calls": 1, "_time":        2.952, "_%":     0.08,
           "hsparse": { "_calls": 1, "_time":        0.176, "_%":     0.00},
           "overlap": { "_calls": 1, "_time":        1.251, "_%":     0.03}
         },
         "Setup_H0": { "_calls": 1, "_time":       13.269, "_%":     0.37,
           "naefs": { "_calls": 1, "_time":        0.029, "_%":     0.00},
           "MolMec": { "_calls": 1, "_time":        0.000, "_%":     0.00},
           "kinefsm": { "_calls": 1, "_time":        1.259, "_%":     0.03},
           "nlefsm": { "_calls": 1, "_time":        3.020, "_%":     0.08},
           "DHSCF_Init": { "_calls": 1, "_time":        8.941, "_%":     0.25,
             "DHSCF1": { "_calls": 1, "_time":        0.067, "_%":     0.00,
               "INITMESH": { "_calls": 1, "_time":        0.000, "_%":     0.00}
             },
             "DHSCF2": { "_calls": 1, "_time":        8.839, "_%":     0.24,
               "REMESH": { "_calls": 1, "_time":        3.434, "_%":     0.09,
                 "INITMESH": { "_calls": 2, "_time":        3.364, "_%":     0.09,
                   "SPLOAD": { "_calls": 2, "_time":        3.009, "_%":     0.08}
                 }
               },
               "REORD": { "_calls": 2, "_time":        0.029, "_%":     0.00},
               "PHION": { "_calls": 1, "_time":        0.401, "_%":     0.01},
               "COMM_BSC": { "_calls": 1, "_time":        0.097, "_%":     0.00},
               "POISON": { "_calls": 1, "_time":        4.263, "_%":     0.12,
                 "fft": { "_calls": 2, "_time":        4.095, "_%":     0.11}
               }
             }
           }
         }
       },
       "IterSCF": { "_calls": 5, "_time":     3608.032, "_%":    99.48,
         "setup_H": { "_calls": 5, "_time":       32.262, "_%":     0.89,
           "DHSCF": { "_calls": 5, "_time":       32.188, "_%":     0.89,
             "DHSCF3": { "_calls": 5, "_time":       32.188, "_%":     0.89,
               "rhoofd": { "_calls": 5, "_time":        0.319, "_%":     0.01},
               "COMM_BSC": { "_calls": 10, "_time":        1.072, "_%":     0.03},
               "POISON": { "_calls": 5, "_time":       21.387, "_%":     0.59,
                 "fft": { "_calls": 10, "_time":       20.424, "_%":     0.56}
               },
               "XC": { "_calls": 5, "_time":        7.382, "_%":     0.20,
                 "COMM_BSC": { "_calls": 10, "_time":        0.811, "_%":     0.02},
                 "GXC-CellXC": { "_calls": 5, "_time":        6.311, "_%":     0.17,
                   "gridxc@cellXC": { "_calls": 5, "_time":        6.311, "_%":     0.17}
                 }
               },
               "vmat": { "_calls": 5, "_time":        0.279, "_%":     0.01}
             }
           }
         },
         "compute_dm": { "_calls": 5, "_time":     3575.687, "_%":    98.59,
           "elsi": { "_calls": 5, "_time":     3574.641, "_%":    98.56,
             "find nnz_g": { "_calls": 5, "_time":        0.000, "_%":     0.00},
             "elsi-solver": { "_calls": 5, "_time":     3574.586, "_%":    98.56}
           }
         },
         "MIXER": { "_calls": 5, "_time":        0.006, "_%":     0.00}
       },
       "state_analysis": { "_calls": 1, "_time":        0.087, "_%":     0.00},
       "siesta_move": { "_calls": 1, "_time":        0.000, "_%":     0.00}
     },
     "Analysis": { "_calls": 1, "_time":        0.392, "_%":     0.01,
       "optical": { "_calls": 1, "_time":        0.001, "_%":     0.00}
     }
   }
 }}
