{
 "global_section": { "_calls": 1, "_time":       33.950, "_%":   100.00,
   "siesta": { "_calls": 1, "_time":       33.950, "_%":   100.00,
     "Setup": { "_calls": 1, "_time":        1.804, "_%":     5.31,
       "bands": { "_calls": 1, "_time":        0.002, "_%":     0.01},
       "KSV_init": { "_calls": 1, "_time":        0.001, "_%":     0.00}
     },
     "IterGeom": { "_calls": 1, "_time":       31.930, "_%":    94.05,
       "geom_init": { "_calls": 1, "_time":        4.544, "_%":    13.38,
         "state_init": { "_calls": 1, "_time":        0.504, "_%":     1.48,
           "hsparse": { "_calls": 1, "_time":        0.125, "_%":     0.37},
           "overlap": { "_calls": 1, "_time":        0.044, "_%":     0.13}
         },
         "Setup_H0": { "_calls": 1, "_time":        4.039, "_%":    11.90,
           "naefs": { "_calls": 1, "_time":        0.023, "_%":     0.07},
           "MolMec": { "_calls": 1, "_time":        0.000, "_%":     0.00},
           "kinefsm": { "_calls": 1, "_time":        0.042, "_%":     0.12},
           "nlefsm": { "_calls": 1, "_time":        0.152, "_%":     0.45},
           "DHSCF_Init": { "_calls": 1, "_time":        3.808, "_%":    11.22,
             "DHSCF1": { "_calls": 1, "_time":        0.052, "_%":     0.15,
               "INITMESH": { "_calls": 1, "_time":        0.000, "_%":     0.00}
             },
             "DHSCF2": { "_calls": 1, "_time":        3.735, "_%":    11.00,
               "REMESH": { "_calls": 1, "_time":        0.620, "_%":     1.83,
                 "INITMESH": { "_calls": 2, "_time":        0.585, "_%":     1.72,
                   "SPLOAD": { "_calls": 2, "_time":        0.373, "_%":     1.10}
                 }
               },
               "REORD": { "_calls": 2, "_time":        0.015, "_%":     0.04},
               "PHION": { "_calls": 1, "_time":        0.076, "_%":     0.22},
               "COMM_BSC": { "_calls": 1, "_time":        0.219, "_%":     0.65},
               "POISON": { "_calls": 1, "_time":        2.474, "_%":     7.29,
                 "fft": { "_calls": 2, "_time":        2.382, "_%":     7.01}
               }
             }
           }
         }
       },
       "IterSCF": { "_calls": 5, "_time":       27.304, "_%":    80.43,
         "setup_H": { "_calls": 5, "_time":       18.859, "_%":    55.55,
           "DHSCF": { "_calls": 5, "_time":       18.846, "_%":    55.51,
             "DHSCF3": { "_calls": 5, "_time":       18.846, "_%":    55.51,
               "rhoofd": { "_calls": 5, "_time":        0.117, "_%":     0.34},
               "COMM_BSC": { "_calls": 10, "_time":        0.855, "_%":     2.52},
               "POISON": { "_calls": 5, "_time":       11.893, "_%":    35.03,
                 "fft": { "_calls": 10, "_time":       11.428, "_%":    33.66}
               },
               "XC": { "_calls": 5, "_time":        4.752, "_%":    14.00,
                 "COMM_BSC": { "_calls": 10, "_time":        0.587, "_%":     1.73},
                 "GXC-CellXC": { "_calls": 5, "_time":        4.038, "_%":    11.90,
                   "gridxc@cellXC": { "_calls": 5, "_time":        4.038, "_%":    11.89}
                 }
               },
               "vmat": { "_calls": 5, "_time":        0.162, "_%":     0.48}
             }
           }
         },
         "compute_dm": { "_calls": 5, "_time":        8.380, "_%":    24.68,
           "redist_orbs_fwd": { "_calls": 20, "_time":        0.521, "_%":     1.53},
           "elsi-complex-solver": { "_calls": 5, "_time":        7.781, "_%":    22.92,
             "elsi-solver": { "_calls": 5, "_time":        6.899, "_%":    20.32}
           },
           "redist_dm-edm_bck": { "_calls": 5, "_time":        0.047, "_%":     0.14}
         },
         "MIXER": { "_calls": 5, "_time":        0.037, "_%":     0.11}
       },
       "state_analysis": { "_calls": 1, "_time":        0.065, "_%":     0.19},
       "siesta_move": { "_calls": 1, "_time":        0.000, "_%":     0.00}
     },
     "Analysis": { "_calls": 1, "_time":        0.173, "_%":     0.51,
       "optical": { "_calls": 1, "_time":        0.001, "_%":     0.00}
     }
   }
 }}
