
     Program PWSCF v.7.3.1 starts on 28Dec2024 at 18:24:38 

     This program is part of the open-source Quantum ESPRESSO suite
     for quantum simulation of materials; please cite
         "P. Giannozzi et al., J. Phys.:Condens. Matter 21 395502 (2009);
         "P. Giannozzi et al., J. Phys.:Condens. Matter 29 465901 (2017);
         "P. Giannozzi et al., J. Chem. Phys. 152 154105 (2020);
          URL http://www.quantum-espresso.org", 
     in publications or presentations arising from this work. More details at
     http://www.quantum-espresso.org/quote

     Parallel version (MPI & OpenMP), running on      16 processor cores
     Number of MPI processes:                16
     Threads/MPI process:                     1

     MPI processes distributed on     1 nodes
     496396 MiB available memory on the printing compute node when the environment starts
 
     Reading input from pwscf.18.in
Warning: card &CELL ignored
Warning: card / ignored

     Current dimensions of program PWSCF are:
     Max number of different atomic species (ntypx) = 10
     Max number of k-points (npk) =  40000
     Max angular momentum in pseudopotentials (lmaxx) =  4
     Found identity + ( -0.5000  0.5000  0.0000) symmetry
     This is a supercell, fractional translations are disabled
 
     K-points division:     npool     =      16
     Subspace diagonalization in iterative solution of the eigenvalue problem:
     a serial algorithm will be used

 
     G-vector sticks info
     --------------------
     sticks:   dense  smooth     PW     G-vecs:    dense   smooth      PW
     Sum        3799    1905    533               147405    52217    7757
 
     Using Slab Decomposition
 


     bravais-lattice index     =            8
     lattice parameter (alat)  =       9.2860  a.u.
     unit-cell volume          =    1525.4832 (a.u.)^3
     number of atoms/cell      =           18
     number of atomic types    =            2
     number of electrons       =        96.00
     number of Kohn-Sham states=           48
     kinetic-energy cutoff     =      40.0000  Ry
     charge density cutoff     =     320.0000  Ry
     scf convergence threshold =      1.0E-10
     mixing beta               =       0.7000
     number of iterations used =            8  plain     mixing
     Exchange-correlation= PBESOL
                           (   1   4  10   8   0   0   0)

     GPU acceleration is ACTIVE.  1 visible GPUs per MPI rank
     GPU-aware MPI enabled

     Message from routine print_cuda_info:
     High GPU oversubscription detected. Are you sure this is what you want?

     GPU used by master process:

        Device Number: 0
        Device name: NVIDIA A100-SXM-64GB
        Compute capability : 80
        Ratio of single to double precision performance  : 2
        Memory Clock Rate (KHz): 1593000
        Memory Bus Width (bits): 4096
        Peak Memory Bandwidth (GB/s): ******

     celldm(1)=   9.286000  celldm(2)=   1.732051  celldm(3)=   1.099919
     celldm(4)=   0.000000  celldm(5)=   0.000000  celldm(6)=   0.000000

     crystal axes: (cart. coord. in units of alat)
               a(1) = (   1.000000   0.000000   0.000000 )  
               a(2) = (   0.000000   1.732051   0.000000 )  
               a(3) = (   0.000000   0.000000   1.099919 )  

     reciprocal axes: (cart. coord. in units 2 pi/alat)
               b(1) = (  1.000000  0.000000  0.000000 )  
               b(2) = (  0.000000  0.577350  0.000000 )  
               b(3) = (  0.000000  0.000000  0.909158 )  


     PseudoPot. # 1 for Si read from file:
     ./Si.pbesol-n-rrkjus_psl.0.1.UPF
     MD5 check sum: 8f6f7a39fd7bdb61d4720ad3dd1f1dba
     Pseudo is Ultrasoft + core correction, Zval =  4.0
     Generated using "atomic" code by A. Dal Corso  v.5.0.2 svn rev. 9415
     Using radial grid of 1141 points,  4 beta functions with: 
                l(1) =   0
                l(2) =   0
                l(3) =   1
                l(4) =   1
     Q(r) pseudized with 0 coefficients 


     PseudoPot. # 2 for O  read from file:
     ./O.pbesol-n-rrkjus_psl.0.1.UPF
     MD5 check sum: 4e7ba3f804caa5f95b4e026f863b218d
     Pseudo is Ultrasoft + core correction, Zval =  6.0
     Generated using "atomic" code by A. Dal Corso  v.5.0.2 svn rev. 9415
     Using radial grid of 1095 points,  4 beta functions with: 
                l(1) =   0
                l(2) =   0
                l(3) =   1
                l(4) =   1
     Q(r) pseudized with 0 coefficients 


     atomic species   valence    mass     pseudopotential
     Si                4.00    47.86700     Si( 1.00)
     O                 6.00    15.99940     O ( 1.00)

      2 Sym. Ops. (no inversion) found


                                    s                        frac. trans.

      isym =  1     identity                                     

 cryst.   s( 1) = (     1          0          0      )
                  (     0          1          0      )
                  (     0          0          1      )

 cart.    s( 1) = (  1.0000000  0.0000000  0.0000000 )
                  (  0.0000000  1.0000000  0.0000000 )
                  (  0.0000000  0.0000000  1.0000000 )


      isym =  2     180 deg rotation - cart. axis [1,0,0]        

 cryst.   s( 2) = (     1          0          0      )
                  (     0         -1          0      )
                  (     0          0         -1      )

 cart.    s( 2) = (  1.0000000  0.0000000  0.0000000 )
                  (  0.0000000 -1.0000000  0.0000000 )
                  (  0.0000000  0.0000000 -1.0000000 )


     point group C_2  (2)   
     there are  2 classes
     the character table:

       E     C2   
A      1.00  1.00
B      1.00 -1.00

     the symmetry operations in each class and the name of the first element:

     E        1
          identity                                               
     C2       2
          180 deg rotation - cart. axis [1,0,0]                  

   Cartesian axes

     site n.     atom                  positions (alat units)
         1        Si     tau(   1) = (   0.4691348   0.0000000   0.0000000  )
         2        Si     tau(   2) = (   0.9691348   0.8660254   0.0000000  )
         3        O      tau(   3) = (   0.2786270   1.4974211   0.1272505  )
         4        O      tau(   4) = (   0.7786270   0.6313957   0.1272505  )
         5        O      tau(   5) = (   0.6574912   0.1239832   0.2393891  )
         6        O      tau(   6) = (   0.1574912   0.9900086   0.2393891  )
         7        Si     tau(   7) = (   0.7654326   0.4062827   0.3666395  )
         8        Si     tau(   8) = (   0.2654326   1.2723081   0.3666395  )
         9        O      tau(   9) = (   0.0638818   0.3586129   0.4938900  )
        10        O      tau(  10) = (   0.5638818   1.2246383   0.4938900  )
        11        O      tau(  11) = (   0.0638818   1.3734379   0.6060286  )
        12        O      tau(  12) = (   0.5638818   0.5074125   0.6060286  )
        13        Si     tau(  13) = (   0.7654326   1.3257681   0.7332791  )
        14        Si     tau(  14) = (   0.2654326   0.4597427   0.7332791  )
        15        O      tau(  15) = (   0.6574912   1.6080676   0.8605295  )
        16        O      tau(  16) = (   0.1574912   0.7420422   0.8605295  )
        17        O      tau(  17) = (   0.2786270   0.2346297   0.9726681  )
        18        O      tau(  18) = (   0.7786270   1.1006551   0.9726681  )

   Crystallographic axes

     site n.     atom                  positions (cryst. coord.)
         1        Si     tau(   1) = (  0.4691348  0.0000000  0.0000000  )
         2        Si     tau(   2) = (  0.9691348  0.4999999  0.0000000  )
         3        O      tau(   3) = (  0.2786270  0.8645364  0.1156908  )
         4        O      tau(   4) = (  0.7786270  0.3645364  0.1156908  )
         5        O      tau(   5) = (  0.6574912  0.0715817  0.2176424  )
         6        O      tau(   6) = (  0.1574912  0.5715817  0.2176424  )
         7        Si     tau(   7) = (  0.7654326  0.2345674  0.3333332  )
         8        Si     tau(   8) = (  0.2654326  0.7345673  0.3333332  )
         9        O      tau(   9) = (  0.0638818  0.2070452  0.4490240  )
        10        O      tau(  10) = (  0.5638818  0.7070452  0.4490240  )
        11        O      tau(  11) = (  0.0638818  0.7929547  0.5509757  )
        12        O      tau(  12) = (  0.5638818  0.2929547  0.5509757  )
        13        Si     tau(  13) = (  0.7654326  0.7654325  0.6666664  )
        14        Si     tau(  14) = (  0.2654326  0.2654326  0.6666664  )
        15        O      tau(  15) = (  0.6574912  0.9284182  0.7823572  )
        16        O      tau(  16) = (  0.1574912  0.4284182  0.7823572  )
        17        O      tau(  17) = (  0.2786270  0.1354635  0.8843089  )
        18        O      tau(  18) = (  0.7786270  0.6354634  0.8843089  )

     number of k points=    16
                       cart. coord. in units 2pi/alat
        k(    1) = (   0.1250000   0.0721688   0.1136447), wk =   0.1250000
        k(    2) = (   0.1250000   0.0721688   0.3409342), wk =   0.1250000
        k(    3) = (   0.1250000   0.2165063   0.1136447), wk =   0.1250000
        k(    4) = (   0.1250000   0.2165063   0.3409342), wk =   0.1250000
        k(    5) = (   0.3750000   0.0721688   0.1136447), wk =   0.1250000
        k(    6) = (   0.3750000   0.0721688   0.3409342), wk =   0.1250000
        k(    7) = (   0.3750000   0.2165063   0.1136447), wk =   0.1250000
        k(    8) = (   0.3750000   0.2165063   0.3409342), wk =   0.1250000
        k(    9) = (  -0.1250000   0.0721688  -0.1136447), wk =   0.1250000
        k(   10) = (  -0.1250000   0.0721688  -0.3409342), wk =   0.1250000
        k(   11) = (  -0.1250000   0.2165063  -0.1136447), wk =   0.1250000
        k(   12) = (  -0.1250000   0.2165063  -0.3409342), wk =   0.1250000
        k(   13) = (  -0.3750000   0.0721688  -0.1136447), wk =   0.1250000
        k(   14) = (  -0.3750000   0.0721688  -0.3409342), wk =   0.1250000
        k(   15) = (  -0.3750000   0.2165063  -0.1136447), wk =   0.1250000
        k(   16) = (  -0.3750000   0.2165063  -0.3409342), wk =   0.1250000

                       cryst. coord.
        k(    1) = (   0.1250000   0.1250000   0.1250000), wk =   0.1250000
        k(    2) = (   0.1250000   0.1250000   0.3750000), wk =   0.1250000
        k(    3) = (   0.1250000   0.3750000   0.1250000), wk =   0.1250000
        k(    4) = (   0.1250000   0.3750000   0.3750000), wk =   0.1250000
        k(    5) = (   0.3750000   0.1250000   0.1250000), wk =   0.1250000
        k(    6) = (   0.3750000   0.1250000   0.3750000), wk =   0.1250000
        k(    7) = (   0.3750000   0.3750000   0.1250000), wk =   0.1250000
        k(    8) = (   0.3750000   0.3750000   0.3750000), wk =   0.1250000
        k(    9) = (  -0.1250000   0.1250000  -0.1250000), wk =   0.1250000
        k(   10) = (  -0.1250000   0.1250000  -0.3750000), wk =   0.1250000
        k(   11) = (  -0.1250000   0.3750000  -0.1250000), wk =   0.1250000
        k(   12) = (  -0.1250000   0.3750000  -0.3750000), wk =   0.1250000
        k(   13) = (  -0.3750000   0.1250000  -0.1250000), wk =   0.1250000
        k(   14) = (  -0.3750000   0.1250000  -0.3750000), wk =   0.1250000
        k(   15) = (  -0.3750000   0.3750000  -0.1250000), wk =   0.1250000
        k(   16) = (  -0.3750000   0.3750000  -0.3750000), wk =   0.1250000

     Dense  grid:   147405 G-vectors     FFT dimensions: (  54,  96,  60)

     Smooth grid:    52217 G-vectors     FFT dimensions: (  40,  72,  45)

     Dynamical RAM for                 wfc:       4.77 MB

     Dynamical RAM for     wfc (w. buffer):       4.77 MB

     Dynamical RAM for           str. fact:       4.50 MB

     Dynamical RAM for           local pot:       0.00 MB

     Dynamical RAM for          nlocal pot:      14.32 MB

     Dynamical RAM for                qrad:       0.82 MB

     Dynamical RAM for          rho,v,vnew:      13.87 MB

     Dynamical RAM for               rhoin:       4.62 MB

     Dynamical RAM for            rho*nmix:      35.99 MB

     Dynamical RAM for           G-vectors:       8.83 MB

     Dynamical RAM for          h,s,v(r/c):       0.42 MB

     Dynamical RAM for          <psi|beta>:       0.11 MB

     Dynamical RAM for                 psi:       9.55 MB

     Dynamical RAM for                hpsi:       9.55 MB

     Dynamical RAM for                spsi:       9.55 MB

     Dynamical RAM for      wfcinit/wfcrot:      14.44 MB

     Dynamical RAM for           addusdens:       9.84 MB

     Dynamical RAM for          addusforce:      11.96 MB

     Estimated static dynamical RAM per process >      70.35 MB

     Estimated max dynamical RAM per process >     135.50 MB

     Estimated total dynamical RAM >       1.59 GB

     Check: negative core charge=   -0.000035

     Initial potential from superposition of free atoms

     starting charge      95.9967, renormalised to      96.0000
     Starting wfcs are   72 randomized atomic wfcs

     total cpu time spent up to now is        3.7 secs

     per-process dynamical memory:  1742.5 Mb

     Self-consistent Calculation
[tb_dev] Currently allocated     9.65E-01 Mbytes, locked:    0 /   6
[tb_pin] Currently allocated     0.00E+00 Mbytes, locked:    0 /   0

     iteration #  1     ecut=    40.00 Ry     beta= 0.70
     Davidson diagonalization with overlap

---- Real-time Memory Report at c_bands before calling an iterative solver
          2061 MiB given to the printing process from OS
          1701 MiB allocation reported by mallinfo(arena+hblkhd)
        474959 MiB available memory on the node where the printing process lives
     GPU memory used/free/total (MiB): 22041 / 42903 / 64944
------------------
     ethr =  1.00E-02,  avg # of iterations =  3.0

     total cpu time spent up to now is        4.0 secs

     total energy              =    -470.73185952 Ry
     estimated scf accuracy    <       4.30376948 Ry
[tb_dev] Currently allocated     1.37E-04 Mbytes, locked:    0 /   2
[tb_pin] Currently allocated     0.00E+00 Mbytes, locked:    0 /   0

     iteration #  2     ecut=    40.00 Ry     beta= 0.70
     Davidson diagonalization with overlap

---- Real-time Memory Report at c_bands before calling an iterative solver
          2081 MiB given to the printing process from OS
          1744 MiB allocation reported by mallinfo(arena+hblkhd)
        474670 MiB available memory on the node where the printing process lives
     GPU memory used/free/total (MiB): 22569 / 42375 / 64944
------------------
     ethr =  4.48E-03,  avg # of iterations =  2.8

     total cpu time spent up to now is        4.2 secs

     total energy              =    -472.29339983 Ry
     estimated scf accuracy    <       1.94285399 Ry
[tb_dev] Currently allocated     1.37E-04 Mbytes, locked:    0 /   2
[tb_pin] Currently allocated     0.00E+00 Mbytes, locked:    0 /   0

     iteration #  3     ecut=    40.00 Ry     beta= 0.70
     Davidson diagonalization with overlap

---- Real-time Memory Report at c_bands before calling an iterative solver
          2083 MiB given to the printing process from OS
          1747 MiB allocation reported by mallinfo(arena+hblkhd)
        474665 MiB available memory on the node where the printing process lives
     GPU memory used/free/total (MiB): 22569 / 42375 / 64944
------------------
     ethr =  2.02E-03,  avg # of iterations =  2.0

     total cpu time spent up to now is        4.4 secs

     total energy              =    -472.49297140 Ry
     estimated scf accuracy    <       0.08109228 Ry
[tb_dev] Currently allocated     1.37E-04 Mbytes, locked:    0 /   2
[tb_pin] Currently allocated     0.00E+00 Mbytes, locked:    0 /   0

     iteration #  4     ecut=    40.00 Ry     beta= 0.70
     Davidson diagonalization with overlap

---- Real-time Memory Report at c_bands before calling an iterative solver
          2086 MiB given to the printing process from OS
          1750 MiB allocation reported by mallinfo(arena+hblkhd)
        474658 MiB available memory on the node where the printing process lives
     GPU memory used/free/total (MiB): 22569 / 42375 / 64944
------------------
     ethr =  8.45E-05,  avg # of iterations =  4.5

     total cpu time spent up to now is        4.7 secs

     total energy              =    -472.54099991 Ry
     estimated scf accuracy    <       0.03357870 Ry
[tb_dev] Currently allocated     1.37E-04 Mbytes, locked:    0 /   2
[tb_pin] Currently allocated     0.00E+00 Mbytes, locked:    0 /   0

     iteration #  5     ecut=    40.00 Ry     beta= 0.70
     Davidson diagonalization with overlap

---- Real-time Memory Report at c_bands before calling an iterative solver
          2088 MiB given to the printing process from OS
          1752 MiB allocation reported by mallinfo(arena+hblkhd)
        474655 MiB available memory on the node where the printing process lives
     GPU memory used/free/total (MiB): 22569 / 42375 / 64944
------------------
     ethr =  3.50E-05,  avg # of iterations =  2.0

     total cpu time spent up to now is        4.9 secs

     total energy              =    -472.54055499 Ry
     estimated scf accuracy    <       0.00671528 Ry
[tb_dev] Currently allocated     1.37E-04 Mbytes, locked:    0 /   2
[tb_pin] Currently allocated     0.00E+00 Mbytes, locked:    0 /   0

     iteration #  6     ecut=    40.00 Ry     beta= 0.70
     Davidson diagonalization with overlap

---- Real-time Memory Report at c_bands before calling an iterative solver
          2090 MiB given to the printing process from OS
          1754 MiB allocation reported by mallinfo(arena+hblkhd)
        474650 MiB available memory on the node where the printing process lives
     GPU memory used/free/total (MiB): 22579 / 42365 / 64944
------------------
     ethr =  7.00E-06,  avg # of iterations =  2.4

     total cpu time spent up to now is        5.2 secs

     total energy              =    -472.54249743 Ry
     estimated scf accuracy    <       0.00003215 Ry
[tb_dev] Currently allocated     1.37E-04 Mbytes, locked:    0 /   2
[tb_pin] Currently allocated     0.00E+00 Mbytes, locked:    0 /   0

     iteration #  7     ecut=    40.00 Ry     beta= 0.70
     Davidson diagonalization with overlap

---- Real-time Memory Report at c_bands before calling an iterative solver
          2093 MiB given to the printing process from OS
          1756 MiB allocation reported by mallinfo(arena+hblkhd)
        474645 MiB available memory on the node where the printing process lives
     GPU memory used/free/total (MiB): 22591 / 42353 / 64944
------------------
     ethr =  3.35E-08,  avg # of iterations =  6.3

     total cpu time spent up to now is        5.5 secs

     total energy              =    -472.54257618 Ry
     estimated scf accuracy    <       0.00000827 Ry
[tb_dev] Currently allocated     1.37E-04 Mbytes, locked:    0 /   2
[tb_pin] Currently allocated     0.00E+00 Mbytes, locked:    0 /   0

     iteration #  8     ecut=    40.00 Ry     beta= 0.70
     Davidson diagonalization with overlap

---- Real-time Memory Report at c_bands before calling an iterative solver
          2095 MiB given to the printing process from OS
          1758 MiB allocation reported by mallinfo(arena+hblkhd)
        474606 MiB available memory on the node where the printing process lives
     GPU memory used/free/total (MiB): 22607 / 42337 / 64944
------------------
     ethr =  8.62E-09,  avg # of iterations =  2.0

     total cpu time spent up to now is        5.7 secs

     total energy              =    -472.54257789 Ry
     estimated scf accuracy    <       0.00000085 Ry
[tb_dev] Currently allocated     1.37E-04 Mbytes, locked:    0 /   2
[tb_pin] Currently allocated     0.00E+00 Mbytes, locked:    0 /   0

     iteration #  9     ecut=    40.00 Ry     beta= 0.70
     Davidson diagonalization with overlap

---- Real-time Memory Report at c_bands before calling an iterative solver
          2098 MiB given to the printing process from OS
          1759 MiB allocation reported by mallinfo(arena+hblkhd)
        474576 MiB available memory on the node where the printing process lives
     GPU memory used/free/total (MiB): 22613 / 42331 / 64944
------------------
     ethr =  8.89E-10,  avg # of iterations =  3.5

     total cpu time spent up to now is        6.0 secs

     total energy              =    -472.54257781 Ry
     estimated scf accuracy    <       0.00000105 Ry
[tb_dev] Currently allocated     1.37E-04 Mbytes, locked:    0 /   2
[tb_pin] Currently allocated     0.00E+00 Mbytes, locked:    0 /   0

     iteration # 10     ecut=    40.00 Ry     beta= 0.70
     Davidson diagonalization with overlap

---- Real-time Memory Report at c_bands before calling an iterative solver
          2100 MiB given to the printing process from OS
          1761 MiB allocation reported by mallinfo(arena+hblkhd)
        474538 MiB available memory on the node where the printing process lives
     GPU memory used/free/total (MiB): 22613 / 42331 / 64944
------------------
     ethr =  8.89E-10,  avg # of iterations =  1.1

     total cpu time spent up to now is        6.2 secs

     total energy              =    -472.54257777 Ry
     estimated scf accuracy    <       0.00000024 Ry
[tb_dev] Currently allocated     1.37E-04 Mbytes, locked:    0 /   2
[tb_pin] Currently allocated     0.00E+00 Mbytes, locked:    0 /   0

     iteration # 11     ecut=    40.00 Ry     beta= 0.70
     Davidson diagonalization with overlap

---- Real-time Memory Report at c_bands before calling an iterative solver
          2101 MiB given to the printing process from OS
          1761 MiB allocation reported by mallinfo(arena+hblkhd)
        474537 MiB available memory on the node where the printing process lives
     GPU memory used/free/total (MiB): 22613 / 42331 / 64944
------------------
     ethr =  2.53E-10,  avg # of iterations =  2.1

     total cpu time spent up to now is        6.4 secs

     total energy              =    -472.54257779 Ry
     estimated scf accuracy    <       0.00000002 Ry
[tb_dev] Currently allocated     1.37E-04 Mbytes, locked:    0 /   2
[tb_pin] Currently allocated     0.00E+00 Mbytes, locked:    0 /   0

     iteration # 12     ecut=    40.00 Ry     beta= 0.70
     Davidson diagonalization with overlap

---- Real-time Memory Report at c_bands before calling an iterative solver
          2101 MiB given to the printing process from OS
          1761 MiB allocation reported by mallinfo(arena+hblkhd)
        474524 MiB available memory on the node where the printing process lives
     GPU memory used/free/total (MiB): 22613 / 42331 / 64944
------------------
     ethr =  2.55E-11,  avg # of iterations =  4.4

     total cpu time spent up to now is        6.7 secs

     total energy              =    -472.54257780 Ry
     estimated scf accuracy    <          3.4E-09 Ry
[tb_dev] Currently allocated     1.37E-04 Mbytes, locked:    0 /   2
[tb_pin] Currently allocated     0.00E+00 Mbytes, locked:    0 /   0

     iteration # 13     ecut=    40.00 Ry     beta= 0.70
     Davidson diagonalization with overlap

---- Real-time Memory Report at c_bands before calling an iterative solver
          2101 MiB given to the printing process from OS
          1761 MiB allocation reported by mallinfo(arena+hblkhd)
        474519 MiB available memory on the node where the printing process lives
     GPU memory used/free/total (MiB): 22617 / 42327 / 64944
------------------
     ethr =  3.58E-12,  avg # of iterations =  2.6

     total cpu time spent up to now is        6.9 secs

     total energy              =    -472.54257780 Ry
     estimated scf accuracy    <          5.7E-10 Ry
[tb_dev] Currently allocated     1.37E-04 Mbytes, locked:    0 /   2
[tb_pin] Currently allocated     0.00E+00 Mbytes, locked:    0 /   0

     iteration # 14     ecut=    40.00 Ry     beta= 0.70
     Davidson diagonalization with overlap

---- Real-time Memory Report at c_bands before calling an iterative solver
          2102 MiB given to the printing process from OS
          1761 MiB allocation reported by mallinfo(arena+hblkhd)
        474518 MiB available memory on the node where the printing process lives
     GPU memory used/free/total (MiB): 22617 / 42327 / 64944
------------------
     ethr =  5.91E-13,  avg # of iterations =  2.6

     total cpu time spent up to now is        7.2 secs

     End of self-consistent calculation

          k = 0.1250 0.0722 0.1136 (  6535 PWs)   bands (ev):

   -16.8355 -16.4113 -15.9145 -15.6498 -15.3452 -15.1526 -14.7780 -14.7443
   -14.7350 -14.7090 -14.6938 -14.6769  -6.1448  -5.9046  -5.2496  -4.8360
    -3.6539  -3.1277  -2.9441  -2.9387  -2.8312  -2.7679  -2.6018  -2.1996
    -0.6521  -0.6437  -0.4841  -0.4095  -0.2792  -0.1898   0.1258   0.1314
     0.4501   0.6712   0.6992   0.9342   0.9839   1.0029   1.2156   1.2236
     1.4352   1.5310   1.6746   1.7868   2.0917   2.1016   2.3260   2.4052

     occupation numbers 
     1.0000   1.0000   1.0000   1.0000   1.0000   1.0000   1.0000   1.0000
     1.0000   1.0000   1.0000   1.0000   1.0000   1.0000   1.0000   1.0000
     1.0000   1.0000   1.0000   1.0000   1.0000   1.0000   1.0000   1.0000
     1.0000   1.0000   1.0000   1.0000   1.0000   1.0000   1.0000   1.0000
     1.0000   1.0000   1.0000   1.0000   1.0000   1.0000   1.0000   1.0000
     1.0000   1.0000   1.0000   1.0000   1.0000   1.0000   1.0000   1.0000

          k = 0.1250 0.0722 0.3409 (  6516 PWs)   bands (ev):

   -16.6021 -16.3521 -16.1755 -15.9112 -15.4199 -14.8421 -14.7991 -14.7360
   -14.7313 -14.7072 -14.7056 -14.6627  -6.6687  -5.7858  -4.7790  -4.2869
    -3.9171  -3.5534  -3.0452  -2.9933  -2.8725  -2.5520  -2.4619  -2.2912
    -0.7900  -0.6452  -0.5629  -0.1978  -0.1875  -0.0770   0.2482   0.2495
     0.4381   0.4494   0.7769   0.7975   0.9002   0.9993   1.1768   1.3155
     1.3621   1.4818   1.7064   1.8826   1.9738   2.2193   2.2482   2.3810

     occupation numbers 
     1.0000   1.0000   1.0000   1.0000   1.0000   1.0000   1.0000   1.0000
     1.0000   1.0000   1.0000   1.0000   1.0000   1.0000   1.0000   1.0000
     1.0000   1.0000   1.0000   1.0000   1.0000   1.0000   1.0000   1.0000
     1.0000   1.0000   1.0000   1.0000   1.0000   1.0000   1.0000   1.0000
     1.0000   1.0000   1.0000   1.0000   1.0000   1.0000   1.0000   1.0000
     1.0000   1.0000   1.0000   1.0000   1.0000   1.0000   1.0000   1.0000

          k = 0.1250 0.2165 0.1136 (  6515 PWs)   bands (ev):

   -16.7471 -16.5874 -15.7620 -15.6763 -15.3101 -15.2180 -14.7691 -14.7533
   -14.7293 -14.7128 -14.6991 -14.6838  -6.0446  -5.9447  -5.1980  -5.0396
    -3.4481  -3.2384  -2.9546  -2.9423  -2.7650  -2.7524  -2.5529  -2.3553
    -0.7097  -0.7094  -0.3797  -0.3574  -0.1967  -0.1506   0.0737   0.1900
     0.4059   0.4930   0.8211   0.9394   0.9796   1.0243   1.2211   1.2466
     1.4414   1.5210   1.6329   1.7097   2.0941   2.1121   2.3610   2.4030

     occupation numbers 
     1.0000   1.0000   1.0000   1.0000   1.0000   1.0000   1.0000   1.0000
     1.0000   1.0000   1.0000   1.0000   1.0000   1.0000   1.0000   1.0000
     1.0000   1.0000   1.0000   1.0000   1.0000   1.0000   1.0000   1.0000
     1.0000   1.0000   1.0000   1.0000   1.0000   1.0000   1.0000   1.0000
     1.0000   1.0000   1.0000   1.0000   1.0000   1.0000   1.0000   1.0000
     1.0000   1.0000   1.0000   1.0000   1.0000   1.0000   1.0000   1.0000

          k = 0.1250 0.2165 0.3409 (  6527 PWs)   bands (ev):

   -16.5336 -16.4302 -16.1316 -16.0363 -15.2014 -14.9712 -14.7762 -14.7515
   -14.7236 -14.7159 -14.6979 -14.6780  -6.4635  -6.1193  -4.5616  -4.3807
    -3.8321  -3.6851  -2.9749  -2.9084  -2.8480  -2.6679  -2.4060  -2.3440
    -0.7540  -0.6701  -0.5365  -0.3335  -0.1245  -0.0347   0.1136   0.1816
     0.4287   0.4312   0.8592   0.9022   0.9611   1.0673   1.1297   1.2892
     1.3892   1.5158   1.6455   1.8576   2.0265   2.1622   2.2983   2.3276

     occupation numbers 
     1.0000   1.0000   1.0000   1.0000   1.0000   1.0000   1.0000   1.0000
     1.0000   1.0000   1.0000   1.0000   1.0000   1.0000   1.0000   1.0000
     1.0000   1.0000   1.0000   1.0000   1.0000   1.0000   1.0000   1.0000
     1.0000   1.0000   1.0000   1.0000   1.0000   1.0000   1.0000   1.0000
     1.0000   1.0000   1.0000   1.0000   1.0000   1.0000   1.0000   1.0000
     1.0000   1.0000   1.0000   1.0000   1.0000   1.0000   1.0000   1.0000

          k = 0.3750 0.0722 0.1136 (  6504 PWs)   bands (ev):

   -16.5874 -16.2835 -16.0310 -15.7619 -15.3637 -15.3102 -14.7780 -14.7690
   -14.7543 -14.7293 -14.7107 -14.6991  -5.9445  -5.9122  -5.0398  -4.5467
    -4.0013  -3.4480  -2.9545  -2.9030  -2.7524  -2.7382  -2.3555  -2.1392
    -0.7094  -0.6349  -0.4653  -0.3776  -0.3575  -0.1968   0.0736   0.3227
     0.4059   0.4095   0.5804   0.8212   0.8899   1.0245   1.1526   1.2213
     1.3732   1.4415   1.7097   1.9090   2.0619   2.0943   2.4017   2.4028

     occupation numbers 
     1.0000   1.0000   1.0000   1.0000   1.0000   1.0000   1.0000   1.0000
     1.0000   1.0000   1.0000   1.0000   1.0000   1.0000   1.0000   1.0000
     1.0000   1.0000   1.0000   1.0000   1.0000   1.0000   1.0000   1.0000
     1.0000   1.0000   1.0000   1.0000   1.0000   1.0000   1.0000   1.0000
     1.0000   1.0000   1.0000   1.0000   1.0000   1.0000   1.0000   1.0000
     1.0000   1.0000   1.0000   1.0000   1.0000   1.0000   1.0000   1.0000

          k = 0.3750 0.0722 0.3409 (  6512 PWs)   bands (ev):

   -16.4302 -16.3122 -16.0363 -15.8441 -15.5190 -15.2015 -14.8067 -14.7762
   -14.7515 -14.7236 -14.7151 -14.6979  -6.1192  -5.5726  -4.8861  -4.5617
    -4.0451  -3.8322  -2.9083  -2.8139  -2.6680  -2.5456  -2.4869  -2.4060
    -0.8265  -0.7539  -0.5368  -0.5009  -0.2528  -0.0346   0.1137   0.3873
     0.4287   0.4994   0.5959   0.9019   1.0675   1.2890   1.3058   1.3383
     1.5161   1.5378   1.6459   1.7881   1.8385   2.0264   2.0928   2.2982

     occupation numbers 
     1.0000   1.0000   1.0000   1.0000   1.0000   1.0000   1.0000   1.0000
     1.0000   1.0000   1.0000   1.0000   1.0000   1.0000   1.0000   1.0000
     1.0000   1.0000   1.0000   1.0000   1.0000   1.0000   1.0000   1.0000
     1.0000   1.0000   1.0000   1.0000   1.0000   1.0000   1.0000   1.0000
     1.0000   1.0000   1.0000   1.0000   1.0000   1.0000   1.0000   1.0000
     1.0000   1.0000   1.0000   1.0000   1.0000   1.0000   1.0000   1.0000

          k = 0.3750 0.2165 0.1136 (  6527 PWs)   bands (ev):

   -16.5250 -16.4089 -15.9228 -15.8126 -15.3344 -15.3281 -14.7809 -14.7734
   -14.7488 -14.7272 -14.7095 -14.7067  -5.9171  -5.9034  -5.0023  -4.8353
    -3.6527  -3.4447  -2.9745  -2.9341  -2.7920  -2.7775  -2.2780  -2.2125
    -0.7101  -0.6966  -0.4431  -0.3701  -0.2535  -0.2298  -0.0159   0.2051
     0.3986   0.4719   0.7056   0.7576   0.8360   0.9647   1.2431   1.3039
     1.4139   1.4691   1.7297   1.7352   2.0776   2.1512   2.3788   2.4134

     occupation numbers 
     1.0000   1.0000   1.0000   1.0000   1.0000   1.0000   1.0000   1.0000
     1.0000   1.0000   1.0000   1.0000   1.0000   1.0000   1.0000   1.0000
     1.0000   1.0000   1.0000   1.0000   1.0000   1.0000   1.0000   1.0000
     1.0000   1.0000   1.0000   1.0000   1.0000   1.0000   1.0000   1.0000
     1.0000   1.0000   1.0000   1.0000   1.0000   1.0000   1.0000   1.0000
     1.0000   1.0000   1.0000   1.0000   1.0000   1.0000   1.0000   1.0000

          k = 0.3750 0.2165 0.3409 (  6503 PWs)   bands (ev):

   -16.4014 -16.3488 -15.9851 -15.9221 -15.4076 -15.2964 -14.8030 -14.7868
   -14.7381 -14.7225 -14.7043 -14.6972  -5.9996  -5.7846  -4.7764  -4.6602
    -3.9206  -3.8201  -2.9282  -2.8611  -2.5984  -2.5315  -2.5026  -2.4195
    -0.8061  -0.7568  -0.6417  -0.6299  -0.0668   0.0310   0.1074   0.2555
     0.3966   0.4920   0.7330   0.9429   1.0963   1.1689   1.3024   1.3220
     1.4830   1.5319   1.6233   1.7485   1.9019   1.9516   2.2069   2.3372

     occupation numbers 
     1.0000   1.0000   1.0000   1.0000   1.0000   1.0000   1.0000   1.0000
     1.0000   1.0000   1.0000   1.0000   1.0000   1.0000   1.0000   1.0000
     1.0000   1.0000   1.0000   1.0000   1.0000   1.0000   1.0000   1.0000
     1.0000   1.0000   1.0000   1.0000   1.0000   1.0000   1.0000   1.0000
     1.0000   1.0000   1.0000   1.0000   1.0000   1.0000   1.0000   1.0000
     1.0000   1.0000   1.0000   1.0000   1.0000   1.0000   1.0000   1.0000

          k =-0.1250 0.0722-0.1136 (  6535 PWs)   bands (ev):

   -16.8353 -16.4089 -15.9228 -15.6522 -15.3344 -15.1478 -14.7809 -14.7488
   -14.7347 -14.7068 -14.6998 -14.6739  -6.1443  -5.9035  -5.2495  -4.8352
    -3.6526  -3.1237  -2.9436  -2.9342  -2.8167  -2.7776  -2.6185  -2.2123
    -0.7099  -0.6650  -0.4431  -0.3852  -0.2537  -0.1981   0.1458   0.2053
     0.3987   0.7055   0.7360   0.8360   0.9376   0.9946   1.2393   1.2427
     1.4693   1.5022   1.6976   1.7298   2.1175   2.1511   2.3104   2.3788

     occupation numbers 
     1.0000   1.0000   1.0000   1.0000   1.0000   1.0000   1.0000   1.0000
     1.0000   1.0000   1.0000   1.0000   1.0000   1.0000   1.0000   1.0000
     1.0000   1.0000   1.0000   1.0000   1.0000   1.0000   1.0000   1.0000
     1.0000   1.0000   1.0000   1.0000   1.0000   1.0000   1.0000   1.0000
     1.0000   1.0000   1.0000   1.0000   1.0000   1.0000   1.0000   1.0000
     1.0000   1.0000   1.0000   1.0000   1.0000   1.0000   1.0000   1.0000

          k =-0.1250 0.0722-0.3409 (  6516 PWs)   bands (ev):

   -16.6016 -16.3488 -16.1766 -15.9221 -15.4076 -14.8346 -14.8030 -14.7381
   -14.7288 -14.7178 -14.7044 -14.6614  -6.6684  -5.7848  -4.7764  -4.2863
    -3.9204  -3.5536  -3.0560  -2.9790  -2.8612  -2.5314  -2.5026  -2.2989
    -0.8060  -0.6298  -0.5681  -0.2017  -0.1885  -0.0671   0.2558   0.2725
     0.4723   0.4917   0.7333   0.7769   0.8423   1.0232   1.1687   1.3022
     1.3146   1.5321   1.7488   1.9015   1.9744   2.2069   2.2702   2.3316

     occupation numbers 
     1.0000   1.0000   1.0000   1.0000   1.0000   1.0000   1.0000   1.0000
     1.0000   1.0000   1.0000   1.0000   1.0000   1.0000   1.0000   1.0000
     1.0000   1.0000   1.0000   1.0000   1.0000   1.0000   1.0000   1.0000
     1.0000   1.0000   1.0000   1.0000   1.0000   1.0000   1.0000   1.0000
     1.0000   1.0000   1.0000   1.0000   1.0000   1.0000   1.0000   1.0000
     1.0000   1.0000   1.0000   1.0000   1.0000   1.0000   1.0000   1.0000

          k =-0.1250 0.2165-0.1136 (  6515 PWs)   bands (ev):

   -16.7471 -16.5860 -15.7728 -15.6763 -15.2931 -15.2179 -14.7722 -14.7533
   -14.7379 -14.7128 -14.6952 -14.6837  -6.0446  -5.9430  -5.1980  -5.0392
    -3.4445  -3.2385  -2.9423  -2.9391  -2.7650  -2.7647  -2.5529  -2.3759
    -0.7547  -0.7098  -0.3797  -0.3509  -0.1591  -0.1507   0.1694   0.1900
     0.3860   0.4931   0.8135   0.9173   0.9392   0.9798   1.2467   1.2636
     1.4767   1.5207   1.6329   1.6551   2.1120   2.1607   2.3613   2.3651

     occupation numbers 
     1.0000   1.0000   1.0000   1.0000   1.0000   1.0000   1.0000   1.0000
     1.0000   1.0000   1.0000   1.0000   1.0000   1.0000   1.0000   1.0000
     1.0000   1.0000   1.0000   1.0000   1.0000   1.0000   1.0000   1.0000
     1.0000   1.0000   1.0000   1.0000   1.0000   1.0000   1.0000   1.0000
     1.0000   1.0000   1.0000   1.0000   1.0000   1.0000   1.0000   1.0000
     1.0000   1.0000   1.0000   1.0000   1.0000   1.0000   1.0000   1.0000

          k =-0.1250 0.2165-0.3409 (  6527 PWs)   bands (ev):

   -16.5335 -16.4266 -16.1317 -16.0448 -15.1882 -14.9711 -14.7816 -14.7515
   -14.7302 -14.7160 -14.6945 -14.6780  -6.4635  -6.1180  -4.5580  -4.3806
    -3.8363  -3.6851  -2.9748  -2.8952  -2.8481  -2.6605  -2.4391  -2.3440
    -0.7730  -0.6702  -0.5193  -0.3334  -0.1244  -0.0390   0.1496   0.1813
     0.4315   0.4762   0.8333   0.8592   0.9612   1.0540   1.1295   1.2645
     1.3891   1.4947   1.7306   1.8574   2.0809   2.1623   2.2210   2.3277

     occupation numbers 
     1.0000   1.0000   1.0000   1.0000   1.0000   1.0000   1.0000   1.0000
     1.0000   1.0000   1.0000   1.0000   1.0000   1.0000   1.0000   1.0000
     1.0000   1.0000   1.0000   1.0000   1.0000   1.0000   1.0000   1.0000
     1.0000   1.0000   1.0000   1.0000   1.0000   1.0000   1.0000   1.0000
     1.0000   1.0000   1.0000   1.0000   1.0000   1.0000   1.0000   1.0000
     1.0000   1.0000   1.0000   1.0000   1.0000   1.0000   1.0000   1.0000

          k =-0.3750 0.0722-0.1136 (  6504 PWs)   bands (ev):

   -16.5860 -16.2835 -16.0310 -15.7728 -15.3637 -15.2931 -14.7780 -14.7722
   -14.7543 -14.7379 -14.7107 -14.6951  -5.9428  -5.9121  -5.0393  -4.5467
    -4.0013  -3.4445  -2.9389  -2.9030  -2.7648  -2.7382  -2.3761  -2.1392
    -0.7549  -0.6349  -0.4652  -0.3778  -0.3508  -0.1592   0.1692   0.3229
     0.3859   0.4095   0.5802   0.8135   0.8899   0.9177   1.1525   1.2637
     1.3733   1.4767   1.6551   1.9090   2.0619   2.1607   2.3653   2.4016

     occupation numbers 
     1.0000   1.0000   1.0000   1.0000   1.0000   1.0000   1.0000   1.0000
     1.0000   1.0000   1.0000   1.0000   1.0000   1.0000   1.0000   1.0000
     1.0000   1.0000   1.0000   1.0000   1.0000   1.0000   1.0000   1.0000
     1.0000   1.0000   1.0000   1.0000   1.0000   1.0000   1.0000   1.0000
     1.0000   1.0000   1.0000   1.0000   1.0000   1.0000   1.0000   1.0000
     1.0000   1.0000   1.0000   1.0000   1.0000   1.0000   1.0000   1.0000

          k =-0.3750 0.0722-0.3409 (  6512 PWs)   bands (ev):

   -16.4266 -16.3122 -16.0448 -15.8440 -15.5190 -15.1882 -14.8067 -14.7816
   -14.7515 -14.7303 -14.7151 -14.6944  -6.1179  -5.5726  -4.8861  -4.5580
    -4.0451  -3.8365  -2.8951  -2.8139  -2.6607  -2.5456  -2.4869  -2.4391
    -0.8265  -0.7731  -0.5193  -0.5009  -0.2529  -0.0390   0.1496   0.3875
     0.4763   0.4993   0.5958   0.8331   1.0544   1.2643   1.3054   1.3385
     1.4948   1.5379   1.7305   1.7883   1.8385   2.0812   2.0927   2.2208

     occupation numbers 
     1.0000   1.0000   1.0000   1.0000   1.0000   1.0000   1.0000   1.0000
     1.0000   1.0000   1.0000   1.0000   1.0000   1.0000   1.0000   1.0000
     1.0000   1.0000   1.0000   1.0000   1.0000   1.0000   1.0000   1.0000
     1.0000   1.0000   1.0000   1.0000   1.0000   1.0000   1.0000   1.0000
     1.0000   1.0000   1.0000   1.0000   1.0000   1.0000   1.0000   1.0000
     1.0000   1.0000   1.0000   1.0000   1.0000   1.0000   1.0000   1.0000

          k =-0.3750 0.2165-0.1136 (  6527 PWs)   bands (ev):

   -16.5219 -16.4113 -15.9145 -15.8310 -15.3453 -15.3001 -14.7787 -14.7780
   -14.7444 -14.7442 -14.7089 -14.7002  -5.9143  -5.9044  -5.0011  -4.8362
    -3.6540  -3.4399  -2.9441  -2.9249  -2.8421  -2.7678  -2.3072  -2.1997
    -0.7745  -0.6522  -0.4843  -0.3719  -0.2792  -0.1516   0.1258   0.1613
     0.4061   0.4503   0.6711   0.7538   0.8282   0.9342   1.2159   1.3374
     1.4353   1.5017   1.6098   1.7868   2.0919   2.2076   2.3393   2.4050

     occupation numbers 
     1.0000   1.0000   1.0000   1.0000   1.0000   1.0000   1.0000   1.0000
     1.0000   1.0000   1.0000   1.0000   1.0000   1.0000   1.0000   1.0000
     1.0000   1.0000   1.0000   1.0000   1.0000   1.0000   1.0000   1.0000
     1.0000   1.0000   1.0000   1.0000   1.0000   1.0000   1.0000   1.0000
     1.0000   1.0000   1.0000   1.0000   1.0000   1.0000   1.0000   1.0000
     1.0000   1.0000   1.0000   1.0000   1.0000   1.0000   1.0000   1.0000

          k =-0.3750 0.2165-0.3409 (  6503 PWs)   bands (ev):

   -16.3947 -16.3521 -16.0029 -15.9112 -15.4200 -15.2729 -14.7991 -14.7948
   -14.7360 -14.7313 -14.7055 -14.6931  -5.9975  -5.7856  -4.7792  -4.6542
    -3.9172  -3.8276  -2.9026  -2.8724  -2.5804  -2.5520  -2.4846  -2.4619
    -0.7973  -0.7900  -0.6454  -0.6011  -0.0769   0.0121   0.1844   0.2483
     0.4383   0.4629   0.7973   0.8477   1.0325   1.1765   1.2733   1.3623
     1.4821   1.5043   1.7068   1.7549   1.8824   1.9915   2.2480   2.2483

     occupation numbers 
     1.0000   1.0000   1.0000   1.0000   1.0000   1.0000   1.0000   1.0000
     1.0000   1.0000   1.0000   1.0000   1.0000   1.0000   1.0000   1.0000
     1.0000   1.0000   1.0000   1.0000   1.0000   1.0000   1.0000   1.0000
     1.0000   1.0000   1.0000   1.0000   1.0000   1.0000   1.0000   1.0000
     1.0000   1.0000   1.0000   1.0000   1.0000   1.0000   1.0000   1.0000
     1.0000   1.0000   1.0000   1.0000   1.0000   1.0000   1.0000   1.0000

     highest occupied level (ev):     2.4134

!    total energy              =    -472.54257780 Ry
     estimated scf accuracy    <          7.5E-11 Ry

     The total energy is the sum of the following terms:
     one-electron contribution =    -204.53515456 Ry
     hartree contribution      =     154.44620575 Ry
     xc contribution           =    -143.42488879 Ry
     ewald contribution        =    -279.02874020 Ry

     convergence has been achieved in  14 iterations

     Forces acting on atoms (cartesian axes, Ry/au):

     atom    1 type  1   force =     0.00004943    0.00000000    0.00000000
     atom    2 type  1   force =     0.00004965    0.00000000    0.00000000
     atom    3 type  2   force =    -0.00622966   -0.00027991    0.00044471
     atom    4 type  2   force =    -0.00622989   -0.00028035    0.00044485
     atom    5 type  2   force =     0.00293032   -0.00482918   -0.00032313
     atom    6 type  2   force =     0.00293038   -0.00482893   -0.00032295
     atom    7 type  1   force =     0.00014080   -0.00006852    0.00000179
     atom    8 type  1   force =     0.00014096   -0.00006878    0.00000180
     atom    9 type  2   force =     0.00313381   -0.00467173    0.00031730
     atom   10 type  2   force =     0.00313373   -0.00467180    0.00031719
     atom   11 type  2   force =     0.00313381    0.00467173   -0.00031730
     atom   12 type  2   force =     0.00313373    0.00467180   -0.00031719
     atom   13 type  1   force =     0.00014080    0.00006852   -0.00000179
     atom   14 type  1   force =     0.00014096    0.00006878   -0.00000180
     atom   15 type  2   force =     0.00293032    0.00482918    0.00032313
     atom   16 type  2   force =     0.00293038    0.00482893    0.00032295
     atom   17 type  2   force =    -0.00622966    0.00027991   -0.00044471
     atom   18 type  2   force =    -0.00622989    0.00028035   -0.00044485
     The non-local contrib.  to forces
     atom    1 type  1   force =    -0.00400253    0.00000000    0.00000000
     atom    2 type  1   force =    -0.00400254    0.00000000    0.00000000
     atom    3 type  2   force =     0.82444371    0.05150564    0.50906895
     atom    4 type  2   force =     0.82444382    0.05150442    0.50906863
     atom    5 type  2   force =    -0.36760614    0.73962591   -0.50908433
     atom    6 type  2   force =    -0.36760635    0.73962685   -0.50908425
     atom    7 type  1   force =     0.00206113   -0.00346595    0.00005969
     atom    8 type  1   force =     0.00206107   -0.00346556    0.00006000
     atom    9 type  2   force =    -0.45672856    0.68812524    0.50906932
     atom   10 type  2   force =    -0.45672851    0.68812589    0.50906936
     atom   11 type  2   force =    -0.45672856   -0.68812524   -0.50906932
     atom   12 type  2   force =    -0.45672851   -0.68812589   -0.50906936
     atom   13 type  1   force =     0.00206113    0.00346595   -0.00005969
     atom   14 type  1   force =     0.00206107    0.00346556   -0.00006000
     atom   15 type  2   force =    -0.36760614   -0.73962591    0.50908433
     atom   16 type  2   force =    -0.36760635   -0.73962685    0.50908425
     atom   17 type  2   force =     0.82444371   -0.05150564   -0.50906895
     atom   18 type  2   force =     0.82444382   -0.05150442   -0.50906863
     The ionic contribution  to forces
     atom    1 type  1   force =    -0.03193767   -0.00000208   -0.00000404
     atom    2 type  1   force =    -0.03193584    0.00000060   -0.00000420
     atom    3 type  2   force =    -3.50378810    0.24614136   -1.69814397
     atom    4 type  2   force =    -3.50379295    0.24613230   -1.69814091
     atom    5 type  2   force =     1.96505120   -2.91131357    1.69812809
     atom    6 type  2   force =     1.96505243   -2.91130753    1.69812854
     atom    7 type  1   force =     0.01596939   -0.02766282   -0.00000161
     atom    8 type  1   force =     0.01596976   -0.02765774   -0.00000212
     atom    9 type  2   force =     1.53874055   -3.15744532   -1.69813647
     atom   10 type  2   force =     1.53874054   -3.15743714   -1.69813685
     atom   11 type  2   force =     1.53874072    3.15744513    1.69813822
     atom   12 type  2   force =     1.53874052    3.15743754    1.69813861
     atom   13 type  1   force =     0.01596915    0.02766304    0.00000277
     atom   14 type  1   force =     0.01596985    0.02765775    0.00000256
     atom   15 type  2   force =     1.96504196    2.91131629   -1.69812132
     atom   16 type  2   force =     1.96504475    2.91131383   -1.69812386
     atom   17 type  2   force =    -3.50378751   -0.24614499    1.69813834
     atom   18 type  2   force =    -3.50378876   -0.24613664    1.69813822
     The local contribution  to forces
     atom    1 type  1   force =     0.03583517   -0.00000000    0.00000000
     atom    2 type  1   force =     0.03583291   -0.00000146    0.00000008
     atom    3 type  2   force =     2.68968141   -0.29688094    1.19925534
     atom    4 type  2   force =     2.68968413   -0.29687243    1.19925430
     atom    5 type  2   force =    -1.60191118    2.18072447   -1.19909115
     atom    6 type  2   force =    -1.60191303    2.18072213   -1.19909301
     atom    7 type  1   force =    -0.01795487    0.03100448   -0.00005068
     atom    8 type  1   force =    -0.01795548    0.03099995   -0.00005036
     atom    9 type  2   force =    -1.08763213    2.47765634    1.19928435
     atom   10 type  2   force =    -1.08763226    2.47764924    1.19928487
     atom   11 type  2   force =    -1.08761909   -2.47757462   -1.19911786
     atom   12 type  2   force =    -1.08761922   -2.47756752   -1.19911839
     atom   13 type  1   force =    -0.01795385   -0.03100625    0.00004532
     atom   14 type  1   force =    -0.01795462   -0.03100160    0.00004501
     atom   15 type  2   force =    -1.60189816   -2.18065632    1.19925440
     atom   16 type  2   force =    -1.60189979   -2.18064988    1.19925602
     atom   17 type  2   force =     2.68968138    0.29697082   -1.19908157
     atom   18 type  2   force =     2.68968410    0.29696231   -1.19908053
     The core correction contribution to forces
     atom    1 type  1   force =     0.00006468    0.00000000    0.00000000
     atom    2 type  1   force =     0.00006466   -0.00000015    0.00000000
     atom    3 type  2   force =    -0.01665539   -0.00100397   -0.00965119
     atom    4 type  2   force =    -0.01665539   -0.00100399   -0.00965118
     atom    5 type  2   force =     0.00730222   -0.01382944    0.00980755
     atom    6 type  2   force =     0.00730223   -0.01382945    0.00980754
     atom    7 type  1   force =    -0.00002610    0.00005414   -0.00000809
     atom    8 type  1   force =    -0.00002610    0.00005413   -0.00000811
     atom    9 type  2   force =     0.00865613   -0.01296602   -0.00981562
     atom   10 type  2   force =     0.00865613   -0.01296600   -0.00981561
     atom   11 type  2   force =     0.00865571    0.01296501    0.00981365
     atom   12 type  2   force =     0.00865571    0.01296499    0.00981365
     atom   13 type  1   force =    -0.00002607   -0.00005442    0.00000749
     atom   14 type  1   force =    -0.00002608   -0.00005439    0.00000751
     atom   15 type  2   force =     0.00730183    0.01382885   -0.00980940
     atom   16 type  2   force =     0.00730183    0.01382881   -0.00980939
     atom   17 type  2   force =    -0.01665538    0.00100273    0.00964906
     atom   18 type  2   force =    -0.01665538    0.00100276    0.00964905
     The Hubbard contrib.    to forces
     atom    1 type  1   force =     0.00000000    0.00000000    0.00000000
     atom    2 type  1   force =     0.00000000    0.00000000    0.00000000
     atom    3 type  2   force =     0.00000000    0.00000000    0.00000000
     atom    4 type  2   force =     0.00000000    0.00000000    0.00000000
     atom    5 type  2   force =     0.00000000    0.00000000    0.00000000
     atom    6 type  2   force =     0.00000000    0.00000000    0.00000000
     atom    7 type  1   force =     0.00000000    0.00000000    0.00000000
     atom    8 type  1   force =     0.00000000    0.00000000    0.00000000
     atom    9 type  2   force =     0.00000000    0.00000000    0.00000000
     atom   10 type  2   force =     0.00000000    0.00000000    0.00000000
     atom   11 type  2   force =     0.00000000    0.00000000    0.00000000
     atom   12 type  2   force =     0.00000000    0.00000000    0.00000000
     atom   13 type  1   force =     0.00000000    0.00000000    0.00000000
     atom   14 type  1   force =     0.00000000    0.00000000    0.00000000
     atom   15 type  2   force =     0.00000000    0.00000000    0.00000000
     atom   16 type  2   force =     0.00000000    0.00000000    0.00000000
     atom   17 type  2   force =     0.00000000    0.00000000    0.00000000
     atom   18 type  2   force =     0.00000000    0.00000000    0.00000000
     The SCF correction term to forces
     atom    1 type  1   force =    -0.00000109   -0.00000000    0.00000000
     atom    2 type  1   force =    -0.00000040    0.00000000    0.00000000
     atom    3 type  2   force =    -0.00000243    0.00000050   -0.00000141
     atom    4 type  2   force =    -0.00000244    0.00000150   -0.00000152
     atom    5 type  2   force =     0.00000167   -0.00000141    0.00000080
     atom    6 type  2   force =     0.00000166   -0.00000198    0.00000115
     atom    7 type  1   force =    -0.00000001    0.00000072    0.00000007
     atom    8 type  1   force =     0.00000036   -0.00000051   -0.00000036
     atom    9 type  2   force =     0.00000057   -0.00000171   -0.00000114
     atom   10 type  2   force =     0.00000068   -0.00000324   -0.00000144
     atom   11 type  2   force =     0.00000057    0.00000171    0.00000114
     atom   12 type  2   force =     0.00000068    0.00000324    0.00000144
     atom   13 type  1   force =    -0.00000001   -0.00000072   -0.00000007
     atom   14 type  1   force =     0.00000036    0.00000051    0.00000036
     atom   15 type  2   force =     0.00000167    0.00000141   -0.00000080
     atom   16 type  2   force =     0.00000166    0.00000198   -0.00000115
     atom   17 type  2   force =    -0.00000243   -0.00000050    0.00000141
     atom   18 type  2   force =    -0.00000244   -0.00000150    0.00000152

     Total force =     0.020285     Total SCF correction =     0.000010

     Writing all to output data dir ./SiO2_OR_18.save/ :
     XML data file, charge density, pseudopotentials, collected wavefunctions
 
     init_run     :      2.22s CPU      3.26s WALL (       1 calls)
     electrons    :      3.30s CPU      3.51s WALL (       1 calls)
     forces       :      0.10s CPU      0.10s WALL (       1 calls)

     Called by init_run:
     wfcinit      :      0.11s CPU      0.32s WALL (       1 calls)
     wfcinit:atom :      0.00s CPU      0.00s WALL (       1 calls)
     wfcinit:wfcr :      0.10s CPU      0.27s WALL (       1 calls)
     potinit      :      1.04s CPU      1.07s WALL (       1 calls)
     hinit0       :      0.33s CPU      0.38s WALL (       1 calls)

     Called by electrons:
     c_bands      :      1.60s CPU      1.63s WALL (      14 calls)
     sum_band     :      0.77s CPU      0.82s WALL (      14 calls)
     v_of_rho     :      0.42s CPU      0.47s WALL (      15 calls)
     v_h          :      0.16s CPU      0.17s WALL (      15 calls)
     v_xc         :      0.27s CPU      0.32s WALL (      16 calls)
     newd         :      0.78s CPU      1.50s WALL (      15 calls)
                                        1.50s GPU  (      15 calls)
     mix_rho      :      0.12s CPU      0.13s WALL (      14 calls)

     Called by c_bands:
     init_us_2    :      0.03s CPU      0.03s WALL (      29 calls)
     cegterg      :      1.45s CPU      1.47s WALL (      14 calls)

     Called by sum_band:
     sum_band:wei :      0.00s CPU      0.00s WALL (      14 calls)
                                        0.00s GPU  (      14 calls)
     sum_band:loo :      0.26s CPU      0.31s WALL (      14 calls)
                                        0.31s GPU  (      14 calls)
     sum_band:buf :      0.02s CPU      0.04s WALL (      14 calls)
                                        0.04s GPU  (      14 calls)
     sum_band:ini :      0.02s CPU      0.02s WALL (      14 calls)
                                        0.01s GPU  (      14 calls)
     sum_band:cal :      0.01s CPU      0.02s WALL (      14 calls)
                                        0.01s GPU  (      14 calls)
     sum_band:bec :      0.01s CPU      0.02s WALL (      14 calls)
                                        0.02s GPU  (      14 calls)
     addusdens    :      0.16s CPU      0.16s WALL (      14 calls)
                                        0.16s GPU  (      14 calls)
     addusd:skk   :      0.01s CPU      0.01s WALL (      28 calls)
                                        0.01s GPU  (      28 calls)

     Called by *egterg:
     cdiaghg      :      0.40s CPU      0.56s WALL (      54 calls)
                                        0.56s GPU  (      54 calls)
     cegterg:over :      0.02s CPU      0.02s WALL (      40 calls)
     cegterg:upda :      0.16s CPU      0.16s WALL (      40 calls)
     cegterg:last :      0.01s CPU      0.01s WALL (      33 calls)
     h_psi        :      0.82s CPU      0.85s WALL (      55 calls)
                                        0.85s GPU  (      55 calls)
     s_psi        :      0.08s CPU      0.08s WALL (      55 calls)
     g_psi        :      0.00s CPU      0.01s WALL (      40 calls)
                                        0.01s GPU  (      40 calls)

     Called by h_psi:
     h_psi:calbec :      0.00s CPU      0.03s WALL (      55 calls)
                                        0.03s GPU  (      55 calls)
     vloc_psi     :      0.66s CPU      0.67s WALL (      55 calls)
                                        0.67s GPU  (      55 calls)
     add_vuspsi   :      0.11s CPU      0.12s WALL (      55 calls)
                                        0.12s GPU  (      55 calls)

     General routines
     calbec       :      0.00s CPU      0.01s WALL (      73 calls)
     fft          :      0.74s CPU      0.82s WALL (     204 calls)
                                        0.12s GPU  (     189 calls)
     ffts         :      0.40s CPU      0.40s WALL (      29 calls)
                                        0.00s GPU  (      14 calls)
     fftw         :      0.01s CPU      0.51s WALL (     324 calls)
                                        0.51s GPU  (     324 calls)
     interpolate  :      1.12s CPU      1.12s WALL (      15 calls)
 
     Parallel routines
 
     PWSCF        :      5.89s CPU      7.34s WALL

 
   This run was terminated on:  18:24:45  28Dec2024            

=------------------------------------------------------------------------------=
   JOB DONE.
=------------------------------------------------------------------------------=
