[2024-10-04 13:10:51,246]:DEBUG: Command: jube run max-inputs/interface/siesta/weak-scaling-systemsize-covid.xml --tag deucalion
[2024-10-04 13:10:51,247]:DEBUG: Version: 2.7.1
[2024-10-04 13:10:51,247]:DEBUG: Parsing max-inputs/interface/siesta/weak-scaling-systemsize-covid.xml
[2024-10-04 13:10:51,267]:DEBUG:   --> Preprocess run 1 <--
[2024-10-04 13:10:51,267]:DEBUG:   Remove invalid tags
[2024-10-04 13:10:51,267]:DEBUG:     Available tags: deucalion
[2024-10-04 13:10:51,269]:DEBUG:   Remove invalid tags
[2024-10-04 13:10:51,269]:DEBUG:     Available tags: deucalion
[2024-10-04 13:10:51,270]:DEBUG:   Parsing <include-path>
[2024-10-04 13:10:51,270]:DEBUG:     New path: /projects/EEHPC-BEN-2024B07-051/JUBE4MaX/max-inputs//platforms/deucalion/deucalion-cpu
[2024-10-04 13:10:51,270]:DEBUG:     New path: /projects/EEHPC-BEN-2024B07-051/JUBE4MaX/max-inputs//applications/siesta/deployment
[2024-10-04 13:10:51,270]:DEBUG:     New path: /projects/EEHPC-BEN-2024B07-051/JUBE4MaX/max-inputs//workloads/siesta/covid-spike/
[2024-10-04 13:10:51,270]:DEBUG:   Read $JUBE_INCLUDE_PATH
[2024-10-04 13:10:51,270]:DEBUG:   Preprocess xml tree
[2024-10-04 13:10:51,270]:DEBUG:     path: /projects/EEHPC-BEN-2024B07-051/JUBE4MaX/max-inputs//platforms/deucalion/deucalion-cpu
[2024-10-04 13:10:51,270]:DEBUG:     path: /projects/EEHPC-BEN-2024B07-051/JUBE4MaX/max-inputs//applications/siesta/deployment
[2024-10-04 13:10:51,270]:DEBUG:     path: /projects/EEHPC-BEN-2024B07-051/JUBE4MaX/max-inputs//workloads/siesta/covid-spike/
[2024-10-04 13:10:51,270]:DEBUG:     path: max-inputs/interface/siesta
[2024-10-04 13:10:51,270]:DEBUG:   No preprocessing changes were detected, stop additional include-preprocess runs.
[2024-10-04 13:10:51,270]:DEBUG:   Remove invalid tags
[2024-10-04 13:10:51,270]:DEBUG:     Available tags: deucalion
[2024-10-04 13:10:51,271]:DEBUG:   Preprocess done
[2024-10-04 13:10:51,271]:DEBUG:   Parsing <parameterset name="deployParameter">
[2024-10-04 13:10:51,271]:DEBUG:     Searching for <parameterset name="deployParameter"> in deploy.xml
[2024-10-04 13:10:51,273]:DEBUG:   Preprocess benchmark xml tree
[2024-10-04 13:10:51,273]:DEBUG:   Parsing <parameterset name="systemParameter">
[2024-10-04 13:10:51,273]:DEBUG:     Searching for <parameterset name="systemParameter"> in platform.xml
[2024-10-04 13:10:51,274]:DEBUG:   Parsing <parameterset name="testcaseset">
[2024-10-04 13:10:51,274]:DEBUG:     Searching for <parameterset name="testcaseset"> in workload.xml
[2024-10-04 13:10:51,275]:DEBUG:   Parsing <parameterset name="executeset">
[2024-10-04 13:10:51,276]:DEBUG:     Searching for <parameterset name="executeset"> in platform.xml
[2024-10-04 13:10:51,277]:DEBUG:   Parsing <substituteset name="fdfsub">
[2024-10-04 13:10:51,277]:DEBUG:     Searching for <substituteset name="fdfsub"> in workload.xml
[2024-10-04 13:10:51,277]:DEBUG:   Parsing <substituteset name="executesub">
[2024-10-04 13:10:51,277]:DEBUG:     Searching for <substituteset name="executesub"> in platform.xml
[2024-10-04 13:10:51,278]:DEBUG:   Parsing <fileset name="jobfiles">
[2024-10-04 13:10:51,278]:DEBUG:     Searching for <fileset name="jobfiles"> in platform.xml
[2024-10-04 13:10:51,279]:DEBUG:   Parsing <patternset name="pattern">
[2024-10-04 13:10:51,279]:DEBUG:   Parsing <step name="submit">
[2024-10-04 13:10:51,279]:DEBUG:   Parsing <analyser name="analyse">
[2024-10-04 13:10:51,279]:DEBUG: Start consistency check
[2024-10-04 13:10:51,279]:DEBUG: Create benchmark directory
