JobID        JobIDRaw        JobName  Partition  MaxVMSize  MaxVMSizeNode  MaxVMSizeTask  AveVMSize     MaxRSS MaxRSSNode MaxRSSTask     AveRSS MaxPages MaxPagesNode   MaxPagesTask   AvePages     MinCPU MinCPUNode MinCPUTask     AveCPU   NTasks  AllocCPUS    Elapsed      State ExitCode AveCPUFreq ReqCPUFreqMin ReqCPUFreqMax ReqCPUFreqGov     ReqMem ConsumedEnergy  MaxDiskRead MaxDiskReadNode MaxDiskReadTask    AveDiskRead MaxDiskWrite MaxDiskWriteNode MaxDiskWriteTask   AveDiskWrite    ReqTRES  AllocTRES TRESUsageInAve TRESUsageInMax TRESUsageInMaxNode TRESUsageInMaxTask TRESUsageInMin TRESUsageInMinNode TRESUsageInMinTask TRESUsageInTot TRESUsageOutMax TRESUsageOutMaxNode TRESUsageOutMaxTask TRESUsageOutAve TRESUsageOutTot 
------------ ------------ ---------- ---------- ---------- -------------- -------------- ---------- ---------- ---------- ---------- ---------- -------- ------------ -------------- ---------- ---------- ---------- ---------- ---------- -------- ---------- ---------- ---------- -------- ---------- ------------- ------------- ------------- ---------- -------------- ------------ --------------- --------------- -------------- ------------ ---------------- ---------------- -------------- ---------- ---------- -------------- -------------- ------------------ ------------------ -------------- ------------------ ------------------ -------------- --------------- ------------------- ------------------- --------------- --------------- 
34596034     34596034     CovidWeak+        cpu                                                                                                                                                                                                            8192   00:21:52    RUNNING      0:0                  Unknown       Unknown       Unknown      4000G                                                                                                                                          billing=4+ billing=8+                                                                                                                                                                                                                                 
34596034.ba+ 34596034.ba+      batch                                                                                                                                                                                                               1        256   00:21:52    RUNNING      0:0          0             0             0             0                         0                                                                                                                                      cpu=256,m+                                                                                                                                                                                                                                 
34596034.ex+ 34596034.ex+     extern                                                                                                                                                                                                              32       8192   00:21:52    RUNNING      0:0          0             0             0             0                         0                                                                                                                                      billing=8+                                                                                                                                                                                                                                 
34596034.0   34596034.0       siesta               564132K         cn0884              0  543266252    531408K     cn0884          0  505742177        2       cn0892            768          0   00:21:06     cn0884          0   00:21:26     4096       8192   00:21:50  COMPLETED      0:0      6.82G       Unknown       Unknown       Unknown                     4.92M       29.85M          cn0884               0         28.64M       16.32M           cn0884                0          4.15M            cpu=8192,+ cpu=00:21:26,+ cpu=00:21:40,+ cpu=cn0917,energy+ cpu=2662,fs/disk=+ cpu=00:21:06,+ cpu=cn0884,energy+ cpu=0,fs/disk=766+ cpu=61-00:18:+ energy=770,fs/+ energy=cn0898,fs/d+           fs/disk=0 energy=0,fs/di+ energy=1461,fs+ 
