JobID        JobIDRaw        JobName  Partition  MaxVMSize  MaxVMSizeNode  MaxVMSizeTask  AveVMSize     MaxRSS MaxRSSNode MaxRSSTask     AveRSS MaxPages MaxPagesNode   MaxPagesTask   AvePages     MinCPU MinCPUNode MinCPUTask     AveCPU   NTasks  AllocCPUS    Elapsed      State ExitCode AveCPUFreq ReqCPUFreqMin ReqCPUFreqMax ReqCPUFreqGov     ReqMem ConsumedEnergy  MaxDiskRead MaxDiskReadNode MaxDiskReadTask    AveDiskRead MaxDiskWrite MaxDiskWriteNode MaxDiskWriteTask   AveDiskWrite    ReqTRES  AllocTRES TRESUsageInAve TRESUsageInMax TRESUsageInMaxNode TRESUsageInMaxTask TRESUsageInMin TRESUsageInMinNode TRESUsageInMinTask TRESUsageInTot TRESUsageOutMax TRESUsageOutMaxNode TRESUsageOutMaxTask TRESUsageOutAve TRESUsageOutTot 
------------ ------------ ---------- ---------- ---------- -------------- -------------- ---------- ---------- ---------- ---------- ---------- -------- ------------ -------------- ---------- ---------- ---------- ---------- ---------- -------- ---------- ---------- ---------- -------- ---------- ------------- ------------- ------------- ---------- -------------- ------------ --------------- --------------- -------------- ------------ ---------------- ---------------- -------------- ---------- ---------- -------------- -------------- ------------------ ------------------ -------------- ------------------ ------------------ -------------- --------------- ------------------- ------------------- --------------- --------------- 
34596037     34596037     CovidWeak+        cpu                                                                                                                                                                                                           16384   01:20:20    RUNNING      0:0                  Unknown       Unknown       Unknown      8000G                                                                                                                                          billing=8+ billing=1+                                                                                                                                                                                                                                 
34596037.ba+ 34596037.ba+      batch                                                                                                                                                                                                               1        256   01:20:20    RUNNING      0:0          0             0             0             0                         0                                                                                                                                      cpu=256,m+                                                                                                                                                                                                                                 
34596037.ex+ 34596037.ex+     extern                                                                                                                                                                                                              64      16384   01:20:20    RUNNING      0:0          0             0             0             0                         0                                                                                                                                      billing=1+                                                                                                                                                                                                                                 
34596037.0   34596037.0       siesta               655020K         cn0321           4722  571309718    617268K     cn0321       4722  533673286       69       cn0120              0          0   01:17:52     cn0368       6656   01:19:21     8192      16384   01:20:13  COMPLETED      0:0      3.65G       Unknown       Unknown       Unknown                    46.68M       32.37M          cn0208            1572         30.50M       16.59M           cn0120                0          4.18M            cpu=16384+ cpu=01:19:21,+ cpu=01:20:16,+ cpu=cn0211,energy+ cpu=1968,fs/disk=+ cpu=01:17:52,+ cpu=cn0368,energy+ cpu=6656,fs/disk=+ cpu=451-10:19+ energy=790,fs/+ energy=cn0367,fs/d+           fs/disk=0 energy=0,fs/di+ energy=5857,fs+ 
