JobId=34596037 JobName=CovidWeakKPoints
   UserId=eufedericop(1977552410) GroupId=eufedericop(1977552410) MCS_label=N/A
   Priority=66302200 Nice=0 Account=b2024b06-053-users QOS=normal
   JobState=RUNNING Reason=None Dependency=(null)
   Requeue=1 Restarts=0 BatchFlag=1 Reboot=0 ExitCode=0:0
   DerivedExitCode=0:0
   RunTime=00:00:07 TimeLimit=1-00:00:00 TimeMin=N/A
   SubmitTime=2024-09-12T10:33:14 EligibleTime=2024-09-12T10:33:14
   AccrueTime=2024-09-12T10:33:14
   StartTime=2024-09-12T11:22:39 EndTime=2024-09-13T11:22:39 Deadline=N/A
   SuspendTime=None SecsPreSuspend=0 LastSchedEval=2024-09-12T11:22:39 Scheduler=Main
   Partition=cpu AllocNode:Sid=login0005-dmz:340330
   ReqNodeList=(null) ExcNodeList=(null)
   NodeList=cn[0120,0195-0202,0205-0213,0215-0217,0220,0223,0226,0231,0234,0237,0240,0309,0313-0317,0319-0321,0324,0329,0332,0335,0349,0352,0355-0361,0364,0367-0373,0382,0541,0551-0553,0581]
   BatchHost=cn0120
   NumNodes=64 NumCPUs=16384 NumTasks=8192 CPUs/Task=1 ReqB:S:C:T=0:0:*:1
   ReqTRES=cpu=8192,mem=8000G,node=64,billing=8192
   AllocTRES=cpu=16384,mem=8000G,node=64,billing=16384
   Socks/Node=* NtasksPerN:B:S:C=128:0:*:* CoreSpec=*
   JOB_GRES=(null)
     Nodes=cn[0120,0195-0202,0205-0213,0215-0217,0220,0223,0226,0231,0234,0237,0240,0309,0313-0317,0319-0321,0324,0329,0332,0335,0349,0352,0355-0361,0364,0367-0373,0382,0541,0551-0553,0581] CPU_IDs=0-255 Mem=128000 GRES=
   MinCPUsNode=128 MinMemoryCPU=1000M MinTmpDiskNode=0
   Features=(null) DelayBoot=00:00:00
   OverSubscribe=NO Contiguous=0 Licenses=(null) Network=(null)
   Command=/ceph/hpc/home/eufedericop/JUBE4MaX/max-inputs/interface/siesta/_CovidWeakKPoints/000001/000005_submit/work/submit.job
   WorkDir=/ceph/hpc/home/eufedericop/JUBE4MaX/max-inputs/interface/siesta/_CovidWeakKPoints/000001/000005_submit/work
   StdErr=/ceph/hpc/home/eufedericop/JUBE4MaX/max-inputs/interface/siesta/_CovidWeakKPoints/000001/000005_submit/work/slurm-34596037.out
   StdIn=/dev/null
   StdOut=/ceph/hpc/home/eufedericop/JUBE4MaX/max-inputs/interface/siesta/_CovidWeakKPoints/000001/000005_submit/work/slurm-34596037.out
   Power=
   TresPerTask=cpu:1
   

