JobID        JobIDRaw        JobName  Partition  MaxVMSize  MaxVMSizeNode  MaxVMSizeTask  AveVMSize     MaxRSS MaxRSSNode MaxRSSTask     AveRSS MaxPages MaxPagesNode   MaxPagesTask   AvePages     MinCPU MinCPUNode MinCPUTask     AveCPU   NTasks  AllocCPUS    Elapsed      State ExitCode AveCPUFreq ReqCPUFreqMin ReqCPUFreqMax ReqCPUFreqGov     ReqMem ConsumedEnergy  MaxDiskRead MaxDiskReadNode MaxDiskReadTask    AveDiskRead MaxDiskWrite MaxDiskWriteNode MaxDiskWriteTask   AveDiskWrite    ReqTRES  AllocTRES TRESUsageInAve TRESUsageInMax TRESUsageInMaxNode TRESUsageInMaxTask TRESUsageInMin TRESUsageInMinNode TRESUsageInMinTask TRESUsageInTot TRESUsageOutMax TRESUsageOutMaxNode TRESUsageOutMaxTask TRESUsageOutAve TRESUsageOutTot 
------------ ------------ ---------- ---------- ---------- -------------- -------------- ---------- ---------- ---------- ---------- ---------- -------- ------------ -------------- ---------- ---------- ---------- ---------- ---------- -------- ---------- ---------- ---------- -------- ---------- ------------- ------------- ------------- ---------- -------------- ------------ --------------- --------------- -------------- ------------ ---------------- ---------------- -------------- ---------- ---------- -------------- -------------- ------------------ ------------------ -------------- ------------------ ------------------ -------------- --------------- ------------------- ------------------- --------------- --------------- 
7261816      7261816      submit.job dcgp_usr_+                                                                                                                                                                                                            8960   05:45:36    RUNNING      0:0                  Unknown       Unknown       Unknown     38500G                                                                                                                                          billing=8+ billing=8+                                                                                                                                                                                                                                 
7261816.bat+ 7261816.bat+      batch                                                                                                                                                                                                               1        112   05:45:36    RUNNING      0:0          0             0             0             0                         0                                                                                                                                      cpu=112,g+                                                                                                                                                                                                                                 
7261816.ext+ 7261816.ext+     extern                                                                                                                                                                                                              80       8960   05:45:36    RUNNING      0:0          0             0             0             0                         0                                                                                                                                      billing=8+                                                                                                                                                                                                                                 
7261816.0    7261816.0    hydra_bst+             17451264K       lrdn3473              0   1090704K  10989136K   lrdn3473          0    686821K     3853     lrdn3473              0        240 12-21:13:+   lrdn4824         15 15-10:52:+       16       1792   05:45:31  COMPLETED      0:0        16K       Unknown       Unknown       Unknown                         0        0.57M        lrdn4824              15          0.57M        1.00M         lrdn4447               12          1.00M            cpu=1792,+ cpu=15-10:52:+ cpu=17-01:07:+ cpu=lrdn4350,ener+ cpu=11,fs/disk=15+ cpu=12-21:13:+ cpu=lrdn4824,ener+ cpu=15,fs/disk=3,+ cpu=247-05:54+ energy=0,fs/di+ energy=lrdn4447,fs+          fs/disk=12 energy=0,fs/di+ energy=0,fs/di+ 
7261816.1    7261816.1    hydra_bst+             19330156K       lrdn4280              0   4832539K  13719176K   lrdn4280          0   3429794K     3763     lrdn4280              0        940 16-05:48:+   lrdn4280          0 16-15:53:+        4        448   05:45:30  COMPLETED      0:0         2K       Unknown       Unknown       Unknown                         0        0.55M        lrdn4342               3          0.55M        0.16M         lrdn4291                1          0.16M            cpu=448,g+ cpu=16-15:53:+ cpu=16-23:20:+ cpu=lrdn4342,ener+ cpu=3,fs/disk=3,m+ cpu=16-05:48:+ cpu=lrdn4280,ener+ cpu=0,fs/disk=0,m+ cpu=66-15:33:+ energy=0,fs/di+ energy=lrdn4291,fs+           fs/disk=1 energy=0,fs/di+ energy=0,fs/di+ 
7261816.2    7261816.2    hydra_bst+             19193152K       lrdn3983              0   4798288K  13557548K   lrdn3983          0   3389387K     3554     lrdn3983              0        888 15-20:12:+   lrdn4015          3 16-07:45:+        4        448   05:45:30  COMPLETED      0:0         2K       Unknown       Unknown       Unknown                         0        0.55M        lrdn4014               2          0.55M        0.16M         lrdn4014                2          0.16M            cpu=448,g+ cpu=16-07:45:+ cpu=16-20:13:+ cpu=lrdn3983,ener+ cpu=0,fs/disk=2,m+ cpu=15-20:12:+ cpu=lrdn4015,ener+ cpu=3,fs/disk=0,m+ cpu=65-07:02:+ energy=0,fs/di+ energy=lrdn4014,fs+           fs/disk=2 energy=0,fs/di+ energy=0,fs/di+ 
7261816.3    7261816.3    hydra_bst+             19416932K       lrdn3780              0   4854233K  13744620K   lrdn3780          0   3436155K     3647     lrdn3780              0        911 14-21:46:+   lrdn3780          0 15-13:59:+        4        448   05:45:30  COMPLETED      0:0         2K       Unknown       Unknown       Unknown                         0        0.55M        lrdn3823               2          0.55M        0.16M         lrdn3829                3          0.16M            cpu=448,g+ cpu=15-13:59:+ cpu=16-01:54:+ cpu=lrdn3829,ener+ cpu=3,fs/disk=2,m+ cpu=14-21:46:+ cpu=lrdn3780,ener+ cpu=0,fs/disk=3,m+ cpu=62-07:57:+ energy=0,fs/di+ energy=lrdn3829,fs+           fs/disk=3 energy=0,fs/di+ energy=0,fs/di+ 
7261816.4    7261816.4    hydra_bst+             20115696K       lrdn4554              0   5028924K  14406372K   lrdn4554          0   3601593K     3610     lrdn4554              0        902 14-09:41:+   lrdn4622          3 14-19:36:+        4        448   05:45:30  COMPLETED      0:0         1K       Unknown       Unknown       Unknown                         0        0.55M        lrdn4567               1          0.55M        0.16M         lrdn4554                0          0.16M            cpu=448,g+ cpu=14-19:36:+ cpu=15-06:51:+ cpu=lrdn4554,ener+ cpu=0,fs/disk=1,m+ cpu=14-09:41:+ cpu=lrdn4622,ener+ cpu=3,fs/disk=2,m+ cpu=59-06:27:+ energy=0,fs/di+ energy=lrdn4554,fs+           fs/disk=0 energy=0,fs/di+ energy=0,fs/di+ 
7261816.5    7261816.5    hydra_bst+             20045384K       lrdn4374              0   5011346K  14232288K   lrdn4374          0   3558072K     3626     lrdn4374              0        906 16-19:38:+   lrdn4432          3 16-23:31:+        4        448   05:45:30  COMPLETED      0:0         1K       Unknown       Unknown       Unknown                         0        0.55M        lrdn4418               2          0.55M        0.16M         lrdn4374                0          0.16M            cpu=448,g+ cpu=16-23:31:+ cpu=17-01:20:+ cpu=lrdn4413,ener+ cpu=1,fs/disk=2,m+ cpu=16-19:38:+ cpu=lrdn4432,ener+ cpu=3,fs/disk=1,m+ cpu=67-22:06:+ energy=0,fs/di+ energy=lrdn4374,fs+           fs/disk=0 energy=0,fs/di+ energy=0,fs/di+ 
7261816.6    7261816.6    hydra_bst+             14359032K       lrdn4853              0   3589758K   9739384K   lrdn4853          0   2434846K     3558     lrdn4853              0        889 12-17:30:+   lrdn4876          1 12-21:26:+        4        448   05:45:30  COMPLETED      0:0          0       Unknown       Unknown       Unknown                         0        0.55M        lrdn4915               2          0.55M        0.16M         lrdn4966                3          0.16M            cpu=448,g+ cpu=12-21:26:+ cpu=13-04:18:+ cpu=lrdn4966,ener+ cpu=3,fs/disk=2,m+ cpu=12-17:30:+ cpu=lrdn4876,ener+ cpu=1,fs/disk=1,m+ cpu=51-13:45:+ energy=0,fs/di+ energy=lrdn4966,fs+           fs/disk=3 energy=0,fs/di+ energy=0,fs/di+ 
7261816.7    7261816.7    hydra_bst+             20215856K       lrdn4674              0   5053964K  14286504K   lrdn4674          0   3571626K     3674     lrdn4674              0        918 13-02:31:+   lrdn4764          3 13-12:12:+        4        448   05:45:30  COMPLETED      0:0          0       Unknown       Unknown       Unknown                         0        0.55M        lrdn4688               1          0.55M        0.16M         lrdn4717                2          0.16M            cpu=448,g+ cpu=13-12:12:+ cpu=13-23:24:+ cpu=lrdn4674,ener+ cpu=0,fs/disk=1,m+ cpu=13-02:31:+ cpu=lrdn4764,ener+ cpu=3,fs/disk=2,m+ cpu=54-00:49:+ energy=0,fs/di+ energy=lrdn4717,fs+           fs/disk=2 energy=0,fs/di+ energy=0,fs/di+ 
7261816.8    7261816.8    hydra_bst+             19514852K       lrdn3859              0   4878713K  13617116K   lrdn3859          0   3404279K     3619     lrdn3859              0        904 16-11:28:+   lrdn3859          0 16-22:09:+        4        448   05:45:30  COMPLETED      0:0         2K       Unknown       Unknown       Unknown                         0        0.55M        lrdn3859               0          0.55M        0.16M         lrdn3933                3          0.16M            cpu=448,g+ cpu=16-22:09:+ cpu=17-05:00:+ cpu=lrdn3911,ener+ cpu=2,fs/disk=0,m+ cpu=16-11:28:+ cpu=lrdn3859,ener+ cpu=0,fs/disk=1,m+ cpu=67-16:36:+ energy=0,fs/di+ energy=lrdn3933,fs+           fs/disk=3 energy=0,fs/di+ energy=0,fs/di+ 
7261816.9    7261816.9    hydra_bst+             15861844K       lrdn3534              0   3965461K  10915932K   lrdn3534          0   2728983K     3553     lrdn3534              0        888 15-20:02:+   lrdn3562          3 16-05:58:+        4        448   05:45:30  COMPLETED      0:0         2K       Unknown       Unknown       Unknown                         0        0.55M        lrdn3541               1          0.55M        0.16M         lrdn3534                0          0.16M            cpu=448,g+ cpu=16-05:58:+ cpu=16-15:58:+ cpu=lrdn3541,ener+ cpu=1,fs/disk=1,m+ cpu=15-20:02:+ cpu=lrdn3562,ener+ cpu=3,fs/disk=3,m+ cpu=64-23:55:+ energy=0,fs/di+ energy=lrdn3534,fs+           fs/disk=0 energy=0,fs/di+ energy=0,fs/di+ 
7261816.10   7261816.10   hydra_bst+             17413336K       lrdn4192              0   4353334K  12284508K   lrdn4192          0   3071127K     3600     lrdn4192              0        900 13-13:00:+   lrdn4192          0 14-05:08:+        4        448   05:45:30  COMPLETED      0:0         1K       Unknown       Unknown       Unknown                         0        0.55M        lrdn4213               2          0.55M        0.16M         lrdn4213                2          0.16M            cpu=448,g+ cpu=14-05:08:+ cpu=15-03:50:+ cpu=lrdn4237,ener+ cpu=3,fs/disk=2,m+ cpu=13-13:00:+ cpu=lrdn4192,ener+ cpu=0,fs/disk=0,m+ cpu=56-20:35:+ energy=0,fs/di+ energy=lrdn4213,fs+           fs/disk=2 energy=0,fs/di+ energy=0,fs/di+ 
7261816.11   7261816.11   hydra_bst+             20155056K       lrdn4472              0   5038764K  14245840K   lrdn4472          0   3561460K     3555     lrdn4472              0        888 15-18:00:+   lrdn4527          3 16-04:27:+        4        448   05:45:30  COMPLETED      0:0         3K       Unknown       Unknown       Unknown                         0        0.55M        lrdn4511               2          0.55M        0.16M         lrdn4511                2          0.16M            cpu=448,g+ cpu=16-04:27:+ cpu=16-14:41:+ cpu=lrdn4472,ener+ cpu=0,fs/disk=2,m+ cpu=15-18:00:+ cpu=lrdn4527,ener+ cpu=3,fs/disk=1,m+ cpu=64-17:51:+ energy=0,fs/di+ energy=lrdn4511,fs+           fs/disk=2 energy=0,fs/di+ energy=0,fs/di+ 
7261816.12   7261816.12   hydra_bst+             21031316K       lrdn3665              0   5257829K  15063588K   lrdn3665          0   3765897K     3595     lrdn3665              0        898 16-18:40:+   lrdn3685          3 16-23:00:+        4        448   05:45:30  COMPLETED      0:0         2K       Unknown       Unknown       Unknown                         0        0.55M        lrdn3685               3          0.55M        0.16M         lrdn3684                2          0.16M            cpu=448,g+ cpu=16-23:00:+ cpu=17-01:13:+ cpu=lrdn3665,ener+ cpu=0,fs/disk=3,m+ cpu=16-18:40:+ cpu=lrdn3685,ener+ cpu=3,fs/disk=2,m+ cpu=67-20:03:+ energy=0,fs/di+ energy=lrdn3684,fs+           fs/disk=2 energy=0,fs/di+ energy=0,fs/di+ 
7261816.13   7261816.13   hydra_bst+             16185244K       lrdn3474              0   4046311K  11044980K   lrdn3474          0   2761245K     3602     lrdn3474              0        900 15-05:58:+   lrdn3508          3 16-16:31:+        4        448   05:45:30  COMPLETED      0:0         1K       Unknown       Unknown       Unknown                         0        0.55M        lrdn3508               3          0.55M        0.16M         lrdn3474                0          0.16M            cpu=448,g+ cpu=16-16:31:+ cpu=17-19:30:+ cpu=lrdn3474,ener+ cpu=0,fs/disk=3,m+ cpu=15-05:58:+ cpu=lrdn3508,ener+ cpu=3,fs/disk=0,m+ cpu=66-18:07:+ energy=0,fs/di+ energy=lrdn3474,fs+           fs/disk=0 energy=0,fs/di+ energy=0,fs/di+ 
7261816.14   7261816.14   hydra_bst+             17800900K       lrdn4080              0   4450225K  12419516K   lrdn4080          0   3104879K     3588     lrdn4080              0        897 13-10:18:+   lrdn4143          3 14-04:39:+        4        448   05:45:30  COMPLETED      0:0         2K       Unknown       Unknown       Unknown                         0        0.55M        lrdn4089               1          0.55M        0.16M         lrdn4080                0          0.16M            cpu=448,g+ cpu=14-04:39:+ cpu=14-22:07:+ cpu=lrdn4080,ener+ cpu=0,fs/disk=1,m+ cpu=13-10:18:+ cpu=lrdn4143,ener+ cpu=3,fs/disk=0,m+ cpu=56-18:39:+ energy=0,fs/di+ energy=lrdn4080,fs+           fs/disk=0 energy=0,fs/di+ energy=0,fs/di+ 
7261816.15   7261816.15   hydra_bst+             15178948K       lrdn3592              0   3794737K  10258968K   lrdn3592          0   2564742K     3633     lrdn3592              0        908 14-02:56:+   lrdn3592          0 14-23:41:+        4        448   05:45:30  COMPLETED      0:0         2K       Unknown       Unknown       Unknown                         0        0.55M        lrdn3603               1          0.55M        0.16M         lrdn3603                1          0.16M            cpu=448,g+ cpu=14-23:41:+ cpu=15-23:49:+ cpu=lrdn3633,ener+ cpu=3,fs/disk=1,m+ cpu=14-02:56:+ cpu=lrdn3592,ener+ cpu=0,fs/disk=3,m+ cpu=59-22:46:+ energy=0,fs/di+ energy=lrdn3603,fs+           fs/disk=1 energy=0,fs/di+ energy=0,fs/di+ 
7261816.16   7261816.16   hydra_bst+             21162732K       lrdn3705              0   5290683K  14728108K   lrdn3705          0   3682027K     3526     lrdn3705              0        881 13-19:53:+   lrdn3755          3 14-13:53:+        4        448   05:45:25  COMPLETED      0:0          0       Unknown       Unknown       Unknown                         0        0.55M        lrdn3705               0          0.55M        0.16M         lrdn3733                1          0.16M            cpu=448,g+ cpu=14-13:53:+ cpu=15-15:13:+ cpu=lrdn3705,ener+ cpu=0,fs/disk=0,m+ cpu=13-19:53:+ cpu=lrdn3755,ener+ cpu=3,fs/disk=2,m+ cpu=58-07:35:+ energy=0,fs/di+ energy=lrdn3733,fs+           fs/disk=1 energy=0,fs/di+ energy=0,fs/di+ 
