{
 "global_section": { "_calls": 1, "_time":      495.750, "_%":   100.00,
   "siesta": { "_calls": 1, "_time":      495.750, "_%":   100.00,
     "Setup": { "_calls": 1, "_time":        0.748, "_%":     0.15,
       "bands": { "_calls": 1, "_time":        0.001, "_%":     0.00},
       "KSV_init": { "_calls": 1, "_time":        0.000, "_%":     0.00}
     },
     "IterGeom": { "_calls": 1, "_time":      494.905, "_%":    99.83,
       "geom_init": { "_calls": 1, "_time":        2.024, "_%":     0.41,
         "state_init": { "_calls": 1, "_time":        0.269, "_%":     0.05,
           "hsparse": { "_calls": 1, "_time":        0.088, "_%":     0.02},
           "overlap": { "_calls": 1, "_time":        0.029, "_%":     0.01}
         },
         "Setup_H0": { "_calls": 1, "_time":        1.754, "_%":     0.35,
           "naefs": { "_calls": 1, "_time":        0.018, "_%":     0.00},
           "MolMec": { "_calls": 1, "_time":        0.000, "_%":     0.00},
           "kinefsm": { "_calls": 1, "_time":        0.026, "_%":     0.01},
           "nlefsm": { "_calls": 1, "_time":        0.066, "_%":     0.01},
           "DHSCF_Init": { "_calls": 1, "_time":        1.633, "_%":     0.33,
             "DHSCF1": { "_calls": 1, "_time":        0.020, "_%":     0.00,
               "INITMESH": { "_calls": 1, "_time":        0.000, "_%":     0.00}
             },
             "DHSCF2": { "_calls": 1, "_time":        1.601, "_%":     0.32,
               "REMESH": { "_calls": 1, "_time":        0.913, "_%":     0.18,
                 "INITMESH": { "_calls": 2, "_time":        0.849, "_%":     0.17,
                   "SPLOAD": { "_calls": 2, "_time":        0.283, "_%":     0.06}
                 }
               },
               "REORD": { "_calls": 2, "_time":        0.002, "_%":     0.00},
               "PHION": { "_calls": 1, "_time":        0.031, "_%":     0.01},
               "COMM_BSC": { "_calls": 1, "_time":        0.019, "_%":     0.00},
               "POISON": { "_calls": 1, "_time":        0.390, "_%":     0.08,
                 "fft": { "_calls": 2, "_time":        0.369, "_%":     0.07}
               }
             }
           }
         }
       },
       "IterSCF": { "_calls": 5, "_time":      492.850, "_%":    99.41,
         "setup_H": { "_calls": 5, "_time":        4.139, "_%":     0.83,
           "DHSCF": { "_calls": 5, "_time":        4.115, "_%":     0.83,
             "DHSCF3": { "_calls": 5, "_time":        4.115, "_%":     0.83,
               "rhoofd": { "_calls": 5, "_time":        0.036, "_%":     0.01},
               "COMM_BSC": { "_calls": 10, "_time":        0.138, "_%":     0.03},
               "POISON": { "_calls": 5, "_time":        1.785, "_%":     0.36,
                 "fft": { "_calls": 10, "_time":        1.667, "_%":     0.34}
               },
               "XC": { "_calls": 5, "_time":        1.887, "_%":     0.38,
                 "COMM_BSC": { "_calls": 10, "_time":        0.133, "_%":     0.03},
                 "GXC-CellXC": { "_calls": 5, "_time":        1.727, "_%":     0.35,
                   "gridxc@cellXC": { "_calls": 5, "_time":        1.727, "_%":     0.35}
                 }
               },
               "vmat": { "_calls": 5, "_time":        0.049, "_%":     0.01}
             }
           }
         },
         "compute_dm": { "_calls": 5, "_time":      488.613, "_%":    98.56,
           "redist_orbs_fwd": { "_calls": 160, "_time":        0.829, "_%":     0.17},
           "elsi-complex-solver": { "_calls": 5, "_time":      487.748, "_%":    98.39,
             "elsi-solver": { "_calls": 5, "_time":      484.853, "_%":    97.80}
           },
           "redist_dm-edm_bck": { "_calls": 5, "_time":        0.011, "_%":     0.00}
         },
         "MIXER": { "_calls": 5, "_time":        0.089, "_%":     0.02}
       },
       "state_analysis": { "_calls": 1, "_time":        0.023, "_%":     0.00},
       "siesta_move": { "_calls": 1, "_time":        0.000, "_%":     0.00}
     },
     "Analysis": { "_calls": 1, "_time":        0.076, "_%":     0.02,
       "optical": { "_calls": 1, "_time":        0.001, "_%":     0.00}
     }
   }
 }}
