JobId=10720807 JobName=submit.job
   UserId=lbellen1(33678) GroupId=interactive(25200) MCS_label=N/A
   Priority=260643 Nice=0 Account=cin_staff QOS=boost_qos_dbg
   JobState=RUNNING Reason=None Dependency=(null)
   Requeue=0 Restarts=0 BatchFlag=1 Reboot=0 ExitCode=0:0
   DerivedExitCode=0:0
   RunTime=00:00:03 TimeLimit=00:30:00 TimeMin=N/A
   SubmitTime=2024-12-28T23:29:11 EligibleTime=2024-12-28T23:29:11
   AccrueTime=2024-12-28T23:29:11
   StartTime=2024-12-28T23:30:16 EndTime=2024-12-29T00:00:17 Deadline=N/A
   SuspendTime=None SecsPreSuspend=0 LastSchedEval=2024-12-28T23:30:16 Scheduler=Main
   Partition=boost_usr_prod AllocNode:Sid=slurm-controller:2394374
   ReqNodeList=(null) ExcNodeList=(null)
   NodeList=lrdn1546
   BatchHost=lrdn1546
   NumNodes=1 NumCPUs=32 NumTasks=1 CPUs/Task=8 ReqB:S:C:T=0:0:*:*
   TRES=cpu=32,mem=492800M,node=1,billing=32,gres/gpu=4
   Socks/Node=* NtasksPerN:B:S:C=1:0:*:* CoreSpec=*
   JOB_GRES=gpu:a100:4
     Nodes=lrdn1546 CPU_IDs=0-31 Mem=492800 GRES=gpu:a100:4(IDX:0-3)
   MinCPUsNode=8 MinMemoryCPU=15400M MinTmpDiskNode=0
   Features=(null) DelayBoot=00:00:00
   OverSubscribe=NO Contiguous=0 Licenses=(null) Network=(null)
   Command=/leonardo_scratch/fast/Max3_devel_2/WP3/qe/mps/phonon/weak-scaling-pw-nomps/logfiles/000000/000009_submit_N1np1/work/submit.job
   WorkDir=/leonardo_scratch/fast/Max3_devel_2/WP3/qe/mps/phonon/weak-scaling-pw-nomps/logfiles/000000/000009_submit_N1np1/work
   StdErr=/leonardo_scratch/fast/Max3_devel_2/WP3/qe/mps/phonon/weak-scaling-pw-nomps/logfiles/000000/000009_submit_N1np1/work/slurm-10720807.out
   StdIn=/dev/null
   StdOut=/leonardo_scratch/fast/Max3_devel_2/WP3/qe/mps/phonon/weak-scaling-pw-nomps/logfiles/000000/000009_submit_N1np1/work/slurm-10720807.out
   Power=
   TresPerNode=gres:gpu:1
   

