       JobID     JobIDRaw    JobName  Partition  MaxVMSize  MaxVMSizeNode  MaxVMSizeTask  AveVMSize     MaxRSS MaxRSSNode MaxRSSTask     AveRSS MaxPages MaxPagesNode   MaxPagesTask   AvePages     MinCPU MinCPUNode MinCPUTask     AveCPU   NTasks  AllocCPUS    Elapsed      State ExitCode AveCPUFreq ReqCPUFreqMin ReqCPUFreqMax ReqCPUFreqGov     ReqMem ConsumedEnergy  MaxDiskRead MaxDiskReadNode MaxDiskReadTask    AveDiskRead MaxDiskWrite MaxDiskWriteNode MaxDiskWriteTask   AveDiskWrite    AllocGRES      ReqGRES    ReqTRES  AllocTRES TRESUsageInAve TRESUsageInMax TRESUsageInMaxNode TRESUsageInMaxTask TRESUsageInMin TRESUsageInMinNode TRESUsageInMinTask TRESUsageInTot TRESUsageOutMax TRESUsageOutMaxNode TRESUsageOutMaxTask TRESUsageOutAve TRESUsageOutTot 
------------ ------------ ---------- ---------- ---------- -------------- -------------- ---------- ---------- ---------- ---------- ---------- -------- ------------ -------------- ---------- ---------- ---------- ---------- ---------- -------- ---------- ---------- ---------- -------- ---------- ------------- ------------- ------------- ---------- -------------- ------------ --------------- --------------- -------------- ------------ ---------------- ---------------- -------------- ------------ ------------ ---------- ---------- -------------- -------------- ------------------ ------------------ -------------- ------------------ ------------------ -------------- --------------- ------------------- ------------------- --------------- --------------- 
248100       248100        CovidWeak         cn                                                                                                                                                                                                             256   00:01:39    RUNNING      0:0                  Unknown       Unknown       Unknown        1Gc                                                                                                                                                                    billing=2+ billing=2+                                                                                                                                                                                                                                 
248100.batch 248100.batch      batch                                                                                                                                                                                                               1        128   00:01:39    RUNNING      0:0          0             0             0             0        1Gc              0                                                                                                                                                                cpu=128,m+                                                                                                                                                                                                                                 
248100.0     248100.0         siesta              1786448K         cn0418              0 1544190448    639864K     cn0419        142  561210624      116       cn0418              0         21   00:01:24     cn0418         31   00:01:30      256        256   00:01:36  COMPLETED      0:0     30.38M       Unknown       Unknown       Unknown        1Gc              0       10.93M          cn0418               0          8.45M       17.56M           cn0418                0          4.16M                                      cpu=256,m+ cpu=00:01:30,+ cpu=00:01:30,+ cpu=cn0419,energy+ cpu=199,fs/disk=0+ cpu=00:01:24,+ cpu=cn0418,energy+ cpu=31,fs/disk=31+ cpu=06:24:56,+ energy=0,fs/di+ energy=cn0419,fs/d+           fs/disk=0 energy=0,fs/di+ energy=0,fs/di+ 
