{
 "global_section": { "_calls": 1, "_time":       90.397, "_%":   100.00,
   "siesta": { "_calls": 1, "_time":       90.397, "_%":   100.00,
     "Setup": { "_calls": 1, "_time":        2.012, "_%":     2.23,
       "bands": { "_calls": 1, "_time":        0.004, "_%":     0.00},
       "KSV_init": { "_calls": 1, "_time":        0.001, "_%":     0.00}
     },
     "IterGeom": { "_calls": 1, "_time":       88.135, "_%":    97.50,
       "geom_init": { "_calls": 1, "_time":       11.985, "_%":    13.26,
         "state_init": { "_calls": 1, "_time":        0.695, "_%":     0.77,
           "hsparse": { "_calls": 1, "_time":        0.174, "_%":     0.19},
           "overlap": { "_calls": 1, "_time":        0.143, "_%":     0.16}
         },
         "Setup_H0": { "_calls": 1, "_time":       11.288, "_%":    12.49,
           "naefs": { "_calls": 1, "_time":        0.030, "_%":     0.03},
           "MolMec": { "_calls": 1, "_time":        0.000, "_%":     0.00},
           "kinefsm": { "_calls": 1, "_time":        0.133, "_%":     0.15},
           "nlefsm": { "_calls": 1, "_time":        0.460, "_%":     0.51},
           "DHSCF_Init": { "_calls": 1, "_time":       10.642, "_%":    11.77,
             "DHSCF1": { "_calls": 1, "_time":        0.071, "_%":     0.08,
               "INITMESH": { "_calls": 1, "_time":        0.000, "_%":     0.00}
             },
             "DHSCF2": { "_calls": 1, "_time":       10.539, "_%":    11.66,
               "REMESH": { "_calls": 1, "_time":        0.464, "_%":     0.51,
                 "INITMESH": { "_calls": 2, "_time":        0.434, "_%":     0.48,
                   "SPLOAD": { "_calls": 2, "_time":        0.386, "_%":     0.43}
                 }
               },
               "REORD": { "_calls": 2, "_time":        0.068, "_%":     0.08},
               "PHION": { "_calls": 1, "_time":        0.328, "_%":     0.36},
               "COMM_BSC": { "_calls": 1, "_time":        0.180, "_%":     0.20},
               "POISON": { "_calls": 1, "_time":        8.666, "_%":     9.59,
                 "fft": { "_calls": 2, "_time":        8.344, "_%":     9.23}
               }
             }
           }
         }
       },
       "IterSCF": { "_calls": 5, "_time":       76.030, "_%":    84.11,
         "setup_H": { "_calls": 5, "_time":       65.178, "_%":    72.10,
           "DHSCF": { "_calls": 5, "_time":       65.100, "_%":    72.02,
             "DHSCF3": { "_calls": 5, "_time":       65.100, "_%":    72.02,
               "rhoofd": { "_calls": 5, "_time":        0.471, "_%":     0.52},
               "COMM_BSC": { "_calls": 10, "_time":        1.767, "_%":     1.95},
               "POISON": { "_calls": 5, "_time":       43.388, "_%":    48.00,
                 "fft": { "_calls": 10, "_time":       41.340, "_%":    45.73}
               },
               "XC": { "_calls": 5, "_time":       14.728, "_%":    16.29,
                 "COMM_BSC": { "_calls": 10, "_time":        2.084, "_%":     2.31},
                 "GXC-CellXC": { "_calls": 5, "_time":       12.018, "_%":    13.29,
                   "gridxc@cellXC": { "_calls": 5, "_time":       12.018, "_%":    13.29}
                 }
               },
               "vmat": { "_calls": 5, "_time":        0.392, "_%":     0.43}
             }
           }
         },
         "compute_dm": { "_calls": 5, "_time":       10.808, "_%":    11.96,
           "elsi": { "_calls": 5, "_time":       10.808, "_%":    11.96,
             "find nnz_g": { "_calls": 5, "_time":        0.000, "_%":     0.00},
             "elsi-solver": { "_calls": 5, "_time":       10.752, "_%":    11.89}
           }
         },
         "MIXER": { "_calls": 5, "_time":        0.009, "_%":     0.01}
       },
       "state_analysis": { "_calls": 1, "_time":        0.086, "_%":     0.09},
       "siesta_move": { "_calls": 1, "_time":        0.000, "_%":     0.00}
     },
     "Analysis": { "_calls": 1, "_time":        0.241, "_%":     0.27,
       "optical": { "_calls": 1, "_time":        0.001, "_%":     0.00}
     }
   }
 }}
