JobID        JobIDRaw        JobName  Partition  MaxVMSize  MaxVMSizeNode  MaxVMSizeTask  AveVMSize     MaxRSS MaxRSSNode MaxRSSTask     AveRSS MaxPages MaxPagesNode   MaxPagesTask   AvePages     MinCPU MinCPUNode MinCPUTask     AveCPU   NTasks  AllocCPUS    Elapsed      State ExitCode AveCPUFreq ReqCPUFreqMin ReqCPUFreqMax ReqCPUFreqGov     ReqMem ConsumedEnergy  MaxDiskRead MaxDiskReadNode MaxDiskReadTask    AveDiskRead MaxDiskWrite MaxDiskWriteNode MaxDiskWriteTask   AveDiskWrite    ReqTRES  AllocTRES TRESUsageInAve TRESUsageInMax TRESUsageInMaxNode TRESUsageInMaxTask TRESUsageInMin TRESUsageInMinNode TRESUsageInMinTask TRESUsageInTot TRESUsageOutMax TRESUsageOutMaxNode TRESUsageOutMaxTask TRESUsageOutAve TRESUsageOutTot 
------------ ------------ ---------- ---------- ---------- -------------- -------------- ---------- ---------- ---------- ---------- ---------- -------- ------------ -------------- ---------- ---------- ---------- ---------- ---------- -------- ---------- ---------- ---------- -------- ---------- ------------- ------------- ------------- ---------- -------------- ------------ --------------- --------------- -------------- ------------ ---------------- ---------------- -------------- ---------- ---------- -------------- -------------- ------------------ ------------------ -------------- ------------------ ------------------ -------------- --------------- ------------------- ------------------- --------------- --------------- 
8340363      8340363      submit.job boost_usr+                                                                                                                                                                                                             128   00:10:23    RUNNING      0:0                  Unknown       Unknown       Unknown      1925G                                                                                                                                          billing=1+ billing=1+                                                                                                                                                                                                                                 
8340363.bat+ 8340363.bat+      batch                                                                                                                                                                                                               1         32   00:10:23    RUNNING      0:0          0             0             0             0                         0                                                                                                                                      cpu=32,gr+                                                                                                                                                                                                                                 
8340363.ext+ 8340363.ext+     extern                                                                                                                                                                                                               4        128   00:10:23    RUNNING      0:0          0             0             0             0                         0                                                                                                                                      billing=1+                                                                                                                                                                                                                                 
8340363.0    8340363.0         orted              8076476K       lrdn1974              0 2756770474   7216380K   lrdn1974          0   2405460K     9504     lrdn1974              0       3168   01:52:24   lrdn2043          2   01:52:53        3         96   00:10:18  COMPLETED      0:0       246K       Unknown       Unknown       Unknown                         0        0.32M        lrdn1979               1          0.32M        0.01M         lrdn1974                0          0.01M            cpu=96,gr+ cpu=01:52:53,+ cpu=01:53:12,+ cpu=lrdn1974,ener+ cpu=0,fs/disk=1,m+ cpu=01:52:24,+ cpu=lrdn2043,ener+ cpu=2,fs/disk=2,m+ cpu=05:38:41,+ energy=0,fs/di+ energy=lrdn1974,fs+           fs/disk=0 energy=0,fs/di+ energy=0,fs/di+ 
