JobId=1424477 JobName=CovidWeak
   UserId=u102010(102010) GroupId=hpcusers(555) MCS_label=N/A
   Priority=270346 Nice=0 Account=p200585 QOS=default
   JobState=RUNNING Reason=None Dependency=(null)
   Requeue=0 Restarts=0 BatchFlag=1 Reboot=0 ExitCode=0:0
   DerivedExitCode=0:0
   RunTime=00:00:11 TimeLimit=00:59:00 TimeMin=N/A
   SubmitTime=2024-10-01T20:39:12 EligibleTime=2024-10-01T20:39:12
   AccrueTime=2024-10-01T20:39:12
   StartTime=2024-10-01T21:50:31 EndTime=2024-10-01T22:49:39 Deadline=N/A
   PreemptEligibleTime=2024-10-01T21:50:31 PreemptTime=None
   SuspendTime=None SecsPreSuspend=0 LastSchedEval=2024-10-01T21:50:31 Scheduler=Backfill
   Partition=gpu AllocNode:Sid=login02.meluxina.lxp.lu:1082248
   ReqNodeList=(null) ExcNodeList=(null)
   NodeList=mel[2027-2028,2087,2160]
   BatchHost=mel2027
   NumNodes=4 NumCPUs=512 NumTasks=128 CPUs/Task=4 ReqB:S:C:T=0:0:*:*
   ReqTRES=cpu=128,mem=1920G,node=4,billing=128,gres/gpu=16
   AllocTRES=cpu=512,mem=1920G,node=4,billing=512,gres/gpu=16,gres/gpun=4
   Socks/Node=* NtasksPerN:B:S:C=32:0:*:* CoreSpec=*
   JOB_GRES=gpuN:4,gpu:16
     Nodes=mel[2027-2028,2087,2160] CPU_IDs=0-127 Mem=491520 GRES=gpuN(CNT:1),gpu:4(IDX:0-3)
   MinCPUsNode=128 MinMemoryNode=0 MinTmpDiskNode=0
   Features=(null) DelayBoot=00:00:00
   OverSubscribe=NO Contiguous=0 Licenses=(null) Network=(null)
   Command=/mnt/tier2/users/u102010/JUBE4MaX-GPU/max-inputs/interface/siesta/_CovidWeak/000000/000002_submit/work/submit.job
   WorkDir=/mnt/tier2/users/u102010/JUBE4MaX-GPU/max-inputs/interface/siesta/_CovidWeak/000000/000002_submit/work
   StdErr=/mnt/tier2/users/u102010/JUBE4MaX-GPU/max-inputs/interface/siesta/_CovidWeak/000000/000002_submit/work/slurm-1424477.out
   StdIn=/dev/null
   StdOut=/mnt/tier2/users/u102010/JUBE4MaX-GPU/max-inputs/interface/siesta/_CovidWeak/000000/000002_submit/work/slurm-1424477.out
   Power=
   TresPerNode=gres/gpu:4
   

