{
 "global_section": { "_calls": 1, "_time":     2019.631, "_%":   100.00,
   "siesta": { "_calls": 1, "_time":     2019.631, "_%":   100.00,
     "Setup": { "_calls": 1, "_time":        2.042, "_%":     0.10,
       "bands": { "_calls": 1, "_time":        0.004, "_%":     0.00},
       "KSV_init": { "_calls": 1, "_time":        0.001, "_%":     0.00}
     },
     "IterGeom": { "_calls": 1, "_time":     2017.367, "_%":    99.89,
       "geom_init": { "_calls": 1, "_time":       22.429, "_%":     1.11,
         "state_init": { "_calls": 1, "_time":        0.579, "_%":     0.03,
           "hsparse": { "_calls": 1, "_time":        0.174, "_%":     0.01},
           "overlap": { "_calls": 1, "_time":        0.110, "_%":     0.01}
         },
         "Setup_H0": { "_calls": 1, "_time":       21.849, "_%":     1.08,
           "naefs": { "_calls": 1, "_time":        0.031, "_%":     0.00},
           "MolMec": { "_calls": 1, "_time":        0.000, "_%":     0.00},
           "kinefsm": { "_calls": 1, "_time":        0.100, "_%":     0.00},
           "nlefsm": { "_calls": 1, "_time":        0.426, "_%":     0.02},
           "DHSCF_Init": { "_calls": 1, "_time":       21.273, "_%":     1.05,
             "DHSCF1": { "_calls": 1, "_time":        0.097, "_%":     0.00,
               "INITMESH": { "_calls": 1, "_time":        0.000, "_%":     0.00}
             },
             "DHSCF2": { "_calls": 1, "_time":       21.142, "_%":     1.05,
               "REMESH": { "_calls": 1, "_time":        0.175, "_%":     0.01,
                 "INITMESH": { "_calls": 2, "_time":        0.135, "_%":     0.01,
                   "SPLOAD": { "_calls": 2, "_time":        0.117, "_%":     0.01}
                 }
               },
               "REORD": { "_calls": 2, "_time":        0.117, "_%":     0.01},
               "PHION": { "_calls": 1, "_time":        0.510, "_%":     0.03},
               "COMM_BSC": { "_calls": 1, "_time":        0.444, "_%":     0.02},
               "POISON": { "_calls": 1, "_time":       18.531, "_%":     0.92,
                 "fft": { "_calls": 2, "_time":       17.685, "_%":     0.88}
               }
             }
           }
         }
       },
       "IterSCF": { "_calls": 5, "_time":     1994.826, "_%":    98.77,
         "setup_H": { "_calls": 5, "_time":      134.964, "_%":     6.68,
           "DHSCF": { "_calls": 5, "_time":      134.874, "_%":     6.68,
             "DHSCF3": { "_calls": 5, "_time":      134.874, "_%":     6.68,
               "rhoofd": { "_calls": 5, "_time":        0.809, "_%":     0.04},
               "COMM_BSC": { "_calls": 10, "_time":        4.175, "_%":     0.21},
               "POISON": { "_calls": 5, "_time":       93.408, "_%":     4.63,
                 "fft": { "_calls": 10, "_time":       89.277, "_%":     4.42}
               },
               "XC": { "_calls": 5, "_time":       28.742, "_%":     1.42,
                 "COMM_BSC": { "_calls": 10, "_time":        4.173, "_%":     0.21},
                 "GXC-CellXC": { "_calls": 5, "_time":       23.276, "_%":     1.15,
                   "gridxc@cellXC": { "_calls": 5, "_time":       23.276, "_%":     1.15}
                 }
               },
               "vmat": { "_calls": 5, "_time":        0.421, "_%":     0.02}
             }
           }
         },
         "compute_dm": { "_calls": 5, "_time":     1859.823, "_%":    92.09,
           "redist_orbs_fwd": { "_calls": 5, "_time":        0.024, "_%":     0.00},
           "elsi-complex-solver": { "_calls": 5, "_time":     1859.582, "_%":    92.08,
             "elsi-solver": { "_calls": 5, "_time":     1859.489, "_%":    92.07}
           },
           "redist_dm-edm_bck": { "_calls": 5, "_time":        0.200, "_%":     0.01}
         },
         "MIXER": { "_calls": 5, "_time":        0.007, "_%":     0.00}
       },
       "state_analysis": { "_calls": 1, "_time":        0.085, "_%":     0.00},
       "siesta_move": { "_calls": 1, "_time":        0.000, "_%":     0.00}
     },
     "Analysis": { "_calls": 1, "_time":        0.215, "_%":     0.01,
       "optical": { "_calls": 1, "_time":        0.001, "_%":     0.00}
     }
   }
 }}
