JobID        JobIDRaw        JobName  Partition  MaxVMSize  MaxVMSizeNode  MaxVMSizeTask  AveVMSize     MaxRSS MaxRSSNode MaxRSSTask     AveRSS MaxPages MaxPagesNode   MaxPagesTask   AvePages     MinCPU MinCPUNode MinCPUTask     AveCPU   NTasks  AllocCPUS    Elapsed      State ExitCode AveCPUFreq ReqCPUFreqMin ReqCPUFreqMax ReqCPUFreqGov     ReqMem ConsumedEnergy  MaxDiskRead MaxDiskReadNode MaxDiskReadTask    AveDiskRead MaxDiskWrite MaxDiskWriteNode MaxDiskWriteTask   AveDiskWrite    ReqTRES  AllocTRES TRESUsageInAve TRESUsageInMax TRESUsageInMaxNode TRESUsageInMaxTask TRESUsageInMin TRESUsageInMinNode TRESUsageInMinTask TRESUsageInTot TRESUsageOutMax TRESUsageOutMaxNode TRESUsageOutMaxTask TRESUsageOutAve TRESUsageOutTot 
------------ ------------ ---------- ---------- ---------- -------------- -------------- ---------- ---------- ---------- ---------- ---------- -------- ------------ -------------- ---------- ---------- ---------- ---------- ---------- -------- ---------- ---------- ---------- -------- ---------- ------------- ------------- ------------- ---------- -------------- ------------ --------------- --------------- -------------- ------------ ---------------- ---------------- -------------- ---------- ---------- -------------- -------------- ------------------ ------------------ -------------- ------------------ ------------------ -------------- --------------- ------------------- ------------------- --------------- --------------- 
5826889      5826889      CovidStro+        acc                                                                                                                                                                                                             160   00:59:07    RUNNING      0:0                  Unknown       Unknown       Unknown    500000M                                                                                                                                          billing=8+ billing=1+                                                                                                                                                                                                                                 
5826889.bat+ 5826889.bat+      batch                                                                                                                                                                                                               1        160   00:59:07    RUNNING      0:0          0             0             0             0                         0                                                                                                                                      cpu=160,g+                                                                                                                                                                                                                                 
5826889.ext+ 5826889.ext+     extern                                                                                                                                                                                                               1        160   00:59:07    RUNNING      0:0          0             0             0             0                         0                                                                                                                                      billing=1+                                                                                                                                                                                                                                 
5826889.0    5826889.0    marenostr+             40989612K      as02r5b29             35  40257345K   3440091K  as02r5b29         56 3317207616       24    as02r5b29             11          4   00:56:37  as02r5b29         79   00:57:47       80        160   00:59:00  COMPLETED      0:0     97.77M       Unknown       Unknown       Unknown                         0       43.84M       as02r5b29               0         42.66M       20.05M        as02r5b29                0          5.26M            cpu=160,g+ cpu=00:57:47,+ cpu=00:57:57,+ cpu=as02r5b29,ene+ cpu=42,fs/disk=0,+ cpu=00:56:37,+ cpu=as02r5b29,ene+ cpu=79,fs/disk=72+ cpu=3-05:03:1+ energy=0,fs/di+ energy=as02r5b29,f+           fs/disk=0 energy=0,fs/di+ energy=0,fs/di+ 
