JobID        JobIDRaw        JobName  Partition  MaxVMSize  MaxVMSizeNode  MaxVMSizeTask  AveVMSize     MaxRSS MaxRSSNode MaxRSSTask     AveRSS MaxPages MaxPagesNode   MaxPagesTask   AvePages     MinCPU MinCPUNode MinCPUTask     AveCPU   NTasks  AllocCPUS    Elapsed      State ExitCode AveCPUFreq ReqCPUFreqMin ReqCPUFreqMax ReqCPUFreqGov     ReqMem ConsumedEnergy  MaxDiskRead MaxDiskReadNode MaxDiskReadTask    AveDiskRead MaxDiskWrite MaxDiskWriteNode MaxDiskWriteTask   AveDiskWrite    ReqTRES  AllocTRES TRESUsageInAve TRESUsageInMax TRESUsageInMaxNode TRESUsageInMaxTask TRESUsageInMin TRESUsageInMinNode TRESUsageInMinTask TRESUsageInTot TRESUsageOutMax TRESUsageOutMaxNode TRESUsageOutMaxTask TRESUsageOutAve TRESUsageOutTot 
------------ ------------ ---------- ---------- ---------- -------------- -------------- ---------- ---------- ---------- ---------- ---------- -------- ------------ -------------- ---------- ---------- ---------- ---------- ---------- -------- ---------- ---------- ---------- -------- ---------- ------------- ------------- ------------- ---------- -------------- ------------ --------------- --------------- -------------- ------------ ---------------- ---------------- -------------- ---------- ---------- -------------- -------------- ------------------ ------------------ -------------- ------------------ ------------------ -------------- --------------- ------------------- ------------------- --------------- --------------- 
7668680      7668680      submit.job boost_usr+                                                                                                                                                                                                             128   00:27:57    RUNNING      0:0                  Unknown       Unknown       Unknown      1925G                                                                                                                                          billing=1+ billing=1+                                                                                                                                                                                                                                 
7668680.bat+ 7668680.bat+      batch                                                                                                                                                                                                               1         32   00:27:57    RUNNING      0:0          0             0             0             0                         0                                                                                                                                      cpu=32,gr+                                                                                                                                                                                                                                 
7668680.ext+ 7668680.ext+     extern                                                                                                                                                                                                               4        128   00:27:57    RUNNING      0:0          0             0             0             0                         0                                                                                                                                      billing=1+                                                                                                                                                                                                                                 
7668680.0    7668680.0    leonardo-+              3881012K       lrdn2916              0  984072736   3822900K   lrdn2916          6  970704832      637     lrdn2916              8         81   00:27:14   lrdn2917         32   00:27:30      128        128   00:27:52  COMPLETED      0:0     37.03M       Unknown       Unknown       Unknown                         0        2.30M        lrdn2916               0          1.36M       19.95M         lrdn2916                0          5.24M            cpu=128,g+ cpu=00:27:30,+ cpu=00:27:36,+ cpu=lrdn2923,ener+ cpu=105,fs/disk=0+ cpu=00:27:14,+ cpu=lrdn2917,ener+ cpu=32,fs/disk=11+ cpu=2-10:40:5+ energy=0,fs/di+ energy=lrdn2923,fs+           fs/disk=0 energy=0,fs/di+ energy=0,fs/di+ 
