{
 "global_section": { "_calls": 1, "_time":     1664.072, "_%":   100.00,
   "siesta": { "_calls": 1, "_time":     1664.072, "_%":   100.00,
     "Setup": { "_calls": 1, "_time":        1.054, "_%":     0.06,
       "bands": { "_calls": 1, "_time":        0.003, "_%":     0.00},
       "KSV_init": { "_calls": 1, "_time":        0.001, "_%":     0.00}
     },
     "IterGeom": { "_calls": 1, "_time":     1654.510, "_%":    99.43,
       "geom_init": { "_calls": 1, "_time":       16.142, "_%":     0.97,
         "state_init": { "_calls": 1, "_time":        2.466, "_%":     0.15,
           "hsparse": { "_calls": 1, "_time":        0.121, "_%":     0.01},
           "overlap": { "_calls": 1, "_time":        1.557, "_%":     0.09}
         },
         "Setup_H0": { "_calls": 1, "_time":       13.674, "_%":     0.82,
           "naefs": { "_calls": 1, "_time":        0.016, "_%":     0.00},
           "MolMec": { "_calls": 1, "_time":        0.000, "_%":     0.00},
           "kinefsm": { "_calls": 1, "_time":        1.529, "_%":     0.09},
           "nlefsm": { "_calls": 1, "_time":        4.450, "_%":     0.27},
           "DHSCF_Init": { "_calls": 1, "_time":        7.669, "_%":     0.46,
             "DHSCF1": { "_calls": 1, "_time":        0.043, "_%":     0.00,
               "INITMESH": { "_calls": 1, "_time":        0.000, "_%":     0.00}
             },
             "DHSCF2": { "_calls": 1, "_time":        7.611, "_%":     0.46,
               "REMESH": { "_calls": 1, "_time":        1.236, "_%":     0.07,
                 "INITMESH": { "_calls": 2, "_time":        1.194, "_%":     0.07,
                   "SPLOAD": { "_calls": 2, "_time":        1.184, "_%":     0.07}
                 }
               },
               "REORD": { "_calls": 2, "_time":        0.030, "_%":     0.00},
               "PHION": { "_calls": 1, "_time":        0.832, "_%":     0.05},
               "COMM_BSC": { "_calls": 1, "_time":        0.146, "_%":     0.01},
               "POISON": { "_calls": 1, "_time":        4.761, "_%":     0.29,
                 "fft": { "_calls": 2, "_time":        4.550, "_%":     0.27}
               }
             }
           }
         }
       },
       "IterSCF": { "_calls": 5, "_time":     1638.061, "_%":    98.44,
         "setup_H": { "_calls": 5, "_time":       42.359, "_%":     2.55,
           "DHSCF": { "_calls": 5, "_time":       42.140, "_%":     2.53,
             "DHSCF3": { "_calls": 5, "_time":       42.140, "_%":     2.53,
               "rhoofd": { "_calls": 5, "_time":        0.574, "_%":     0.03},
               "COMM_BSC": { "_calls": 10, "_time":        1.440, "_%":     0.09},
               "POISON": { "_calls": 5, "_time":       23.419, "_%":     1.41,
                 "fft": { "_calls": 10, "_time":       22.358, "_%":     1.34}
               },
               "XC": { "_calls": 5, "_time":       13.926, "_%":     0.84,
                 "COMM_BSC": { "_calls": 10, "_time":        1.513, "_%":     0.09},
                 "GXC-CellXC": { "_calls": 5, "_time":       11.988, "_%":     0.72,
                   "gridxc@cellXC": { "_calls": 5, "_time":       11.988, "_%":     0.72}
                 }
               },
               "vmat": { "_calls": 5, "_time":        0.651, "_%":     0.04}
             }
           }
         },
         "compute_dm": { "_calls": 5, "_time":     1595.640, "_%":    95.89,
           "elsi": { "_calls": 5, "_time":     1595.257, "_%":    95.86,
             "find nnz_g": { "_calls": 5, "_time":        0.000, "_%":     0.00},
             "elsi-solver": { "_calls": 5, "_time":     1595.236, "_%":    95.86}
           }
         },
         "MIXER": { "_calls": 5, "_time":        0.007, "_%":     0.00}
       },
       "state_analysis": { "_calls": 1, "_time":        0.041, "_%":     0.00},
       "siesta_move": { "_calls": 1, "_time":        0.000, "_%":     0.00}
     },
     "Analysis": { "_calls": 1, "_time":        8.501, "_%":     0.51,
       "optical": { "_calls": 1, "_time":        0.001, "_%":     0.00}
     }
   }
 }}
