JobID        JobIDRaw        JobName  Partition  MaxVMSize  MaxVMSizeNode  MaxVMSizeTask  AveVMSize     MaxRSS MaxRSSNode MaxRSSTask     AveRSS MaxPages MaxPagesNode   MaxPagesTask   AvePages     MinCPU MinCPUNode MinCPUTask     AveCPU   NTasks  AllocCPUS    Elapsed      State ExitCode AveCPUFreq ReqCPUFreqMin ReqCPUFreqMax ReqCPUFreqGov     ReqMem ConsumedEnergy  MaxDiskRead MaxDiskReadNode MaxDiskReadTask    AveDiskRead MaxDiskWrite MaxDiskWriteNode MaxDiskWriteTask   AveDiskWrite    ReqTRES  AllocTRES TRESUsageInAve TRESUsageInMax TRESUsageInMaxNode TRESUsageInMaxTask TRESUsageInMin TRESUsageInMinNode TRESUsageInMinTask TRESUsageInTot TRESUsageOutMax TRESUsageOutMaxNode TRESUsageOutMaxTask TRESUsageOutAve TRESUsageOutTot 
------------ ------------ ---------- ---------- ---------- -------------- -------------- ---------- ---------- ---------- ---------- ---------- -------- ------------ -------------- ---------- ---------- ---------- ---------- ---------- -------- ---------- ---------- ---------- -------- ---------- ------------- ------------- ------------- ---------- -------------- ------------ --------------- --------------- -------------- ------------ ---------------- ---------------- -------------- ---------- ---------- -------------- -------------- ------------------ ------------------ -------------- ------------------ ------------------ -------------- --------------- ------------------- ------------------- --------------- --------------- 
34389174     34389174     CovidStro+        cpu                                                                                                                                                                                                            1024   00:48:11    RUNNING      0:0                  Unknown       Unknown       Unknown       500G                                                                                                                                          billing=5+ billing=1+                                                                                                                                                                                                                                 
34389174.ba+ 34389174.ba+      batch                                                                                                                                                                                                               1        256   00:48:11    RUNNING      0:0          0             0             0             0                         0                                                                                                                                      cpu=256,m+                                                                                                                                                                                                                                 
34389174.ex+ 34389174.ex+     extern                                                                                                                                                                                                               4       1024   00:48:11    RUNNING      0:0          0             0             0             0                         0                                                                                                                                      billing=1+                                                                                                                                                                                                                                 
34389174.0   34389174.0       siesta               574640K         cn0864            388  490167600    565556K     cn0864        388  479742608       94       cn0863            349         18   00:43:16     cn0860         80   00:43:40      512       1024   00:48:07  COMPLETED      0:0    101.60M       Unknown       Unknown       Unknown                         0       28.20M          cn0860               0         27.04M       20.05M           cn0860                0          5.20M            cpu=1024,+ cpu=00:43:40,+ cpu=00:44:14,+ cpu=cn0864,energy+ cpu=445,fs/disk=0+ cpu=00:43:16,+ cpu=cn0860,energy+ cpu=80,fs/disk=6,+ cpu=15-12:43:+ energy=0,fs/di+ energy=cn0863,fs/d+           fs/disk=0 energy=0,fs/di+ energy=0,fs/di+ 
