JobID        JobIDRaw        JobName  Partition  MaxVMSize  MaxVMSizeNode  MaxVMSizeTask  AveVMSize     MaxRSS MaxRSSNode MaxRSSTask     AveRSS MaxPages MaxPagesNode   MaxPagesTask   AvePages     MinCPU MinCPUNode MinCPUTask     AveCPU   NTasks  AllocCPUS    Elapsed      State ExitCode AveCPUFreq ReqCPUFreqMin ReqCPUFreqMax ReqCPUFreqGov     ReqMem ConsumedEnergy  MaxDiskRead MaxDiskReadNode MaxDiskReadTask    AveDiskRead MaxDiskWrite MaxDiskWriteNode MaxDiskWriteTask   AveDiskWrite    ReqTRES  AllocTRES TRESUsageInAve TRESUsageInMax TRESUsageInMaxNode TRESUsageInMaxTask TRESUsageInMin TRESUsageInMinNode TRESUsageInMinTask TRESUsageInTot TRESUsageOutMax TRESUsageOutMaxNode TRESUsageOutMaxTask TRESUsageOutAve TRESUsageOutTot 
------------ ------------ ---------- ---------- ---------- -------------- -------------- ---------- ---------- ---------- ---------- ---------- -------- ------------ -------------- ---------- ---------- ---------- ---------- ---------- -------- ---------- ---------- ---------- -------- ---------- ------------- ------------- ------------- ---------- -------------- ------------ --------------- --------------- -------------- ------------ ---------------- ---------------- -------------- ---------- ---------- -------------- -------------- ------------------ ------------------ -------------- ------------------ ------------------ -------------- --------------- ------------------- ------------------- --------------- --------------- 
7210396      7210396      submit.job dcgp_usr_+                                                                                                                                                                                                            1792   00:20:44    RUNNING      0:0                  Unknown       Unknown       Unknown      7700G                                                                                                                                          billing=1+ billing=1+                                                                                                                                                                                                                                 
7210396.bat+ 7210396.bat+      batch                                                                                                                                                                                                               1        112   00:20:44    RUNNING      0:0          0             0             0             0                         0                                                                                                                                      cpu=112,g+                                                                                                                                                                                                                                 
7210396.ext+ 7210396.ext+     extern                                                                                                                                                                                                              16       1792   00:20:44    RUNNING      0:0          0             0             0             0                         0                                                                                                                                      billing=1+                                                                                                                                                                                                                                 
7210396.0    7210396.0    hydra_bst+             16623216K       lrdn3499              0   1038951K  14361820K   lrdn3499          0  919156480     4128     lrdn3499              0        258   20:28:27   lrdn3907         15 1-02:47:46       16       1792   00:20:40  COMPLETED      0:0       405K       Unknown       Unknown       Unknown                         0        0.42M        lrdn3907              15          0.42M        0.04M         lrdn3882               14          0.04M            cpu=1792,+ cpu=1-02:47:4+ cpu=1-09:07:3+ cpu=lrdn3757,ener+ cpu=11,fs/disk=15+ cpu=20:28:27,+ cpu=lrdn3907,ener+ cpu=15,fs/disk=0,+ cpu=17-20:44:+ energy=0,fs/di+ energy=lrdn3882,fs+          fs/disk=14 energy=0,fs/di+ energy=0,fs/di+ 
