JobId=7682237 JobName=submit.job
   UserId=fpedron0(126159) GroupId=interactive(25200) MCS_label=N/A
   Priority=120942 Nice=0 Account=euhpc_b13_053_0 QOS=normal
   JobState=RUNNING Reason=None Dependency=(null)
   Requeue=0 Restarts=0 BatchFlag=1 Reboot=0 ExitCode=0:0
   DerivedExitCode=0:0
   RunTime=00:00:03 TimeLimit=1-00:00:00 TimeMin=N/A
   SubmitTime=2024-09-13T15:52:32 EligibleTime=2024-09-13T15:52:32
   AccrueTime=2024-09-13T15:52:32
   StartTime=2024-09-13T15:53:58 EndTime=2024-09-14T15:53:58 Deadline=N/A
   SuspendTime=None SecsPreSuspend=0 LastSchedEval=2024-09-13T15:53:58 Scheduler=Main
   Partition=dcgp_usr_prod AllocNode:Sid=slurm-controller:3895506
   ReqNodeList=(null) ExcNodeList=(null)
   NodeList=lrdn4202
   BatchHost=lrdn4202
   NumNodes=1 NumCPUs=112 NumTasks=112 CPUs/Task=1 ReqB:S:C:T=0:0:*:*
   TRES=cpu=112,mem=492800M,node=1,billing=112,gres/tmpfs=3298534883328
   Socks/Node=* NtasksPerN:B:S:C=112:0:*:* CoreSpec=*
   JOB_GRES=tmpfs:3298534883328
     Nodes=lrdn4202 CPU_IDs=0-111 Mem=492800 GRES=tmpfs(CNT:3298534883328)
   MinCPUsNode=112 MinMemoryCPU=4400M MinTmpDiskNode=0
   Features=(null) DelayBoot=00:00:00
   OverSubscribe=NO Contiguous=0 Licenses=(null) Network=(null)
   Command=/leonardo/home/userexternal/fpedron0/JUBE4MaX/max-inputs/interface/siesta/_CovidWeakKPoints/000000/000005_submit/work/submit.job
   WorkDir=/leonardo/home/userexternal/fpedron0/JUBE4MaX/max-inputs/interface/siesta/_CovidWeakKPoints/000000/000005_submit/work
   StdErr=/leonardo/home/userexternal/fpedron0/JUBE4MaX/max-inputs/interface/siesta/_CovidWeakKPoints/000000/000005_submit/work/slurm-7682237.out
   StdIn=/dev/null
   StdOut=/leonardo/home/userexternal/fpedron0/JUBE4MaX/max-inputs/interface/siesta/_CovidWeakKPoints/000000/000005_submit/work/slurm-7682237.out
   Power=
   TresPerNode=gres:tmpfs:10g
   

