{
 "global_section": { "_calls": 1, "_time":      933.066, "_%":   100.00,
   "siesta": { "_calls": 1, "_time":      933.066, "_%":   100.00,
     "Setup": { "_calls": 1, "_time":        1.365, "_%":     0.15,
       "bands": { "_calls": 1, "_time":        0.003, "_%":     0.00},
       "KSV_init": { "_calls": 1, "_time":        0.001, "_%":     0.00}
     },
     "IterGeom": { "_calls": 1, "_time":      931.536, "_%":    99.84,
       "geom_init": { "_calls": 1, "_time":        3.484, "_%":     0.37,
         "state_init": { "_calls": 1, "_time":        0.521, "_%":     0.06,
           "hsparse": { "_calls": 1, "_time":        0.127, "_%":     0.01},
           "overlap": { "_calls": 1, "_time":        0.047, "_%":     0.00}
         },
         "Setup_H0": { "_calls": 1, "_time":        2.961, "_%":     0.32,
           "naefs": { "_calls": 1, "_time":        0.024, "_%":     0.00},
           "MolMec": { "_calls": 1, "_time":        0.000, "_%":     0.00},
           "kinefsm": { "_calls": 1, "_time":        0.041, "_%":     0.00},
           "nlefsm": { "_calls": 1, "_time":        0.153, "_%":     0.02},
           "DHSCF_Init": { "_calls": 1, "_time":        2.729, "_%":     0.29,
             "DHSCF1": { "_calls": 1, "_time":        0.046, "_%":     0.00,
               "INITMESH": { "_calls": 1, "_time":        0.000, "_%":     0.00}
             },
             "DHSCF2": { "_calls": 1, "_time":        2.663, "_%":     0.29,
               "REMESH": { "_calls": 1, "_time":        1.212, "_%":     0.13,
                 "INITMESH": { "_calls": 2, "_time":        1.092, "_%":     0.12,
                   "SPLOAD": { "_calls": 2, "_time":        0.388, "_%":     0.04}
                 }
               },
               "REORD": { "_calls": 2, "_time":        0.006, "_%":     0.00},
               "PHION": { "_calls": 1, "_time":        0.038, "_%":     0.00},
               "COMM_BSC": { "_calls": 1, "_time":        0.029, "_%":     0.00},
               "POISON": { "_calls": 1, "_time":        1.039, "_%":     0.11,
                 "fft": { "_calls": 2, "_time":        0.994, "_%":     0.11}
               }
             }
           }
         }
       },
       "IterSCF": { "_calls": 5, "_time":      927.840, "_%":    99.44,
         "setup_H": { "_calls": 5, "_time":        9.388, "_%":     1.01,
           "DHSCF": { "_calls": 5, "_time":        9.331, "_%":     1.00,
             "DHSCF3": { "_calls": 5, "_time":        9.331, "_%":     1.00,
               "rhoofd": { "_calls": 5, "_time":        0.299, "_%":     0.03},
               "COMM_BSC": { "_calls": 10, "_time":        0.517, "_%":     0.06},
               "POISON": { "_calls": 5, "_time":        4.914, "_%":     0.53,
                 "fft": { "_calls": 10, "_time":        4.689, "_%":     0.50}
               },
               "XC": { "_calls": 5, "_time":        2.869, "_%":     0.31,
                 "COMM_BSC": { "_calls": 10, "_time":        0.293, "_%":     0.03},
                 "GXC-CellXC": { "_calls": 5, "_time":        2.533, "_%":     0.27,
                   "gridxc@cellXC": { "_calls": 5, "_time":        2.533, "_%":     0.27}
                 }
               },
               "vmat": { "_calls": 5, "_time":        0.139, "_%":     0.01}
             }
           }
         },
         "compute_dm": { "_calls": 5, "_time":      917.993, "_%":    98.38,
           "redist_orbs_fwd": { "_calls": 40, "_time":        4.108, "_%":     0.44},
           "elsi-complex-solver": { "_calls": 5, "_time":      913.010, "_%":    97.85,
             "elsi-solver": { "_calls": 5, "_time":      912.965, "_%":    97.85}
           },
           "redist_dm-edm_bck": { "_calls": 5, "_time":        0.519, "_%":     0.06}
         },
         "MIXER": { "_calls": 5, "_time":        0.215, "_%":     0.02}
       },
       "state_analysis": { "_calls": 1, "_time":        0.054, "_%":     0.01},
       "siesta_move": { "_calls": 1, "_time":        0.000, "_%":     0.00}
     },
     "Analysis": { "_calls": 1, "_time":        0.145, "_%":     0.02,
       "optical": { "_calls": 1, "_time":        0.001, "_%":     0.00}
     }
   }
 }}
