JobID        JobIDRaw        JobName  Partition  MaxVMSize  MaxVMSizeNode  MaxVMSizeTask  AveVMSize     MaxRSS MaxRSSNode MaxRSSTask     AveRSS MaxPages MaxPagesNode   MaxPagesTask   AvePages     MinCPU MinCPUNode MinCPUTask     AveCPU   NTasks  AllocCPUS    Elapsed      State ExitCode AveCPUFreq ReqCPUFreqMin ReqCPUFreqMax ReqCPUFreqGov     ReqMem ConsumedEnergy  MaxDiskRead MaxDiskReadNode MaxDiskReadTask    AveDiskRead MaxDiskWrite MaxDiskWriteNode MaxDiskWriteTask   AveDiskWrite    ReqTRES  AllocTRES TRESUsageInAve TRESUsageInMax TRESUsageInMaxNode TRESUsageInMaxTask TRESUsageInMin TRESUsageInMinNode TRESUsageInMinTask TRESUsageInTot TRESUsageOutMax TRESUsageOutMaxNode TRESUsageOutMaxTask TRESUsageOutAve TRESUsageOutTot 
------------ ------------ ---------- ---------- ---------- -------------- -------------- ---------- ---------- ---------- ---------- ---------- -------- ------------ -------------- ---------- ---------- ---------- ---------- ---------- -------- ---------- ---------- ---------- -------- ---------- ------------- ------------- ------------- ---------- -------------- ------------ --------------- --------------- -------------- ------------ ---------------- ---------------- -------------- ---------- ---------- -------------- -------------- ------------------ ------------------ -------------- ------------------ ------------------ -------------- --------------- ------------------- ------------------- --------------- --------------- 
1590674      1590674      CovidWeak+       qcpu                                                                                                                                                                                                            1024   00:17:44    RUNNING      0:0                  Unknown       Unknown       Unknown      1840G                                                                                                                                          billing=8+ billing=8+                                                                                                                                                                                                                                 
1590674.bat+ 1590674.bat+      batch                                                                                                                                                                                                               1        128   00:17:44    RUNNING      0:0          0             0             0             0                         0                                                                                                                                      cpu=128,m+                                                                                                                                                                                                                                 
1590674.ext+ 1590674.ext+     extern                                                                                                                                                                                                               8       1024   00:17:44    RUNNING      0:0          0             0             0             0                         0                                                                                                                                      billing=8+                                                                                                                                                                                                                                 
1590674.0    1590674.0        siesta               647348K          cn226              0  571626928    581132K      cn226          0  533408000       86        cn457           1016         42   00:17:15      cn226          0   00:17:21     1024       1024   00:17:39  COMPLETED      0:0      2.12G       Unknown       Unknown       Unknown                         0       14.94M           cn226               0         13.72M       16.12M            cn226                0          4.14M            cpu=1024,+ cpu=00:17:21,+ cpu=00:17:22,+ cpu=cn455,energy=+ cpu=723,fs/disk=0+ cpu=00:17:15,+ cpu=cn226,energy=+ cpu=0,fs/disk=639+ cpu=12-08:13:+ energy=0,fs/di+ energy=cn274,fs/di+           fs/disk=0 energy=0,fs/di+ energy=0,fs/di+ 
