{
 "global_section": { "_calls": 1, "_time":     1045.406, "_%":   100.00,
   "siesta": { "_calls": 1, "_time":     1045.406, "_%":   100.00,
     "Setup": { "_calls": 1, "_time":        2.530, "_%":     0.24,
       "bands": { "_calls": 1, "_time":        0.003, "_%":     0.00},
       "KSV_init": { "_calls": 1, "_time":        0.001, "_%":     0.00}
     },
     "IterGeom": { "_calls": 1, "_time":     1042.471, "_%":    99.72,
       "geom_init": { "_calls": 1, "_time":        4.882, "_%":     0.47,
         "state_init": { "_calls": 1, "_time":        0.735, "_%":     0.07,
           "hsparse": { "_calls": 1, "_time":        0.186, "_%":     0.02},
           "overlap": { "_calls": 1, "_time":        0.065, "_%":     0.01}
         },
         "Setup_H0": { "_calls": 1, "_time":        4.146, "_%":     0.40,
           "naefs": { "_calls": 1, "_time":        0.031, "_%":     0.00},
           "MolMec": { "_calls": 1, "_time":        0.000, "_%":     0.00},
           "kinefsm": { "_calls": 1, "_time":        0.060, "_%":     0.01},
           "nlefsm": { "_calls": 1, "_time":        0.231, "_%":     0.02},
           "DHSCF_Init": { "_calls": 1, "_time":        3.803, "_%":     0.36,
             "DHSCF1": { "_calls": 1, "_time":        0.063, "_%":     0.01,
               "INITMESH": { "_calls": 1, "_time":        0.000, "_%":     0.00}
             },
             "DHSCF2": { "_calls": 1, "_time":        3.714, "_%":     0.36,
               "REMESH": { "_calls": 1, "_time":        1.897, "_%":     0.18,
                 "INITMESH": { "_calls": 2, "_time":        1.717, "_%":     0.16,
                   "SPLOAD": { "_calls": 2, "_time":        0.481, "_%":     0.05}
                 }
               },
               "REORD": { "_calls": 2, "_time":        0.002, "_%":     0.00},
               "PHION": { "_calls": 1, "_time":        0.055, "_%":     0.01},
               "COMM_BSC": { "_calls": 1, "_time":        0.108, "_%":     0.01},
               "POISON": { "_calls": 1, "_time":        1.158, "_%":     0.11,
                 "fft": { "_calls": 2, "_time":        1.120, "_%":     0.11}
               }
             }
           }
         }
       },
       "IterSCF": { "_calls": 5, "_time":     1037.408, "_%":    99.23,
         "setup_H": { "_calls": 5, "_time":       10.974, "_%":     1.05,
           "DHSCF": { "_calls": 5, "_time":       10.967, "_%":     1.05,
             "DHSCF3": { "_calls": 5, "_time":       10.967, "_%":     1.05,
               "rhoofd": { "_calls": 5, "_time":        0.072, "_%":     0.01},
               "COMM_BSC": { "_calls": 10, "_time":        0.768, "_%":     0.07},
               "POISON": { "_calls": 5, "_time":        5.446, "_%":     0.52,
                 "fft": { "_calls": 10, "_time":        5.195, "_%":     0.50}
               },
               "XC": { "_calls": 5, "_time":        3.873, "_%":     0.37,
                 "COMM_BSC": { "_calls": 10, "_time":        0.708, "_%":     0.07},
                 "GXC-CellXC": { "_calls": 5, "_time":        3.107, "_%":     0.30,
                   "gridxc@cellXC": { "_calls": 5, "_time":        3.107, "_%":     0.30}
                 }
               },
               "vmat": { "_calls": 5, "_time":        0.270, "_%":     0.03}
             }
           }
         },
         "compute_dm": { "_calls": 5, "_time":     1026.402, "_%":    98.18,
           "redist_orbs_fwd": { "_calls": 40, "_time":        5.422, "_%":     0.52},
           "elsi-complex-solver": { "_calls": 5, "_time":     1020.703, "_%":    97.64,
             "elsi-solver": { "_calls": 5, "_time":     1020.418, "_%":    97.61}
           },
           "redist_dm-edm_bck": { "_calls": 5, "_time":        0.245, "_%":     0.02}
         },
         "MIXER": { "_calls": 5, "_time":        0.009, "_%":     0.00}
       },
       "state_analysis": { "_calls": 1, "_time":        0.107, "_%":     0.01},
       "siesta_move": { "_calls": 1, "_time":        0.000, "_%":     0.00}
     },
     "Analysis": { "_calls": 1, "_time":        0.293, "_%":     0.03,
       "optical": { "_calls": 1, "_time":        0.001, "_%":     0.00}
     }
   }
 }}
