{
 "global_section": { "_calls": 1, "_time":     2864.245, "_%":   100.00,
   "siesta": { "_calls": 1, "_time":     2864.245, "_%":   100.00,
     "Setup": { "_calls": 1, "_time":        0.746, "_%":     0.03,
       "bands": { "_calls": 1, "_time":        0.001, "_%":     0.00},
       "KSV_init": { "_calls": 1, "_time":        0.000, "_%":     0.00}
     },
     "IterGeom": { "_calls": 1, "_time":     2863.370, "_%":    99.97,
       "geom_init": { "_calls": 1, "_time":        7.763, "_%":     0.27,
         "state_init": { "_calls": 1, "_time":        0.991, "_%":     0.03,
           "hsparse": { "_calls": 1, "_time":        0.114, "_%":     0.00},
           "overlap": { "_calls": 1, "_time":        0.638, "_%":     0.02}
         },
         "Setup_H0": { "_calls": 1, "_time":        6.771, "_%":     0.24,
           "naefs": { "_calls": 1, "_time":        0.019, "_%":     0.00},
           "MolMec": { "_calls": 1, "_time":        0.000, "_%":     0.00},
           "kinefsm": { "_calls": 1, "_time":        0.639, "_%":     0.02},
           "nlefsm": { "_calls": 1, "_time":        0.879, "_%":     0.03},
           "DHSCF_Init": { "_calls": 1, "_time":        5.223, "_%":     0.18,
             "DHSCF1": { "_calls": 1, "_time":        0.017, "_%":     0.00,
               "INITMESH": { "_calls": 1, "_time":        0.000, "_%":     0.00}
             },
             "DHSCF2": { "_calls": 1, "_time":        5.183, "_%":     0.18,
               "REMESH": { "_calls": 1, "_time":        0.047, "_%":     0.00,
                 "INITMESH": { "_calls": 2, "_time":        0.015, "_%":     0.00,
                   "SPLOAD": { "_calls": 2, "_time":        0.014, "_%":     0.00}
                 }
               },
               "REORD": { "_calls": 2, "_time":        0.015, "_%":     0.00},
               "PHION": { "_calls": 1, "_time":        0.835, "_%":     0.03},
               "COMM_BSC": { "_calls": 1, "_time":        0.113, "_%":     0.00},
               "POISON": { "_calls": 1, "_time":        3.684, "_%":     0.13,
                 "fft": { "_calls": 2, "_time":        3.508, "_%":     0.12}
               }
             }
           }
         }
       },
       "IterSCF": { "_calls": 5, "_time":     2855.520, "_%":    99.70,
         "setup_H": { "_calls": 5, "_time":       35.757, "_%":     1.25,
           "DHSCF": { "_calls": 5, "_time":       35.669, "_%":     1.25,
             "DHSCF3": { "_calls": 5, "_time":       35.669, "_%":     1.25,
               "rhoofd": { "_calls": 5, "_time":        0.540, "_%":     0.02},
               "COMM_BSC": { "_calls": 10, "_time":        1.296, "_%":     0.05},
               "POISON": { "_calls": 5, "_time":       17.757, "_%":     0.62,
                 "fft": { "_calls": 10, "_time":       16.804, "_%":     0.59}
               },
               "XC": { "_calls": 5, "_time":       13.817, "_%":     0.48,
                 "COMM_BSC": { "_calls": 10, "_time":        1.647, "_%":     0.06},
                 "GXC-CellXC": { "_calls": 5, "_time":       12.064, "_%":     0.42,
                   "gridxc@cellXC": { "_calls": 5, "_time":       12.064, "_%":     0.42}
                 }
               },
               "vmat": { "_calls": 5, "_time":        0.805, "_%":     0.03}
             }
           }
         },
         "compute_dm": { "_calls": 5, "_time":     2819.646, "_%":    98.44,
           "elsi": { "_calls": 5, "_time":     2819.629, "_%":    98.44,
             "find nnz_g": { "_calls": 5, "_time":        0.000, "_%":     0.00},
             "elsi-solver": { "_calls": 5, "_time":     2819.618, "_%":    98.44}
           }
         },
         "MIXER": { "_calls": 5, "_time":        0.102, "_%":     0.00}
       },
       "state_analysis": { "_calls": 1, "_time":        0.024, "_%":     0.00},
       "siesta_move": { "_calls": 1, "_time":        0.000, "_%":     0.00}
     },
     "Analysis": { "_calls": 1, "_time":        0.088, "_%":     0.00,
       "optical": { "_calls": 1, "_time":        0.001, "_%":     0.00}
     }
   }
 }}
