JobID        JobIDRaw        JobName  Partition  MaxVMSize  MaxVMSizeNode  MaxVMSizeTask  AveVMSize     MaxRSS MaxRSSNode MaxRSSTask     AveRSS MaxPages MaxPagesNode   MaxPagesTask   AvePages     MinCPU MinCPUNode MinCPUTask     AveCPU   NTasks  AllocCPUS    Elapsed      State ExitCode AveCPUFreq ReqCPUFreqMin ReqCPUFreqMax ReqCPUFreqGov     ReqMem ConsumedEnergy  MaxDiskRead MaxDiskReadNode MaxDiskReadTask    AveDiskRead MaxDiskWrite MaxDiskWriteNode MaxDiskWriteTask   AveDiskWrite    ReqTRES  AllocTRES TRESUsageInAve TRESUsageInMax TRESUsageInMaxNode TRESUsageInMaxTask TRESUsageInMin TRESUsageInMinNode TRESUsageInMinTask TRESUsageInTot TRESUsageOutMax TRESUsageOutMaxNode TRESUsageOutMaxTask TRESUsageOutAve TRESUsageOutTot 
------------ ------------ ---------- ---------- ---------- -------------- -------------- ---------- ---------- ---------- ---------- ---------- -------- ------------ -------------- ---------- ---------- ---------- ---------- ---------- -------- ---------- ---------- ---------- -------- ---------- ------------- ------------- ------------- ---------- -------------- ------------ --------------- --------------- -------------- ------------ ---------------- ---------------- -------------- ---------- ---------- -------------- -------------- ------------------ ------------------ -------------- ------------------ ------------------ -------------- --------------- ------------------- ------------------- --------------- --------------- 
10741964     10741964     submit.job boost_usr+                                                                                                                                                                                                             160   00:05:23    RUNNING      0:0                  Unknown       Unknown       Unknown   2464000M                                                                                                                                          billing=1+ billing=1+                                                                                                                                                                                                                                 
10741964.ba+ 10741964.ba+      batch                                                                                                                                                                                                               1         32   00:05:23    RUNNING      0:0          0             0             0             0                         0                                                                                                                                      cpu=32,gr+                                                                                                                                                                                                                                 
10741964.ex+ 10741964.ex+     extern                                                                                                                                                                                                               5        160   00:05:23    RUNNING      0:0          0             0             0             0                         0                                                                                                                                      billing=1+                                                                                                                                                                                                                                 
10741964.0   10741964.0        orted              8025148K       lrdn1940              0   2006287K   7150408K   lrdn1940          0   1787602K     9609     lrdn1940              0       2402   00:41:32   lrdn3120          3   00:42:51        4        128   00:05:20  COMPLETED      0:0       793K       Unknown       Unknown       Unknown                         0        0.33M        lrdn3063               2          0.33M        0.01M         lrdn1940                0          0.01M            cpu=128,g+ cpu=00:42:51,+ cpu=00:43:40,+ cpu=lrdn3063,ener+ cpu=2,fs/disk=2,m+ cpu=00:41:32,+ cpu=lrdn3120,ener+ cpu=3,fs/disk=3,m+ cpu=02:51:24,+ energy=0,fs/di+ energy=lrdn3120,fs+           fs/disk=0 energy=0,fs/di+ energy=0,fs/di+ 
