JobID        JobIDRaw        JobName  Partition  MaxVMSize  MaxVMSizeNode  MaxVMSizeTask  AveVMSize     MaxRSS MaxRSSNode MaxRSSTask     AveRSS MaxPages MaxPagesNode   MaxPagesTask   AvePages     MinCPU MinCPUNode MinCPUTask     AveCPU   NTasks  AllocCPUS    Elapsed      State ExitCode AveCPUFreq ReqCPUFreqMin ReqCPUFreqMax ReqCPUFreqGov     ReqMem ConsumedEnergy  MaxDiskRead MaxDiskReadNode MaxDiskReadTask    AveDiskRead MaxDiskWrite MaxDiskWriteNode MaxDiskWriteTask   AveDiskWrite    ReqTRES  AllocTRES TRESUsageInAve TRESUsageInMax TRESUsageInMaxNode TRESUsageInMaxTask TRESUsageInMin TRESUsageInMinNode TRESUsageInMinTask TRESUsageInTot TRESUsageOutMax TRESUsageOutMaxNode TRESUsageOutMaxTask TRESUsageOutAve TRESUsageOutTot 
------------ ------------ ---------- ---------- ---------- -------------- -------------- ---------- ---------- ---------- ---------- ---------- -------- ------------ -------------- ---------- ---------- ---------- ---------- ---------- -------- ---------- ---------- ---------- -------- ---------- ------------- ------------- ------------- ---------- -------------- ------------ --------------- --------------- -------------- ------------ ---------------- ---------------- -------------- ---------- ---------- -------------- -------------- ------------------ ------------------ -------------- ------------------ ------------------ -------------- --------------- ------------------- ------------------- --------------- --------------- 
2261455      2261455      submit.job boost_usr+                                                                                                                                                                                                             480   00:03:24    RUNNING      0:0                  Unknown       Unknown       Unknown   7392000M                                                                                                                                          billing=4+ billing=4+                                                                                                                                                                                                                                 
2261455.bat+ 2261455.bat+      batch                                                                                                                                                                                                               1         32   00:03:24    RUNNING      0:0          0             0             0             0                         0                                                                                                                                      cpu=32,gr+                                                                                                                                                                                                                                 
2261455.ext+ 2261455.ext+     extern                                                                                                                                                                                                              15        480   00:03:24    RUNNING      0:0          0             0             0             0                         0                                                                                                                                      billing=4+                                                                                                                                                                                                                                 
2261455.0    2261455.0         orted             10130216K       lrdn1767              0  740952941   8371388K   lrdn1767          0  612307236     9253     lrdn1767              0        660   00:13:04   lrdn1798          3   00:13:06       14        448   00:03:21  COMPLETED      0:0     44.65M       Unknown       Unknown       Unknown                         0        0.28M        lrdn1798               3          0.28M        0.01M         lrdn1767                0          0.01M            cpu=448,g+ cpu=00:13:06,+ cpu=00:13:07,+ cpu=lrdn1874,ener+ cpu=10,fs/disk=3,+ cpu=00:13:04,+ cpu=lrdn1798,ener+ cpu=3,fs/disk=12,+ cpu=03:03:26,+ energy=0,fs/di+ energy=lrdn1897,fs+           fs/disk=0 energy=0,fs/di+ energy=0,fs/di+ 
