mpi: 960
thrs: 8
thr_tot: 7680
nodes: 240
nodes_io: 1
mpi/gpu: 1
Time-Profile: 2452.0000
io_KB_abinit: 0.0029
scatter_Gamp_gpu: 0.0007
io_ATMPROJ_pwscf: 0.0055
io_Double_Grid: 0.0184
HF(REDUX): 0.4314
GW(REDUX): 8.2091
IO_and_Messaging_switch: 0.0016
PP_uspp_init: 0.0151
io_COL_CUT: 0.0723
io_HF: 0.0483
io_QP_and_GF: 0.0187
HF: 0.1060
io_QINDX: 0.0816
io_GROT: 0.1065
io_KB_pwscf: 0.2070
io_X: 10.7706
Coulomb Cutoff: 0.2905
FFT_setup: 0.4466
io_fragment: 2.3004
XC_potential_driver: 1.1527
XCo_local: 1.1580
io_WF: 6.2151
RIM: 2.0654
WF_load_FFT: 7.1896
SERIAL_lin_system_gpu: 2.8937
LINEAR ALGEBRA: 2.8948
MATRIX transfer (X_G_finite_q_X_redux_2_1): 3.8204
MATRIX transfer (X_G_finite_q_X_redux_1_2): 4.6790
MATRIX transfer (X_G_finite_q_X_redux_1_1): 4.2584
MATRIX transfer (X_G_finite_q_X_redux_2_2): 4.8427
GW(ppa): 17.5593
io_DIPOLES: 16.0774
X (REDUX): 24.5593
DIPOLE_transverse: 14.6916
X (procedure): 18.6561
Xo (REDUX): 1425.0000
Dipoles: 98.2181
Xo (procedure): 2150.0000
Xo: 2150.0000
X: 18.6561
Self energy: 17.6653
Other: 167.4605
