JobID        JobIDRaw        JobName  Partition  MaxVMSize  MaxVMSizeNode  MaxVMSizeTask  AveVMSize     MaxRSS MaxRSSNode MaxRSSTask     AveRSS MaxPages MaxPagesNode   MaxPagesTask   AvePages     MinCPU MinCPUNode MinCPUTask     AveCPU   NTasks  AllocCPUS    Elapsed      State ExitCode AveCPUFreq ReqCPUFreqMin ReqCPUFreqMax ReqCPUFreqGov     ReqMem ConsumedEnergy  MaxDiskRead MaxDiskReadNode MaxDiskReadTask    AveDiskRead MaxDiskWrite MaxDiskWriteNode MaxDiskWriteTask   AveDiskWrite    ReqTRES  AllocTRES TRESUsageInAve TRESUsageInMax TRESUsageInMaxNode TRESUsageInMaxTask TRESUsageInMin TRESUsageInMinNode TRESUsageInMinTask TRESUsageInTot TRESUsageOutMax TRESUsageOutMaxNode TRESUsageOutMaxTask TRESUsageOutAve TRESUsageOutTot 
------------ ------------ ---------- ---------- ---------- -------------- -------------- ---------- ---------- ---------- ---------- ---------- -------- ------------ -------------- ---------- ---------- ---------- ---------- ---------- -------- ---------- ---------- ---------- -------- ---------- ------------- ------------- ------------- ---------- -------------- ------------ --------------- --------------- -------------- ------------ ---------------- ---------------- -------------- ---------- ---------- -------------- -------------- ------------------ ------------------ -------------- ------------------ ------------------ -------------- --------------- ------------------- ------------------- --------------- --------------- 
2227036      2227036      submit.job boost_usr+                                                                                                                                                                                                            7680   00:41:03    RUNNING      0:0                  Unknown       Unknown       Unknown    115500G                                                                                                                                          billing=7+ billing=7+                                                                                                                                                                                                                                 
2227036.bat+ 2227036.bat+      batch                                                                                                                                                                                                               1         32   00:41:03    RUNNING      0:0          0             0             0             0                         0                                                                                                                                      cpu=32,gr+                                                                                                                                                                                                                                 
2227036.ext+ 2227036.ext+     extern                                                                                                                                                                                                             240       7680   00:41:03    RUNNING      0:0          0             0             0             0                         0                                                                                                                                      billing=7+                                                                                                                                                                                                                                 
2227036.0    2227036.0         orted             18893796K       lrdn0146              0   80950824  16242164K   lrdn0146          0   69589857     9114     lrdn0146              0         38   02:41:43   lrdn2646        199   02:41:57      239       7648   00:41:00  COMPLETED      0:0     53.51M       Unknown       Unknown       Unknown                         0        0.37M        lrdn0527              13          0.36M        0.28M         lrdn0146                0          0.07M            cpu=7648,+ cpu=02:41:57,+ cpu=02:42:17,+ cpu=lrdn1313,ener+ cpu=73,fs/disk=13+ cpu=02:41:43,+ cpu=lrdn2646,ener+ cpu=199,fs/disk=8+ cpu=26-21:07:+ energy=0,fs/di+ energy=lrdn3035,fs+           fs/disk=0 energy=0,fs/di+ energy=0,fs/di+ 
