JobId=2227036 JobName=submit.job
   UserId=nspallan(25378) GroupId=interactive(25200) MCS_label=N/A
   Priority=223477 Nice=0 Account=euhpc_e01_022 QOS=boost_qos_bprod
   JobState=RUNNING Reason=None Dependency=(null)
   Requeue=0 Restarts=0 BatchFlag=1 Reboot=0 ExitCode=0:0
   DerivedExitCode=0:0
   RunTime=00:00:03 TimeLimit=03:00:00 TimeMin=N/A
   SubmitTime=2023-11-30T20:15:20 EligibleTime=2023-11-30T20:15:20
   AccrueTime=2023-11-30T20:15:20
   StartTime=2023-11-30T20:15:20 EndTime=2023-11-30T23:15:21 Deadline=N/A
   SuspendTime=None SecsPreSuspend=0 LastSchedEval=2023-11-30T20:15:20 Scheduler=Main
   Partition=boost_usr_prod AllocNode:Sid=10-99-0-7:3163073
   ReqNodeList=(null) ExcNodeList=(null)
   NodeList=lrdn[0134,0146,0167,0172,0183,0350,0364,0448,0469,0472,0487,0507,0510,0515,0527,0531,0609,0631,0639,0646,0661,0670,0675,0692,0701,0705,0721,0729,0735,0751,0759,0765,0781,0789,0795,0811,0819,0825,0841,0868,0969,0975,0991,0999,1012,1021,1029,1041,1051,1061,1065,1085,1092,1095,1111,1119,1125,1146,1152,1155,1171,1179,1191,1201,1209,1221,1233,1240,1251,1263,1269,1282,1293,1299,1313,1321,1329,1335,1351,1359,1365,1381,1392,1395,1411,1420,1431,1457,1461,1473,1479,1485,1501,1510,1522,1532,1540,1546,1561,1570,1584,1594,1602,1614,1624,1629,1635,1684,1689,1695,1711,1719,1725,1741,1752,1763,1772,1781,1791,1801,1817,1824,1836,1839,1853,1861,1870,1881,1895,1899,1911,1923,1931,1935,1951,1959,1972,1981,1997,2003,2046,2049,2055,2076,2082,2086,2102,2111,2122,2133,2140,2151,2164,2175,2177,2192,2199,2212,2227,2230,2235,2253,2260,2266,2283,2289,2301,2311,2320,2325,2344,2351,2355,2373,2381,2392,2403,2409,2415,2431,2445,2450,2464,2470,2482,2491,2499,2505,2521,2530,2535,2553,2559,2565,2581,2589,2596,2611,2619,2625,2646,2656-2657,2672,2681,2686,2705,2712,2716,2736,2741,2752,2767,2769,2782,2794,2799,2812,2826,2836-2837,2853,2876,2879,2893,2907,2909,2918,2927,2934,2954,2963,2969,2975,2981,2991,3003,3021,3029,3035]
   BatchHost=lrdn0134
   NumNodes=240 NumCPUs=7680 NumTasks=960 CPUs/Task=8 ReqB:S:C:T=0:0:*:*
   TRES=cpu=7680,mem=115500G,node=240,billing=7680,gres/gpu=960
   Socks/Node=* NtasksPerN:B:S:C=4:0:*:* CoreSpec=*
   JOB_GRES=gpu:a100:960
     Nodes=lrdn[0134,0146,0167,0172,0183,0350,0364,0448,0469,0472,0487,0507,0510,0515,0527,0531,0609,0631,0639,0646,0661,0670,0675,0692,0701,0705,0721,0729,0735,0751,0759,0765,0781,0789,0795,0811,0819,0825,0841,0868,0969,0975,0991,0999,1012,1021,1029,1041,1051,1061,1065,1085,1092,1095,1111,1119,1125,1146,1152,1155,1171,1179,1191,1201,1209,1221,1233,1240,1251,1263,1269,1282,1293,1299,1313,1321,1329,1335,1351,1359,1365,1381,1392,1395,1411,1420,1431,1457,1461,1473,1479,1485,1501,1510,1522,1532,1540,1546,1561,1570,1584,1594,1602,1614,1624,1629,1635,1684,1689,1695,1711,1719,1725,1741,1752,1763,1772,1781,1791,1801,1817,1824,1836,1839,1853,1861,1870,1881,1895,1899,1911,1923,1931,1935,1951,1959,1972,1981,1997,2003,2046,2049,2055,2076,2082,2086,2102,2111,2122,2133,2140,2151,2164,2175,2177,2192,2199,2212,2227,2230,2235,2253,2260,2266,2283,2289,2301,2311,2320,2325,2344,2351,2355,2373,2381,2392,2403,2409,2415,2431,2445,2450,2464,2470,2482,2491,2499,2505,2521,2530,2535,2553,2559,2565,2581,2589,2596,2611,2619,2625,2646,2656-2657,2672,2681,2686,2705,2712,2716,2736,2741,2752,2767,2769,2782,2794,2799,2812,2826,2836-2837,2853,2876,2879,2893,2907,2909,2918,2927,2934,2954,2963,2969,2975,2981,2991,3003,3021,3029,3035] CPU_IDs=0-31 Mem=492800 GRES=gpu:a100:4(IDX:0-3)
   MinCPUsNode=32 MinMemoryCPU=15400M MinTmpDiskNode=0
   Features=(null) DelayBoot=00:00:00
   OverSubscribe=NO Contiguous=0 Licenses=(null) Network=(null)
   Command=/leonardo_work/Max3_devel_2/nspallan/jube-benchmarks/run_yambo_61k/000001/000004_submit/work/submit.job
   WorkDir=/leonardo_work/Max3_devel_2/nspallan/jube-benchmarks/run_yambo_61k/000001/000004_submit/work
   StdErr=/leonardo_work/Max3_devel_2/nspallan/jube-benchmarks/run_yambo_61k/000001/000004_submit/work/slurm-2227036.out
   StdIn=/dev/null
   StdOut=/leonardo_work/Max3_devel_2/nspallan/jube-benchmarks/run_yambo_61k/000001/000004_submit/work/slurm-2227036.out
   Power=
   TresPerNode=gres:gpu:4
   

