JobID        JobIDRaw        JobName  Partition  MaxVMSize  MaxVMSizeNode  MaxVMSizeTask  AveVMSize     MaxRSS MaxRSSNode MaxRSSTask     AveRSS MaxPages MaxPagesNode   MaxPagesTask   AvePages     MinCPU MinCPUNode MinCPUTask     AveCPU   NTasks  AllocCPUS    Elapsed      State ExitCode AveCPUFreq ReqCPUFreqMin ReqCPUFreqMax ReqCPUFreqGov     ReqMem ConsumedEnergy  MaxDiskRead MaxDiskReadNode MaxDiskReadTask    AveDiskRead MaxDiskWrite MaxDiskWriteNode MaxDiskWriteTask   AveDiskWrite    ReqTRES  AllocTRES TRESUsageInAve TRESUsageInMax TRESUsageInMaxNode TRESUsageInMaxTask TRESUsageInMin TRESUsageInMinNode TRESUsageInMinTask TRESUsageInTot TRESUsageOutMax TRESUsageOutMaxNode TRESUsageOutMaxTask TRESUsageOutAve TRESUsageOutTot 
------------ ------------ ---------- ---------- ---------- -------------- -------------- ---------- ---------- ---------- ---------- ---------- -------- ------------ -------------- ---------- ---------- ---------- ---------- ---------- -------- ---------- ---------- ---------- -------- ---------- ------------- ------------- ------------- ---------- -------------- ------------ --------------- --------------- -------------- ------------ ---------------- ---------------- -------------- ---------- ---------- -------------- -------------- ------------------ ------------------ -------------- ------------------ ------------------ -------------- --------------- ------------------- ------------------- --------------- --------------- 
7668679      7668679      submit.job boost_usr+                                                                                                                                                                                                              64   00:53:57    RUNNING      0:0                  Unknown       Unknown       Unknown    962.50G                                                                                                                                          billing=6+ billing=6+                                                                                                                                                                                                                                 
7668679.bat+ 7668679.bat+      batch                                                                                                                                                                                                               1         32   00:53:57    RUNNING      0:0          0             0             0             0                         0                                                                                                                                      cpu=32,gr+                                                                                                                                                                                                                                 
7668679.ext+ 7668679.ext+     extern                                                                                                                                                                                                               2         64   00:53:57    RUNNING      0:0          0             0             0             0                         0                                                                                                                                      billing=6+                                                                                                                                                                                                                                 
7668679.0    7668679.0    leonardo-+              5998628K       lrdn2941              3   2938696K   5900168K   lrdn2941          3 2950789952      501     lrdn2941             27        162   00:53:14   lrdn2941          7   00:53:21       64         64   00:53:53  COMPLETED      0:0     25.93M       Unknown       Unknown       Unknown                         0        2.30M        lrdn2941               0          1.37M       19.95M         lrdn2941                0          5.39M            cpu=64,gr+ cpu=00:53:21,+ cpu=00:53:26,+ cpu=lrdn2946,ener+ cpu=33,fs/disk=0,+ cpu=00:53:14,+ cpu=lrdn2941,ener+ cpu=7,fs/disk=47,+ cpu=2-08:54:4+ energy=0,fs/di+ energy=lrdn2941,fs+           fs/disk=0 energy=0,fs/di+ energy=0,fs/di+ 
