{
 "global_section": { "_calls": 1, "_time":      552.606, "_%":   100.00,
   "siesta": { "_calls": 1, "_time":      552.606, "_%":   100.00,
     "Setup": { "_calls": 1, "_time":        1.674, "_%":     0.30,
       "bands": { "_calls": 1, "_time":        0.002, "_%":     0.00},
       "KSV_init": { "_calls": 1, "_time":        0.000, "_%":     0.00}
     },
     "IterGeom": { "_calls": 1, "_time":      550.134, "_%":    99.55,
       "geom_init": { "_calls": 1, "_time":       19.931, "_%":     3.61,
         "state_init": { "_calls": 1, "_time":        0.359, "_%":     0.07,
           "hsparse": { "_calls": 1, "_time":        0.117, "_%":     0.02},
           "overlap": { "_calls": 1, "_time":        0.051, "_%":     0.01}
         },
         "Setup_H0": { "_calls": 1, "_time":       19.571, "_%":     3.54,
           "naefs": { "_calls": 1, "_time":        0.017, "_%":     0.00},
           "MolMec": { "_calls": 1, "_time":        0.000, "_%":     0.00},
           "kinefsm": { "_calls": 1, "_time":        0.049, "_%":     0.01},
           "nlefsm": { "_calls": 1, "_time":        0.205, "_%":     0.04},
           "DHSCF_Init": { "_calls": 1, "_time":       19.289, "_%":     3.49,
             "DHSCF1": { "_calls": 1, "_time":        0.050, "_%":     0.01,
               "INITMESH": { "_calls": 1, "_time":        0.000, "_%":     0.00}
             },
             "DHSCF2": { "_calls": 1, "_time":       19.225, "_%":     3.48,
               "REMESH": { "_calls": 1, "_time":        0.116, "_%":     0.02,
                 "INITMESH": { "_calls": 2, "_time":        0.082, "_%":     0.01,
                   "SPLOAD": { "_calls": 2, "_time":        0.079, "_%":     0.01}
                 }
               },
               "REORD": { "_calls": 2, "_time":        0.113, "_%":     0.02},
               "PHION": { "_calls": 1, "_time":        0.571, "_%":     0.10},
               "COMM_BSC": { "_calls": 1, "_time":        0.489, "_%":     0.09},
               "POISON": { "_calls": 1, "_time":       16.770, "_%":     3.03,
                 "fft": { "_calls": 2, "_time":       15.999, "_%":     2.90}
               }
             }
           }
         }
       },
       "IterSCF": { "_calls": 5, "_time":      530.074, "_%":    95.92,
         "setup_H": { "_calls": 5, "_time":      125.397, "_%":    22.69,
           "DHSCF": { "_calls": 5, "_time":      125.325, "_%":    22.68,
             "DHSCF3": { "_calls": 5, "_time":      125.325, "_%":    22.68,
               "rhoofd": { "_calls": 5, "_time":        0.781, "_%":     0.14},
               "COMM_BSC": { "_calls": 10, "_time":        3.901, "_%":     0.71},
               "POISON": { "_calls": 5, "_time":       84.092, "_%":    15.22,
                 "fft": { "_calls": 10, "_time":       80.278, "_%":    14.53}
               },
               "XC": { "_calls": 5, "_time":       29.293, "_%":     5.30,
                 "COMM_BSC": { "_calls": 10, "_time":        4.523, "_%":     0.82},
                 "GXC-CellXC": { "_calls": 5, "_time":       23.631, "_%":     4.28,
                   "gridxc@cellXC": { "_calls": 5, "_time":       23.631, "_%":     4.28}
                 }
               },
               "vmat": { "_calls": 5, "_time":        0.536, "_%":     0.10}
             }
           }
         },
         "compute_dm": { "_calls": 5, "_time":      404.664, "_%":    73.23,
           "elsi": { "_calls": 5, "_time":      404.628, "_%":    73.22,
             "find nnz_g": { "_calls": 5, "_time":        0.000, "_%":     0.00},
             "elsi-solver": { "_calls": 5, "_time":      404.611, "_%":    73.22}
           }
         },
         "MIXER": { "_calls": 5, "_time":        0.005, "_%":     0.00}
       },
       "state_analysis": { "_calls": 1, "_time":        0.052, "_%":     0.01},
       "siesta_move": { "_calls": 1, "_time":        0.000, "_%":     0.00}
     },
     "Analysis": { "_calls": 1, "_time":        0.764, "_%":     0.14,
       "optical": { "_calls": 1, "_time":        0.001, "_%":     0.00}
     }
   }
 }}
