JobID        JobIDRaw        JobName  Partition  MaxVMSize  MaxVMSizeNode  MaxVMSizeTask  AveVMSize     MaxRSS MaxRSSNode MaxRSSTask     AveRSS MaxPages MaxPagesNode   MaxPagesTask   AvePages     MinCPU MinCPUNode MinCPUTask     AveCPU   NTasks  AllocCPUS    Elapsed      State ExitCode AveCPUFreq ReqCPUFreqMin ReqCPUFreqMax ReqCPUFreqGov     ReqMem ConsumedEnergy  MaxDiskRead MaxDiskReadNode MaxDiskReadTask    AveDiskRead MaxDiskWrite MaxDiskWriteNode MaxDiskWriteTask   AveDiskWrite    ReqTRES  AllocTRES TRESUsageInAve TRESUsageInMax TRESUsageInMaxNode TRESUsageInMaxTask TRESUsageInMin TRESUsageInMinNode TRESUsageInMinTask TRESUsageInTot TRESUsageOutMax TRESUsageOutMaxNode TRESUsageOutMaxTask TRESUsageOutAve TRESUsageOutTot 
------------ ------------ ---------- ---------- ---------- -------------- -------------- ---------- ---------- ---------- ---------- ---------- -------- ------------ -------------- ---------- ---------- ---------- ---------- ---------- -------- ---------- ---------- ---------- -------- ---------- ------------- ------------- ------------- ---------- -------------- ------------ --------------- --------------- -------------- ------------ ---------------- ---------------- -------------- ---------- ---------- -------------- -------------- ------------------ ------------------ -------------- ------------------ ------------------ -------------- --------------- ------------------- ------------------- --------------- --------------- 
7682243      7682243      submit.job dcgp_usr_+                                                                                                                                                                                                             896   00:00:56    RUNNING      0:0                  Unknown       Unknown       Unknown      3850G                                                                                                                                          billing=8+ billing=8+                                                                                                                                                                                                                                 
7682243.bat+ 7682243.bat+      batch                                                                                                                                                                                                               1        112   00:00:56    RUNNING      0:0          0             0             0             0                         0                                                                                                                                      cpu=112,g+                                                                                                                                                                                                                                 
7682243.ext+ 7682243.ext+     extern                                                                                                                                                                                                               8        896   00:00:56    RUNNING      0:0          0             0             0             0                         0                                                                                                                                      billing=8+                                                                                                                                                                                                                                 
7682243.0    7682243.0        siesta               383724K       lrdn4281              0   35723378    330888K   lrdn4281          0   34261600      355     lrdn4281              0          2   00:00:27   lrdn4797        672   00:00:29      896        896   00:00:47  COMPLETED      0:0     70.51G       Unknown       Unknown       Unknown                         0        2.35M        lrdn4281               0          1.39M       12.74M         lrdn4281                0          0.02M            cpu=896,g+ cpu=00:00:29,+ cpu=00:00:36,+ cpu=lrdn4281,ener+ cpu=0,fs/disk=0,m+ cpu=00:00:27,+ cpu=lrdn4797,ener+ cpu=672,fs/disk=7+ cpu=07:24:21,+ energy=0,fs/di+ energy=lrdn4407,fs+           fs/disk=0 energy=0,fs/di+ energy=0,fs/di+ 
