{
 "global_section": { "_calls": 1, "_time":       80.404, "_%":   100.00,
   "siesta": { "_calls": 1, "_time":       80.404, "_%":   100.00,
     "Setup": { "_calls": 1, "_time":        2.168, "_%":     2.70,
       "bands": { "_calls": 1, "_time":        0.002, "_%":     0.00},
       "KSV_init": { "_calls": 1, "_time":        0.001, "_%":     0.00}
     },
     "IterGeom": { "_calls": 1, "_time":       77.967, "_%":    96.97,
       "geom_init": { "_calls": 1, "_time":       10.321, "_%":    12.84,
         "state_init": { "_calls": 1, "_time":        0.591, "_%":     0.73,
           "hsparse": { "_calls": 1, "_time":        0.201, "_%":     0.25},
           "overlap": { "_calls": 1, "_time":        0.046, "_%":     0.06}
         },
         "Setup_H0": { "_calls": 1, "_time":        9.729, "_%":    12.10,
           "naefs": { "_calls": 1, "_time":        0.026, "_%":     0.03},
           "MolMec": { "_calls": 1, "_time":        0.000, "_%":     0.00},
           "kinefsm": { "_calls": 1, "_time":        0.045, "_%":     0.06},
           "nlefsm": { "_calls": 1, "_time":        0.120, "_%":     0.15},
           "DHSCF_Init": { "_calls": 1, "_time":        9.519, "_%":    11.84,
             "DHSCF1": { "_calls": 1, "_time":        0.054, "_%":     0.07,
               "INITMESH": { "_calls": 1, "_time":        0.000, "_%":     0.00}
             },
             "DHSCF2": { "_calls": 1, "_time":        9.441, "_%":    11.74,
               "REMESH": { "_calls": 1, "_time":        0.209, "_%":     0.26,
                 "INITMESH": { "_calls": 2, "_time":        0.186, "_%":     0.23,
                   "SPLOAD": { "_calls": 2, "_time":        0.161, "_%":     0.20}
                 }
               },
               "REORD": { "_calls": 2, "_time":        0.045, "_%":     0.06},
               "PHION": { "_calls": 1, "_time":        0.308, "_%":     0.38},
               "COMM_BSC": { "_calls": 1, "_time":        0.152, "_%":     0.19},
               "POISON": { "_calls": 1, "_time":        7.916, "_%":     9.85,
                 "fft": { "_calls": 2, "_time":        7.643, "_%":     9.51}
               }
             }
           }
         }
       },
       "IterSCF": { "_calls": 5, "_time":       67.536, "_%":    84.00,
         "setup_H": { "_calls": 5, "_time":       61.274, "_%":    76.21,
           "DHSCF": { "_calls": 5, "_time":       61.271, "_%":    76.20,
             "DHSCF3": { "_calls": 5, "_time":       61.271, "_%":    76.20,
               "rhoofd": { "_calls": 5, "_time":        0.313, "_%":     0.39},
               "COMM_BSC": { "_calls": 10, "_time":        1.550, "_%":     1.93},
               "POISON": { "_calls": 5, "_time":       39.541, "_%":    49.18,
                 "fft": { "_calls": 10, "_time":       38.048, "_%":    47.32}
               },
               "XC": { "_calls": 5, "_time":       16.542, "_%":    20.57,
                 "COMM_BSC": { "_calls": 10, "_time":        2.224, "_%":     2.77},
                 "GXC-CellXC": { "_calls": 5, "_time":       13.978, "_%":    17.39,
                   "gridxc@cellXC": { "_calls": 5, "_time":       13.978, "_%":    17.39}
                 }
               },
               "vmat": { "_calls": 5, "_time":        0.408, "_%":     0.51}
             }
           }
         },
         "compute_dm": { "_calls": 5, "_time":        6.237, "_%":     7.76,
           "elsi": { "_calls": 5, "_time":        6.236, "_%":     7.76,
             "find nnz_g": { "_calls": 5, "_time":        0.000, "_%":     0.00},
             "elsi-solver": { "_calls": 5, "_time":        6.212, "_%":     7.73}
           }
         },
         "MIXER": { "_calls": 5, "_time":        0.008, "_%":     0.01}
       },
       "state_analysis": { "_calls": 1, "_time":        0.099, "_%":     0.12},
       "siesta_move": { "_calls": 1, "_time":        0.000, "_%":     0.00}
     },
     "Analysis": { "_calls": 1, "_time":        0.263, "_%":     0.33,
       "optical": { "_calls": 1, "_time":        0.001, "_%":     0.00}
     }
   }
 }}
