JobID        JobIDRaw        JobName  Partition  MaxVMSize  MaxVMSizeNode  MaxVMSizeTask  AveVMSize     MaxRSS MaxRSSNode MaxRSSTask     AveRSS MaxPages MaxPagesNode   MaxPagesTask   AvePages     MinCPU MinCPUNode MinCPUTask     AveCPU   NTasks  AllocCPUS    Elapsed      State ExitCode AveCPUFreq ReqCPUFreqMin ReqCPUFreqMax ReqCPUFreqGov     ReqMem ConsumedEnergy  MaxDiskRead MaxDiskReadNode MaxDiskReadTask    AveDiskRead MaxDiskWrite MaxDiskWriteNode MaxDiskWriteTask   AveDiskWrite    ReqTRES  AllocTRES TRESUsageInAve TRESUsageInMax TRESUsageInMaxNode TRESUsageInMaxTask TRESUsageInMin TRESUsageInMinNode TRESUsageInMinTask TRESUsageInTot TRESUsageOutMax TRESUsageOutMaxNode TRESUsageOutMaxTask TRESUsageOutAve TRESUsageOutTot 
------------ ------------ ---------- ---------- ---------- -------------- -------------- ---------- ---------- ---------- ---------- ---------- -------- ------------ -------------- ---------- ---------- ---------- ---------- ---------- -------- ---------- ---------- ---------- -------- ---------- ------------- ------------- ------------- ---------- -------------- ------------ --------------- --------------- -------------- ------------ ---------------- ---------------- -------------- ---------- ---------- -------------- -------------- ------------------ ------------------ -------------- ------------------ ------------------ -------------- --------------- ------------------- ------------------- --------------- --------------- 
8022755      8022755      CovidStro+   standard                                                                                                                                                                                                            1024   00:00:50    RUNNING      0:0                  Unknown       Unknown       Unknown       896G                                                                                                                                          billing=5+ billing=1+                                                                                                                                                                                                                                 
8022755.bat+ 8022755.bat+      batch                                                                                                                                                                                                               1        256   00:00:50    RUNNING      0:0          0             0             0             0                         0                                                                                                                                      cpu=256,m+                                                                                                                                                                                                                                 
8022755.0    8022755.0        siesta              4811308K      nid002102             76 3127264288    538904K  nid002102         94  438774944      921    nid002102            116        364   00:00:22  nid002102          2   00:00:40      512       1024   00:00:46  COMPLETED      0:0      6.71G       Unknown       Unknown       Unknown                   109.79K        1.93M       nid002102               0          0.17M       16.82M        nid002102                0          0.09M            cpu=1024,+ cpu=00:00:40,+ cpu=00:00:43,+ cpu=nid002197,ene+ cpu=495,fs/disk=0+ cpu=00:00:22,+ cpu=nid002102,ene+ cpu=2,fs/disk=429+ cpu=05:44:46,+ energy=711,fs/+ energy=nid002102,f+           fs/disk=0 energy=2,fs/di+ energy=1243,fs+ 
