JobID        JobIDRaw        JobName  Partition  MaxVMSize  MaxVMSizeNode  MaxVMSizeTask  AveVMSize     MaxRSS MaxRSSNode MaxRSSTask     AveRSS MaxPages MaxPagesNode   MaxPagesTask   AvePages     MinCPU MinCPUNode MinCPUTask     AveCPU   NTasks  AllocCPUS    Elapsed      State ExitCode AveCPUFreq ReqCPUFreqMin ReqCPUFreqMax ReqCPUFreqGov     ReqMem ConsumedEnergy  MaxDiskRead MaxDiskReadNode MaxDiskReadTask    AveDiskRead MaxDiskWrite MaxDiskWriteNode MaxDiskWriteTask   AveDiskWrite    ReqTRES  AllocTRES TRESUsageInAve TRESUsageInMax TRESUsageInMaxNode TRESUsageInMaxTask TRESUsageInMin TRESUsageInMinNode TRESUsageInMinTask TRESUsageInTot TRESUsageOutMax TRESUsageOutMaxNode TRESUsageOutMaxTask TRESUsageOutAve TRESUsageOutTot 
------------ ------------ ---------- ---------- ---------- -------------- -------------- ---------- ---------- ---------- ---------- ---------- -------- ------------ -------------- ---------- ---------- ---------- ---------- ---------- -------- ---------- ---------- ---------- -------- ---------- ------------- ------------- ------------- ---------- -------------- ------------ --------------- --------------- -------------- ------------ ---------------- ---------------- -------------- ---------- ---------- -------------- -------------- ------------------ ------------------ -------------- ------------------ ------------------ -------------- --------------- ------------------- ------------------- --------------- --------------- 
8022831      8022831       CovidWeak   standard                                                                                                                                                                                                             512   00:01:00    RUNNING      0:0                  Unknown       Unknown       Unknown       448G                                                                                                                                          billing=2+ billing=5+                                                                                                                                                                                                                                 
8022831.bat+ 8022831.bat+      batch                                                                                                                                                                                                               1        256   00:01:00    RUNNING      0:0          0             0             0             0                         0                                                                                                                                      cpu=256,m+                                                                                                                                                                                                                                 
8022831.0    8022831.0        siesta              4040612K      nid001374              9 2965427392    724420K  nid001375        128  625699264      468    nid001375            219        323   00:00:27  nid001374        122   00:00:51      256        512   00:00:56  COMPLETED      0:0      7.31G       Unknown       Unknown       Unknown                    66.35K        1.94M       nid001374               0          0.17M       13.71M        nid001374                0          0.14M            cpu=512,m+ cpu=00:00:51,+ cpu=00:00:53,+ cpu=nid001375,ene+ cpu=245,fs/disk=0+ cpu=00:00:27,+ cpu=nid001374,ene+ cpu=122,fs/disk=7+ cpu=03:40:53,+ energy=682,fs/+ energy=nid001375,f+           fs/disk=0 energy=2,fs/di+ energy=645,fs/+ 
