[2024-09-09 14:30:44,964]:DEBUG: Create initial workpackages
[2024-09-09 14:30:44,965]:DEBUG: Expand parameter templates:
[2024-09-09 14:30:44,965]:DEBUG:     "nodes": 32,64
[2024-09-09 14:30:44,968]:DEBUG: Evaluate parameter: accountno
[2024-09-09 14:30:44,969]:DEBUG: Evaluate parameter: tasks_per_pole
[2024-09-09 14:30:44,970]:DEBUG: Evaluate parameter: libpaths
[2024-09-09 14:30:44,970]:DEBUG: Evaluate parameter: binpaths
[2024-09-09 14:30:44,972]:DEBUG: Evaluate parameter: kgridfile
[2024-09-09 14:30:44,973]:DEBUG: Evaluate parameter: tasks
[2024-09-09 14:30:44,973]:DEBUG: Evaluate parameter: ncpus
[2024-09-09 14:30:44,973]:DEBUG: Evaluate parameter: ncores
[2024-09-09 14:30:44,973]:DEBUG: Evaluate parameter: threads
[2024-09-09 14:30:44,974]:DEBUG: Evaluate parameter: pe
[2024-09-09 14:30:44,974]:DEBUG: Evaluate parameter: cpuspertask
[2024-09-09 14:30:44,975]:DEBUG: Evaluate parameter: mapping
[2024-09-09 14:30:44,975]:DEBUG: Evaluate parameter: args_starter
[2024-09-09 14:30:44,990]:DEBUG: Evaluate parameter: accountno
[2024-09-09 14:30:44,991]:DEBUG: Evaluate parameter: tasks_per_pole
[2024-09-09 14:30:44,991]:DEBUG: Evaluate parameter: libpaths
[2024-09-09 14:30:44,992]:DEBUG: Evaluate parameter: binpaths
[2024-09-09 14:30:44,994]:DEBUG: Evaluate parameter: kgridfile
[2024-09-09 14:30:44,994]:DEBUG: Evaluate parameter: tasks
[2024-09-09 14:30:44,995]:DEBUG: Evaluate parameter: ncpus
[2024-09-09 14:30:44,995]:DEBUG: Evaluate parameter: ncores
[2024-09-09 14:30:44,995]:DEBUG: Evaluate parameter: threads
[2024-09-09 14:30:44,996]:DEBUG: Evaluate parameter: pe
[2024-09-09 14:30:44,996]:DEBUG: Evaluate parameter: cpuspertask
[2024-09-09 14:30:44,996]:DEBUG: Evaluate parameter: mapping
[2024-09-09 14:30:44,996]:DEBUG: Evaluate parameter: args_starter
[2024-09-09 14:30:45,089]:DEBUG: Store initial workpackage information
[2024-09-09 14:30:45,095]:DEBUG: Start benchmark run
[2024-09-09 14:30:45,095]:INFO: ######################################################################
[2024-09-09 14:30:45,095]:INFO: # benchmark: CovidWeakKPoints
[2024-09-09 14:30:45,095]:INFO: # id: 1
[2024-09-09 14:30:45,095]:INFO: #
[2024-09-09 14:30:45,095]:INFO: #
[2024-09-09 14:30:45,095]:INFO: ######################################################################
[2024-09-09 14:30:45,095]:DEBUG: ----- submit ( iter:0 | id:0 | parents: | cycle:0 | procs:1 ) -----
[2024-09-09 14:30:45,098]:DEBUG:   available parameter:
[2024-09-09 14:30:45,098]:DEBUG:          | parameter             | value                                    |
[2024-09-09 14:30:45,098]:DEBUG:          |-----------------------|------------------------------------------|
[2024-09-09 14:30:45,098]:DEBUG:          | accountno             | dd-24-70                                 |
[2024-09-09 14:30:45,098]:DEBUG:          | args_executable       | covid-8k-diag.fdf > covid-8k-diag.out    |
[2024-09-09 14:30:45,098]:DEBUG:          | args_starter          | -n 2048                                  |
[2024-09-09 14:30:45,098]:DEBUG:          | basename              | covid-8k-diag                            |
[2024-09-09 14:30:45,098]:DEBUG:          | basis_size            | SZ                                       |
[2024-09-09 14:30:45,098]:DEBUG:          | binpaths              | /home/it4i-fpedron/Siesta/siesta-gnu-    |
[2024-09-09 14:30:45,098]:DEBUG:          |                       | gpu/bin/                                 |
[2024-09-09 14:30:45,098]:DEBUG:          | casename              | covid-spike                              |
[2024-09-09 14:30:45,098]:DEBUG:          | cpuspertask           | 2                                        |
[2024-09-09 14:30:45,098]:DEBUG:          | default_bind          | "map_cpu:16@COMMA17@COMMA18@COMMA19@COMM |
[2024-09-09 14:30:45,098]:DEBUG:          |                       | A20@COMMA21@COMMA22@COMMA23@COMMA24@COMM |
[2024-09-09 14:30:45,098]:DEBUG:          |                       | A25@COMMA26@COMMA27@COMMA28@COMMA29@COMM |
[2024-09-09 14:30:45,098]:DEBUG:          |                       | A30@COMMA31@COMMA48@COMMA49@COMMA50@COMM |
[2024-09-09 14:30:45,098]:DEBUG:          |                       | A51@COMMA52@COMMA53@COMMA54@COMMA55@COMM |
[2024-09-09 14:30:45,098]:DEBUG:          |                       | A56@COMMA57@COMMA58@COMMA59@COMMA60@COMM |
[2024-09-09 14:30:45,098]:DEBUG:          |                       | A61@COMMA62@COMMA63@COMMA80@COMMA81@COMM |
[2024-09-09 14:30:45,098]:DEBUG:          |                       | A82@COMMA83@COMMA84@COMMA85@COMMA86@COMM |
[2024-09-09 14:30:45,098]:DEBUG:          |                       | A87@COMMA88@COMMA89@COMMA90@COMMA91@COMM |
[2024-09-09 14:30:45,098]:DEBUG:          |                       | A92@COMMA93@COMMA94@COMMA95@COMMA112@COM |
[2024-09-09 14:30:45,098]:DEBUG:          |                       | MA113@COMMA114@COMMA115@COMMA116@COMMA11 |
[2024-09-09 14:30:45,098]:DEBUG:          |                       | 7@COMMA118@COMMA119@COMMA120@COMMA121@CO |
[2024-09-09 14:30:45,098]:DEBUG:          |                       | MMA122@COMMA123@COMMA124@COMMA125@COMMA1 |
[2024-09-09 14:30:45,098]:DEBUG:          |                       | 26@COMMA127"                             |
[2024-09-09 14:30:45,099]:DEBUG:          | default_ntasks        | 64                                       |
[2024-09-09 14:30:45,099]:DEBUG:          | default_omp_threads   | 2                                        |
[2024-09-09 14:30:45,099]:DEBUG:          | dirin                 | covid-spike/inputfiles                   |
[2024-09-09 14:30:45,099]:DEBUG:          | done_file             | ready                                    |
[2024-09-09 14:30:45,099]:DEBUG:          | elsi_solver           | elpa                                     |
[2024-09-09 14:30:45,099]:DEBUG:          | env                   |                                          |
[2024-09-09 14:30:45,099]:DEBUG:          | environ_load          | module load GCC/12.3.0 OpenBLAS LAPACK   |
[2024-09-09 14:30:45,099]:DEBUG:          |                       | ScaLAPACK/2.2.0-gompi-2023b-fb           |
[2024-09-09 14:30:45,099]:DEBUG:          |                       | libreadline CUDA/12.3.0;                 |
[2024-09-09 14:30:45,099]:DEBUG:          |                       |         module load                      |
[2024-09-09 14:30:45,099]:DEBUG:          |                       | PnetCDF/1.12.3-gompi-2022a netCDF-       |
[2024-09-09 14:30:45,099]:DEBUG:          |                       | Fortran/4.6.1-gompi-2023b                |
[2024-09-09 14:30:45,099]:DEBUG:          |                       | FFTW.MPI/3.3.10-gompi-2023b              |
[2024-09-09 14:30:45,099]:DEBUG:          | errlogfile            | job.err                                  |
[2024-09-09 14:30:45,099]:DEBUG:          | executable            | karolina-gpu-bind.sh siesta              |
[2024-09-09 14:30:45,099]:DEBUG:          | fin                   | covid-8k-diag.fdf                        |
[2024-09-09 14:30:45,099]:DEBUG:          | fout                  | covid-8k-diag.out                        |
[2024-09-09 14:30:45,099]:DEBUG:          | fset                  | covid-8k-diag.fdf.in                     |
[2024-09-09 14:30:45,099]:DEBUG:          | gpu_flag              | 1                                        |
[2024-09-09 14:30:45,099]:DEBUG:          | gpubindfile           | karolina-gpu-bind.sh                     |
[2024-09-09 14:30:45,099]:DEBUG:          | gpuspernode           | 8                                        |
[2024-09-09 14:30:45,099]:DEBUG:          | jube_benchmark_home   | /home/it4i-fpedron/JUBE4MaX-GPU/max-     |
[2024-09-09 14:30:45,099]:DEBUG:          |                       | inputs/interface/siesta                  |
[2024-09-09 14:30:45,099]:DEBUG:          | jube_benchmark_id     | 1                                        |
[2024-09-09 14:30:45,099]:DEBUG:          | jube_benchmark_name   | CovidWeakKPoints                         |
[2024-09-09 14:30:45,099]:DEBUG:          | jube_benchmark_padid  | 000001                                   |
[2024-09-09 14:30:45,099]:DEBUG:          | jube_benchmark_rundir | /home/it4i-fpedron/JUBE4MaX-GPU/max-inpu |
[2024-09-09 14:30:45,099]:DEBUG:          |                       | ts/interface/siesta/_CovidWeakKPoints/00 |
[2024-09-09 14:30:45,099]:DEBUG:          |                       | 0001                                     |
[2024-09-09 14:30:45,099]:DEBUG:          | jube_benchmark_start  | 2024-09-09T14:30:44                      |
[2024-09-09 14:30:45,099]:DEBUG:          | jube_step_cycles      | 1                                        |
[2024-09-09 14:30:45,099]:DEBUG:          | jube_step_iterations  | 1                                        |
[2024-09-09 14:30:45,099]:DEBUG:          | jube_step_name        | submit                                   |
[2024-09-09 14:30:45,099]:DEBUG:          | jube_wp_abspath       | /home/it4i-fpedron/JUBE4MaX-GPU/max-inpu |
[2024-09-09 14:30:45,099]:DEBUG:          |                       | ts/interface/siesta/_CovidWeakKPoints/00 |
[2024-09-09 14:30:45,099]:DEBUG:          |                       | 0001/000000_submit/work                  |
[2024-09-09 14:30:45,099]:DEBUG:          | jube_wp_cycle         | 0                                        |
[2024-09-09 14:30:45,099]:DEBUG:          | jube_wp_envlist       |                                          |
[2024-09-09 14:30:45,099]:DEBUG:          | jube_wp_envstr        |                                          |
[2024-09-09 14:30:45,099]:DEBUG:          | jube_wp_id            | 0                                        |
[2024-09-09 14:30:45,099]:DEBUG:          | jube_wp_iteration     | 0                                        |
[2024-09-09 14:30:45,099]:DEBUG:          | jube_wp_padid         | 000000                                   |
[2024-09-09 14:30:45,099]:DEBUG:          | jube_wp_relpath       | _CovidWeakKPoints/000001/000000_submit/w |
[2024-09-09 14:30:45,099]:DEBUG:          |                       | ork                                      |
[2024-09-09 14:30:45,099]:DEBUG:          | jube_wp_status        | RUNNING                                  |
[2024-09-09 14:30:45,099]:DEBUG:          | kgridfile             | kgrid.File 32kpoint.KP                   |
[2024-09-09 14:30:45,099]:DEBUG:          | kpoints_x             | 1                                        |
[2024-09-09 14:30:45,099]:DEBUG:          | kpoints_y             | 1                                        |
[2024-09-09 14:30:45,099]:DEBUG:          | kpoints_z             | 1                                        |
[2024-09-09 14:30:45,099]:DEBUG:          | libpaths              | /home/it4i-fpedron/Siesta/elpa-gpu/lib/  |
[2024-09-09 14:30:45,099]:DEBUG:          | mapping               |                                          |
[2024-09-09 14:30:45,099]:DEBUG:          | max_iterations        | 5                                        |
[2024-09-09 14:30:45,099]:DEBUG:          | modules               | module load GCC/12.3.0 OpenBLAS LAPACK   |
[2024-09-09 14:30:45,099]:DEBUG:          |                       | ScaLAPACK/2.2.0-gompi-2023b-fb           |
[2024-09-09 14:30:45,099]:DEBUG:          |                       | libreadline CUDA/12.3.0;                 |
[2024-09-09 14:30:45,099]:DEBUG:          |                       |         module load                      |
[2024-09-09 14:30:45,099]:DEBUG:          |                       | PnetCDF/1.12.3-gompi-2022a netCDF-       |
[2024-09-09 14:30:45,099]:DEBUG:          |                       | Fortran/4.6.1-gompi-2023b                |
[2024-09-09 14:30:45,099]:DEBUG:          |                       | FFTW.MPI/3.3.10-gompi-2023b              |
[2024-09-09 14:30:45,099]:DEBUG:          | ncores                | 4096                                     |
[2024-09-09 14:30:45,099]:DEBUG:          | ncpus                 | 4096                                     |
[2024-09-09 14:30:45,099]:DEBUG:          | nodes                 | 32                                       |
[2024-09-09 14:30:45,099]:DEBUG:          | nsocket               | 1                                        |
[2024-09-09 14:30:45,099]:DEBUG:          | outlogfile            | job.out                                  |
[2024-09-09 14:30:45,099]:DEBUG:          | pe                    | 64                                       |
[2024-09-09 14:30:45,099]:DEBUG:          | postprocess           |                                          |
[2024-09-09 14:30:45,099]:DEBUG:          | preprocess            |                                          |
[2024-09-09 14:30:45,099]:DEBUG:          | queue                 | qgpu                                     |
[2024-09-09 14:30:45,099]:DEBUG:          | shared_folder         | shared                                   |
[2024-09-09 14:30:45,099]:DEBUG:          | shared_job_info       | shared/jobid                             |
[2024-09-09 14:30:45,099]:DEBUG:          | siestaexports         | export PATH=${PATH}:/home/it4i-          |
[2024-09-09 14:30:45,099]:DEBUG:          |                       | fpedron/Siesta/siesta-gnu-gpu/bin/       |
[2024-09-09 14:30:45,099]:DEBUG:          |                       |         export LD_LIBRARY_PATH=${LD_LIBR |
[2024-09-09 14:30:45,099]:DEBUG:          |                       | ARY_PATH}:/home/it4i-                    |
[2024-09-09 14:30:45,099]:DEBUG:          |                       | fpedron/Siesta/elpa-gpu/lib/             |
[2024-09-09 14:30:45,099]:DEBUG:          |                       |               export LIBRARY_PATH=${LIBR |
[2024-09-09 14:30:45,100]:DEBUG:          |                       | ARY_PATH}:/home/it4i-                    |
[2024-09-09 14:30:45,100]:DEBUG:          |                       | fpedron/Siesta/elpa-gpu/lib/             |
[2024-09-09 14:30:45,100]:DEBUG:          |                       |               export                     |
[2024-09-09 14:30:45,100]:DEBUG:          |                       | OPENBLAS_NUM_THREADS=2                   |
[2024-09-09 14:30:45,100]:DEBUG:          |                       |         export GOTO_NUM_THREADS=2        |
[2024-09-09 14:30:45,100]:DEBUG:          |                       |               export SLURM_CPU_BIND="map |
[2024-09-09 14:30:45,100]:DEBUG:          |                       | _cpu:16@COMMA17@COMMA18@COMMA19@COMMA20@ |
[2024-09-09 14:30:45,100]:DEBUG:          |                       | COMMA21@COMMA22@COMMA23@COMMA24@COMMA25@ |
[2024-09-09 14:30:45,100]:DEBUG:          |                       | COMMA26@COMMA27@COMMA28@COMMA29@COMMA30@ |
[2024-09-09 14:30:45,100]:DEBUG:          |                       | COMMA31@COMMA48@COMMA49@COMMA50@COMMA51@ |
[2024-09-09 14:30:45,100]:DEBUG:          |                       | COMMA52@COMMA53@COMMA54@COMMA55@COMMA56@ |
[2024-09-09 14:30:45,100]:DEBUG:          |                       | COMMA57@COMMA58@COMMA59@COMMA60@COMMA61@ |
[2024-09-09 14:30:45,100]:DEBUG:          |                       | COMMA62@COMMA63@COMMA80@COMMA81@COMMA82@ |
[2024-09-09 14:30:45,100]:DEBUG:          |                       | COMMA83@COMMA84@COMMA85@COMMA86@COMMA87@ |
[2024-09-09 14:30:45,100]:DEBUG:          |                       | COMMA88@COMMA89@COMMA90@COMMA91@COMMA92@ |
[2024-09-09 14:30:45,100]:DEBUG:          |                       | COMMA93@COMMA94@COMMA95@COMMA112@COMMA11 |
[2024-09-09 14:30:45,100]:DEBUG:          |                       | 3@COMMA114@COMMA115@COMMA116@COMMA117@CO |
[2024-09-09 14:30:45,100]:DEBUG:          |                       | MMA118@COMMA119@COMMA120@COMMA121@COMMA1 |
[2024-09-09 14:30:45,100]:DEBUG:          |                       | 22@COMMA123@COMMA124@COMMA125@COMMA126@C |
[2024-09-09 14:30:45,100]:DEBUG:          |                       | OMMA127"                                 |
[2024-09-09 14:30:45,100]:DEBUG:          |                       |               export OMP_PROC_BIND=true  |
[2024-09-09 14:30:45,100]:DEBUG:          |                       |         export OMP_PLACES=cores          |
[2024-09-09 14:30:45,100]:DEBUG:          |                       |         echo "Current loaded modules"    |
[2024-09-09 14:30:45,100]:DEBUG:          |                       |         echo "----------------------"    |
[2024-09-09 14:30:45,100]:DEBUG:          |                       |         module list                      |
[2024-09-09 14:30:45,100]:DEBUG:          |                       |         echo ""                          |
[2024-09-09 14:30:45,100]:DEBUG:          |                       |         echo "Current environment        |
[2024-09-09 14:30:45,100]:DEBUG:          |                       | variables"                               |
[2024-09-09 14:30:45,100]:DEBUG:          |                       |         echo                             |
[2024-09-09 14:30:45,100]:DEBUG:          |                       | "-----------------------------"          |
[2024-09-09 14:30:45,100]:DEBUG:          |                       |         env                              |
[2024-09-09 14:30:45,100]:DEBUG:          |                       |         echo ""                          |
[2024-09-09 14:30:45,100]:DEBUG:          |                       |         echo "Current SIESTA linked      |
[2024-09-09 14:30:45,100]:DEBUG:          |                       | libraries"                               |
[2024-09-09 14:30:45,100]:DEBUG:          |                       |         echo                             |
[2024-09-09 14:30:45,100]:DEBUG:          |                       | "-------------------------------"        |
[2024-09-09 14:30:45,100]:DEBUG:          |                       |         ldd $(which siesta)              |
[2024-09-09 14:30:45,100]:DEBUG:          |                       |         echo ""                          |
[2024-09-09 14:30:45,100]:DEBUG:          | solution_method       | elsi                                     |
[2024-09-09 14:30:45,100]:DEBUG:          | starter               | srun                                     |
[2024-09-09 14:30:45,100]:DEBUG:          | submit                | sbatch                                   |
[2024-09-09 14:30:45,100]:DEBUG:          | submit_script         | submit.job                               |
[2024-09-09 14:30:45,100]:DEBUG:          | supercell_x           | 1.0                                      |
[2024-09-09 14:30:45,100]:DEBUG:          | supercell_y           | 1.0                                      |
[2024-09-09 14:30:45,100]:DEBUG:          | supercell_z           | 1.0                                      |
[2024-09-09 14:30:45,100]:DEBUG:          | tasks                 | 2048                                     |
[2024-09-09 14:30:45,100]:DEBUG:          | tasks_per_pole        | 32                                       |
[2024-09-09 14:30:45,100]:DEBUG:          | taskspernode          | 64                                       |
[2024-09-09 14:30:45,100]:DEBUG:          | threads               | 128                                      |
[2024-09-09 14:30:45,100]:DEBUG:          | threadspertask        | 2                                        |
[2024-09-09 14:30:45,100]:DEBUG:          | timelimit             | 00:59:00                                 |
[2024-09-09 14:30:45,100]:DEBUG:          | wrapname              |                                          |
[2024-09-09 14:30:45,100]:DEBUG:          | wrappost              |                                          |
[2024-09-09 14:30:45,100]:DEBUG:          | wrappre               | export PATH=${PATH}:/home/it4i-          |
[2024-09-09 14:30:45,100]:DEBUG:          |                       | fpedron/Siesta/siesta-gnu-gpu/bin/       |
[2024-09-09 14:30:45,100]:DEBUG:          |                       |         export LD_LIBRARY_PATH=${LD_LIBR |
[2024-09-09 14:30:45,100]:DEBUG:          |                       | ARY_PATH}:/home/it4i-                    |
[2024-09-09 14:30:45,100]:DEBUG:          |                       | fpedron/Siesta/elpa-gpu/lib/             |
[2024-09-09 14:30:45,100]:DEBUG:          |                       |               export LIBRARY_PATH=${LIBR |
[2024-09-09 14:30:45,100]:DEBUG:          |                       | ARY_PATH}:/home/it4i-                    |
[2024-09-09 14:30:45,100]:DEBUG:          |                       | fpedron/Siesta/elpa-gpu/lib/             |
[2024-09-09 14:30:45,100]:DEBUG:          |                       |               export                     |
[2024-09-09 14:30:45,100]:DEBUG:          |                       | OPENBLAS_NUM_THREADS=2                   |
[2024-09-09 14:30:45,100]:DEBUG:          |                       |         export GOTO_NUM_THREADS=2        |
[2024-09-09 14:30:45,100]:DEBUG:          |                       |               export SLURM_CPU_BIND="map |
[2024-09-09 14:30:45,100]:DEBUG:          |                       | _cpu:16@COMMA17@COMMA18@COMMA19@COMMA20@ |
[2024-09-09 14:30:45,100]:DEBUG:          |                       | COMMA21@COMMA22@COMMA23@COMMA24@COMMA25@ |
[2024-09-09 14:30:45,100]:DEBUG:          |                       | COMMA26@COMMA27@COMMA28@COMMA29@COMMA30@ |
[2024-09-09 14:30:45,100]:DEBUG:          |                       | COMMA31@COMMA48@COMMA49@COMMA50@COMMA51@ |
[2024-09-09 14:30:45,100]:DEBUG:          |                       | COMMA52@COMMA53@COMMA54@COMMA55@COMMA56@ |
[2024-09-09 14:30:45,100]:DEBUG:          |                       | COMMA57@COMMA58@COMMA59@COMMA60@COMMA61@ |
[2024-09-09 14:30:45,100]:DEBUG:          |                       | COMMA62@COMMA63@COMMA80@COMMA81@COMMA82@ |
[2024-09-09 14:30:45,100]:DEBUG:          |                       | COMMA83@COMMA84@COMMA85@COMMA86@COMMA87@ |
[2024-09-09 14:30:45,100]:DEBUG:          |                       | COMMA88@COMMA89@COMMA90@COMMA91@COMMA92@ |
[2024-09-09 14:30:45,100]:DEBUG:          |                       | COMMA93@COMMA94@COMMA95@COMMA112@COMMA11 |
[2024-09-09 14:30:45,100]:DEBUG:          |                       | 3@COMMA114@COMMA115@COMMA116@COMMA117@CO |
[2024-09-09 14:30:45,100]:DEBUG:          |                       | MMA118@COMMA119@COMMA120@COMMA121@COMMA1 |
[2024-09-09 14:30:45,100]:DEBUG:          |                       | 22@COMMA123@COMMA124@COMMA125@COMMA126@C |
[2024-09-09 14:30:45,100]:DEBUG:          |                       | OMMA127"                                 |
[2024-09-09 14:30:45,100]:DEBUG:          |                       |               export OMP_PROC_BIND=true  |
[2024-09-09 14:30:45,101]:DEBUG:          |                       |         export OMP_PLACES=cores          |
[2024-09-09 14:30:45,101]:DEBUG:          |                       |         echo "Current loaded modules"    |
[2024-09-09 14:30:45,101]:DEBUG:          |                       |         echo "----------------------"    |
[2024-09-09 14:30:45,101]:DEBUG:          |                       |         module list                      |
[2024-09-09 14:30:45,101]:DEBUG:          |                       |         echo ""                          |
[2024-09-09 14:30:45,101]:DEBUG:          |                       |         echo "Current environment        |
[2024-09-09 14:30:45,101]:DEBUG:          |                       | variables"                               |
[2024-09-09 14:30:45,101]:DEBUG:          |                       |         echo                             |
[2024-09-09 14:30:45,101]:DEBUG:          |                       | "-----------------------------"          |
[2024-09-09 14:30:45,101]:DEBUG:          |                       |         env                              |
[2024-09-09 14:30:45,101]:DEBUG:          |                       |         echo ""                          |
[2024-09-09 14:30:45,101]:DEBUG:          |                       |         echo "Current SIESTA linked      |
[2024-09-09 14:30:45,101]:DEBUG:          |                       | libraries"                               |
[2024-09-09 14:30:45,101]:DEBUG:          |                       |         echo                             |
[2024-09-09 14:30:45,101]:DEBUG:          |                       | "-------------------------------"        |
[2024-09-09 14:30:45,101]:DEBUG:          |                       |         ldd $(which siesta)              |
[2024-09-09 14:30:45,101]:DEBUG:          |                       |         echo ""                          |
[2024-09-09 14:30:45,101]:DEBUG:   copy "/home/it4i-fpedron/JUBE4MaX/max-inputs/platforms/it4i/karolina-gpu/submit.job" -> "submit.job"
[2024-09-09 14:30:45,103]:DEBUG:   copy "/home/it4i-fpedron/JUBE4MaX/max-inputs/applications/siesta/gpu-bindings/karolina-gpu-bind.sh" -> "karolina-gpu-bind.sh"
[2024-09-09 14:30:45,106]:DEBUG:   copy "/home/it4i-fpedron/JUBE4MaX/max-inputs/workloads/siesta/covid-spike/inputfiles/C.psf" -> "C.psf"
[2024-09-09 14:30:45,107]:DEBUG:   copy "/home/it4i-fpedron/JUBE4MaX/max-inputs/workloads/siesta/covid-spike/inputfiles/H.psf" -> "H.psf"
[2024-09-09 14:30:45,110]:DEBUG:   copy "/home/it4i-fpedron/JUBE4MaX/max-inputs/workloads/siesta/covid-spike/inputfiles/N.psf" -> "N.psf"
[2024-09-09 14:30:45,111]:DEBUG:   copy "/home/it4i-fpedron/JUBE4MaX/max-inputs/workloads/siesta/covid-spike/inputfiles/O.psf" -> "O.psf"
[2024-09-09 14:30:45,114]:DEBUG:   copy "/home/it4i-fpedron/JUBE4MaX/max-inputs/workloads/siesta/covid-spike/inputfiles/S.psf" -> "S.psf"
[2024-09-09 14:30:45,115]:DEBUG:   copy "/home/it4i-fpedron/JUBE4MaX/max-inputs/workloads/siesta/covid-spike/inputfiles/old-nsys-wrapper-compute_dm.sh" -> "old-nsys-wrapper-compute_dm.sh"
[2024-09-09 14:30:45,117]:DEBUG:   copy "/home/it4i-fpedron/JUBE4MaX/max-inputs/workloads/siesta/covid-spike/inputfiles/16kpoint.KP" -> "16kpoint.KP"
[2024-09-09 14:30:45,118]:DEBUG:   copy "/home/it4i-fpedron/JUBE4MaX/max-inputs/workloads/siesta/covid-spike/inputfiles/1kpoint.KP" -> "1kpoint.KP"
[2024-09-09 14:30:45,119]:DEBUG:   copy "/home/it4i-fpedron/JUBE4MaX/max-inputs/workloads/siesta/covid-spike/inputfiles/2kpoint.KP" -> "2kpoint.KP"
[2024-09-09 14:30:45,121]:DEBUG:   copy "/home/it4i-fpedron/JUBE4MaX/max-inputs/workloads/siesta/covid-spike/inputfiles/4kpoint.KP" -> "4kpoint.KP"
[2024-09-09 14:30:45,122]:DEBUG:   copy "/home/it4i-fpedron/JUBE4MaX/max-inputs/workloads/siesta/covid-spike/inputfiles/8kpoint.KP" -> "8kpoint.KP"
[2024-09-09 14:30:45,124]:DEBUG:   copy "/home/it4i-fpedron/JUBE4MaX/max-inputs/workloads/siesta/covid-spike/inputfiles/12k.coor" -> "12k.coor"
[2024-09-09 14:30:45,127]:DEBUG:   copy "/home/it4i-fpedron/JUBE4MaX/max-inputs/workloads/siesta/covid-spike/inputfiles/8k.coor" -> "8k.coor"
[2024-09-09 14:30:45,129]:DEBUG:   copy "/home/it4i-fpedron/JUBE4MaX/max-inputs/workloads/siesta/covid-spike/inputfiles/covid-12k-diag.fdf.in" -> "covid-12k-diag.fdf.in"
[2024-09-09 14:30:45,132]:DEBUG:   copy "/home/it4i-fpedron/JUBE4MaX/max-inputs/workloads/siesta/covid-spike/inputfiles/covid-8k-diag.fdf.in" -> "covid-8k-diag.fdf.in"
[2024-09-09 14:30:45,134]:DEBUG:   copy "/home/it4i-fpedron/JUBE4MaX/max-inputs/workloads/siesta/covid-spike/inputfiles/32kpoint.KP" -> "32kpoint.KP"
[2024-09-09 14:30:45,136]:DEBUG:   copy "/home/it4i-fpedron/JUBE4MaX/max-inputs/workloads/siesta/covid-spike/inputfiles/64kpoint.KP" -> "64kpoint.KP"
[2024-09-09 14:30:45,140]:DEBUG:   substitute submit.job -> submit.job
[2024-09-09 14:30:45,141]:DEBUG:   substitute:
[2024-09-09 14:30:45,141]:DEBUG:          | source            | dest                                     |
[2024-09-09 14:30:45,141]:DEBUG:          |-------------------|------------------------------------------|
[2024-09-09 14:30:45,141]:DEBUG:          | #BENCHNAME#       | CovidWeakKPoints                         |
[2024-09-09 14:30:45,141]:DEBUG:          | #QUEUE#           | qgpu                                     |
[2024-09-09 14:30:45,141]:DEBUG:          | #TIMELIMIT#       | 00:59:00                                 |
[2024-09-09 14:30:45,141]:DEBUG:          | #PREPROCESS#      |                                          |
[2024-09-09 14:30:45,141]:DEBUG:          | #POSTPROCESS#     |                                          |
[2024-09-09 14:30:45,141]:DEBUG:          | #STARTER#         | srun                                     |
[2024-09-09 14:30:45,141]:DEBUG:          | #ARGS_STARTER#    | -n 2048                                  |
[2024-09-09 14:30:45,141]:DEBUG:          | #MEASUREMENT#     |                                          |
[2024-09-09 14:30:45,141]:DEBUG:          | #EXECUTABLE#      | karolina-gpu-bind.sh siesta              |
[2024-09-09 14:30:45,141]:DEBUG:          | #ARGS_EXECUTABLE# | covid-8k-diag.fdf > covid-8k-diag.out    |
[2024-09-09 14:30:45,141]:DEBUG:          | #FLAG#            | touch ready                              |
[2024-09-09 14:30:45,141]:DEBUG:          | #NODES#           | 32                                       |
[2024-09-09 14:30:45,141]:DEBUG:          | #THREADSPERTASK#  | 2                                        |
[2024-09-09 14:30:45,141]:DEBUG:          | #TASKSPERNODE#    | 64                                       |
[2024-09-09 14:30:45,141]:DEBUG:          | #TASKSPERSOCKET#  | $taskspersocket                          |
[2024-09-09 14:30:45,141]:DEBUG:          | #CPUSPERTASK#     | 2                                        |
[2024-09-09 14:30:45,141]:DEBUG:          | #PE               | 64                                       |
[2024-09-09 14:30:45,141]:DEBUG:          | #GPUSPERNODE#     | 8                                        |
[2024-09-09 14:30:45,141]:DEBUG:          | #ACCOUNT_NO#      | dd-24-70                                 |
[2024-09-09 14:30:45,141]:DEBUG:          | #MODULES#         | module load GCC/12.3.0 OpenBLAS LAPACK   |
[2024-09-09 14:30:45,141]:DEBUG:          |                   | ScaLAPACK/2.2.0-gompi-2023b-fb           |
[2024-09-09 14:30:45,141]:DEBUG:          |                   | libreadline CUDA/12.3.0;                 |
[2024-09-09 14:30:45,141]:DEBUG:          |                   |         module load                      |
[2024-09-09 14:30:45,141]:DEBUG:          |                   | PnetCDF/1.12.3-gompi-2022a netCDF-       |
[2024-09-09 14:30:45,141]:DEBUG:          |                   | Fortran/4.6.1-gompi-2023b                |
[2024-09-09 14:30:45,141]:DEBUG:          |                   | FFTW.MPI/3.3.10-gompi-2023b              |
[2024-09-09 14:30:45,141]:DEBUG:          | #WRAPNAME#        |                                          |
[2024-09-09 14:30:45,142]:DEBUG:          | #WRAPPRE#         | export PATH=${PATH}:/home/it4i-          |
[2024-09-09 14:30:45,142]:DEBUG:          |                   | fpedron/Siesta/siesta-gnu-gpu/bin/       |
[2024-09-09 14:30:45,142]:DEBUG:          |                   |         export LD_LIBRARY_PATH=${LD_LIBR |
[2024-09-09 14:30:45,142]:DEBUG:          |                   | ARY_PATH}:/home/it4i-                    |
[2024-09-09 14:30:45,142]:DEBUG:          |                   | fpedron/Siesta/elpa-gpu/lib/             |
[2024-09-09 14:30:45,142]:DEBUG:          |                   |               export LIBRARY_PATH=${LIBR |
[2024-09-09 14:30:45,142]:DEBUG:          |                   | ARY_PATH}:/home/it4i-                    |
[2024-09-09 14:30:45,142]:DEBUG:          |                   | fpedron/Siesta/elpa-gpu/lib/             |
[2024-09-09 14:30:45,142]:DEBUG:          |                   |               export                     |
[2024-09-09 14:30:45,142]:DEBUG:          |                   | OPENBLAS_NUM_THREADS=2                   |
[2024-09-09 14:30:45,142]:DEBUG:          |                   |         export GOTO_NUM_THREADS=2        |
[2024-09-09 14:30:45,142]:DEBUG:          |                   |               export SLURM_CPU_BIND="map |
[2024-09-09 14:30:45,142]:DEBUG:          |                   | _cpu:16@COMMA17@COMMA18@COMMA19@COMMA20@ |
[2024-09-09 14:30:45,142]:DEBUG:          |                   | COMMA21@COMMA22@COMMA23@COMMA24@COMMA25@ |
[2024-09-09 14:30:45,142]:DEBUG:          |                   | COMMA26@COMMA27@COMMA28@COMMA29@COMMA30@ |
[2024-09-09 14:30:45,142]:DEBUG:          |                   | COMMA31@COMMA48@COMMA49@COMMA50@COMMA51@ |
[2024-09-09 14:30:45,142]:DEBUG:          |                   | COMMA52@COMMA53@COMMA54@COMMA55@COMMA56@ |
[2024-09-09 14:30:45,142]:DEBUG:          |                   | COMMA57@COMMA58@COMMA59@COMMA60@COMMA61@ |
[2024-09-09 14:30:45,142]:DEBUG:          |                   | COMMA62@COMMA63@COMMA80@COMMA81@COMMA82@ |
[2024-09-09 14:30:45,142]:DEBUG:          |                   | COMMA83@COMMA84@COMMA85@COMMA86@COMMA87@ |
[2024-09-09 14:30:45,142]:DEBUG:          |                   | COMMA88@COMMA89@COMMA90@COMMA91@COMMA92@ |
[2024-09-09 14:30:45,142]:DEBUG:          |                   | COMMA93@COMMA94@COMMA95@COMMA112@COMMA11 |
[2024-09-09 14:30:45,142]:DEBUG:          |                   | 3@COMMA114@COMMA115@COMMA116@COMMA117@CO |
[2024-09-09 14:30:45,142]:DEBUG:          |                   | MMA118@COMMA119@COMMA120@COMMA121@COMMA1 |
[2024-09-09 14:30:45,142]:DEBUG:          |                   | 22@COMMA123@COMMA124@COMMA125@COMMA126@C |
[2024-09-09 14:30:45,142]:DEBUG:          |                   | OMMA127"                                 |
[2024-09-09 14:30:45,142]:DEBUG:          |                   |               export OMP_PROC_BIND=true  |
[2024-09-09 14:30:45,142]:DEBUG:          |                   |         export OMP_PLACES=cores          |
[2024-09-09 14:30:45,142]:DEBUG:          |                   |         echo "Current loaded modules"    |
[2024-09-09 14:30:45,142]:DEBUG:          |                   |         echo "----------------------"    |
[2024-09-09 14:30:45,142]:DEBUG:          |                   |         module list                      |
[2024-09-09 14:30:45,142]:DEBUG:          |                   |         echo ""                          |
[2024-09-09 14:30:45,142]:DEBUG:          |                   |         echo "Current environment        |
[2024-09-09 14:30:45,142]:DEBUG:          |                   | variables"                               |
[2024-09-09 14:30:45,142]:DEBUG:          |                   |         echo                             |
[2024-09-09 14:30:45,142]:DEBUG:          |                   | "-----------------------------"          |
[2024-09-09 14:30:45,142]:DEBUG:          |                   |         env                              |
[2024-09-09 14:30:45,142]:DEBUG:          |                   |         echo ""                          |
[2024-09-09 14:30:45,142]:DEBUG:          |                   |         echo "Current SIESTA linked      |
[2024-09-09 14:30:45,142]:DEBUG:          |                   | libraries"                               |
[2024-09-09 14:30:45,142]:DEBUG:          |                   |         echo                             |
[2024-09-09 14:30:45,142]:DEBUG:          |                   | "-------------------------------"        |
[2024-09-09 14:30:45,142]:DEBUG:          |                   |         ldd $(which siesta)              |
[2024-09-09 14:30:45,142]:DEBUG:          |                   |         echo ""                          |
[2024-09-09 14:30:45,142]:DEBUG:          | #WRAPPOST#        |                                          |
[2024-09-09 14:30:45,142]:DEBUG:          | @COMMA            | ,                                        |
[2024-09-09 14:30:45,144]:DEBUG:   substitute covid-8k-diag.fdf.in -> covid-8k-diag.fdf
[2024-09-09 14:30:45,144]:DEBUG:   substitute:
[2024-09-09 14:30:45,144]:DEBUG:          | source              | dest                   |
[2024-09-09 14:30:45,144]:DEBUG:          |---------------------|------------------------|
[2024-09-09 14:30:45,144]:DEBUG:          | #BASISSIZE#         | SZ                     |
[2024-09-09 14:30:45,144]:DEBUG:          | #MAXITER#           | 5                      |
[2024-09-09 14:30:45,144]:DEBUG:          | #SOLUTIONMETHOD#    | elsi                   |
[2024-09-09 14:30:45,144]:DEBUG:          | #ELSISOLVER#        | elpa                   |
[2024-09-09 14:30:45,144]:DEBUG:          | #ELSIELPAGPU#       | 1                      |
[2024-09-09 14:30:45,144]:DEBUG:          | #PEXSITASKSPERPOLE# | 32                     |
[2024-09-09 14:30:45,144]:DEBUG:          | #SCX#               | 1.0                    |
[2024-09-09 14:30:45,144]:DEBUG:          | #SCY#               | 1.0                    |
[2024-09-09 14:30:45,144]:DEBUG:          | #SCZ#               | 1.0                    |
[2024-09-09 14:30:45,144]:DEBUG:          | #KPX#               | 1                      |
[2024-09-09 14:30:45,144]:DEBUG:          | #KPY#               | 1                      |
[2024-09-09 14:30:45,144]:DEBUG:          | #KPZ#               | 1                      |
[2024-09-09 14:30:45,144]:DEBUG:          | #KGRIDFILE#         | kgrid.File 32kpoint.KP |
[2024-09-09 14:30:45,149]:DEBUG: >>> sbatch submit.job
[2024-09-09 14:30:45,149]:DEBUG:     stdout: /home/it4i-fpedron/JUBE4MaX-GPU/max-inputs/interface/siesta/_CovidWeakKPoints/000001/000000_submit/work/stdout
[2024-09-09 14:30:45,149]:DEBUG:     stderr: /home/it4i-fpedron/JUBE4MaX-GPU/max-inputs/interface/siesta/_CovidWeakKPoints/000001/000000_submit/work/stderr
[2024-09-09 14:30:45,174]:DEBUG: Create new workpackages for workpackage submit(0)
[2024-09-09 14:30:45,174]:DEBUG:   0 new workpackages created
[2024-09-09 14:30:45,180]:DEBUG: ----- submit ( iter:0 | id:1 | parents: | cycle:0 | procs:1 ) -----
[2024-09-09 14:30:45,183]:DEBUG:   available parameter:
[2024-09-09 14:30:45,183]:DEBUG:          | parameter             | value                                    |
[2024-09-09 14:30:45,183]:DEBUG:          |-----------------------|------------------------------------------|
[2024-09-09 14:30:45,183]:DEBUG:          | accountno             | dd-24-70                                 |
[2024-09-09 14:30:45,183]:DEBUG:          | args_executable       | covid-8k-diag.fdf > covid-8k-diag.out    |
[2024-09-09 14:30:45,183]:DEBUG:          | args_starter          | -n 4096                                  |
[2024-09-09 14:30:45,183]:DEBUG:          | basename              | covid-8k-diag                            |
[2024-09-09 14:30:45,183]:DEBUG:          | basis_size            | SZ                                       |
[2024-09-09 14:30:45,183]:DEBUG:          | binpaths              | /home/it4i-fpedron/Siesta/siesta-gnu-    |
[2024-09-09 14:30:45,183]:DEBUG:          |                       | gpu/bin/                                 |
[2024-09-09 14:30:45,183]:DEBUG:          | casename              | covid-spike                              |
[2024-09-09 14:30:45,183]:DEBUG:          | cpuspertask           | 2                                        |
[2024-09-09 14:30:45,183]:DEBUG:          | default_bind          | "map_cpu:16@COMMA17@COMMA18@COMMA19@COMM |
[2024-09-09 14:30:45,183]:DEBUG:          |                       | A20@COMMA21@COMMA22@COMMA23@COMMA24@COMM |
[2024-09-09 14:30:45,183]:DEBUG:          |                       | A25@COMMA26@COMMA27@COMMA28@COMMA29@COMM |
[2024-09-09 14:30:45,183]:DEBUG:          |                       | A30@COMMA31@COMMA48@COMMA49@COMMA50@COMM |
[2024-09-09 14:30:45,183]:DEBUG:          |                       | A51@COMMA52@COMMA53@COMMA54@COMMA55@COMM |
[2024-09-09 14:30:45,183]:DEBUG:          |                       | A56@COMMA57@COMMA58@COMMA59@COMMA60@COMM |
[2024-09-09 14:30:45,183]:DEBUG:          |                       | A61@COMMA62@COMMA63@COMMA80@COMMA81@COMM |
[2024-09-09 14:30:45,183]:DEBUG:          |                       | A82@COMMA83@COMMA84@COMMA85@COMMA86@COMM |
[2024-09-09 14:30:45,183]:DEBUG:          |                       | A87@COMMA88@COMMA89@COMMA90@COMMA91@COMM |
[2024-09-09 14:30:45,183]:DEBUG:          |                       | A92@COMMA93@COMMA94@COMMA95@COMMA112@COM |
[2024-09-09 14:30:45,183]:DEBUG:          |                       | MA113@COMMA114@COMMA115@COMMA116@COMMA11 |
[2024-09-09 14:30:45,183]:DEBUG:          |                       | 7@COMMA118@COMMA119@COMMA120@COMMA121@CO |
[2024-09-09 14:30:45,183]:DEBUG:          |                       | MMA122@COMMA123@COMMA124@COMMA125@COMMA1 |
[2024-09-09 14:30:45,183]:DEBUG:          |                       | 26@COMMA127"                             |
[2024-09-09 14:30:45,183]:DEBUG:          | default_ntasks        | 64                                       |
[2024-09-09 14:30:45,183]:DEBUG:          | default_omp_threads   | 2                                        |
[2024-09-09 14:30:45,183]:DEBUG:          | dirin                 | covid-spike/inputfiles                   |
[2024-09-09 14:30:45,183]:DEBUG:          | done_file             | ready                                    |
[2024-09-09 14:30:45,183]:DEBUG:          | elsi_solver           | elpa                                     |
[2024-09-09 14:30:45,183]:DEBUG:          | env                   |                                          |
[2024-09-09 14:30:45,183]:DEBUG:          | environ_load          | module load GCC/12.3.0 OpenBLAS LAPACK   |
[2024-09-09 14:30:45,183]:DEBUG:          |                       | ScaLAPACK/2.2.0-gompi-2023b-fb           |
[2024-09-09 14:30:45,183]:DEBUG:          |                       | libreadline CUDA/12.3.0;                 |
[2024-09-09 14:30:45,183]:DEBUG:          |                       |         module load                      |
[2024-09-09 14:30:45,183]:DEBUG:          |                       | PnetCDF/1.12.3-gompi-2022a netCDF-       |
[2024-09-09 14:30:45,183]:DEBUG:          |                       | Fortran/4.6.1-gompi-2023b                |
[2024-09-09 14:30:45,183]:DEBUG:          |                       | FFTW.MPI/3.3.10-gompi-2023b              |
[2024-09-09 14:30:45,183]:DEBUG:          | errlogfile            | job.err                                  |
[2024-09-09 14:30:45,183]:DEBUG:          | executable            | karolina-gpu-bind.sh siesta              |
[2024-09-09 14:30:45,183]:DEBUG:          | fin                   | covid-8k-diag.fdf                        |
[2024-09-09 14:30:45,183]:DEBUG:          | fout                  | covid-8k-diag.out                        |
[2024-09-09 14:30:45,183]:DEBUG:          | fset                  | covid-8k-diag.fdf.in                     |
[2024-09-09 14:30:45,183]:DEBUG:          | gpu_flag              | 1                                        |
[2024-09-09 14:30:45,183]:DEBUG:          | gpubindfile           | karolina-gpu-bind.sh                     |
[2024-09-09 14:30:45,183]:DEBUG:          | gpuspernode           | 8                                        |
[2024-09-09 14:30:45,183]:DEBUG:          | jube_benchmark_home   | /home/it4i-fpedron/JUBE4MaX-GPU/max-     |
[2024-09-09 14:30:45,183]:DEBUG:          |                       | inputs/interface/siesta                  |
[2024-09-09 14:30:45,183]:DEBUG:          | jube_benchmark_id     | 1                                        |
[2024-09-09 14:30:45,184]:DEBUG:          | jube_benchmark_name   | CovidWeakKPoints                         |
[2024-09-09 14:30:45,184]:DEBUG:          | jube_benchmark_padid  | 000001                                   |
[2024-09-09 14:30:45,184]:DEBUG:          | jube_benchmark_rundir | /home/it4i-fpedron/JUBE4MaX-GPU/max-inpu |
[2024-09-09 14:30:45,184]:DEBUG:          |                       | ts/interface/siesta/_CovidWeakKPoints/00 |
[2024-09-09 14:30:45,184]:DEBUG:          |                       | 0001                                     |
[2024-09-09 14:30:45,184]:DEBUG:          | jube_benchmark_start  | 2024-09-09T14:30:44                      |
[2024-09-09 14:30:45,184]:DEBUG:          | jube_step_cycles      | 1                                        |
[2024-09-09 14:30:45,184]:DEBUG:          | jube_step_iterations  | 1                                        |
[2024-09-09 14:30:45,184]:DEBUG:          | jube_step_name        | submit                                   |
[2024-09-09 14:30:45,184]:DEBUG:          | jube_wp_abspath       | /home/it4i-fpedron/JUBE4MaX-GPU/max-inpu |
[2024-09-09 14:30:45,184]:DEBUG:          |                       | ts/interface/siesta/_CovidWeakKPoints/00 |
[2024-09-09 14:30:45,184]:DEBUG:          |                       | 0001/000001_submit/work                  |
[2024-09-09 14:30:45,184]:DEBUG:          | jube_wp_cycle         | 0                                        |
[2024-09-09 14:30:45,184]:DEBUG:          | jube_wp_envlist       |                                          |
[2024-09-09 14:30:45,184]:DEBUG:          | jube_wp_envstr        |                                          |
[2024-09-09 14:30:45,184]:DEBUG:          | jube_wp_id            | 1                                        |
[2024-09-09 14:30:45,184]:DEBUG:          | jube_wp_iteration     | 0                                        |
[2024-09-09 14:30:45,184]:DEBUG:          | jube_wp_padid         | 000001                                   |
[2024-09-09 14:30:45,184]:DEBUG:          | jube_wp_relpath       | _CovidWeakKPoints/000001/000001_submit/w |
[2024-09-09 14:30:45,184]:DEBUG:          |                       | ork                                      |
[2024-09-09 14:30:45,184]:DEBUG:          | jube_wp_status        | RUNNING                                  |
[2024-09-09 14:30:45,184]:DEBUG:          | kgridfile             | kgrid.File 64kpoint.KP                   |
[2024-09-09 14:30:45,184]:DEBUG:          | kpoints_x             | 1                                        |
[2024-09-09 14:30:45,184]:DEBUG:          | kpoints_y             | 1                                        |
[2024-09-09 14:30:45,184]:DEBUG:          | kpoints_z             | 1                                        |
[2024-09-09 14:30:45,184]:DEBUG:          | libpaths              | /home/it4i-fpedron/Siesta/elpa-gpu/lib/  |
[2024-09-09 14:30:45,184]:DEBUG:          | mapping               |                                          |
[2024-09-09 14:30:45,184]:DEBUG:          | max_iterations        | 5                                        |
[2024-09-09 14:30:45,184]:DEBUG:          | modules               | module load GCC/12.3.0 OpenBLAS LAPACK   |
[2024-09-09 14:30:45,184]:DEBUG:          |                       | ScaLAPACK/2.2.0-gompi-2023b-fb           |
[2024-09-09 14:30:45,184]:DEBUG:          |                       | libreadline CUDA/12.3.0;                 |
[2024-09-09 14:30:45,184]:DEBUG:          |                       |         module load                      |
[2024-09-09 14:30:45,184]:DEBUG:          |                       | PnetCDF/1.12.3-gompi-2022a netCDF-       |
[2024-09-09 14:30:45,184]:DEBUG:          |                       | Fortran/4.6.1-gompi-2023b                |
[2024-09-09 14:30:45,184]:DEBUG:          |                       | FFTW.MPI/3.3.10-gompi-2023b              |
[2024-09-09 14:30:45,184]:DEBUG:          | ncores                | 8192                                     |
[2024-09-09 14:30:45,184]:DEBUG:          | ncpus                 | 8192                                     |
[2024-09-09 14:30:45,184]:DEBUG:          | nodes                 | 64                                       |
[2024-09-09 14:30:45,184]:DEBUG:          | nsocket               | 1                                        |
[2024-09-09 14:30:45,184]:DEBUG:          | outlogfile            | job.out                                  |
[2024-09-09 14:30:45,184]:DEBUG:          | pe                    | 128                                      |
[2024-09-09 14:30:45,184]:DEBUG:          | postprocess           |                                          |
[2024-09-09 14:30:45,184]:DEBUG:          | preprocess            |                                          |
[2024-09-09 14:30:45,184]:DEBUG:          | queue                 | qgpu                                     |
[2024-09-09 14:30:45,184]:DEBUG:          | shared_folder         | shared                                   |
[2024-09-09 14:30:45,184]:DEBUG:          | shared_job_info       | shared/jobid                             |
[2024-09-09 14:30:45,184]:DEBUG:          | siestaexports         | export PATH=${PATH}:/home/it4i-          |
[2024-09-09 14:30:45,184]:DEBUG:          |                       | fpedron/Siesta/siesta-gnu-gpu/bin/       |
[2024-09-09 14:30:45,184]:DEBUG:          |                       |         export LD_LIBRARY_PATH=${LD_LIBR |
[2024-09-09 14:30:45,184]:DEBUG:          |                       | ARY_PATH}:/home/it4i-                    |
[2024-09-09 14:30:45,184]:DEBUG:          |                       | fpedron/Siesta/elpa-gpu/lib/             |
[2024-09-09 14:30:45,184]:DEBUG:          |                       |               export LIBRARY_PATH=${LIBR |
[2024-09-09 14:30:45,184]:DEBUG:          |                       | ARY_PATH}:/home/it4i-                    |
[2024-09-09 14:30:45,184]:DEBUG:          |                       | fpedron/Siesta/elpa-gpu/lib/             |
[2024-09-09 14:30:45,184]:DEBUG:          |                       |               export                     |
[2024-09-09 14:30:45,184]:DEBUG:          |                       | OPENBLAS_NUM_THREADS=2                   |
[2024-09-09 14:30:45,184]:DEBUG:          |                       |         export GOTO_NUM_THREADS=2        |
[2024-09-09 14:30:45,184]:DEBUG:          |                       |               export SLURM_CPU_BIND="map |
[2024-09-09 14:30:45,184]:DEBUG:          |                       | _cpu:16@COMMA17@COMMA18@COMMA19@COMMA20@ |
[2024-09-09 14:30:45,184]:DEBUG:          |                       | COMMA21@COMMA22@COMMA23@COMMA24@COMMA25@ |
[2024-09-09 14:30:45,184]:DEBUG:          |                       | COMMA26@COMMA27@COMMA28@COMMA29@COMMA30@ |
[2024-09-09 14:30:45,184]:DEBUG:          |                       | COMMA31@COMMA48@COMMA49@COMMA50@COMMA51@ |
[2024-09-09 14:30:45,184]:DEBUG:          |                       | COMMA52@COMMA53@COMMA54@COMMA55@COMMA56@ |
[2024-09-09 14:30:45,184]:DEBUG:          |                       | COMMA57@COMMA58@COMMA59@COMMA60@COMMA61@ |
[2024-09-09 14:30:45,184]:DEBUG:          |                       | COMMA62@COMMA63@COMMA80@COMMA81@COMMA82@ |
[2024-09-09 14:30:45,184]:DEBUG:          |                       | COMMA83@COMMA84@COMMA85@COMMA86@COMMA87@ |
[2024-09-09 14:30:45,184]:DEBUG:          |                       | COMMA88@COMMA89@COMMA90@COMMA91@COMMA92@ |
[2024-09-09 14:30:45,184]:DEBUG:          |                       | COMMA93@COMMA94@COMMA95@COMMA112@COMMA11 |
[2024-09-09 14:30:45,184]:DEBUG:          |                       | 3@COMMA114@COMMA115@COMMA116@COMMA117@CO |
[2024-09-09 14:30:45,184]:DEBUG:          |                       | MMA118@COMMA119@COMMA120@COMMA121@COMMA1 |
[2024-09-09 14:30:45,184]:DEBUG:          |                       | 22@COMMA123@COMMA124@COMMA125@COMMA126@C |
[2024-09-09 14:30:45,184]:DEBUG:          |                       | OMMA127"                                 |
[2024-09-09 14:30:45,184]:DEBUG:          |                       |               export OMP_PROC_BIND=true  |
[2024-09-09 14:30:45,184]:DEBUG:          |                       |         export OMP_PLACES=cores          |
[2024-09-09 14:30:45,184]:DEBUG:          |                       |         echo "Current loaded modules"    |
[2024-09-09 14:30:45,184]:DEBUG:          |                       |         echo "----------------------"    |
[2024-09-09 14:30:45,184]:DEBUG:          |                       |         module list                      |
[2024-09-09 14:30:45,184]:DEBUG:          |                       |         echo ""                          |
[2024-09-09 14:30:45,184]:DEBUG:          |                       |         echo "Current environment        |
[2024-09-09 14:30:45,185]:DEBUG:          |                       | variables"                               |
[2024-09-09 14:30:45,185]:DEBUG:          |                       |         echo                             |
[2024-09-09 14:30:45,185]:DEBUG:          |                       | "-----------------------------"          |
[2024-09-09 14:30:45,185]:DEBUG:          |                       |         env                              |
[2024-09-09 14:30:45,185]:DEBUG:          |                       |         echo ""                          |
[2024-09-09 14:30:45,185]:DEBUG:          |                       |         echo "Current SIESTA linked      |
[2024-09-09 14:30:45,185]:DEBUG:          |                       | libraries"                               |
[2024-09-09 14:30:45,185]:DEBUG:          |                       |         echo                             |
[2024-09-09 14:30:45,185]:DEBUG:          |                       | "-------------------------------"        |
[2024-09-09 14:30:45,185]:DEBUG:          |                       |         ldd $(which siesta)              |
[2024-09-09 14:30:45,185]:DEBUG:          |                       |         echo ""                          |
[2024-09-09 14:30:45,185]:DEBUG:          | solution_method       | elsi                                     |
[2024-09-09 14:30:45,185]:DEBUG:          | starter               | srun                                     |
[2024-09-09 14:30:45,185]:DEBUG:          | submit                | sbatch                                   |
[2024-09-09 14:30:45,185]:DEBUG:          | submit_script         | submit.job                               |
[2024-09-09 14:30:45,185]:DEBUG:          | supercell_x           | 1.0                                      |
[2024-09-09 14:30:45,185]:DEBUG:          | supercell_y           | 1.0                                      |
[2024-09-09 14:30:45,185]:DEBUG:          | supercell_z           | 1.0                                      |
[2024-09-09 14:30:45,185]:DEBUG:          | tasks                 | 4096                                     |
[2024-09-09 14:30:45,185]:DEBUG:          | tasks_per_pole        | 32                                       |
[2024-09-09 14:30:45,185]:DEBUG:          | taskspernode          | 64                                       |
[2024-09-09 14:30:45,185]:DEBUG:          | threads               | 128                                      |
[2024-09-09 14:30:45,185]:DEBUG:          | threadspertask        | 2                                        |
[2024-09-09 14:30:45,185]:DEBUG:          | timelimit             | 00:59:00                                 |
[2024-09-09 14:30:45,185]:DEBUG:          | wrapname              |                                          |
[2024-09-09 14:30:45,185]:DEBUG:          | wrappost              |                                          |
[2024-09-09 14:30:45,185]:DEBUG:          | wrappre               | export PATH=${PATH}:/home/it4i-          |
[2024-09-09 14:30:45,185]:DEBUG:          |                       | fpedron/Siesta/siesta-gnu-gpu/bin/       |
[2024-09-09 14:30:45,185]:DEBUG:          |                       |         export LD_LIBRARY_PATH=${LD_LIBR |
[2024-09-09 14:30:45,185]:DEBUG:          |                       | ARY_PATH}:/home/it4i-                    |
[2024-09-09 14:30:45,185]:DEBUG:          |                       | fpedron/Siesta/elpa-gpu/lib/             |
[2024-09-09 14:30:45,185]:DEBUG:          |                       |               export LIBRARY_PATH=${LIBR |
[2024-09-09 14:30:45,185]:DEBUG:          |                       | ARY_PATH}:/home/it4i-                    |
[2024-09-09 14:30:45,185]:DEBUG:          |                       | fpedron/Siesta/elpa-gpu/lib/             |
[2024-09-09 14:30:45,185]:DEBUG:          |                       |               export                     |
[2024-09-09 14:30:45,185]:DEBUG:          |                       | OPENBLAS_NUM_THREADS=2                   |
[2024-09-09 14:30:45,185]:DEBUG:          |                       |         export GOTO_NUM_THREADS=2        |
[2024-09-09 14:30:45,185]:DEBUG:          |                       |               export SLURM_CPU_BIND="map |
[2024-09-09 14:30:45,185]:DEBUG:          |                       | _cpu:16@COMMA17@COMMA18@COMMA19@COMMA20@ |
[2024-09-09 14:30:45,185]:DEBUG:          |                       | COMMA21@COMMA22@COMMA23@COMMA24@COMMA25@ |
[2024-09-09 14:30:45,185]:DEBUG:          |                       | COMMA26@COMMA27@COMMA28@COMMA29@COMMA30@ |
[2024-09-09 14:30:45,185]:DEBUG:          |                       | COMMA31@COMMA48@COMMA49@COMMA50@COMMA51@ |
[2024-09-09 14:30:45,185]:DEBUG:          |                       | COMMA52@COMMA53@COMMA54@COMMA55@COMMA56@ |
[2024-09-09 14:30:45,185]:DEBUG:          |                       | COMMA57@COMMA58@COMMA59@COMMA60@COMMA61@ |
[2024-09-09 14:30:45,185]:DEBUG:          |                       | COMMA62@COMMA63@COMMA80@COMMA81@COMMA82@ |
[2024-09-09 14:30:45,185]:DEBUG:          |                       | COMMA83@COMMA84@COMMA85@COMMA86@COMMA87@ |
[2024-09-09 14:30:45,185]:DEBUG:          |                       | COMMA88@COMMA89@COMMA90@COMMA91@COMMA92@ |
[2024-09-09 14:30:45,185]:DEBUG:          |                       | COMMA93@COMMA94@COMMA95@COMMA112@COMMA11 |
[2024-09-09 14:30:45,185]:DEBUG:          |                       | 3@COMMA114@COMMA115@COMMA116@COMMA117@CO |
[2024-09-09 14:30:45,185]:DEBUG:          |                       | MMA118@COMMA119@COMMA120@COMMA121@COMMA1 |
[2024-09-09 14:30:45,185]:DEBUG:          |                       | 22@COMMA123@COMMA124@COMMA125@COMMA126@C |
[2024-09-09 14:30:45,185]:DEBUG:          |                       | OMMA127"                                 |
[2024-09-09 14:30:45,185]:DEBUG:          |                       |               export OMP_PROC_BIND=true  |
[2024-09-09 14:30:45,185]:DEBUG:          |                       |         export OMP_PLACES=cores          |
[2024-09-09 14:30:45,185]:DEBUG:          |                       |         echo "Current loaded modules"    |
[2024-09-09 14:30:45,185]:DEBUG:          |                       |         echo "----------------------"    |
[2024-09-09 14:30:45,185]:DEBUG:          |                       |         module list                      |
[2024-09-09 14:30:45,185]:DEBUG:          |                       |         echo ""                          |
[2024-09-09 14:30:45,185]:DEBUG:          |                       |         echo "Current environment        |
[2024-09-09 14:30:45,185]:DEBUG:          |                       | variables"                               |
[2024-09-09 14:30:45,185]:DEBUG:          |                       |         echo                             |
[2024-09-09 14:30:45,185]:DEBUG:          |                       | "-----------------------------"          |
[2024-09-09 14:30:45,185]:DEBUG:          |                       |         env                              |
[2024-09-09 14:30:45,185]:DEBUG:          |                       |         echo ""                          |
[2024-09-09 14:30:45,185]:DEBUG:          |                       |         echo "Current SIESTA linked      |
[2024-09-09 14:30:45,185]:DEBUG:          |                       | libraries"                               |
[2024-09-09 14:30:45,185]:DEBUG:          |                       |         echo                             |
[2024-09-09 14:30:45,185]:DEBUG:          |                       | "-------------------------------"        |
[2024-09-09 14:30:45,185]:DEBUG:          |                       |         ldd $(which siesta)              |
[2024-09-09 14:30:45,185]:DEBUG:          |                       |         echo ""                          |
[2024-09-09 14:30:45,186]:DEBUG:   copy "/home/it4i-fpedron/JUBE4MaX/max-inputs/platforms/it4i/karolina-gpu/submit.job" -> "submit.job"
[2024-09-09 14:30:45,188]:DEBUG:   copy "/home/it4i-fpedron/JUBE4MaX/max-inputs/applications/siesta/gpu-bindings/karolina-gpu-bind.sh" -> "karolina-gpu-bind.sh"
[2024-09-09 14:30:45,189]:DEBUG:   copy "/home/it4i-fpedron/JUBE4MaX/max-inputs/workloads/siesta/covid-spike/inputfiles/C.psf" -> "C.psf"
[2024-09-09 14:30:45,191]:DEBUG:   copy "/home/it4i-fpedron/JUBE4MaX/max-inputs/workloads/siesta/covid-spike/inputfiles/H.psf" -> "H.psf"
[2024-09-09 14:30:45,192]:DEBUG:   copy "/home/it4i-fpedron/JUBE4MaX/max-inputs/workloads/siesta/covid-spike/inputfiles/N.psf" -> "N.psf"
[2024-09-09 14:30:45,194]:DEBUG:   copy "/home/it4i-fpedron/JUBE4MaX/max-inputs/workloads/siesta/covid-spike/inputfiles/O.psf" -> "O.psf"
[2024-09-09 14:30:45,195]:DEBUG:   copy "/home/it4i-fpedron/JUBE4MaX/max-inputs/workloads/siesta/covid-spike/inputfiles/S.psf" -> "S.psf"
[2024-09-09 14:30:45,197]:DEBUG:   copy "/home/it4i-fpedron/JUBE4MaX/max-inputs/workloads/siesta/covid-spike/inputfiles/old-nsys-wrapper-compute_dm.sh" -> "old-nsys-wrapper-compute_dm.sh"
[2024-09-09 14:30:45,198]:DEBUG:   copy "/home/it4i-fpedron/JUBE4MaX/max-inputs/workloads/siesta/covid-spike/inputfiles/16kpoint.KP" -> "16kpoint.KP"
[2024-09-09 14:30:45,199]:DEBUG:   copy "/home/it4i-fpedron/JUBE4MaX/max-inputs/workloads/siesta/covid-spike/inputfiles/1kpoint.KP" -> "1kpoint.KP"
[2024-09-09 14:30:45,200]:DEBUG:   copy "/home/it4i-fpedron/JUBE4MaX/max-inputs/workloads/siesta/covid-spike/inputfiles/2kpoint.KP" -> "2kpoint.KP"
[2024-09-09 14:30:45,201]:DEBUG:   copy "/home/it4i-fpedron/JUBE4MaX/max-inputs/workloads/siesta/covid-spike/inputfiles/4kpoint.KP" -> "4kpoint.KP"
[2024-09-09 14:30:45,203]:DEBUG:   copy "/home/it4i-fpedron/JUBE4MaX/max-inputs/workloads/siesta/covid-spike/inputfiles/8kpoint.KP" -> "8kpoint.KP"
[2024-09-09 14:30:45,204]:DEBUG:   copy "/home/it4i-fpedron/JUBE4MaX/max-inputs/workloads/siesta/covid-spike/inputfiles/12k.coor" -> "12k.coor"
[2024-09-09 14:30:45,207]:DEBUG:   copy "/home/it4i-fpedron/JUBE4MaX/max-inputs/workloads/siesta/covid-spike/inputfiles/8k.coor" -> "8k.coor"
[2024-09-09 14:30:45,209]:DEBUG:   copy "/home/it4i-fpedron/JUBE4MaX/max-inputs/workloads/siesta/covid-spike/inputfiles/covid-12k-diag.fdf.in" -> "covid-12k-diag.fdf.in"
[2024-09-09 14:30:45,210]:DEBUG:   copy "/home/it4i-fpedron/JUBE4MaX/max-inputs/workloads/siesta/covid-spike/inputfiles/covid-8k-diag.fdf.in" -> "covid-8k-diag.fdf.in"
[2024-09-09 14:30:45,211]:DEBUG:   copy "/home/it4i-fpedron/JUBE4MaX/max-inputs/workloads/siesta/covid-spike/inputfiles/32kpoint.KP" -> "32kpoint.KP"
[2024-09-09 14:30:45,213]:DEBUG:   copy "/home/it4i-fpedron/JUBE4MaX/max-inputs/workloads/siesta/covid-spike/inputfiles/64kpoint.KP" -> "64kpoint.KP"
[2024-09-09 14:30:45,215]:DEBUG:   substitute submit.job -> submit.job
[2024-09-09 14:30:45,216]:DEBUG:   substitute:
[2024-09-09 14:30:45,216]:DEBUG:          | source            | dest                                     |
[2024-09-09 14:30:45,216]:DEBUG:          |-------------------|------------------------------------------|
[2024-09-09 14:30:45,216]:DEBUG:          | #BENCHNAME#       | CovidWeakKPoints                         |
[2024-09-09 14:30:45,216]:DEBUG:          | #QUEUE#           | qgpu                                     |
[2024-09-09 14:30:45,216]:DEBUG:          | #TIMELIMIT#       | 00:59:00                                 |
[2024-09-09 14:30:45,216]:DEBUG:          | #PREPROCESS#      |                                          |
[2024-09-09 14:30:45,216]:DEBUG:          | #POSTPROCESS#     |                                          |
[2024-09-09 14:30:45,216]:DEBUG:          | #STARTER#         | srun                                     |
[2024-09-09 14:30:45,216]:DEBUG:          | #ARGS_STARTER#    | -n 4096                                  |
[2024-09-09 14:30:45,216]:DEBUG:          | #MEASUREMENT#     |                                          |
[2024-09-09 14:30:45,216]:DEBUG:          | #EXECUTABLE#      | karolina-gpu-bind.sh siesta              |
[2024-09-09 14:30:45,216]:DEBUG:          | #ARGS_EXECUTABLE# | covid-8k-diag.fdf > covid-8k-diag.out    |
[2024-09-09 14:30:45,216]:DEBUG:          | #FLAG#            | touch ready                              |
[2024-09-09 14:30:45,216]:DEBUG:          | #NODES#           | 64                                       |
[2024-09-09 14:30:45,216]:DEBUG:          | #THREADSPERTASK#  | 2                                        |
[2024-09-09 14:30:45,216]:DEBUG:          | #TASKSPERNODE#    | 64                                       |
[2024-09-09 14:30:45,216]:DEBUG:          | #TASKSPERSOCKET#  | $taskspersocket                          |
[2024-09-09 14:30:45,216]:DEBUG:          | #CPUSPERTASK#     | 2                                        |
[2024-09-09 14:30:45,216]:DEBUG:          | #PE               | 128                                      |
[2024-09-09 14:30:45,216]:DEBUG:          | #GPUSPERNODE#     | 8                                        |
[2024-09-09 14:30:45,216]:DEBUG:          | #ACCOUNT_NO#      | dd-24-70                                 |
[2024-09-09 14:30:45,216]:DEBUG:          | #MODULES#         | module load GCC/12.3.0 OpenBLAS LAPACK   |
[2024-09-09 14:30:45,216]:DEBUG:          |                   | ScaLAPACK/2.2.0-gompi-2023b-fb           |
[2024-09-09 14:30:45,217]:DEBUG:          |                   | libreadline CUDA/12.3.0;                 |
[2024-09-09 14:30:45,217]:DEBUG:          |                   |         module load                      |
[2024-09-09 14:30:45,217]:DEBUG:          |                   | PnetCDF/1.12.3-gompi-2022a netCDF-       |
[2024-09-09 14:30:45,217]:DEBUG:          |                   | Fortran/4.6.1-gompi-2023b                |
[2024-09-09 14:30:45,217]:DEBUG:          |                   | FFTW.MPI/3.3.10-gompi-2023b              |
[2024-09-09 14:30:45,217]:DEBUG:          | #WRAPNAME#        |                                          |
[2024-09-09 14:30:45,217]:DEBUG:          | #WRAPPRE#         | export PATH=${PATH}:/home/it4i-          |
[2024-09-09 14:30:45,217]:DEBUG:          |                   | fpedron/Siesta/siesta-gnu-gpu/bin/       |
[2024-09-09 14:30:45,217]:DEBUG:          |                   |         export LD_LIBRARY_PATH=${LD_LIBR |
[2024-09-09 14:30:45,217]:DEBUG:          |                   | ARY_PATH}:/home/it4i-                    |
[2024-09-09 14:30:45,217]:DEBUG:          |                   | fpedron/Siesta/elpa-gpu/lib/             |
[2024-09-09 14:30:45,217]:DEBUG:          |                   |               export LIBRARY_PATH=${LIBR |
[2024-09-09 14:30:45,217]:DEBUG:          |                   | ARY_PATH}:/home/it4i-                    |
[2024-09-09 14:30:45,217]:DEBUG:          |                   | fpedron/Siesta/elpa-gpu/lib/             |
[2024-09-09 14:30:45,217]:DEBUG:          |                   |               export                     |
[2024-09-09 14:30:45,217]:DEBUG:          |                   | OPENBLAS_NUM_THREADS=2                   |
[2024-09-09 14:30:45,217]:DEBUG:          |                   |         export GOTO_NUM_THREADS=2        |
[2024-09-09 14:30:45,217]:DEBUG:          |                   |               export SLURM_CPU_BIND="map |
[2024-09-09 14:30:45,217]:DEBUG:          |                   | _cpu:16@COMMA17@COMMA18@COMMA19@COMMA20@ |
[2024-09-09 14:30:45,217]:DEBUG:          |                   | COMMA21@COMMA22@COMMA23@COMMA24@COMMA25@ |
[2024-09-09 14:30:45,217]:DEBUG:          |                   | COMMA26@COMMA27@COMMA28@COMMA29@COMMA30@ |
[2024-09-09 14:30:45,217]:DEBUG:          |                   | COMMA31@COMMA48@COMMA49@COMMA50@COMMA51@ |
[2024-09-09 14:30:45,217]:DEBUG:          |                   | COMMA52@COMMA53@COMMA54@COMMA55@COMMA56@ |
[2024-09-09 14:30:45,217]:DEBUG:          |                   | COMMA57@COMMA58@COMMA59@COMMA60@COMMA61@ |
[2024-09-09 14:30:45,217]:DEBUG:          |                   | COMMA62@COMMA63@COMMA80@COMMA81@COMMA82@ |
[2024-09-09 14:30:45,217]:DEBUG:          |                   | COMMA83@COMMA84@COMMA85@COMMA86@COMMA87@ |
[2024-09-09 14:30:45,217]:DEBUG:          |                   | COMMA88@COMMA89@COMMA90@COMMA91@COMMA92@ |
[2024-09-09 14:30:45,217]:DEBUG:          |                   | COMMA93@COMMA94@COMMA95@COMMA112@COMMA11 |
[2024-09-09 14:30:45,217]:DEBUG:          |                   | 3@COMMA114@COMMA115@COMMA116@COMMA117@CO |
[2024-09-09 14:30:45,217]:DEBUG:          |                   | MMA118@COMMA119@COMMA120@COMMA121@COMMA1 |
[2024-09-09 14:30:45,217]:DEBUG:          |                   | 22@COMMA123@COMMA124@COMMA125@COMMA126@C |
[2024-09-09 14:30:45,217]:DEBUG:          |                   | OMMA127"                                 |
[2024-09-09 14:30:45,217]:DEBUG:          |                   |               export OMP_PROC_BIND=true  |
[2024-09-09 14:30:45,217]:DEBUG:          |                   |         export OMP_PLACES=cores          |
[2024-09-09 14:30:45,217]:DEBUG:          |                   |         echo "Current loaded modules"    |
[2024-09-09 14:30:45,217]:DEBUG:          |                   |         echo "----------------------"    |
[2024-09-09 14:30:45,217]:DEBUG:          |                   |         module list                      |
[2024-09-09 14:30:45,217]:DEBUG:          |                   |         echo ""                          |
[2024-09-09 14:30:45,217]:DEBUG:          |                   |         echo "Current environment        |
[2024-09-09 14:30:45,217]:DEBUG:          |                   | variables"                               |
[2024-09-09 14:30:45,217]:DEBUG:          |                   |         echo                             |
[2024-09-09 14:30:45,217]:DEBUG:          |                   | "-----------------------------"          |
[2024-09-09 14:30:45,217]:DEBUG:          |                   |         env                              |
[2024-09-09 14:30:45,217]:DEBUG:          |                   |         echo ""                          |
[2024-09-09 14:30:45,217]:DEBUG:          |                   |         echo "Current SIESTA linked      |
[2024-09-09 14:30:45,217]:DEBUG:          |                   | libraries"                               |
[2024-09-09 14:30:45,217]:DEBUG:          |                   |         echo                             |
[2024-09-09 14:30:45,217]:DEBUG:          |                   | "-------------------------------"        |
[2024-09-09 14:30:45,217]:DEBUG:          |                   |         ldd $(which siesta)              |
[2024-09-09 14:30:45,217]:DEBUG:          |                   |         echo ""                          |
[2024-09-09 14:30:45,217]:DEBUG:          | #WRAPPOST#        |                                          |
[2024-09-09 14:30:45,217]:DEBUG:          | @COMMA            | ,                                        |
[2024-09-09 14:30:45,219]:DEBUG:   substitute covid-8k-diag.fdf.in -> covid-8k-diag.fdf
[2024-09-09 14:30:45,219]:DEBUG:   substitute:
[2024-09-09 14:30:45,219]:DEBUG:          | source              | dest                   |
[2024-09-09 14:30:45,219]:DEBUG:          |---------------------|------------------------|
[2024-09-09 14:30:45,219]:DEBUG:          | #BASISSIZE#         | SZ                     |
[2024-09-09 14:30:45,219]:DEBUG:          | #MAXITER#           | 5                      |
[2024-09-09 14:30:45,219]:DEBUG:          | #SOLUTIONMETHOD#    | elsi                   |
[2024-09-09 14:30:45,219]:DEBUG:          | #ELSISOLVER#        | elpa                   |
[2024-09-09 14:30:45,219]:DEBUG:          | #ELSIELPAGPU#       | 1                      |
[2024-09-09 14:30:45,219]:DEBUG:          | #PEXSITASKSPERPOLE# | 32                     |
[2024-09-09 14:30:45,219]:DEBUG:          | #SCX#               | 1.0                    |
[2024-09-09 14:30:45,219]:DEBUG:          | #SCY#               | 1.0                    |
[2024-09-09 14:30:45,219]:DEBUG:          | #SCZ#               | 1.0                    |
[2024-09-09 14:30:45,219]:DEBUG:          | #KPX#               | 1                      |
[2024-09-09 14:30:45,219]:DEBUG:          | #KPY#               | 1                      |
[2024-09-09 14:30:45,219]:DEBUG:          | #KPZ#               | 1                      |
[2024-09-09 14:30:45,219]:DEBUG:          | #KGRIDFILE#         | kgrid.File 64kpoint.KP |
[2024-09-09 14:30:45,222]:DEBUG: >>> sbatch submit.job
[2024-09-09 14:30:45,222]:DEBUG:     stdout: /home/it4i-fpedron/JUBE4MaX-GPU/max-inputs/interface/siesta/_CovidWeakKPoints/000001/000001_submit/work/stdout
[2024-09-09 14:30:45,222]:DEBUG:     stderr: /home/it4i-fpedron/JUBE4MaX-GPU/max-inputs/interface/siesta/_CovidWeakKPoints/000001/000001_submit/work/stderr
[2024-09-09 14:30:45,244]:DEBUG: Create new workpackages for workpackage submit(1)
[2024-09-09 14:30:45,244]:DEBUG:   0 new workpackages created
[2024-09-09 14:30:45,249]:INFO:   | stepname | all | open | wait | error | done |
[2024-09-09 14:30:45,249]:INFO:   |----------|-----|------|------|-------|------|
[2024-09-09 14:30:45,249]:INFO:   |   submit |   2 |    0 |    0 |     0 |    2 |
[2024-09-09 14:30:45,249]:INFO: 
[2024-09-09 14:30:45,249]:INFO: >>>> Benchmark information and further useful commands:
[2024-09-09 14:30:45,249]:INFO: >>>>       id: 1
[2024-09-09 14:30:45,249]:INFO: >>>>   handle: max-inputs/interface/siesta/_CovidWeakKPoints
[2024-09-09 14:30:45,249]:INFO: >>>>      dir: max-inputs/interface/siesta/_CovidWeakKPoints/000001
[2024-09-09 14:30:45,249]:INFO: >>>>  analyse: jube analyse max-inputs/interface/siesta/_CovidWeakKPoints --id 1
[2024-09-09 14:30:45,249]:INFO: >>>>   result: jube result max-inputs/interface/siesta/_CovidWeakKPoints --id 1
[2024-09-09 14:30:45,249]:INFO: >>>>     info: jube info max-inputs/interface/siesta/_CovidWeakKPoints --id 1
[2024-09-09 14:30:45,250]:INFO: >>>>      log: jube log max-inputs/interface/siesta/_CovidWeakKPoints --id 1
[2024-09-09 14:30:45,250]:INFO: ######################################################################
