JobID        JobIDRaw        JobName  Partition  MaxVMSize  MaxVMSizeNode  MaxVMSizeTask  AveVMSize     MaxRSS MaxRSSNode MaxRSSTask     AveRSS MaxPages MaxPagesNode   MaxPagesTask   AvePages     MinCPU MinCPUNode MinCPUTask     AveCPU   NTasks  AllocCPUS    Elapsed      State ExitCode AveCPUFreq ReqCPUFreqMin ReqCPUFreqMax ReqCPUFreqGov     ReqMem ConsumedEnergy  MaxDiskRead MaxDiskReadNode MaxDiskReadTask    AveDiskRead MaxDiskWrite MaxDiskWriteNode MaxDiskWriteTask   AveDiskWrite    ReqTRES  AllocTRES TRESUsageInAve TRESUsageInMax TRESUsageInMaxNode TRESUsageInMaxTask TRESUsageInMin TRESUsageInMinNode TRESUsageInMinTask TRESUsageInTot TRESUsageOutMax TRESUsageOutMaxNode TRESUsageOutMaxTask TRESUsageOutAve TRESUsageOutTot 
------------ ------------ ---------- ---------- ---------- -------------- -------------- ---------- ---------- ---------- ---------- ---------- -------- ------------ -------------- ---------- ---------- ---------- ---------- ---------- -------- ---------- ---------- ---------- -------- ---------- ------------- ------------- ------------- ---------- -------------- ------------ --------------- --------------- -------------- ------------ ---------------- ---------------- -------------- ---------- ---------- -------------- -------------- ------------------ ------------------ -------------- ------------------ ------------------ -------------- --------------- ------------------- ------------------- --------------- --------------- 
8120483      8120483      submit.job boost_usr+                                                                                                                                                                                                             128   00:08:39    RUNNING      0:0                  Unknown       Unknown       Unknown      1925G                                                                                                                                          billing=1+ billing=1+                                                                                                                                                                                                                                 
8120483.bat+ 8120483.bat+      batch                                                                                                                                                                                                               1         32   00:08:39    RUNNING      0:0          0             0             0             0                         0                                                                                                                                      cpu=32,gr+                                                                                                                                                                                                                                 
8120483.ext+ 8120483.ext+     extern                                                                                                                                                                                                               4        128   00:08:39    RUNNING      0:0          0             0             0             0                         0                                                                                                                                      billing=1+                                                                                                                                                                                                                                 
8120483.0    8120483.0       bind.sh             20962656K       lrdn2241              0   5187855K   2366552K   lrdn2241          0  584648448     3103     lrdn2241              0        589   00:08:43   lrdn2363         13   00:08:44       16        128   00:08:33  COMPLETED      0:0     11.48M       Unknown       Unknown       Unknown                         0        0.07M        lrdn2363              12          0.07M        0.00M         lrdn2363               12          0.00M            cpu=128,g+ cpu=00:08:44,+ cpu=00:08:46,+ cpu=lrdn2282,ener+ cpu=6,fs/disk=12,+ cpu=00:08:43,+ cpu=lrdn2363,ener+ cpu=13,fs/disk=7,+ cpu=02:19:59,+ energy=0,fs/di+ energy=lrdn2363,fs+          fs/disk=12 energy=0,fs/di+ energy=0,fs/di+ 
