JobID        JobIDRaw        JobName  Partition  MaxVMSize  MaxVMSizeNode  MaxVMSizeTask  AveVMSize     MaxRSS MaxRSSNode MaxRSSTask     AveRSS MaxPages MaxPagesNode   MaxPagesTask   AvePages     MinCPU MinCPUNode MinCPUTask     AveCPU   NTasks  AllocCPUS    Elapsed      State ExitCode AveCPUFreq ReqCPUFreqMin ReqCPUFreqMax ReqCPUFreqGov     ReqMem ConsumedEnergy  MaxDiskRead MaxDiskReadNode MaxDiskReadTask    AveDiskRead MaxDiskWrite MaxDiskWriteNode MaxDiskWriteTask   AveDiskWrite    ReqTRES  AllocTRES TRESUsageInAve TRESUsageInMax TRESUsageInMaxNode TRESUsageInMaxTask TRESUsageInMin TRESUsageInMinNode TRESUsageInMinTask TRESUsageInTot TRESUsageOutMax TRESUsageOutMaxNode TRESUsageOutMaxTask TRESUsageOutAve TRESUsageOutTot 
------------ ------------ ---------- ---------- ---------- -------------- -------------- ---------- ---------- ---------- ---------- ---------- -------- ------------ -------------- ---------- ---------- ---------- ---------- ---------- -------- ---------- ---------- ---------- -------- ---------- ------------- ------------- ------------- ---------- -------------- ------------ --------------- --------------- -------------- ------------ ---------------- ---------------- -------------- ---------- ---------- -------------- -------------- ------------------ ------------------ -------------- ------------------ ------------------ -------------- --------------- ------------------- ------------------- --------------- --------------- 
1591187      1591187      submit.job boost_usr+                                                                                                                                                                                                           16384   00:09:12    RUNNING      0:0                  Unknown       Unknown       Unknown    246400G                                                                                                                                          billing=1+ billing=1+                                                                                                                                                                                                                                 
1591187.bat+ 1591187.bat+      batch                                                                                                                                                                                                               1         32   00:09:12    RUNNING      0:0          0             0             0             0                         0                                                                                                                                      cpu=32,gr+                                                                                                                                                                                                                                 
1591187.ext+ 1591187.ext+     extern                                                                                                                                                                                                             512      16384   00:09:12    RUNNING      0:0          0             0             0             0                         0                                                                                                                                      billing=1+                                                                                                                                                                                                                                 
1591187.0    1591187.0         orted                                                                                                                                                                                                             511      16352   00:09:07    RUNNING      0:0          0       Unknown       Unknown       Unknown                         0                                                                                                                                      cpu=16352+                                                                                                                                                                                                                                 
