{
 "global_section": { "_calls": 1, "_time":      979.487, "_%":   100.00,
   "siesta": { "_calls": 1, "_time":      979.487, "_%":   100.00,
     "Setup": { "_calls": 1, "_time":        1.216, "_%":     0.12,
       "bands": { "_calls": 1, "_time":        0.003, "_%":     0.00},
       "KSV_init": { "_calls": 1, "_time":        0.001, "_%":     0.00}
     },
     "IterGeom": { "_calls": 1, "_time":      978.087, "_%":    99.86,
       "geom_init": { "_calls": 1, "_time":        3.697, "_%":     0.38,
         "state_init": { "_calls": 1, "_time":        0.532, "_%":     0.05,
           "hsparse": { "_calls": 1, "_time":        0.132, "_%":     0.01},
           "overlap": { "_calls": 1, "_time":        0.057, "_%":     0.01}
         },
         "Setup_H0": { "_calls": 1, "_time":        3.164, "_%":     0.32,
           "naefs": { "_calls": 1, "_time":        0.025, "_%":     0.00},
           "MolMec": { "_calls": 1, "_time":        0.000, "_%":     0.00},
           "kinefsm": { "_calls": 1, "_time":        0.044, "_%":     0.00},
           "nlefsm": { "_calls": 1, "_time":        0.154, "_%":     0.02},
           "DHSCF_Init": { "_calls": 1, "_time":        2.924, "_%":     0.30,
             "DHSCF1": { "_calls": 1, "_time":        0.045, "_%":     0.00,
               "INITMESH": { "_calls": 1, "_time":        0.000, "_%":     0.00}
             },
             "DHSCF2": { "_calls": 1, "_time":        2.858, "_%":     0.29,
               "REMESH": { "_calls": 1, "_time":        1.279, "_%":     0.13,
                 "INITMESH": { "_calls": 2, "_time":        1.150, "_%":     0.12,
                   "SPLOAD": { "_calls": 2, "_time":        0.260, "_%":     0.03}
                 }
               },
               "REORD": { "_calls": 2, "_time":        0.002, "_%":     0.00},
               "PHION": { "_calls": 1, "_time":        0.043, "_%":     0.00},
               "COMM_BSC": { "_calls": 1, "_time":        0.022, "_%":     0.00},
               "POISON": { "_calls": 1, "_time":        1.133, "_%":     0.12,
                 "fft": { "_calls": 2, "_time":        1.083, "_%":     0.11}
               }
             }
           }
         }
       },
       "IterSCF": { "_calls": 5, "_time":      974.297, "_%":    99.47,
         "setup_H": { "_calls": 5, "_time":        8.718, "_%":     0.89,
           "DHSCF": { "_calls": 5, "_time":        8.713, "_%":     0.89,
             "DHSCF3": { "_calls": 5, "_time":        8.713, "_%":     0.89,
               "rhoofd": { "_calls": 5, "_time":        0.078, "_%":     0.01},
               "COMM_BSC": { "_calls": 10, "_time":        0.333, "_%":     0.03},
               "POISON": { "_calls": 5, "_time":        5.486, "_%":     0.56,
                 "fft": { "_calls": 10, "_time":        5.250, "_%":     0.54}
               },
               "XC": { "_calls": 5, "_time":        2.346, "_%":     0.24,
                 "COMM_BSC": { "_calls": 10, "_time":        0.260, "_%":     0.03},
                 "GXC-CellXC": { "_calls": 5, "_time":        2.023, "_%":     0.21,
                   "gridxc@cellXC": { "_calls": 5, "_time":        2.023, "_%":     0.21}
                 }
               },
               "vmat": { "_calls": 5, "_time":        0.068, "_%":     0.01}
             }
           }
         },
         "compute_dm": { "_calls": 5, "_time":      965.542, "_%":    98.58,
           "redist_orbs_fwd": { "_calls": 40, "_time":        3.776, "_%":     0.39},
           "elsi-complex-solver": { "_calls": 5, "_time":      961.568, "_%":    98.17,
             "elsi-solver": { "_calls": 5, "_time":      960.351, "_%":    98.05}
           },
           "redist_dm-edm_bck": { "_calls": 5, "_time":        0.172, "_%":     0.02}
         },
         "MIXER": { "_calls": 5, "_time":        0.003, "_%":     0.00}
       },
       "state_analysis": { "_calls": 1, "_time":        0.047, "_%":     0.00},
       "siesta_move": { "_calls": 1, "_time":        0.000, "_%":     0.00}
     },
     "Analysis": { "_calls": 1, "_time":        0.148, "_%":     0.02,
       "optical": { "_calls": 1, "_time":        0.001, "_%":     0.00}
     }
   }
 }}
