JobId=244516 JobName=CovidWeakKPoints
   UserId=fpedron(5340) GroupId=fpedron(5340) MCS_label=N/A
   Priority=1 Nice=0 Account=ehpc-ben-2024b06-053 QOS=ehpc-ben-2024b06-053
   JobState=RUNNING Reason=None Dependency=(null)
   Requeue=1 Restarts=0 BatchFlag=1 Reboot=0 ExitCode=0:0
   DerivedExitCode=0:0
   RunTime=00:00:04 TimeLimit=05:59:00 TimeMin=N/A
   SubmitTime=2024-09-10T18:22:04 EligibleTime=2024-09-10T18:22:04
   AccrueTime=2024-09-10T18:22:04
   StartTime=2024-09-10T18:26:35 EndTime=2024-09-11T00:25:35 Deadline=N/A
   SuspendTime=None SecsPreSuspend=0 LastSchedEval=2024-09-10T18:26:35
   Partition=cn AllocNode:Sid=login1:3540154
   ReqNodeList=(null) ExcNodeList=(null)
   NodeList=cn[1077-1080,1087-1090]
   BatchHost=cn1077
   NumNodes=8 NumCPUs=1024 NumTasks=1024 CPUs/Task=1 ReqB:S:C:T=0:0:*:*
   TRES=cpu=1024,mem=1T,node=8,billing=1024
   Socks/Node=* NtasksPerN:B:S:C=128:0:*:* CoreSpec=*
   JOB_GRES=(null)
     Nodes=cn[1077-1080,1087-1090] CPU_IDs=0-127 Mem=131072 GRES=
   MinCPUsNode=128 MinMemoryCPU=1G MinTmpDiskNode=0
   Features=(null) DelayBoot=00:00:00
   OverSubscribe=OK Contiguous=0 Licenses=(null) Network=(null)
   Command=/home/fpedron/JUBE4MaX/max-inputs/interface/siesta/_CovidWeakKPoints/000000/000012_submit/work/submit.job
   WorkDir=/home/fpedron/JUBE4MaX/max-inputs/interface/siesta/_CovidWeakKPoints/000000/000012_submit/work
   StdErr=/home/fpedron/JUBE4MaX/max-inputs/interface/siesta/_CovidWeakKPoints/000000/000012_submit/work/slurm-244516.out
   StdIn=/dev/null
   StdOut=/home/fpedron/JUBE4MaX/max-inputs/interface/siesta/_CovidWeakKPoints/000000/000012_submit/work/slurm-244516.out
   Power=
   MailUser=fpedron MailType=NONE

