JobID        JobIDRaw        JobName  Partition  MaxVMSize  MaxVMSizeNode  MaxVMSizeTask  AveVMSize     MaxRSS MaxRSSNode MaxRSSTask     AveRSS MaxPages MaxPagesNode   MaxPagesTask   AvePages     MinCPU MinCPUNode MinCPUTask     AveCPU   NTasks  AllocCPUS    Elapsed      State ExitCode AveCPUFreq ReqCPUFreqMin ReqCPUFreqMax ReqCPUFreqGov     ReqMem ConsumedEnergy  MaxDiskRead MaxDiskReadNode MaxDiskReadTask    AveDiskRead MaxDiskWrite MaxDiskWriteNode MaxDiskWriteTask   AveDiskWrite    ReqTRES  AllocTRES TRESUsageInAve TRESUsageInMax TRESUsageInMaxNode TRESUsageInMaxTask TRESUsageInMin TRESUsageInMinNode TRESUsageInMinTask TRESUsageInTot TRESUsageOutMax TRESUsageOutMaxNode TRESUsageOutMaxTask TRESUsageOutAve TRESUsageOutTot 
------------ ------------ ---------- ---------- ---------- -------------- -------------- ---------- ---------- ---------- ---------- ---------- -------- ------------ -------------- ---------- ---------- ---------- ---------- ---------- -------- ---------- ---------- ---------- -------- ---------- ------------- ------------- ------------- ---------- -------------- ------------ --------------- --------------- -------------- ------------ ---------------- ---------------- -------------- ---------- ---------- -------------- -------------- ------------------ ------------------ -------------- ------------------ ------------------ -------------- --------------- ------------------- ------------------- --------------- --------------- 
2261456      2261456      submit.job boost_usr+                                                                                                                                                                                                             640   00:02:49    RUNNING      0:0                  Unknown       Unknown       Unknown      9625G                                                                                                                                          billing=6+ billing=6+                                                                                                                                                                                                                                 
2261456.bat+ 2261456.bat+      batch                                                                                                                                                                                                               1         32   00:02:49    RUNNING      0:0          0             0             0             0                         0                                                                                                                                      cpu=32,gr+                                                                                                                                                                                                                                 
2261456.ext+ 2261456.ext+     extern                                                                                                                                                                                                              20        640   00:02:49    RUNNING      0:0          0             0             0             0                         0                                                                                                                                      billing=6+                                                                                                                                                                                                                                 
2261456.0    2261456.0         orted              9463660K       lrdn1648              0  510041465   7800268K   lrdn1648          0  420393391     9263     lrdn1648              0        487   00:10:41   lrdn1795         11   00:10:43       19        608   00:02:46  COMPLETED      0:0     64.88M       Unknown       Unknown       Unknown                         0        0.28M        lrdn1738               5          0.28M        0.01M         lrdn1648                0          0.01M            cpu=608,g+ cpu=00:10:43,+ cpu=00:10:44,+ cpu=lrdn1754,ener+ cpu=7,fs/disk=5,m+ cpu=00:10:41,+ cpu=lrdn1795,ener+ cpu=11,fs/disk=13+ cpu=03:23:45,+ energy=0,fs/di+ energy=lrdn1886,fs+           fs/disk=0 energy=0,fs/di+ energy=0,fs/di+ 
