JobId=2261456 JobName=submit.job
   UserId=nspallan(25378) GroupId=interactive(25200) MCS_label=N/A
   Priority=155641 Nice=0 Account=euhpc_e01_022 QOS=normal
   JobState=RUNNING Reason=None Dependency=(null)
   Requeue=0 Restarts=0 BatchFlag=1 Reboot=0 ExitCode=0:0
   DerivedExitCode=0:0
   RunTime=00:00:03 TimeLimit=03:00:00 TimeMin=N/A
   SubmitTime=2023-12-04T12:21:35 EligibleTime=2023-12-04T12:21:35
   AccrueTime=2023-12-04T12:21:35
   StartTime=2023-12-04T12:21:37 EndTime=2023-12-04T15:21:38 Deadline=N/A
   SuspendTime=None SecsPreSuspend=0 LastSchedEval=2023-12-04T12:21:37 Scheduler=Main
   Partition=boost_usr_prod AllocNode:Sid=10-99-0-7:2872168
   ReqNodeList=(null) ExcNodeList=(null)
   NodeList=lrdn[1633,1648,1650,1708,1710,1724,1738-1739,1754,1765,1777,1789,1795,1818,1826,1836,1849,1855,1873,1886]
   BatchHost=lrdn1633
   NumNodes=20 NumCPUs=640 NumTasks=80 CPUs/Task=8 ReqB:S:C:T=0:0:*:*
   TRES=cpu=640,mem=9625G,node=20,billing=640,gres/gpu=80
   Socks/Node=* NtasksPerN:B:S:C=4:0:*:* CoreSpec=*
   JOB_GRES=gpu:a100:80
     Nodes=lrdn[1633,1648,1650,1708,1710,1724,1738-1739,1754,1765,1777,1789,1795,1818,1826,1836,1849,1855,1873,1886] CPU_IDs=0-31 Mem=492800 GRES=gpu:a100:4(IDX:0-3)
   MinCPUsNode=32 MinMemoryCPU=15400M MinTmpDiskNode=0
   Features=(null) DelayBoot=00:00:00
   OverSubscribe=NO Contiguous=0 Licenses=(null) Network=(null)
   Command=/leonardo_work/Max3_devel_2/nspallan/jube-benchmarks/run_yambo_7k/000000/000004_submit/work/submit.job
   WorkDir=/leonardo_work/Max3_devel_2/nspallan/jube-benchmarks/run_yambo_7k/000000/000004_submit/work
   StdErr=/leonardo_work/Max3_devel_2/nspallan/jube-benchmarks/run_yambo_7k/000000/000004_submit/work/slurm-2261456.out
   StdIn=/dev/null
   StdOut=/leonardo_work/Max3_devel_2/nspallan/jube-benchmarks/run_yambo_7k/000000/000004_submit/work/slurm-2261456.out
   Power=
   TresPerNode=gres:gpu:4
   

