JobID        JobIDRaw        JobName  Partition  MaxVMSize  MaxVMSizeNode  MaxVMSizeTask  AveVMSize     MaxRSS MaxRSSNode MaxRSSTask     AveRSS MaxPages MaxPagesNode   MaxPagesTask   AvePages     MinCPU MinCPUNode MinCPUTask     AveCPU   NTasks  AllocCPUS    Elapsed      State ExitCode AveCPUFreq ReqCPUFreqMin ReqCPUFreqMax ReqCPUFreqGov     ReqMem ConsumedEnergy  MaxDiskRead MaxDiskReadNode MaxDiskReadTask    AveDiskRead MaxDiskWrite MaxDiskWriteNode MaxDiskWriteTask   AveDiskWrite    ReqTRES  AllocTRES TRESUsageInAve TRESUsageInMax TRESUsageInMaxNode TRESUsageInMaxTask TRESUsageInMin TRESUsageInMinNode TRESUsageInMinTask TRESUsageInTot TRESUsageOutMax TRESUsageOutMaxNode TRESUsageOutMaxTask TRESUsageOutAve TRESUsageOutTot 
------------ ------------ ---------- ---------- ---------- -------------- -------------- ---------- ---------- ---------- ---------- ---------- -------- ------------ -------------- ---------- ---------- ---------- ---------- ---------- -------- ---------- ---------- ---------- -------- ---------- ------------- ------------- ------------- ---------- -------------- ------------ --------------- --------------- -------------- ------------ ---------------- ---------------- -------------- ---------- ---------- -------------- -------------- ------------------ ------------------ -------------- ------------------ ------------------ -------------- --------------- ------------------- ------------------- --------------- --------------- 
7777022      7777022      submit.job dcgp_usr_+                                                                                                                                                                                                             896   00:01:03    RUNNING      0:0                  Unknown       Unknown       Unknown      3850G                                                                                                                                          billing=8+ billing=8+                                                                                                                                                                                                                                 
7777022.bat+ 7777022.bat+      batch                                                                                                                                                                                                               1        112   00:01:03    RUNNING      0:0          0             0             0             0                         0                                                                                                                                      cpu=112,g+                                                                                                                                                                                                                                 
7777022.ext+ 7777022.ext+     extern                                                                                                                                                                                                               8        896   00:01:03    RUNNING      0:0          0             0             0             0                         0                                                                                                                                      billing=8+                                                                                                                                                                                                                                 
7777022.0    7777022.0        siesta               559744K       lrdn4203              0   56569472    507932K   lrdn4203          0   54979378      353     lrdn4203              0          3   00:00:36   lrdn4209        691   00:00:38      896        896   00:00:58  COMPLETED      0:0     41.03G       Unknown       Unknown       Unknown                         0        2.35M        lrdn4203               0          1.39M       22.70M         lrdn4203                0          0.03M            cpu=896,g+ cpu=00:00:38,+ cpu=00:00:47,+ cpu=lrdn4203,ener+ cpu=0,fs/disk=0,m+ cpu=00:00:36,+ cpu=lrdn4209,ener+ cpu=691,fs/disk=7+ cpu=09:34:22,+ energy=0,fs/di+ energy=lrdn4204,fs+           fs/disk=0 energy=0,fs/di+ energy=0,fs/di+ 
