       JobID     JobIDRaw    JobName  Partition  MaxVMSize  MaxVMSizeNode  MaxVMSizeTask  AveVMSize     MaxRSS MaxRSSNode MaxRSSTask     AveRSS MaxPages MaxPagesNode   MaxPagesTask   AvePages     MinCPU MinCPUNode MinCPUTask     AveCPU   NTasks  AllocCPUS    Elapsed      State ExitCode AveCPUFreq ReqCPUFreqMin ReqCPUFreqMax ReqCPUFreqGov     ReqMem ConsumedEnergy  MaxDiskRead MaxDiskReadNode MaxDiskReadTask    AveDiskRead MaxDiskWrite MaxDiskWriteNode MaxDiskWriteTask   AveDiskWrite    AllocGRES      ReqGRES    ReqTRES  AllocTRES TRESUsageInAve TRESUsageInMax TRESUsageInMaxNode TRESUsageInMaxTask TRESUsageInMin TRESUsageInMinNode TRESUsageInMinTask TRESUsageInTot TRESUsageOutMax TRESUsageOutMaxNode TRESUsageOutMaxTask TRESUsageOutAve TRESUsageOutTot 
------------ ------------ ---------- ---------- ---------- -------------- -------------- ---------- ---------- ---------- ---------- ---------- -------- ------------ -------------- ---------- ---------- ---------- ---------- ---------- -------- ---------- ---------- ---------- -------- ---------- ------------- ------------- ------------- ---------- -------------- ------------ --------------- --------------- -------------- ------------ ---------------- ---------------- -------------- ------------ ------------ ---------- ---------- -------------- -------------- ------------------ ------------------ -------------- ------------------ ------------------ -------------- --------------- ------------------- ------------------- --------------- --------------- 
245139       245139       CovidStro+         cn                                                                                                                                                                                                            2048   00:00:38    RUNNING      0:0                  Unknown       Unknown       Unknown        1Gc                                                                                                                                                                    billing=2+ billing=2+                                                                                                                                                                                                                                 
245139.batch 245139.batch      batch                                                                                                                                                                                                               1        128   00:00:38    RUNNING      0:0          0             0             0             0        1Gc              0                                                                                                                                                                cpu=128,m+                                                                                                                                                                                                                                 
245139.0     245139.0         siesta              1508244K         cn1058              0 1443413746    321288K     cn1058          0  256908378      113       cn1058              0         28   00:00:25     cn1058        125   00:00:31     2048       2048   00:00:37  COMPLETED      0:0     32.63M       Unknown       Unknown       Unknown        1Gc              0       10.67M          cn1058               0          9.04M       20.95M           cn1058                0          4.12M                                      cpu=2048,+ cpu=00:00:31,+ cpu=00:00:32,+ cpu=cn1067,energy+ cpu=675,fs/disk=0+ cpu=00:00:25,+ cpu=cn1058,energy+ cpu=125,fs/disk=1+ cpu=18:01:25,+ energy=0,fs/di+ energy=cn1095,fs/d+           fs/disk=0 energy=0,fs/di+ energy=0,fs/di+ 
