{
 "global_section": { "_calls": 1, "_time":       31.198, "_%":   100.00,
   "siesta": { "_calls": 1, "_time":       31.198, "_%":   100.00,
     "Setup": { "_calls": 1, "_time":        2.008, "_%":     6.44,
       "bands": { "_calls": 1, "_time":        0.004, "_%":     0.01},
       "KSV_init": { "_calls": 1, "_time":        0.001, "_%":     0.00}
     },
     "IterGeom": { "_calls": 1, "_time":       28.952, "_%":    92.80,
       "geom_init": { "_calls": 1, "_time":       15.162, "_%":    48.60,
         "state_init": { "_calls": 1, "_time":        2.024, "_%":     6.49,
           "hsparse": { "_calls": 1, "_time":        0.178, "_%":     0.57},
           "overlap": { "_calls": 1, "_time":        1.027, "_%":     3.29}
         },
         "Setup_H0": { "_calls": 1, "_time":       13.136, "_%":    42.11,
           "naefs": { "_calls": 1, "_time":        0.030, "_%":     0.10},
           "MolMec": { "_calls": 1, "_time":        0.000, "_%":     0.00},
           "kinefsm": { "_calls": 1, "_time":        1.056, "_%":     3.39},
           "nlefsm": { "_calls": 1, "_time":        2.421, "_%":     7.76},
           "DHSCF_Init": { "_calls": 1, "_time":        9.610, "_%":    30.80,
             "DHSCF1": { "_calls": 1, "_time":        0.056, "_%":     0.18,
               "INITMESH": { "_calls": 1, "_time":        0.000, "_%":     0.00}
             },
             "DHSCF2": { "_calls": 1, "_time":        9.517, "_%":    30.51,
               "REMESH": { "_calls": 1, "_time":        7.203, "_%":    23.09,
                 "INITMESH": { "_calls": 2, "_time":        6.336, "_%":    20.31,
                   "SPLOAD": { "_calls": 2, "_time":        1.065, "_%":     3.41}
                 }
               },
               "REORD": { "_calls": 2, "_time":        0.003, "_%":     0.01},
               "PHION": { "_calls": 1, "_time":        0.099, "_%":     0.32},
               "COMM_BSC": { "_calls": 1, "_time":        0.047, "_%":     0.15},
               "POISON": { "_calls": 1, "_time":        0.971, "_%":     3.11,
                 "fft": { "_calls": 2, "_time":        0.941, "_%":     3.02}
               }
             }
           }
         }
       },
       "IterSCF": { "_calls": 5, "_time":       13.685, "_%":    43.87,
         "setup_H": { "_calls": 5, "_time":        7.520, "_%":    24.11,
           "DHSCF": { "_calls": 5, "_time":        7.513, "_%":    24.08,
             "DHSCF3": { "_calls": 5, "_time":        7.513, "_%":    24.08,
               "rhoofd": { "_calls": 5, "_time":        0.119, "_%":     0.38},
               "COMM_BSC": { "_calls": 10, "_time":        0.228, "_%":     0.73},
               "POISON": { "_calls": 5, "_time":        4.404, "_%":    14.12,
                 "fft": { "_calls": 10, "_time":        4.145, "_%":    13.28}
               },
               "XC": { "_calls": 5, "_time":        1.981, "_%":     6.35,
                 "COMM_BSC": { "_calls": 10, "_time":        0.276, "_%":     0.88},
                 "GXC-CellXC": { "_calls": 5, "_time":        1.650, "_%":     5.29,
                   "gridxc@cellXC": { "_calls": 5, "_time":        1.650, "_%":     5.29}
                 }
               },
               "vmat": { "_calls": 5, "_time":        0.135, "_%":     0.43}
             }
           }
         },
         "compute_dm": { "_calls": 5, "_time":        6.134, "_%":    19.66,
           "elsi": { "_calls": 5, "_time":        6.133, "_%":    19.66,
             "find nnz_g": { "_calls": 5, "_time":        0.000, "_%":     0.00},
             "elsi-solver": { "_calls": 5, "_time":        6.064, "_%":    19.44}
           }
         },
         "MIXER": { "_calls": 5, "_time":        0.010, "_%":     0.03}
       },
       "state_analysis": { "_calls": 1, "_time":        0.086, "_%":     0.28},
       "siesta_move": { "_calls": 1, "_time":        0.000, "_%":     0.00}
     },
     "Analysis": { "_calls": 1, "_time":        0.225, "_%":     0.72,
       "optical": { "_calls": 1, "_time":        0.001, "_%":     0.00}
     }
   }
 }}
