JobID        JobIDRaw        JobName  Partition  MaxVMSize  MaxVMSizeNode  MaxVMSizeTask  AveVMSize     MaxRSS MaxRSSNode MaxRSSTask     AveRSS MaxPages MaxPagesNode   MaxPagesTask   AvePages     MinCPU MinCPUNode MinCPUTask     AveCPU   NTasks  AllocCPUS    Elapsed      State ExitCode AveCPUFreq ReqCPUFreqMin ReqCPUFreqMax ReqCPUFreqGov     ReqMem ConsumedEnergy  MaxDiskRead MaxDiskReadNode MaxDiskReadTask    AveDiskRead MaxDiskWrite MaxDiskWriteNode MaxDiskWriteTask   AveDiskWrite    ReqTRES  AllocTRES TRESUsageInAve TRESUsageInMax TRESUsageInMaxNode TRESUsageInMaxTask TRESUsageInMin TRESUsageInMinNode TRESUsageInMinTask TRESUsageInTot TRESUsageOutMax TRESUsageOutMaxNode TRESUsageOutMaxTask TRESUsageOutAve TRESUsageOutTot 
------------ ------------ ---------- ---------- ---------- -------------- -------------- ---------- ---------- ---------- ---------- ---------- -------- ------------ -------------- ---------- ---------- ---------- ---------- ---------- -------- ---------- ---------- ---------- -------- ---------- ------------- ------------- ------------- ---------- -------------- ------------ --------------- --------------- -------------- ------------ ---------------- ---------------- -------------- ---------- ---------- -------------- -------------- ------------------ ------------------ -------------- ------------------ ------------------ -------------- --------------- ------------------- ------------------- --------------- --------------- 
3218817      3218817      qe-pw-ben+        acc                                                                                                                                                                                                            2560   00:04:13    RUNNING      0:0                  Unknown       Unknown       Unknown   7812.50G                                                                                                                                          billing=1+ billing=2+                                                                                                                                                                                                                                 
3218817.bat+ 3218817.bat+      batch                                                                                                                                                                                                               1        160   00:04:13    RUNNING      0:0          0             0             0             0                         0                                                                                                                                      cpu=160,g+                                                                                                                                                                                                                                 
3218817.ext+ 3218817.ext+     extern                                                                                                                                                                                                              16       2560   00:04:13    RUNNING      0:0          0             0             0             0                         0                                                                                                                                      billing=2+                                                                                                                                                                                                                                 
3218817.0    3218817.0         orted                                                                                                                                                                                                              15        600   00:04:07    RUNNING      0:0          0       Unknown       Unknown       Unknown                         0                                                                                                                                      cpu=600,g+                                                                                                                                                                                                                                 
