JobID        JobIDRaw        JobName  Partition  MaxVMSize  MaxVMSizeNode  MaxVMSizeTask  AveVMSize     MaxRSS MaxRSSNode MaxRSSTask     AveRSS MaxPages MaxPagesNode   MaxPagesTask   AvePages     MinCPU MinCPUNode MinCPUTask     AveCPU   NTasks  AllocCPUS    Elapsed      State ExitCode AveCPUFreq ReqCPUFreqMin ReqCPUFreqMax ReqCPUFreqGov     ReqMem ConsumedEnergy  MaxDiskRead MaxDiskReadNode MaxDiskReadTask    AveDiskRead MaxDiskWrite MaxDiskWriteNode MaxDiskWriteTask   AveDiskWrite    ReqTRES  AllocTRES TRESUsageInAve TRESUsageInMax TRESUsageInMaxNode TRESUsageInMaxTask TRESUsageInMin TRESUsageInMinNode TRESUsageInMinTask TRESUsageInTot TRESUsageOutMax TRESUsageOutMaxNode TRESUsageOutMaxTask TRESUsageOutAve TRESUsageOutTot 
------------ ------------ ---------- ---------- ---------- -------------- -------------- ---------- ---------- ---------- ---------- ---------- -------- ------------ -------------- ---------- ---------- ---------- ---------- ---------- -------- ---------- ---------- ---------- -------- ---------- ------------- ------------- ------------- ---------- -------------- ------------ --------------- --------------- -------------- ------------ ---------------- ---------------- -------------- ---------- ---------- -------------- -------------- ------------------ ------------------ -------------- ------------------ ------------------ -------------- --------------- ------------------- ------------------- --------------- --------------- 
34389367     34389367     CovidStro+        gpu                                                                                                                                                                                                            1024   20:15:01    RUNNING      0:0                  Unknown       Unknown       Unknown       500G                                                                                                                                          billing=1+ billing=1+                                                                                                                                                                                                                                 
34389367.ba+ 34389367.ba+      batch                                                                                                                                                                                                               1        256   20:15:01    RUNNING      0:0          0             0             0             0                         0                                                                                                                                      cpu=256,g+                                                                                                                                                                                                                                 
34389367.ex+ 34389367.ex+     extern                                                                                                                                                                                                               4       1024   20:15:01    RUNNING      0:0          0             0             0             0                         0                                                                                                                                      billing=1+                                                                                                                                                                                                                                 
34389367.0   34389367.0        orted             87222768K           gn18              2 887134849+  85111580K       gn18          2  84486360K       23         gn16              0         20 15-19:55:+       gn18          2 15-20:09:+        3       1024   20:15:01  COMPLETED      0:0         3K             0             0             0                     7.36?     2382.05M            gn17               1       2380.84M      312.68M             gn16                0        312.53M            billing=1+ cpu=15-20:09:+ cpu=15-20:20:+ cpu=gn17,energy=g+ cpu=1,fs/disk=1,m+ cpu=15-19:55:+ cpu=gn18,energy=g+ cpu=2,fs/disk=2,m+ cpu=47-12:29:+ energy=4294967+ energy=gn18,fs/dis+           fs/disk=0 energy=0,fs/di+ energy=0,fs/di+ 
