JobId=8083285 JobName=CovidWeak
   UserId=pedronfe(327000671) GroupId=pepr_pedronfe(327000671) MCS_label=N/A
   Priority=466 Nice=0 Account=project_465001212 QOS=normal
   JobState=RUNNING Reason=None Dependency=(null)
   Requeue=1 Restarts=0 BatchFlag=1 Reboot=0 ExitCode=0:0
   DerivedExitCode=0:0
   RunTime=00:00:03 TimeLimit=00:59:00 TimeMin=N/A
   SubmitTime=2024-10-02T11:20:40 EligibleTime=2024-10-02T11:20:40
   AccrueTime=2024-10-02T11:20:40
   StartTime=2024-10-02T17:38:07 EndTime=2024-10-02T18:37:07 Deadline=N/A
   SuspendTime=None SecsPreSuspend=0 LastSchedEval=2024-10-02T17:38:06 Scheduler=Backfill
   Partition=standard AllocNode:Sid=ln01:153480
   ReqNodeList=(null) ExcNodeList=(null)
   NodeList=nid[002091-002122]
   BatchHost=nid002091
   NumNodes=32 NumCPUs=8192 NumTasks=4096 CPUs/Task=1 ReqB:S:C:T=0:0:*:1
   ReqTRES=cpu=4096,mem=7T,node=32,billing=4096
   AllocTRES=cpu=8192,node=32,billing=8192
   Socks/Node=* NtasksPerN:B:S:C=128:0:*:1 CoreSpec=*
   JOB_GRES=(null)
     Nodes=nid[002091-002122] CPU_IDs=0-255 Mem=0 GRES=
   MinCPUsNode=128 MinMemoryCPU=0 MinTmpDiskNode=0
   Features=(null) DelayBoot=00:00:00
   OverSubscribe=NO Contiguous=0 Licenses=(null) Network=(null)
   Command=/pfs/lustrep1/projappl/project_465001212/fede/JUBE4MaX/max-inputs/interface/siesta/_CovidWeak/000001/000000_submit/work/submit.job
   WorkDir=/pfs/lustrep1/projappl/project_465001212/fede/JUBE4MaX/max-inputs/interface/siesta/_CovidWeak/000001/000000_submit/work
   StdErr=/pfs/lustrep1/projappl/project_465001212/fede/JUBE4MaX/max-inputs/interface/siesta/_CovidWeak/000001/000000_submit/work/slurm-8083285.out
   StdIn=/dev/null
   StdOut=/pfs/lustrep1/projappl/project_465001212/fede/JUBE4MaX/max-inputs/interface/siesta/_CovidWeak/000001/000000_submit/work/slurm-8083285.out
   Power=
   

