{
 "global_section": { "_calls": 1, "_time":       34.929, "_%":   100.00,
   "siesta": { "_calls": 1, "_time":       34.929, "_%":   100.00,
     "Setup": { "_calls": 1, "_time":        2.716, "_%":     7.78,
       "bands": { "_calls": 1, "_time":        0.002, "_%":     0.01},
       "KSV_init": { "_calls": 1, "_time":        0.000, "_%":     0.00}
     },
     "IterGeom": { "_calls": 1, "_time":       31.976, "_%":    91.55,
       "geom_init": { "_calls": 1, "_time":        4.263, "_%":    12.21,
         "state_init": { "_calls": 1, "_time":        0.567, "_%":     1.62,
           "hsparse": { "_calls": 1, "_time":        0.098, "_%":     0.28},
           "overlap": { "_calls": 1, "_time":        0.053, "_%":     0.15}
         },
         "Setup_H0": { "_calls": 1, "_time":        3.695, "_%":    10.58,
           "naefs": { "_calls": 1, "_time":        0.014, "_%":     0.04},
           "MolMec": { "_calls": 1, "_time":        0.000, "_%":     0.00},
           "kinefsm": { "_calls": 1, "_time":        0.053, "_%":     0.15},
           "nlefsm": { "_calls": 1, "_time":        0.162, "_%":     0.46},
           "DHSCF_Init": { "_calls": 1, "_time":        3.457, "_%":     9.90,
             "DHSCF1": { "_calls": 1, "_time":        0.031, "_%":     0.09,
               "INITMESH": { "_calls": 1, "_time":        0.000, "_%":     0.00}
             },
             "DHSCF2": { "_calls": 1, "_time":        3.412, "_%":     9.77,
               "REMESH": { "_calls": 1, "_time":        0.758, "_%":     2.17,
                 "INITMESH": { "_calls": 2, "_time":        0.744, "_%":     2.13,
                   "SPLOAD": { "_calls": 2, "_time":        0.675, "_%":     1.93}
                 }
               },
               "REORD": { "_calls": 2, "_time":        0.010, "_%":     0.03},
               "PHION": { "_calls": 1, "_time":        0.128, "_%":     0.37},
               "COMM_BSC": { "_calls": 1, "_time":        0.080, "_%":     0.23},
               "POISON": { "_calls": 1, "_time":        2.149, "_%":     6.15,
                 "fft": { "_calls": 2, "_time":        2.073, "_%":     5.93}
               }
             }
           }
         }
       },
       "IterSCF": { "_calls": 5, "_time":       27.548, "_%":    78.87,
         "setup_H": { "_calls": 5, "_time":       16.123, "_%":    46.16,
           "DHSCF": { "_calls": 5, "_time":       16.098, "_%":    46.09,
             "DHSCF3": { "_calls": 5, "_time":       16.098, "_%":    46.09,
               "rhoofd": { "_calls": 5, "_time":        0.104, "_%":     0.30},
               "COMM_BSC": { "_calls": 10, "_time":        0.522, "_%":     1.50},
               "POISON": { "_calls": 5, "_time":       10.473, "_%":    29.98,
                 "fft": { "_calls": 10, "_time":       10.115, "_%":    28.96}
               },
               "XC": { "_calls": 5, "_time":        4.335, "_%":    12.41,
                 "COMM_BSC": { "_calls": 10, "_time":        0.627, "_%":     1.80},
                 "GXC-CellXC": { "_calls": 5, "_time":        3.640, "_%":    10.42,
                   "gridxc@cellXC": { "_calls": 5, "_time":        3.640, "_%":    10.42}
                 }
               },
               "vmat": { "_calls": 5, "_time":        0.085, "_%":     0.24}
             }
           }
         },
         "compute_dm": { "_calls": 5, "_time":       11.364, "_%":    32.53,
           "elsi": { "_calls": 5, "_time":       11.362, "_%":    32.53,
             "find nnz_g": { "_calls": 5, "_time":        0.000, "_%":     0.00},
             "elsi-solver": { "_calls": 5, "_time":       11.334, "_%":    32.45}
           }
         },
         "MIXER": { "_calls": 5, "_time":        0.043, "_%":     0.12}
       },
       "state_analysis": { "_calls": 1, "_time":        0.095, "_%":     0.27},
       "siesta_move": { "_calls": 1, "_time":        0.000, "_%":     0.00}
     },
     "Analysis": { "_calls": 1, "_time":        0.146, "_%":     0.42,
       "optical": { "_calls": 1, "_time":        0.001, "_%":     0.00}
     }
   }
 }}
