{
 "global_section": { "_calls": 1, "_time":      776.302, "_%":   100.00,
   "siesta": { "_calls": 1, "_time":      776.302, "_%":   100.00,
     "Setup": { "_calls": 1, "_time":        0.804, "_%":     0.10,
       "bands": { "_calls": 1, "_time":        0.002, "_%":     0.00},
       "KSV_init": { "_calls": 1, "_time":        0.000, "_%":     0.00}
     },
     "IterGeom": { "_calls": 1, "_time":      741.223, "_%":    95.48,
       "geom_init": { "_calls": 1, "_time":       11.170, "_%":     1.44,
         "state_init": { "_calls": 1, "_time":        1.649, "_%":     0.21,
           "hsparse": { "_calls": 1, "_time":        0.123, "_%":     0.02},
           "overlap": { "_calls": 1, "_time":        0.999, "_%":     0.13}
         },
         "Setup_H0": { "_calls": 1, "_time":        9.519, "_%":     1.23,
           "naefs": { "_calls": 1, "_time":        0.018, "_%":     0.00},
           "MolMec": { "_calls": 1, "_time":        0.000, "_%":     0.00},
           "kinefsm": { "_calls": 1, "_time":        0.996, "_%":     0.13},
           "nlefsm": { "_calls": 1, "_time":        2.807, "_%":     0.36},
           "DHSCF_Init": { "_calls": 1, "_time":        5.686, "_%":     0.73,
             "DHSCF1": { "_calls": 1, "_time":        0.027, "_%":     0.00,
               "INITMESH": { "_calls": 1, "_time":        0.000, "_%":     0.00}
             },
             "DHSCF2": { "_calls": 1, "_time":        5.643, "_%":     0.73,
               "REMESH": { "_calls": 1, "_time":        4.500, "_%":     0.58,
                 "INITMESH": { "_calls": 2, "_time":        4.365, "_%":     0.56,
                   "SPLOAD": { "_calls": 2, "_time":        3.413, "_%":     0.44}
                 }
               },
               "REORD": { "_calls": 2, "_time":        0.002, "_%":     0.00},
               "PHION": { "_calls": 1, "_time":        0.073, "_%":     0.01},
               "COMM_BSC": { "_calls": 1, "_time":        0.028, "_%":     0.00},
               "POISON": { "_calls": 1, "_time":        0.393, "_%":     0.05,
                 "fft": { "_calls": 2, "_time":        0.381, "_%":     0.05}
               }
             }
           }
         }
       },
       "IterSCF": { "_calls": 5, "_time":      729.853, "_%":    94.02,
         "setup_H": { "_calls": 5, "_time":        3.120, "_%":     0.40,
           "DHSCF": { "_calls": 5, "_time":        3.106, "_%":     0.40,
             "DHSCF3": { "_calls": 5, "_time":        3.106, "_%":     0.40,
               "rhoofd": { "_calls": 5, "_time":        0.060, "_%":     0.01},
               "COMM_BSC": { "_calls": 10, "_time":        0.157, "_%":     0.02},
               "POISON": { "_calls": 5, "_time":        1.421, "_%":     0.18,
                 "fft": { "_calls": 10, "_time":        1.342, "_%":     0.17}
               },
               "XC": { "_calls": 5, "_time":        1.221, "_%":     0.16,
                 "COMM_BSC": { "_calls": 10, "_time":        0.145, "_%":     0.02},
                 "GXC-CellXC": { "_calls": 5, "_time":        1.054, "_%":     0.14,
                   "gridxc@cellXC": { "_calls": 5, "_time":        1.054, "_%":     0.14}
                 }
               },
               "vmat": { "_calls": 5, "_time":        0.071, "_%":     0.01}
             }
           }
         },
         "compute_dm": { "_calls": 5, "_time":      726.698, "_%":    93.61,
           "elsi": { "_calls": 5, "_time":      726.345, "_%":    93.56,
             "find nnz_g": { "_calls": 5, "_time":        0.000, "_%":     0.00},
             "elsi-solver": { "_calls": 5, "_time":      726.331, "_%":    93.56}
           }
         },
         "MIXER": { "_calls": 5, "_time":        0.009, "_%":     0.00}
       },
       "state_analysis": { "_calls": 1, "_time":        0.035, "_%":     0.00},
       "siesta_move": { "_calls": 1, "_time":        0.000, "_%":     0.00}
     },
     "Analysis": { "_calls": 1, "_time":       29.861, "_%":     3.85,
       "optical": { "_calls": 1, "_time":        0.001, "_%":     0.00}
     }
   }
 }}
