load mkl/2024.0 (LD_LIBRARY_PATH)
load HDF5/1.14.1-2 (PATH, LD_LIBRARY_PATH, LIBRARY_PATH, C_INCLUDE_PATH,
CPLUS_INCLUDE_PATH, HDF5_DIR, HDF5_ROOT) 
load QUANTUMESPRESSO/7.3.1 (PATH)
Warning: ieee_inexact is signaling
FORTRAN STOP
Warning: ieee_inexact is signaling
FORTRAN STOP
Warning: ieee_inexact is signaling
FORTRAN STOP
Warning: ieee_inexact is signaling
FORTRAN STOP
[as01r4b21:1632463:0:1632463] Caught signal 11 (Segmentation fault: address not mapped to object at address 0x1e2b6058)
[as01r4b21:1632465:0:1632465] Caught signal 11 (Segmentation fault: address not mapped to object at address 0xfffffffffa213058)
[as01r4b21:1632466:0:1632466] Caught signal 11 (Segmentation fault: address not mapped to object at address 0x43ee058)
[as01r4b21:1632464:0:1632464] Caught signal 11 (Segmentation fault: address not mapped to object at address 0xfffffffffb918058)
Warning: ieee_inexact is signaling
FORTRAN STOP
Warning: ieee_inexact is signaling
FORTRAN STOP
Warning: ieee_inexact is signaling
FORTRAN STOP
Warning: ieee_divide_by_zero is signaling
Warning: ieee_inexact is signaling
FORTRAN STOP
[as01r4b20:1694848:0:1694848] Caught signal 11 (Segmentation fault: address not mapped to object at address 0x6ce85058)
[as01r4b20:1694849:0:1694849] Caught signal 11 (Segmentation fault: address not mapped to object at address 0xffffffffa2319058)
[as01r4b20:1694847:0:1694847] Caught signal 11 (Segmentation fault: address not mapped to object at address 0xffffffff8e1db058)
[as01r4b20:1694846:0:1694846] Caught signal 11 (Segmentation fault: address not mapped to object at address 0xffffffffc66bd058)
--------------------------------------------------------------------------
Primary job  terminated normally, but 1 process returned
a non-zero exit code. Per user-direction, the job has been aborted.
--------------------------------------------------------------------------
--------------------------------------------------------------------------
mpirun noticed that process rank 5 with PID 1632464 on node as01r4b21 exited on signal 11 (Segmentation fault).
--------------------------------------------------------------------------
