{
 "global_section": { "_calls": 1, "_time":       37.253, "_%":   100.00,
   "siesta": { "_calls": 1, "_time":       37.253, "_%":   100.00,
     "Setup": { "_calls": 1, "_time":        1.127, "_%":     3.03,
       "bands": { "_calls": 1, "_time":        0.002, "_%":     0.01},
       "KSV_init": { "_calls": 1, "_time":        0.001, "_%":     0.00}
     },
     "IterGeom": { "_calls": 1, "_time":       35.755, "_%":    95.98,
       "geom_init": { "_calls": 1, "_time":        9.568, "_%":    25.68,
         "state_init": { "_calls": 1, "_time":        1.852, "_%":     4.97,
           "hsparse": { "_calls": 1, "_time":        0.132, "_%":     0.35},
           "overlap": { "_calls": 1, "_time":        0.727, "_%":     1.95}
         },
         "Setup_H0": { "_calls": 1, "_time":        7.714, "_%":    20.71,
           "naefs": { "_calls": 1, "_time":        0.022, "_%":     0.06},
           "MolMec": { "_calls": 1, "_time":        0.000, "_%":     0.00},
           "kinefsm": { "_calls": 1, "_time":        0.725, "_%":     1.95},
           "nlefsm": { "_calls": 1, "_time":        1.659, "_%":     4.45},
           "DHSCF_Init": { "_calls": 1, "_time":        5.294, "_%":    14.21,
             "DHSCF1": { "_calls": 1, "_time":        0.053, "_%":     0.14,
               "INITMESH": { "_calls": 1, "_time":        0.000, "_%":     0.00}
             },
             "DHSCF2": { "_calls": 1, "_time":        5.220, "_%":    14.01,
               "REMESH": { "_calls": 1, "_time":        2.221, "_%":     5.96,
                 "INITMESH": { "_calls": 2, "_time":        2.178, "_%":     5.85,
                   "SPLOAD": { "_calls": 2, "_time":        1.937, "_%":     5.20}
                 }
               },
               "REORD": { "_calls": 2, "_time":        0.014, "_%":     0.04},
               "PHION": { "_calls": 1, "_time":        0.274, "_%":     0.73},
               "COMM_BSC": { "_calls": 1, "_time":        0.041, "_%":     0.11},
               "POISON": { "_calls": 1, "_time":        2.338, "_%":     6.28,
                 "fft": { "_calls": 2, "_time":        2.232, "_%":     5.99}
               }
             }
           }
         }
       },
       "IterSCF": { "_calls": 5, "_time":       26.125, "_%":    70.13,
         "setup_H": { "_calls": 5, "_time":       18.007, "_%":    48.34,
           "DHSCF": { "_calls": 5, "_time":       17.991, "_%":    48.30,
             "DHSCF3": { "_calls": 5, "_time":       17.991, "_%":    48.30,
               "rhoofd": { "_calls": 5, "_time":        0.194, "_%":     0.52},
               "COMM_BSC": { "_calls": 10, "_time":        0.480, "_%":     1.29},
               "POISON": { "_calls": 5, "_time":       11.516, "_%":    30.91,
                 "fft": { "_calls": 10, "_time":       11.040, "_%":    29.64}
               },
               "XC": { "_calls": 5, "_time":        4.486, "_%":    12.04,
                 "COMM_BSC": { "_calls": 10, "_time":        0.442, "_%":     1.19},
                 "GXC-CellXC": { "_calls": 5, "_time":        3.916, "_%":    10.51,
                   "gridxc@cellXC": { "_calls": 5, "_time":        3.916, "_%":    10.51}
                 }
               },
               "vmat": { "_calls": 5, "_time":        0.199, "_%":     0.53}
             }
           }
         },
         "compute_dm": { "_calls": 5, "_time":        8.089, "_%":    21.71,
           "elsi": { "_calls": 5, "_time":        8.087, "_%":    21.71,
             "find nnz_g": { "_calls": 5, "_time":        0.000, "_%":     0.00},
             "elsi-solver": { "_calls": 5, "_time":        8.069, "_%":    21.66}
           }
         },
         "MIXER": { "_calls": 5, "_time":        0.006, "_%":     0.02}
       },
       "state_analysis": { "_calls": 1, "_time":        0.045, "_%":     0.12},
       "siesta_move": { "_calls": 1, "_time":        0.000, "_%":     0.00}
     },
     "Analysis": { "_calls": 1, "_time":        0.336, "_%":     0.90,
       "optical": { "_calls": 1, "_time":        0.001, "_%":     0.00}
     }
   }
 }}
