{
 "global_section": { "_calls": 1, "_time":     1285.727, "_%":   100.00,
   "siesta": { "_calls": 1, "_time":     1285.727, "_%":   100.00,
     "Setup": { "_calls": 1, "_time":        1.659, "_%":     0.13,
       "bands": { "_calls": 1, "_time":        0.002, "_%":     0.00},
       "KSV_init": { "_calls": 1, "_time":        0.000, "_%":     0.00}
     },
     "IterGeom": { "_calls": 1, "_time":     1283.353, "_%":    99.82,
       "geom_init": { "_calls": 1, "_time":       10.264, "_%":     0.80,
         "state_init": { "_calls": 1, "_time":        1.620, "_%":     0.13,
           "hsparse": { "_calls": 1, "_time":        0.119, "_%":     0.01},
           "overlap": { "_calls": 1, "_time":        0.591, "_%":     0.05}
         },
         "Setup_H0": { "_calls": 1, "_time":        8.643, "_%":     0.67,
           "naefs": { "_calls": 1, "_time":        0.017, "_%":     0.00},
           "MolMec": { "_calls": 1, "_time":        0.000, "_%":     0.00},
           "kinefsm": { "_calls": 1, "_time":        0.585, "_%":     0.05},
           "nlefsm": { "_calls": 1, "_time":        1.317, "_%":     0.10},
           "DHSCF_Init": { "_calls": 1, "_time":        6.714, "_%":     0.52,
             "DHSCF1": { "_calls": 1, "_time":        0.032, "_%":     0.00,
               "INITMESH": { "_calls": 1, "_time":        0.000, "_%":     0.00}
             },
             "DHSCF2": { "_calls": 1, "_time":        6.668, "_%":     0.52,
               "REMESH": { "_calls": 1, "_time":        1.824, "_%":     0.14,
                 "INITMESH": { "_calls": 2, "_time":        1.803, "_%":     0.14,
                   "SPLOAD": { "_calls": 2, "_time":        1.781, "_%":     0.14}
                 }
               },
               "REORD": { "_calls": 2, "_time":        0.020, "_%":     0.00},
               "PHION": { "_calls": 1, "_time":        0.428, "_%":     0.03},
               "COMM_BSC": { "_calls": 1, "_time":        0.076, "_%":     0.01},
               "POISON": { "_calls": 1, "_time":        3.858, "_%":     0.30,
                 "fft": { "_calls": 2, "_time":        3.693, "_%":     0.29}
               }
             }
           }
         }
       },
       "IterSCF": { "_calls": 5, "_time":     1272.947, "_%":    99.01,
         "setup_H": { "_calls": 5, "_time":       30.043, "_%":     2.34,
           "DHSCF": { "_calls": 5, "_time":       30.017, "_%":     2.33,
             "DHSCF3": { "_calls": 5, "_time":       30.017, "_%":     2.33,
               "rhoofd": { "_calls": 5, "_time":        0.337, "_%":     0.03},
               "COMM_BSC": { "_calls": 10, "_time":        0.842, "_%":     0.07},
               "POISON": { "_calls": 5, "_time":       19.172, "_%":     1.49,
                 "fft": { "_calls": 10, "_time":       18.214, "_%":     1.42}
               },
               "XC": { "_calls": 5, "_time":        7.536, "_%":     0.59,
                 "COMM_BSC": { "_calls": 10, "_time":        0.886, "_%":     0.07},
                 "GXC-CellXC": { "_calls": 5, "_time":        6.396, "_%":     0.50,
                   "gridxc@cellXC": { "_calls": 5, "_time":        6.396, "_%":     0.50}
                 }
               },
               "vmat": { "_calls": 5, "_time":        0.357, "_%":     0.03}
             }
           }
         },
         "compute_dm": { "_calls": 5, "_time":     1242.881, "_%":    96.67,
           "elsi": { "_calls": 5, "_time":     1242.543, "_%":    96.64,
             "find nnz_g": { "_calls": 5, "_time":        0.000, "_%":     0.00},
             "elsi-solver": { "_calls": 5, "_time":     1242.525, "_%":    96.64}
           }
         },
         "MIXER": { "_calls": 5, "_time":        0.006, "_%":     0.00}
       },
       "state_analysis": { "_calls": 1, "_time":        0.061, "_%":     0.00},
       "siesta_move": { "_calls": 1, "_time":        0.000, "_%":     0.00}
     },
     "Analysis": { "_calls": 1, "_time":        0.673, "_%":     0.05,
       "optical": { "_calls": 1, "_time":        0.001, "_%":     0.00}
     }
   }
 }}
