JobID        JobIDRaw        JobName  Partition  MaxVMSize  MaxVMSizeNode  MaxVMSizeTask  AveVMSize     MaxRSS MaxRSSNode MaxRSSTask     AveRSS MaxPages MaxPagesNode   MaxPagesTask   AvePages     MinCPU MinCPUNode MinCPUTask     AveCPU   NTasks  AllocCPUS    Elapsed      State ExitCode AveCPUFreq ReqCPUFreqMin ReqCPUFreqMax ReqCPUFreqGov     ReqMem ConsumedEnergy  MaxDiskRead MaxDiskReadNode MaxDiskReadTask    AveDiskRead MaxDiskWrite MaxDiskWriteNode MaxDiskWriteTask   AveDiskWrite    ReqTRES  AllocTRES TRESUsageInAve TRESUsageInMax TRESUsageInMaxNode TRESUsageInMaxTask TRESUsageInMin TRESUsageInMinNode TRESUsageInMinTask TRESUsageInTot TRESUsageOutMax TRESUsageOutMaxNode TRESUsageOutMaxTask TRESUsageOutAve TRESUsageOutTot 
------------ ------------ ---------- ---------- ---------- -------------- -------------- ---------- ---------- ---------- ---------- ---------- -------- ------------ -------------- ---------- ---------- ---------- ---------- ---------- -------- ---------- ---------- ---------- -------- ---------- ------------- ------------- ------------- ---------- -------------- ------------ --------------- --------------- -------------- ------------ ---------------- ---------------- -------------- ---------- ---------- -------------- -------------- ------------------ ------------------ -------------- ------------------ ------------------ -------------- --------------- ------------------- ------------------- --------------- --------------- 
5826906      5826906      CovidWeak+        acc                                                                                                                                                                                                             320   00:13:18    RUNNING      0:0                  Unknown       Unknown       Unknown   1000000M                                                                                                                                          billing=1+ billing=3+                                                                                                                                                                                                                                 
5826906.bat+ 5826906.bat+      batch                                                                                                                                                                                                               1        160   00:13:18    RUNNING      0:0          0             0             0             0                         0                                                                                                                                      cpu=160,g+                                                                                                                                                                                                                                 
5826906.ext+ 5826906.ext+     extern                                                                                                                                                                                                               2        320   00:13:18    RUNNING      0:0          0             0             0             0                         0                                                                                                                                      billing=3+                                                                                                                                                                                                                                 
5826906.0    5826906.0    marenostr+                                                                                                                                                                                                             160        320   00:13:11    RUNNING      0:0          0       Unknown       Unknown       Unknown                         0                                                                                                                                      cpu=320,g+                                                                                                                                                                                                                                 
