JobId=5826906 JobName=CovidWeakKPoints
   UserId=icn2553284(51005) GroupId=icn2(50004) MCS_label=N/A
   Priority=96950 Nice=0 Account=ehpc37 QOS=acc_ehpc
   JobState=RUNNING Reason=None Dependency=(null)
   Requeue=0 Restarts=0 BatchFlag=1 Reboot=0 ExitCode=0:0
   RunTime=00:00:06 TimeLimit=02:00:00 TimeMin=N/A
   SubmitTime=2024-09-10T11:05:50 EligibleTime=2024-09-10T11:05:50
   AccrueTime=2024-09-10T11:05:50
   StartTime=2024-09-10T13:33:51 EndTime=2024-09-10T15:33:51 Deadline=N/A
   SuspendTime=None SecsPreSuspend=0 LastSchedEval=2024-09-10T13:33:51 Scheduler=Main
   Partition=acc AllocNode:Sid=alogin2:1418893
   ReqNodeList=(null) ExcNodeList=(null)
   NodeList=as05r1b[30-31]
   BatchHost=as05r1b30
   NumNodes=2 NumCPUs=320 NumTasks=160 CPUs/Task=1 ReqB:S:C:T=0:0:*:1
   ReqTRES=cpu=160,mem=1000000M,node=2,billing=160,gres/gpu=8
   AllocTRES=cpu=320,mem=1000000M,node=2,billing=320,gres/gpu=8
   Socks/Node=* NtasksPerN:B:S:C=80:0:*:* CoreSpec=*
   MinCPUsNode=80 MinMemoryCPU=6250M MinTmpDiskNode=0
   Features=(null) DelayBoot=00:00:00
   OverSubscribe=NO Contiguous=0 Licenses=(null) Network=(null)
   Command=/gpfs/home/icn2/icn2553284/jube4max-gpu/max-inputs/interface/siesta/_CovidWeakKPoints/000000/000001_submit/work/submit.job
   WorkDir=/gpfs/home/icn2/icn2553284/jube4max-gpu/max-inputs/interface/siesta/_CovidWeakKPoints/000000/000001_submit/work
   StdErr=/gpfs/home/icn2/icn2553284/jube4max-gpu/max-inputs/interface/siesta/_CovidWeakKPoints/000000/000001_submit/work/job_5826906.err
   StdIn=/dev/null
   StdOut=/gpfs/home/icn2/icn2553284/jube4max-gpu/max-inputs/interface/siesta/_CovidWeakKPoints/000000/000001_submit/work/job_5826906.out
   Power=
   TresPerNode=gres:gpu:4
   

