JobID        JobIDRaw        JobName  Partition  MaxVMSize  MaxVMSizeNode  MaxVMSizeTask  AveVMSize     MaxRSS MaxRSSNode MaxRSSTask     AveRSS MaxPages MaxPagesNode   MaxPagesTask   AvePages     MinCPU MinCPUNode MinCPUTask     AveCPU   NTasks  AllocCPUS    Elapsed      State ExitCode AveCPUFreq ReqCPUFreqMin ReqCPUFreqMax ReqCPUFreqGov     ReqMem ConsumedEnergy  MaxDiskRead MaxDiskReadNode MaxDiskReadTask    AveDiskRead MaxDiskWrite MaxDiskWriteNode MaxDiskWriteTask   AveDiskWrite    ReqTRES  AllocTRES TRESUsageInAve TRESUsageInMax TRESUsageInMaxNode TRESUsageInMaxTask TRESUsageInMin TRESUsageInMinNode TRESUsageInMinTask TRESUsageInTot TRESUsageOutMax TRESUsageOutMaxNode TRESUsageOutMaxTask TRESUsageOutAve TRESUsageOutTot 
------------ ------------ ---------- ---------- ---------- -------------- -------------- ---------- ---------- ---------- ---------- ---------- -------- ------------ -------------- ---------- ---------- ---------- ---------- ---------- -------- ---------- ---------- ---------- -------- ---------- ------------- ------------- ------------- ---------- -------------- ------------ --------------- --------------- -------------- ------------ ---------------- ---------------- -------------- ---------- ---------- -------------- -------------- ------------------ ------------------ -------------- ------------------ ------------------ -------------- --------------- ------------------- ------------------- --------------- --------------- 
1424478      1424478       CovidWeak        gpu                                                                                                                                                                                                            1024   00:11:04    RUNNING      0:0                  Unknown       Unknown       Unknown      3840G                                                                                                                                          billing=2+ billing=1+                                                                                                                                                                                                                                 
1424478.bat+ 1424478.bat+      batch                                                                                                                                                                                                               1        128   00:11:04    RUNNING      0:0          0             0             0             0                         0                                                                                                                                      cpu=128,g+                                                                                                                                                                                                                                 
1424478.0    1424478.0    meluxina-+                                                                                                                                                                                                             256       1024   00:10:54    RUNNING      0:0          0       Unknown       Unknown       Unknown                         0                                                                                                                                      cpu=1024,+                                                                                                                                                                                                                                 
