The following modules were not unloaded:
  (Use "module --force purge" to unload all):

  1) env/release/2023.1   2) lxp-tools/myquota/0.3.3
Current loaded modules
----------------------

Currently Loaded Modules:
  1) env/release/2023.1               (S)
  2) lxp-tools/myquota/0.3.3          (S)
  3) GCCcore/12.3.0
  4) zlib/1.2.13-GCCcore-12.3.0
  5) binutils/2.40-GCCcore-12.3.0
  6) GCC/12.3.0
  7) numactl/2.0.16-GCCcore-12.3.0
  8) XZ/5.4.2-GCCcore-12.3.0
  9) libxml2/2.11.4-GCCcore-12.3.0
 10) libpciaccess/0.17-GCCcore-12.3.0
 11) hwloc/2.9.1-GCCcore-12.3.0
 12) OpenSSL/1.1
 13) libevent/2.1.12-GCCcore-12.3.0
 14) UCX/1.14.1-GCCcore-12.3.0
 15) libfabric/1.18.0-GCCcore-12.3.0
 16) PMIx/4.2.6-GCCcore-12.3.0
 17) UCC/1.2.0-GCCcore-12.3.0
 18) OpenMPI/4.1.5-GCC-12.3.0
 19) gompi/2023a
 20) OpenBLAS/0.3.23-GCC-12.3.0
 21) FlexiBLAS/3.3.1-GCC-12.3.0
 22) ScaLAPACK/2.2.0-gompi-2023a-fb
 23) Szip/2.1.1-GCCcore-12.3.0
 24) HDF5/1.14.0-gompi-2023a
 25) cURL/8.0.1-GCCcore-12.3.0
 26) gzip/1.12-GCCcore-12.3.0
 27) lz4/1.9.4-GCCcore-12.3.0
 28) zstd/1.5.5-GCCcore-12.3.0
 29) bzip2/1.0.8-GCCcore-12.3.0
 30) netCDF/4.9.2-gompi-2023a
 31) netCDF-Fortran/4.6.1-gompi-2023a
 32) FFTW/3.3.10-GCC-12.3.0
 33) CUDA/12.2.0
 34) ncurses/6.4-GCCcore-12.3.0
 35) libreadline/8.2-GCCcore-12.3.0
 36) FFTW.MPI/3.3.10-gompi-2023a
 37) foss/2023a

  Where:
   S:  Module is Sticky, requires --force to unload or purge

 


Current environment variables
-----------------------------
HYDRA_LAUNCHER_EXTRA_ARGS=--external-launcher
__AUTO_CUDA_VISIBLE_DEVICES=0,1,2,3     
LD_LIBRARY_PATH=/apps/USE/easybuild/release/2023.1/software/FFTW.MPI/3.3.10-gompi-2023a/lib:/apps/USE/easybuild/release/2023.1/software/libreadline/8.2-GCCcore-12.3.0/lib:/apps/USE/easybuild/release/2023.1/software/ncurses/6.4-GCCcore-12.3.0/lib:/apps/USE/easybuild/release/2023.1/software/CUDA/12.2.0/nvvm/lib64:/apps/USE/easybuild/release/2023.1/software/CUDA/12.2.0/extras/CUPTI/lib64:/apps/USE/easybuild/release/2023.1/software/CUDA/12.2.0/lib:/apps/USE/easybuild/release/2023.1/software/FFTW/3.3.10-GCC-12.3.0/lib:/apps/USE/easybuild/release/2023.1/software/netCDF-Fortran/4.6.1-gompi-2023a/lib:/apps/USE/easybuild/release/2023.1/software/netCDF/4.9.2-gompi-2023a/lib:/apps/USE/easybuild/release/2023.1/software/bzip2/1.0.8-GCCcore-12.3.0/lib:/apps/USE/easybuild/release/2023.1/software/zstd/1.5.5-GCCcore-12.3.0/lib:/apps/USE/easybuild/release/2023.1/software/lz4/1.9.4-GCCcore-12.3.0/lib:/apps/USE/easybuild/release/2023.1/software/cURL/8.0.1-GCCcore-12.3.0/lib:/apps/USE/easybuild/release/2023.1/software/HDF5/1.14.0-gompi-2023a/lib:/apps/USE/easybuild/release/2023.1/software/Szip/2.1.1-GCCcore-12.3.0/lib:/apps/USE/easybuild/release/2023.1/software/ScaLAPACK/2.2.0-gompi-2023a-fb/lib:/apps/USE/easybuild/release/2023.1/software/FlexiBLAS/3.3.1-GCC-12.3.0/lib:/apps/USE/easybuild/release/2023.1/software/OpenBLAS/0.3.23-GCC-12.3.0/lib:/apps/USE/easybuild/release/2023.1/software/OpenMPI/4.1.5-GCC-12.3.0/lib:/apps/USE/easybuild/release/2023.1/software/UCC/1.2.0-GCCcore-12.3.0/lib:/apps/USE/easybuild/release/2023.1/software/PMIx/4.2.6-GCCcore-12.3.0/lib:/apps/USE/easybuild/release/2023.1/software/libfabric/1.18.0-GCCcore-12.3.0/lib:/apps/USE/easybuild/release/2023.1/software/UCX/1.14.1-GCCcore-12.3.0/lib:/apps/USE/easybuild/release/2023.1/software/libevent/2.1.12-GCCcore-12.3.0/lib:/apps/USE/easybuild/release/2023.1/software/OpenSSL/1.1/lib:/apps/USE/easybuild/release/2023.1/software/hwloc/2.9.1-GCCcore-12.3.0/lib:/apps/USE/easybuild/release/2023.1/software/libpciaccess/0.17-GCCcore-12.3.0/lib:/apps/USE/easybuild/release/2023.1/software/libxml2/2.11.4-GCCcore-12.3.0/lib:/apps/USE/easybuild/release/2023.1/software/XZ/5.4.2-GCCcore-12.3.0/lib:/apps/USE/easybuild/release/2023.1/software/numactl/2.0.16-GCCcore-12.3.0/lib:/apps/USE/easybuild/release/2023.1/software/binutils/2.40-GCCcore-12.3.0/lib:/apps/USE/easybuild/release/2023.1/software/zlib/1.2.13-GCCcore-12.3.0/lib:/apps/USE/easybuild/release/2023.1/software/GCCcore/12.3.0/lib64:/home/users/u102010/Siesta/elpa-gpu/lib/
LS_COLORS=rs=0:di=38;5;33:ln=38;5;51:mh=00:pi=40;38;5;11:so=38;5;13:do=38;5;5:bd=48;5;232;38;5;11:cd=48;5;232;38;5;3:or=48;5;232;38;5;9:mi=01;05;37;41:su=48;5;196;38;5;15:sg=48;5;11;38;5;16:ca=48;5;196;38;5;226:tw=48;5;10;38;5;16:ow=48;5;10;38;5;21:st=48;5;21;38;5;15:ex=38;5;40:*.tar=38;5;9:*.tgz=38;5;9:*.arc=38;5;9:*.arj=38;5;9:*.taz=38;5;9:*.lha=38;5;9:*.lz4=38;5;9:*.lzh=38;5;9:*.lzma=38;5;9:*.tlz=38;5;9:*.txz=38;5;9:*.tzo=38;5;9:*.t7z=38;5;9:*.zip=38;5;9:*.z=38;5;9:*.dz=38;5;9:*.gz=38;5;9:*.lrz=38;5;9:*.lz=38;5;9:*.lzo=38;5;9:*.xz=38;5;9:*.zst=38;5;9:*.tzst=38;5;9:*.bz2=38;5;9:*.bz=38;5;9:*.tbz=38;5;9:*.tbz2=38;5;9:*.tz=38;5;9:*.deb=38;5;9:*.rpm=38;5;9:*.jar=38;5;9:*.war=38;5;9:*.ear=38;5;9:*.sar=38;5;9:*.rar=38;5;9:*.alz=38;5;9:*.ace=38;5;9:*.zoo=38;5;9:*.cpio=38;5;9:*.7z=38;5;9:*.rz=38;5;9:*.cab=38;5;9:*.wim=38;5;9:*.swm=38;5;9:*.dwm=38;5;9:*.esd=38;5;9:*.jpg=38;5;13:*.jpeg=38;5;13:*.mjpg=38;5;13:*.mjpeg=38;5;13:*.gif=38;5;13:*.bmp=38;5;13:*.pbm=38;5;13:*.pgm=38;5;13:*.ppm=38;5;13:*.tga=38;5;13:*.xbm=38;5;13:*.xpm=38;5;13:*.tif=38;5;13:*.tiff=38;5;13:*.png=38;5;13:*.svg=38;5;13:*.svgz=38;5;13:*.mng=38;5;13:*.pcx=38;5;13:*.mov=38;5;13:*.mpg=38;5;13:*.mpeg=38;5;13:*.m2v=38;5;13:*.mkv=38;5;13:*.webm=38;5;13:*.ogm=38;5;13:*.mp4=38;5;13:*.m4v=38;5;13:*.mp4v=38;5;13:*.vob=38;5;13:*.qt=38;5;13:*.nuv=38;5;13:*.wmv=38;5;13:*.asf=38;5;13:*.rm=38;5;13:*.rmvb=38;5;13:*.flc=38;5;13:*.avi=38;5;13:*.fli=38;5;13:*.flv=38;5;13:*.gl=38;5;13:*.dl=38;5;13:*.xcf=38;5;13:*.xwd=38;5;13:*.yuv=38;5;13:*.cgm=38;5;13:*.emf=38;5;13:*.ogv=38;5;13:*.ogx=38;5;13:*.aac=38;5;45:*.au=38;5;45:*.flac=38;5;45:*.m4a=38;5;45:*.mid=38;5;45:*.midi=38;5;45:*.mka=38;5;45:*.mp3=38;5;45:*.mpc=38;5;45:*.ogg=38;5;45:*.ra=38;5;45:*.wav=38;5;45:*.oga=38;5;45:*.opus=38;5;45:*.spx=38;5;45:*.xspf=38;5;45:
EBVERSIONXZ=5.4.2
J4M_ACCOUNT=p200585
_ModuleTable017_=MDAwMS4qemZpbmFsIiwKfSwKZm9zcyA9IHsKZm4gPSAiL2FwcHMvVVNFL2Vhc3lidWlsZC9yZWxlYXNlLzIwMjMuMS9tb2R1bGVzL2FsbC9mb3NzLzIwMjNhLmx1YSIsCmZ1bGxOYW1lID0gImZvc3MvMjAyM2EiLApsb2FkT3JkZXIgPSAzNywKcHJvcFQgPSB7fSwKc3RhY2tEZXB0aCA9IDAsCnN0YXR1cyA9ICJhY3RpdmUiLAp1c2VyTmFtZSA9ICJmb3NzIiwKd1YgPSAiMDAwMDAyMDIzLiphLip6ZmluYWwiLAp9LApnb21waSA9IHsKZm4gPSAiL2FwcHMvVVNFL2Vhc3lidWlsZC9yZWxlYXNlLzIwMjMuMS9tb2R1bGVzL2FsbC9nb21waS8yMDIzYS5sdWEiLApmdWxsTmFtZSA9ICJnb21waS8yMDIzYSIsCmxvYWRPcmRlciA9IDE5LApwcm9wVCA9IHt9LApzdGFja0RlcHRoID0g
EBROOTBINUTILS=/apps/USE/easybuild/release/2023.1/software/binutils/2.40-GCCcore-12.3.0
SLURM_NODEID=0
EBVERSIONPMIX=4.2.6
EBDEVELSZIP=/apps/USE/easybuild/release/2023.1/software/Szip/2.1.1-GCCcore-12.3.0/easybuild/Szip-2.1.1-GCCcore-12.3.0-easybuild-devel
SLURM_TASK_PID=26251
SLURMD_TRES_BIND=
EBVERSIONCUDA=12.2.0
__LMOD_REF_COUNT_PATH=/apps/USE/easybuild/release/2023.1/software/ncurses/6.4-GCCcore-12.3.0/bin:1;/apps/USE/easybuild/release/2023.1/software/CUDA/12.2.0/nvvm/bin:1;/apps/USE/easybuild/release/2023.1/software/CUDA/12.2.0/bin:1;/apps/USE/easybuild/release/2023.1/software/FFTW/3.3.10-GCC-12.3.0/bin:1;/apps/USE/easybuild/release/2023.1/software/netCDF-Fortran/4.6.1-gompi-2023a/bin:1;/apps/USE/easybuild/release/2023.1/software/netCDF/4.9.2-gompi-2023a/bin:1;/apps/USE/easybuild/release/2023.1/software/bzip2/1.0.8-GCCcore-12.3.0/bin:1;/apps/USE/easybuild/release/2023.1/software/zstd/1.5.5-GCCcore-12.3.0/bin:1;/apps/USE/easybuild/release/2023.1/software/lz4/1.9.4-GCCcore-12.3.0/bin:1;/apps/USE/easybuild/release/2023.1/software/gzip/1.12-GCCcore-12.3.0/bin:1;/apps/USE/easybuild/release/2023.1/software/cURL/8.0.1-GCCcore-12.3.0/bin:1;/apps/USE/easybuild/release/2023.1/software/HDF5/1.14.0-gompi-2023a/bin:1;/apps/USE/easybuild/release/2023.1/software/FlexiBLAS/3.3.1-GCC-12.3.0/bin:1;/apps/USE/easybuild/release/2023.1/software/OpenMPI/4.1.5-GCC-12.3.0/bin:1;/apps/USE/easybuild/release/2023.1/software/UCC/1.2.0-GCCcore-12.3.0/bin:1;/apps/USE/easybuild/release/2023.1/software/PMIx/4.2.6-GCCcore-12.3.0/bin:1;/apps/USE/easybuild/release/2023.1/software/libfabric/1.18.0-GCCcore-12.3.0/bin:1;/apps/USE/easybuild/release/2023.1/software/UCX/1.14.1-GCCcore-12.3.0/bin:1;/apps/USE/easybuild/release/2023.1/software/libevent/2.1.12-GCCcore-12.3.0/bin:1;/apps/USE/easybuild/release/2023.1/software/OpenSSL/1.1/bin:1;/apps/USE/easybuild/release/2023.1/software/hwloc/2.9.1-GCCcore-12.3.0/sbin:1;/apps/USE/easybuild/release/2023.1/software/hwloc/2.9.1-GCCcore-12.3.0/bin:1;/apps/USE/easybuild/release/2023.1/software/libxml2/2.11.4-GCCcore-12.3.0/bin:1;/apps/USE/easybuild/release/2023.1/software/XZ/5.4.2-GCCcore-12.3.0/bin:1;/apps/USE/easybuild/release/2023.1/software/numactl/2.0.16-GCCcore-12.3.0/bin:1;/apps/USE/easybuild/release/2023.1/software/binutils/2.40-GCCcore-12.3.0/bin:1;/apps/USE/easybuild/release/2023.1/software/GCCcore/12.3.0/bin:1;/apps/installs/software/myquota/0.3.3/bin:1;/home/users/u102010/.local/bin:1;/home/users/u102010/bin:1;/usr/local/bin:1;/usr/bin:1;/usr/local/sbin:1;/usr/sbin:1
_ModuleTable002_=cHMvVVNFL2Vhc3lidWlsZC9yZWxlYXNlLzIwMjMuMS9tb2R1bGVzL2FsbC9GRlRXLzMuMy4xMC1HQ0MtMTIuMy4wLmx1YSIsCmZ1bGxOYW1lID0gIkZGVFcvMy4zLjEwLUdDQy0xMi4zLjAiLApsb2FkT3JkZXIgPSAzMiwKcHJvcFQgPSB7fSwKc3RhY2tEZXB0aCA9IDAsCnN0YXR1cyA9ICJhY3RpdmUiLAp1c2VyTmFtZSA9ICJGRlRXLzMuMy4xMC1HQ0MtMTIuMy4wIiwKd1YgPSAiMDAwMDAwMDAzLjAwMDAwMDAwMy4wMDAwMDAwMTAuKmdjYy4qemZpbmFsLS4wMDAwMDAwMTIuMDAwMDAwMDAzLip6ZmluYWwiLAp9LApbIkZGVFcuTVBJIl0gPSB7CmZuID0gIi9hcHBzL1VTRS9lYXN5YnVpbGQvcmVsZWFzZS8yMDIzLjEvbW9kdWxlcy9hbGwvRkZUVy5NUEkvMy4zLjEwLWdvbXBp
SSH_CONNECTION=83.46.85.124 63250 10.1.11.102 8822
EBDEVELFOSS=/apps/USE/easybuild/release/2023.1/software/foss/2023a/easybuild/foss-2023a-easybuild-devel
SLURM_PRIO_PROCESS=0
LMOD_MODULERCFILE=/apps/config/lmod/modulerc.lua
EBVERSIONCURL=8.0.1
GOTO_NUM_THREADS=1
EBVERSIONNUMACTL=2.0.16
EBROOTOPENBLAS=/apps/USE/easybuild/release/2023.1/software/OpenBLAS/0.3.23-GCC-12.3.0
I_MPI_HYDRA_BOOTSTRAP_EXEC_EXTRA_ARGS=--external-launcher
EBVERSIONSCALAPACK=2.2.0
LANG=en_US.UTF-8
EBROOTGCC=/apps/USE/easybuild/release/2023.1/software/GCCcore/12.3.0
EBDEVELFFTWMPI=/apps/USE/easybuild/release/2023.1/software/FFTW.MPI/3.3.10-gompi-2023a/easybuild/FFTW.MPI-3.3.10-gompi-2023a-easybuild-devel
_ModuleTable019_=bCIsCn0sCmh3bG9jID0gewpmbiA9ICIvYXBwcy9VU0UvZWFzeWJ1aWxkL3JlbGVhc2UvMjAyMy4xL21vZHVsZXMvYWxsL2h3bG9jLzIuOS4xLUdDQ2NvcmUtMTIuMy4wLmx1YSIsCmZ1bGxOYW1lID0gImh3bG9jLzIuOS4xLUdDQ2NvcmUtMTIuMy4wIiwKbG9hZE9yZGVyID0gMTEsCnByb3BUID0ge30sCnN0YWNrRGVwdGggPSAzLApzdGF0dXMgPSAiYWN0aXZlIiwKdXNlck5hbWUgPSAiaHdsb2MvMi45LjEtR0NDY29yZS0xMi4zLjAiLAp3ViA9ICIwMDAwMDAwMDIuMDAwMDAwMDA5LjAwMDAwMDAwMS4qZ2NjY29yZS4qemZpbmFsLS4wMDAwMDAwMTIuMDAwMDAwMDAzLip6ZmluYWwiLAp9LApsaWJldmVudCA9IHsKZm4gPSAiL2FwcHMvVVNFL2Vhc3lidWlsZC9yZWxlYXNlLzIw
SLURM_SUBMIT_DIR=/mnt/tier2/users/u102010/JUBE4MaX-GPU/max-inputs/interface/siesta/_CovidWeak/000000/000003_submit/work
HISTCONTROL=ignoredups
_ModuleTable008_=MDAwMDAwMDEuMDAwMDAwMDA1LipnY2MuKnpmaW5hbC0uMDAwMDAwMDEyLjAwMDAwMDAwMy4qemZpbmFsIiwKfSwKT3BlblNTTCA9IHsKZm4gPSAiL2FwcHMvVVNFL2Vhc3lidWlsZC9yZWxlYXNlLzIwMjMuMS9tb2R1bGVzL2FsbC9PcGVuU1NMLzEuMS5sdWEiLApmdWxsTmFtZSA9ICJPcGVuU1NMLzEuMSIsCmxvYWRPcmRlciA9IDEyLApwcm9wVCA9IHt9LApzdGFja0RlcHRoID0gNCwKc3RhdHVzID0gImFjdGl2ZSIsCnVzZXJOYW1lID0gIk9wZW5TU0wvMS4xIiwKd1YgPSAiMDAwMDAwMDAxLjAwMDAwMDAwMS4qemZpbmFsIiwKfSwKUE1JeCA9IHsKZm4gPSAiL2FwcHMvVVNFL2Vhc3lidWlsZC9yZWxlYXNlLzIwMjMuMS9tb2R1bGVzL2FsbC9QTUl4LzQuMi42LUdDQ2NvcmUt
EBROOTFLEXIBLAS=/apps/USE/easybuild/release/2023.1/software/FlexiBLAS/3.3.1-GCC-12.3.0
OMPI_MCA_plm_slurm_args=--external-launcher
EBVERSIONGOMPI=2023a
HOSTNAME=mel2038
LMOD_SYSTEM_DEFAULT_MODULES=env/release/2023.1:lxp-tools/myquota/default
OPENBLAS_NUM_THREADS=1
OLDPWD=/home/users/u102010/JUBE4MaX-GPU/max-inputs
EBDEVELNUMACTL=/apps/USE/easybuild/release/2023.1/software/numactl/2.0.16-GCCcore-12.3.0/easybuild/numactl-2.0.16-GCCcore-12.3.0-easybuild-devel
J4M_BIN_PATH=/home/users/u102010/Siesta/siesta-gpu/bin/
EBVERSIONZSTD=1.5.5
OMP_PROC_BIND=true
ENVIRONMENT=BATCH
EBDEVELBZIP2=/apps/USE/easybuild/release/2023.1/software/bzip2/1.0.8-GCCcore-12.3.0/easybuild/bzip2-1.0.8-GCCcore-12.3.0-easybuild-devel
EBDEVELNETCDF=/apps/USE/easybuild/release/2023.1/software/netCDF/4.9.2-gompi-2023a/easybuild/netCDF-4.9.2-gompi-2023a-easybuild-devel
SLURM_GPUS_PER_NODE=4
__LMOD_REF_COUNT_XDG_DATA_DIRS=/apps/USE/easybuild/release/2023.1/software/libreadline/8.2-GCCcore-12.3.0/share:1;/apps/USE/easybuild/release/2023.1/software/ncurses/6.4-GCCcore-12.3.0/share:1;/apps/USE/easybuild/release/2023.1/software/CUDA/12.2.0/share:1;/apps/USE/easybuild/release/2023.1/software/FFTW/3.3.10-GCC-12.3.0/share:1;/apps/USE/easybuild/release/2023.1/software/netCDF-Fortran/4.6.1-gompi-2023a/share:1;/apps/USE/easybuild/release/2023.1/software/netCDF/4.9.2-gompi-2023a/share:1;/apps/USE/easybuild/release/2023.1/software/zstd/1.5.5-GCCcore-12.3.0/share:1;/apps/USE/easybuild/release/2023.1/software/lz4/1.9.4-GCCcore-12.3.0/share:1;/apps/USE/easybuild/release/2023.1/software/gzip/1.12-GCCcore-12.3.0/share:1;/apps/USE/easybuild/release/2023.1/software/cURL/8.0.1-GCCcore-12.3.0/share:1;/apps/USE/easybuild/release/2023.1/software/HDF5/1.14.0-gompi-2023a/share:1;/apps/USE/easybuild/release/2023.1/software/FlexiBLAS/3.3.1-GCC-12.3.0/share:1;/apps/USE/easybuild/release/2023.1/software/OpenMPI/4.1.5-GCC-12.3.0/share:1;/apps/USE/easybuild/release/2023.1/software/PMIx/4.2.6-GCCcore-12.3.0/share:1;/apps/USE/easybuild/release/2023.1/software/libfabric/1.18.0-GCCcore-12.3.0/share:1;/apps/USE/easybuild/release/2023.1/software/UCX/1.14.1-GCCcore-12.3.0/share:1;/apps/USE/easybuild/release/2023.1/software/hwloc/2.9.1-GCCcore-12.3.0/share:1;/apps/USE/easybuild/release/2023.1/software/libxml2/2.11.4-GCCcore-12.3.0/share:1;/apps/USE/easybuild/release/2023.1/software/XZ/5.4.2-GCCcore-12.3.0/share:1;/apps/USE/easybuild/release/2023.1/software/numactl/2.0.16-GCCcore-12.3.0/share:1;/apps/USE/easybuild/release/2023.1/software/binutils/2.40-GCCcore-12.3.0/share:1;/apps/USE/easybuild/release/2023.1/software/zlib/1.2.13-GCCcore-12.3.0/share:1;/apps/USE/easybuild/release/2023.1/software/GCCcore/12.3.0/share:1
EBVERSIONOPENMPI=4.1.5
CUDA_PATH=/apps/USE/easybuild/release/2023.1/software/CUDA/12.2.0
EBVERSIONFOSS=2023a
EBROOTNCURSES=/apps/USE/easybuild/release/2023.1/software/ncurses/6.4-GCCcore-12.3.0
_ModuleTable007_=aXZlIiwKdXNlck5hbWUgPSAiT3BlbkJMQVMvMC4zLjIzLUdDQy0xMi4zLjAiLAp3ViA9ICIwMDAwMDAwMDAuMDAwMDAwMDAzLjAwMDAwMDAyMy4qZ2NjLip6ZmluYWwtLjAwMDAwMDAxMi4wMDAwMDAwMDMuKnpmaW5hbCIsCn0sCk9wZW5NUEkgPSB7CmZuID0gIi9hcHBzL1VTRS9lYXN5YnVpbGQvcmVsZWFzZS8yMDIzLjEvbW9kdWxlcy9hbGwvT3Blbk1QSS80LjEuNS1HQ0MtMTIuMy4wLmx1YSIsCmZ1bGxOYW1lID0gIk9wZW5NUEkvNC4xLjUtR0NDLTEyLjMuMCIsCmxvYWRPcmRlciA9IDE4LApwcm9wVCA9IHt9LApzdGFja0RlcHRoID0gMiwKc3RhdHVzID0gImFjdGl2ZSIsCnVzZXJOYW1lID0gIk9wZW5NUEkvNC4xLjUtR0NDLTEyLjMuMCIsCndWID0gIjAwMDAwMDAwNC4w
EBDEVELLIBEVENT=/apps/USE/easybuild/release/2023.1/software/libevent/2.1.12-GCCcore-12.3.0/easybuild/libevent-2.1.12-GCCcore-12.3.0-easybuild-devel
EBVERSIONOPENBLAS=0.3.23
_ModuleTable026_=L3JlbGVhc2UvMjAyMy4xL21vZHVsZXMvYWxsL25jdXJzZXMvNi40LUdDQ2NvcmUtMTIuMy4wLmx1YSIsCmZ1bGxOYW1lID0gIm5jdXJzZXMvNi40LUdDQ2NvcmUtMTIuMy4wIiwKbG9hZE9yZGVyID0gMzQsCnByb3BUID0ge30sCnN0YWNrRGVwdGggPSAxLApzdGF0dXMgPSAiYWN0aXZlIiwKdXNlck5hbWUgPSAibmN1cnNlcy82LjQtR0NDY29yZS0xMi4zLjAiLAp3ViA9ICIwMDAwMDAwMDYuMDAwMDAwMDA0LipnY2Njb3JlLip6ZmluYWwtLjAwMDAwMDAxMi4wMDAwMDAwMDMuKnpmaW5hbCIsCn0sCm5ldENERiA9IHsKZm4gPSAiL2FwcHMvVVNFL2Vhc3lidWlsZC9yZWxlYXNlLzIwMjMuMS9tb2R1bGVzL2FsbC9uZXRDREYvNC45LjItZ29tcGktMjAyM2EubHVhIiwKZnVsbE5h
EBDEVELMYQUOTA=/apps/installs/software/myquota/0.3.3/easybuild/myquota-0.3.3-easybuild-devel
EBROOTGOMPI=/apps/USE/easybuild/release/2023.1/software/gompi/2023a
SQUEUE_FORMAT=%.18i %.9P %.8j %.8u %.10a %.8T %.10M %.12l %.6D %R
SLURM_PROCID=0
SLURM_JOB_GID=555
EBROOTOPENMPI=/apps/USE/easybuild/release/2023.1/software/OpenMPI/4.1.5-GCC-12.3.0
I_MPI_HYDRA_BOOTSTRAP=slurm
__LMOD_REF_COUNT_LD_LIBRARY_PATH=/apps/USE/easybuild/release/2023.1/software/FFTW.MPI/3.3.10-gompi-2023a/lib:1;/apps/USE/easybuild/release/2023.1/software/libreadline/8.2-GCCcore-12.3.0/lib:1;/apps/USE/easybuild/release/2023.1/software/ncurses/6.4-GCCcore-12.3.0/lib:1;/apps/USE/easybuild/release/2023.1/software/CUDA/12.2.0/nvvm/lib64:1;/apps/USE/easybuild/release/2023.1/software/CUDA/12.2.0/extras/CUPTI/lib64:1;/apps/USE/easybuild/release/2023.1/software/CUDA/12.2.0/lib:1;/apps/USE/easybuild/release/2023.1/software/FFTW/3.3.10-GCC-12.3.0/lib:1;/apps/USE/easybuild/release/2023.1/software/netCDF-Fortran/4.6.1-gompi-2023a/lib:1;/apps/USE/easybuild/release/2023.1/software/netCDF/4.9.2-gompi-2023a/lib:1;/apps/USE/easybuild/release/2023.1/software/bzip2/1.0.8-GCCcore-12.3.0/lib:1;/apps/USE/easybuild/release/2023.1/software/zstd/1.5.5-GCCcore-12.3.0/lib:1;/apps/USE/easybuild/release/2023.1/software/lz4/1.9.4-GCCcore-12.3.0/lib:1;/apps/USE/easybuild/release/2023.1/software/cURL/8.0.1-GCCcore-12.3.0/lib:1;/apps/USE/easybuild/release/2023.1/software/HDF5/1.14.0-gompi-2023a/lib:1;/apps/USE/easybuild/release/2023.1/software/Szip/2.1.1-GCCcore-12.3.0/lib:1;/apps/USE/easybuild/release/2023.1/software/ScaLAPACK/2.2.0-gompi-2023a-fb/lib:1;/apps/USE/easybuild/release/2023.1/software/FlexiBLAS/3.3.1-GCC-12.3.0/lib:1;/apps/USE/easybuild/release/2023.1/software/OpenBLAS/0.3.23-GCC-12.3.0/lib:1;/apps/USE/easybuild/release/2023.1/software/OpenMPI/4.1.5-GCC-12.3.0/lib:1;/apps/USE/easybuild/release/2023.1/software/UCC/1.2.0-GCCcore-12.3.0/lib:1;/apps/USE/easybuild/release/2023.1/software/PMIx/4.2.6-GCCcore-12.3.0/lib:1;/apps/USE/easybuild/release/2023.1/software/libfabric/1.18.0-GCCcore-12.3.0/lib:1;/apps/USE/easybuild/release/2023.1/software/UCX/1.14.1-GCCcore-12.3.0/lib:1;/apps/USE/easybuild/release/2023.1/software/libevent/2.1.12-GCCcore-12.3.0/lib:1;/apps/USE/easybuild/release/2023.1/software/OpenSSL/1.1/lib:1;/apps/USE/easybuild/release/2023.1/software/hwloc/2.9.1-GCCcore-12.3.0/lib:1;/apps/USE/easybuild/release/2023.1/software/libpciaccess/0.17-GCCcore-12.3.0/lib:1;/apps/USE/easybuild/release/2023.1/software/libxml2/2.11.4-GCCcore-12.3.0/lib:1;/apps/USE/easybuild/release/2023.1/software/XZ/5.4.2-GCCcore-12.3.0/lib:1;/apps/USE/easybuild/release/2023.1/software/numactl/2.0.16-GCCcore-12.3.0/lib:1;/apps/USE/easybuild/release/2023.1/software/binutils/2.40-GCCcore-12.3.0/lib:1;/apps/USE/easybuild/release/2023.1/software/zlib/1.2.13-GCCcore-12.3.0/lib:1;/apps/USE/easybuild/release/2023.1/software/GCCcore/12.3.0/lib64:1
__LMOD_REF_COUNT_PKG_CONFIG_PATH=/apps/USE/easybuild/release/2023.1/software/libreadline/8.2-GCCcore-12.3.0/lib/pkgconfig:1;/apps/USE/easybuild/release/2023.1/software/CUDA/12.2.0/pkgconfig:1;/apps/USE/easybuild/release/2023.1/software/FFTW/3.3.10-GCC-12.3.0/lib/pkgconfig:1;/apps/USE/easybuild/release/2023.1/software/netCDF-Fortran/4.6.1-gompi-2023a/lib/pkgconfig:1;/apps/USE/easybuild/release/2023.1/software/netCDF/4.9.2-gompi-2023a/lib/pkgconfig:1;/apps/USE/easybuild/release/2023.1/software/bzip2/1.0.8-GCCcore-12.3.0/lib/pkgconfig:1;/apps/USE/easybuild/release/2023.1/software/zstd/1.5.5-GCCcore-12.3.0/lib/pkgconfig:1;/apps/USE/easybuild/release/2023.1/software/lz4/1.9.4-GCCcore-12.3.0/lib/pkgconfig:1;/apps/USE/easybuild/release/2023.1/software/cURL/8.0.1-GCCcore-12.3.0/lib/pkgconfig:1;/apps/USE/easybuild/release/2023.1/software/HDF5/1.14.0-gompi-2023a/lib/pkgconfig:1;/apps/USE/easybuild/release/2023.1/software/ScaLAPACK/2.2.0-gompi-2023a-fb/lib/pkgconfig:1;/apps/USE/easybuild/release/2023.1/software/FlexiBLAS/3.3.1-GCC-12.3.0/lib/pkgconfig:1;/apps/USE/easybuild/release/2023.1/software/OpenBLAS/0.3.23-GCC-12.3.0/lib/pkgconfig:1;/apps/USE/easybuild/release/2023.1/software/OpenMPI/4.1.5-GCC-12.3.0/lib/pkgconfig:1;/apps/USE/easybuild/release/2023.1/software/PMIx/4.2.6-GCCcore-12.3.0/lib/pkgconfig:1;/apps/USE/easybuild/release/2023.1/software/libfabric/1.18.0-GCCcore-12.3.0/lib/pkgconfig:1;/apps/USE/easybuild/release/2023.1/software/UCX/1.14.1-GCCcore-12.3.0/lib/pkgconfig:1;/apps/USE/easybuild/release/2023.1/software/libevent/2.1.12-GCCcore-12.3.0/lib/pkgconfig:1;/apps/USE/easybuild/release/2023.1/software/OpenSSL/1.1/lib/pkgconfig:1;/apps/USE/easybuild/release/2023.1/software/hwloc/2.9.1-GCCcore-12.3.0/lib/pkgconfig:1;/apps/USE/easybuild/release/2023.1/software/libpciaccess/0.17-GCCcore-12.3.0/lib/pkgconfig:1;/apps/USE/easybuild/release/2023.1/software/libxml2/2.11.4-GCCcore-12.3.0/lib/pkgconfig:1;/apps/USE/easybuild/release/2023.1/software/XZ/5.4.2-GCCcore-12.3.0/lib/pkgconfig:1;/apps/USE/easybuild/release/2023.1/software/numactl/2.0.16-GCCcore-12.3.0/lib/pkgconfig:1;/apps/USE/easybuild/release/2023.1/software/zlib/1.2.13-GCCcore-12.3.0/lib/pkgconfig:1
SLURM_CPU_BIND=map_cpu:8,9,10,11,12,13,14,15,24,25,26,27,28,29,30,31,40,41,42,43,44,45,46,47,56,57,58,59,60,61,62,63
EBVERSIONHDF5=1.14.0
SLURMD_NODENAME=mel2038
_ModuleTable024_=LzIuMTEuNC1HQ0Njb3JlLTEyLjMuMCIsCndWID0gIjAwMDAwMDAwMi4wMDAwMDAwMTEuMDAwMDAwMDA0LipnY2Njb3JlLip6ZmluYWwtLjAwMDAwMDAxMi4wMDAwMDAwMDMuKnpmaW5hbCIsCn0sClsibHhwLXRvb2xzL215cXVvdGEiXSA9IHsKZm4gPSAiL2FwcHMvVVNFL3N5c3RlbS9tb2R1bGVzL2x4cC10b29scy9teXF1b3RhLzAuMy4zLmx1YSIsCmZ1bGxOYW1lID0gImx4cC10b29scy9teXF1b3RhLzAuMy4zIiwKbG9hZE9yZGVyID0gMiwKcHJvcFQgPSB7Cmxtb2QgPSB7CnN0aWNreSA9IDEsCn0sCn0sCnN0YWNrRGVwdGggPSAwLApzdGF0dXMgPSAiYWN0aXZlIiwKdXNlck5hbWUgPSAibHhwLXRvb2xzL215cXVvdGEvMC4zLjMiLAp3ViA9ICJeMDAwMDAwMDAuMDAwMDAw
EASYBUILD_BUILDPATH=/dev/shm/u102010
EBROOTGCCCORE=/apps/USE/easybuild/release/2023.1/software/GCCcore/12.3.0
EBVERSIONMYQUOTA=0.3.3
_ModuleTable015_=IiwKbG9hZE9yZGVyID0gMjksCnByb3BUID0ge30sCnN0YWNrRGVwdGggPSAyLApzdGF0dXMgPSAiYWN0aXZlIiwKdXNlck5hbWUgPSAiYnppcDIvMS4wLjgtR0NDY29yZS0xMi4zLjAiLAp3ViA9ICIwMDAwMDAwMDEuMDAwMDAwMDAwLjAwMDAwMDAwOC4qZ2NjY29yZS4qemZpbmFsLS4wMDAwMDAwMTIuMDAwMDAwMDAzLip6ZmluYWwiLAp9LApjVVJMID0gewpmbiA9ICIvYXBwcy9VU0UvZWFzeWJ1aWxkL3JlbGVhc2UvMjAyMy4xL21vZHVsZXMvYWxsL2NVUkwvOC4wLjEtR0NDY29yZS0xMi4zLjAubHVhIiwKZnVsbE5hbWUgPSAiY1VSTC84LjAuMS1HQ0Njb3JlLTEyLjMuMCIsCmxvYWRPcmRlciA9IDI1LApwcm9wVCA9IHt9LApzdGFja0RlcHRoID0gMiwKc3RhdHVzID0gImFj
SLURM_JOB_END_TIME=1727816639
EBROOTSCALAPACK=/apps/USE/easybuild/release/2023.1/software/ScaLAPACK/2.2.0-gompi-2023a-fb
EBVERSIONFFTWMPI=3.3.10
_ModuleTable004_=cmRlciA9IDIxLApwcm9wVCA9IHt9LApzdGFja0RlcHRoID0gMSwKc3RhdHVzID0gImFjdGl2ZSIsCnVzZXJOYW1lID0gIkZsZXhpQkxBUy8zLjMuMS1HQ0MtMTIuMy4wIiwKd1YgPSAiMDAwMDAwMDAzLjAwMDAwMDAwMy4wMDAwMDAwMDEuKmdjYy4qemZpbmFsLS4wMDAwMDAwMTIuMDAwMDAwMDAzLip6ZmluYWwiLAp9LApHQ0MgPSB7CmZuID0gIi9hcHBzL1VTRS9lYXN5YnVpbGQvcmVsZWFzZS8yMDIzLjEvbW9kdWxlcy9hbGwvR0NDLzEyLjMuMC5sdWEiLApmdWxsTmFtZSA9ICJHQ0MvMTIuMy4wIiwKbG9hZE9yZGVyID0gNiwKcHJvcFQgPSB7fSwKc3RhY2tEZXB0aCA9IDIsCnN0YXR1cyA9ICJhY3RpdmUiLAp1c2VyTmFtZSA9ICJHQ0MvMTIuMy4wIiwKd1YgPSAiMDAwMDAw
EBVERSIONLIBEVENT=2.1.12
SLURM_TASKS_PER_NODE=128(x8)
_ModuleTable029_=LAp1c2VyTmFtZSA9ICJudW1hY3RsLzIuMC4xNi1HQ0Njb3JlLTEyLjMuMCIsCndWID0gIjAwMDAwMDAwMi4wMDAwMDAwMDAuMDAwMDAwMDE2LipnY2Njb3JlLip6ZmluYWwtLjAwMDAwMDAxMi4wMDAwMDAwMDMuKnpmaW5hbCIsCn0sCnpsaWIgPSB7CmZuID0gIi9hcHBzL1VTRS9lYXN5YnVpbGQvcmVsZWFzZS8yMDIzLjEvbW9kdWxlcy9hbGwvemxpYi8xLjIuMTMtR0NDY29yZS0xMi4zLjAubHVhIiwKZnVsbE5hbWUgPSAiemxpYi8xLjIuMTMtR0NDY29yZS0xMi4zLjAiLApsb2FkT3JkZXIgPSA0LApwcm9wVCA9IHt9LApzdGFja0RlcHRoID0gNCwKc3RhdHVzID0gImFjdGl2ZSIsCnVzZXJOYW1lID0gInpsaWIvMS4yLjEzLUdDQ2NvcmUtMTIuMy4wIiwKd1YgPSAiMDAwMDAw
__LMOD_REF_COUNT_PYTHONPATH=/apps/installs/software/myquota/0.3.3/lib/python3.6/site-packages:1
S_COLORS=auto
EBVERSIONGCC=12.3.0
PRTE_MCA_plm_slurm_args=--external-launcher
which_declare=declare -f
EBVERSIONUCX=1.14.1
EBDEVELXZ=/apps/USE/easybuild/release/2023.1/software/XZ/5.4.2-GCCcore-12.3.0/easybuild/XZ-5.4.2-GCCcore-12.3.0-easybuild-devel
EBDEVELHWLOC=/apps/USE/easybuild/release/2023.1/software/hwloc/2.9.1-GCCcore-12.3.0/easybuild/hwloc-2.9.1-GCCcore-12.3.0-easybuild-devel
EBVERSIONLIBFABRIC=1.18.0
EBVERSIONUCC=1.2.0
SLURM_SPANK_START_CUDA_MPS=0
EBROOTZLIB=/apps/USE/easybuild/release/2023.1/software/zlib/1.2.13-GCCcore-12.3.0
SLURM_JOB_RESTART_COUNT=0
XDG_SESSION_ID=59184
SLURM_SPANK_SLURM_SPANK_SET_NON_PERF_PARANOID=0
SLURM_NNODES=8
USER=u102010
EBDEVELLIBXML2=/apps/USE/easybuild/release/2023.1/software/libxml2/2.11.4-GCCcore-12.3.0/easybuild/libxml2-2.11.4-GCCcore-12.3.0-easybuild-devel
EBVERSIONHWLOC=2.9.1
__LMOD_REF_COUNT_CMAKE_LIBRARY_PATH=/apps/USE/easybuild/release/2023.1/software/GCCcore/12.3.0/lib64:1
_ModuleTable023_=CnN0YWNrRGVwdGggPSAwLApzdGF0dXMgPSAiYWN0aXZlIiwKdXNlck5hbWUgPSAibGlicmVhZGxpbmUvOC4yLUdDQ2NvcmUtMTIuMy4wIiwKd1YgPSAiMDAwMDAwMDA4LjAwMDAwMDAwMi4qZ2NjY29yZS4qemZpbmFsLS4wMDAwMDAwMTIuMDAwMDAwMDAzLip6ZmluYWwiLAp9LApsaWJ4bWwyID0gewpmbiA9ICIvYXBwcy9VU0UvZWFzeWJ1aWxkL3JlbGVhc2UvMjAyMy4xL21vZHVsZXMvYWxsL2xpYnhtbDIvMi4xMS40LUdDQ2NvcmUtMTIuMy4wLmx1YSIsCmZ1bGxOYW1lID0gImxpYnhtbDIvMi4xMS40LUdDQ2NvcmUtMTIuMy4wIiwKbG9hZE9yZGVyID0gOSwKcHJvcFQgPSB7fSwKc3RhY2tEZXB0aCA9IDQsCnN0YXR1cyA9ICJhY3RpdmUiLAp1c2VyTmFtZSA9ICJsaWJ4bWwy
_ModuleTable012_=MDIuKmdjY2NvcmUuKnpmaW5hbC0uMDAwMDAwMDEyLjAwMDAwMDAwMy4qemZpbmFsIiwKfSwKVUNYID0gewpmbiA9ICIvYXBwcy9VU0UvZWFzeWJ1aWxkL3JlbGVhc2UvMjAyMy4xL21vZHVsZXMvYWxsL1VDWC8xLjE0LjEtR0NDY29yZS0xMi4zLjAubHVhIiwKZnVsbE5hbWUgPSAiVUNYLzEuMTQuMS1HQ0Njb3JlLTEyLjMuMCIsCmxvYWRPcmRlciA9IDE0LApwcm9wVCA9IHt9LApzdGFja0RlcHRoID0gMywKc3RhdHVzID0gImFjdGl2ZSIsCnVzZXJOYW1lID0gIlVDWC8xLjE0LjEtR0NDY29yZS0xMi4zLjAiLAp3ViA9ICIwMDAwMDAwMDEuMDAwMDAwMDE0LjAwMDAwMDAwMS4qZ2NjY29yZS4qemZpbmFsLS4wMDAwMDAwMTIuMDAwMDAwMDAzLip6ZmluYWwiLAp9LApYWiA9IHsK
EBVERSIONGCCCORE=12.3.0
EBDEVELGZIP=/apps/USE/easybuild/release/2023.1/software/gzip/1.12-GCCcore-12.3.0/easybuild/gzip-1.12-GCCcore-12.3.0-easybuild-devel
_ModuleTable031_=My4qemZpbmFsIiwKfSwKfSwKbXBhdGhBID0gewoiL2FwcHMvVVNFL3N5c3RlbS9tb2R1bGVzIiwgIi9hcHBzL1VTRS9lYXN5YnVpbGQvcmVsZWFzZS8yMDIzLjEvbW9kdWxlcy9hbGwiLAp9LApzeXN0ZW1CYXNlTVBBVEggPSAiL2FwcHMvVVNFL3N5c3RlbS9tb2R1bGVzIiwKfQo=
SLURM_JOB_STDIN=/dev/null
EBROOTXZ=/apps/USE/easybuild/release/2023.1/software/XZ/5.4.2-GCCcore-12.3.0
EBVERSIONOPENSSL=1.1
SLURM_JOB_START_TIME=1727813092
SLURM_NTASKS_PER_NODE=32
SELINUX_ROLE_REQUESTED=
EBROOTNETCDFMINFORTRAN=/apps/USE/easybuild/release/2023.1/software/netCDF-Fortran/4.6.1-gompi-2023a
__LMOD_REF_COUNT_MODULEPATH=/apps/USE/system/modules:1;/apps/USE/easybuild/release/2023.1/modules/all:1
SLURM_SPANK_SET_NON_PERF_PARANOID=0
EBROOTOPENSSL=/apps/USE/easybuild/release/2023.1/software/OpenSSL/1.1
PWD=/mnt/tier2/users/u102010/JUBE4MaX-GPU/max-inputs/interface/siesta/_CovidWeak/000000/000003_submit/work
EBDEVELCUDA=/apps/USE/easybuild/release/2023.1/software/CUDA/12.2.0/easybuild/CUDA-12.2.0-easybuild-devel
EBDEVELOPENBLAS=/apps/USE/easybuild/release/2023.1/software/OpenBLAS/0.3.23-GCC-12.3.0/easybuild/OpenBLAS-0.3.23-GCC-12.3.0-easybuild-devel
EBDEVELFLEXIBLAS=/apps/USE/easybuild/release/2023.1/software/FlexiBLAS/3.3.1-GCC-12.3.0/easybuild/FlexiBLAS-3.3.1-GCC-12.3.0-easybuild-devel
EBROOTLIBREADLINE=/apps/USE/easybuild/release/2023.1/software/libreadline/8.2-GCCcore-12.3.0
SLURM_JOB_NODELIST=mel[2038,2044,2081,2089,2102,2170,2179,2182]
HOME=/home/users/u102010
SLURM_CLUSTER_NAME=meluxina
EBROOTFOSS=/apps/USE/easybuild/release/2023.1/software/foss/2023a
EBROOTBZIP2=/apps/USE/easybuild/release/2023.1/software/bzip2/1.0.8-GCCcore-12.3.0
EBROOTGZIP=/apps/USE/easybuild/release/2023.1/software/gzip/1.12-GCCcore-12.3.0
CMAKE_PREFIX_PATH=/apps/USE/easybuild/release/2023.1/software/FFTW.MPI/3.3.10-gompi-2023a:/apps/USE/easybuild/release/2023.1/software/libreadline/8.2-GCCcore-12.3.0:/apps/USE/easybuild/release/2023.1/software/ncurses/6.4-GCCcore-12.3.0:/apps/USE/easybuild/release/2023.1/software/CUDA/12.2.0:/apps/USE/easybuild/release/2023.1/software/FFTW/3.3.10-GCC-12.3.0:/apps/USE/easybuild/release/2023.1/software/netCDF-Fortran/4.6.1-gompi-2023a:/apps/USE/easybuild/release/2023.1/software/netCDF/4.9.2-gompi-2023a:/apps/USE/easybuild/release/2023.1/software/bzip2/1.0.8-GCCcore-12.3.0:/apps/USE/easybuild/release/2023.1/software/zstd/1.5.5-GCCcore-12.3.0:/apps/USE/easybuild/release/2023.1/software/lz4/1.9.4-GCCcore-12.3.0:/apps/USE/easybuild/release/2023.1/software/gzip/1.12-GCCcore-12.3.0:/apps/USE/easybuild/release/2023.1/software/cURL/8.0.1-GCCcore-12.3.0:/apps/USE/easybuild/release/2023.1/software/HDF5/1.14.0-gompi-2023a:/apps/USE/easybuild/release/2023.1/software/Szip/2.1.1-GCCcore-12.3.0:/apps/USE/easybuild/release/2023.1/software/ScaLAPACK/2.2.0-gompi-2023a-fb:/apps/USE/easybuild/release/2023.1/software/FlexiBLAS/3.3.1-GCC-12.3.0:/apps/USE/easybuild/release/2023.1/software/OpenBLAS/0.3.23-GCC-12.3.0:/apps/USE/easybuild/release/2023.1/software/OpenMPI/4.1.5-GCC-12.3.0:/apps/USE/easybuild/release/2023.1/software/UCC/1.2.0-GCCcore-12.3.0:/apps/USE/easybuild/release/2023.1/software/PMIx/4.2.6-GCCcore-12.3.0:/apps/USE/easybuild/release/2023.1/software/libfabric/1.18.0-GCCcore-12.3.0:/apps/USE/easybuild/release/2023.1/software/UCX/1.14.1-GCCcore-12.3.0:/apps/USE/easybuild/release/2023.1/software/libevent/2.1.12-GCCcore-12.3.0:/apps/USE/easybuild/release/2023.1/software/OpenSSL/1.1:/apps/USE/easybuild/release/2023.1/software/hwloc/2.9.1-GCCcore-12.3.0:/apps/USE/easybuild/release/2023.1/software/libpciaccess/0.17-GCCcore-12.3.0:/apps/USE/easybuild/release/2023.1/software/libxml2/2.11.4-GCCcore-12.3.0:/apps/USE/easybuild/release/2023.1/software/XZ/5.4.2-GCCcore-12.3.0:/apps/USE/easybuild/release/2023.1/software/numactl/2.0.16-GCCcore-12.3.0:/apps/USE/easybuild/release/2023.1/software/binutils/2.40-GCCcore-12.3.0:/apps/USE/easybuild/release/2023.1/software/zlib/1.2.13-GCCcore-12.3.0:/apps/USE/easybuild/release/2023.1/software/GCCcore/12.3.0:/apps/installs/software/myquota/0.3.3
SLURM_NODELIST=mel[2038,2044,2081,2089,2102,2170,2179,2182]
SLURM_GPUS_ON_NODE=4
SSH_CLIENT=83.46.85.124 63250 8822
EBDEVELSCALAPACK=/apps/USE/easybuild/release/2023.1/software/ScaLAPACK/2.2.0-gompi-2023a-fb/easybuild/ScaLAPACK-2.2.0-gompi-2023a-fb-easybuild-devel
EBDEVELLIBFABRIC=/apps/USE/easybuild/release/2023.1/software/libfabric/1.18.0-GCCcore-12.3.0/easybuild/libfabric-1.18.0-GCCcore-12.3.0-easybuild-devel
LMOD_VERSION=8.7.32
EBDEVELUCX=/apps/USE/easybuild/release/2023.1/software/UCX/1.14.1-GCCcore-12.3.0/easybuild/UCX-1.14.1-GCCcore-12.3.0-easybuild-devel
CUDA_HOME=/apps/USE/easybuild/release/2023.1/software/CUDA/12.2.0
EBDEVELUCC=/apps/USE/easybuild/release/2023.1/software/UCC/1.2.0-GCCcore-12.3.0/easybuild/UCC-1.2.0-GCCcore-12.3.0-easybuild-devel
CPATH=/apps/USE/easybuild/release/2023.1/software/FFTW.MPI/3.3.10-gompi-2023a/include:/apps/USE/easybuild/release/2023.1/software/libreadline/8.2-GCCcore-12.3.0/include:/apps/USE/easybuild/release/2023.1/software/ncurses/6.4-GCCcore-12.3.0/include:/apps/USE/easybuild/release/2023.1/software/CUDA/12.2.0/nvvm/include:/apps/USE/easybuild/release/2023.1/software/CUDA/12.2.0/extras/CUPTI/include:/apps/USE/easybuild/release/2023.1/software/CUDA/12.2.0/include:/apps/USE/easybuild/release/2023.1/software/FFTW/3.3.10-GCC-12.3.0/include:/apps/USE/easybuild/release/2023.1/software/netCDF-Fortran/4.6.1-gompi-2023a/include:/apps/USE/easybuild/release/2023.1/software/netCDF/4.9.2-gompi-2023a/include:/apps/USE/easybuild/release/2023.1/software/bzip2/1.0.8-GCCcore-12.3.0/include:/apps/USE/easybuild/release/2023.1/software/zstd/1.5.5-GCCcore-12.3.0/include:/apps/USE/easybuild/release/2023.1/software/lz4/1.9.4-GCCcore-12.3.0/include:/apps/USE/easybuild/release/2023.1/software/cURL/8.0.1-GCCcore-12.3.0/include:/apps/USE/easybuild/release/2023.1/software/HDF5/1.14.0-gompi-2023a/include:/apps/USE/easybuild/release/2023.1/software/Szip/2.1.1-GCCcore-12.3.0/include:/apps/USE/easybuild/release/2023.1/software/FlexiBLAS/3.3.1-GCC-12.3.0/include:/apps/USE/easybuild/release/2023.1/software/OpenBLAS/0.3.23-GCC-12.3.0/include:/apps/USE/easybuild/release/2023.1/software/OpenMPI/4.1.5-GCC-12.3.0/include:/apps/USE/easybuild/release/2023.1/software/UCC/1.2.0-GCCcore-12.3.0/include:/apps/USE/easybuild/release/2023.1/software/PMIx/4.2.6-GCCcore-12.3.0/include:/apps/USE/easybuild/release/2023.1/software/libfabric/1.18.0-GCCcore-12.3.0/include:/apps/USE/easybuild/release/2023.1/software/UCX/1.14.1-GCCcore-12.3.0/include:/apps/USE/easybuild/release/2023.1/software/libevent/2.1.12-GCCcore-12.3.0/include:/apps/USE/easybuild/release/2023.1/software/OpenSSL/1.1/include:/apps/USE/easybuild/release/2023.1/software/hwloc/2.9.1-GCCcore-12.3.0/include:/apps/USE/easybuild/release/2023.1/software/libpciaccess/0.17-GCCcore-12.3.0/include:/apps/USE/easybuild/release/2023.1/software/libxml2/2.11.4-GCCcore-12.3.0/include/libxml2:/apps/USE/easybuild/release/2023.1/software/libxml2/2.11.4-GCCcore-12.3.0/include:/apps/USE/easybuild/release/2023.1/software/XZ/5.4.2-GCCcore-12.3.0/include:/apps/USE/easybuild/release/2023.1/software/numactl/2.0.16-GCCcore-12.3.0/include:/apps/USE/easybuild/release/2023.1/software/binutils/2.40-GCCcore-12.3.0/include:/apps/USE/easybuild/release/2023.1/software/zlib/1.2.13-GCCcore-12.3.0/include
EBROOTSZIP=/apps/USE/easybuild/release/2023.1/software/Szip/2.1.1-GCCcore-12.3.0
LMOD_PAGER=none
EBROOTHDF5=/apps/USE/easybuild/release/2023.1/software/HDF5/1.14.0-gompi-2023a
SELINUX_LEVEL_REQUESTED=
EBVERSIONGZIP=1.12
EBDEVELCURL=/apps/USE/easybuild/release/2023.1/software/cURL/8.0.1-GCCcore-12.3.0/easybuild/cURL-8.0.1-GCCcore-12.3.0-easybuild-devel
SLURM_JOB_CPUS_PER_NODE=128(x8)
BASH_ENV=/usr/share/lmod/lmod/init/bash
EBROOTCURL=/apps/USE/easybuild/release/2023.1/software/cURL/8.0.1-GCCcore-12.3.0
EBDEVELPMIX=/apps/USE/easybuild/release/2023.1/software/PMIx/4.2.6-GCCcore-12.3.0/easybuild/PMIx-4.2.6-GCCcore-12.3.0-easybuild-devel
XDG_DATA_DIRS=/apps/USE/easybuild/release/2023.1/software/libreadline/8.2-GCCcore-12.3.0/share:/apps/USE/easybuild/release/2023.1/software/ncurses/6.4-GCCcore-12.3.0/share:/apps/USE/easybuild/release/2023.1/software/CUDA/12.2.0/share:/apps/USE/easybuild/release/2023.1/software/FFTW/3.3.10-GCC-12.3.0/share:/apps/USE/easybuild/release/2023.1/software/netCDF-Fortran/4.6.1-gompi-2023a/share:/apps/USE/easybuild/release/2023.1/software/netCDF/4.9.2-gompi-2023a/share:/apps/USE/easybuild/release/2023.1/software/zstd/1.5.5-GCCcore-12.3.0/share:/apps/USE/easybuild/release/2023.1/software/lz4/1.9.4-GCCcore-12.3.0/share:/apps/USE/easybuild/release/2023.1/software/gzip/1.12-GCCcore-12.3.0/share:/apps/USE/easybuild/release/2023.1/software/cURL/8.0.1-GCCcore-12.3.0/share:/apps/USE/easybuild/release/2023.1/software/HDF5/1.14.0-gompi-2023a/share:/apps/USE/easybuild/release/2023.1/software/FlexiBLAS/3.3.1-GCC-12.3.0/share:/apps/USE/easybuild/release/2023.1/software/OpenMPI/4.1.5-GCC-12.3.0/share:/apps/USE/easybuild/release/2023.1/software/PMIx/4.2.6-GCCcore-12.3.0/share:/apps/USE/easybuild/release/2023.1/software/libfabric/1.18.0-GCCcore-12.3.0/share:/apps/USE/easybuild/release/2023.1/software/UCX/1.14.1-GCCcore-12.3.0/share:/apps/USE/easybuild/release/2023.1/software/hwloc/2.9.1-GCCcore-12.3.0/share:/apps/USE/easybuild/release/2023.1/software/libxml2/2.11.4-GCCcore-12.3.0/share:/apps/USE/easybuild/release/2023.1/software/XZ/5.4.2-GCCcore-12.3.0/share:/apps/USE/easybuild/release/2023.1/software/numactl/2.0.16-GCCcore-12.3.0/share:/apps/USE/easybuild/release/2023.1/software/binutils/2.40-GCCcore-12.3.0/share:/apps/USE/easybuild/release/2023.1/software/zlib/1.2.13-GCCcore-12.3.0/share:/apps/USE/easybuild/release/2023.1/software/GCCcore/12.3.0/share
I_MPI_SHM_CMA=0
SLURM_TOPOLOGY_ADDR=meta.switch73.switch3.mel2038
PROJECT=/mnt/tier2/project/p200585
EBROOTMYQUOTA=/apps/installs/software/myquota/0.3.3
EBVERSIONLIBPCIACCESS=0.17
EBROOTLIBXML2=/apps/USE/easybuild/release/2023.1/software/libxml2/2.11.4-GCCcore-12.3.0
CURL_INCLUDES=/apps/USE/easybuild/release/2023.1/software/cURL/8.0.1-GCCcore-12.3.0/include
__LMOD_REF_COUNT_LIBRARY_PATH=/apps/USE/easybuild/release/2023.1/software/FFTW.MPI/3.3.10-gompi-2023a/lib:1;/apps/USE/easybuild/release/2023.1/software/libreadline/8.2-GCCcore-12.3.0/lib:1;/apps/USE/easybuild/release/2023.1/software/ncurses/6.4-GCCcore-12.3.0/lib:1;/apps/USE/easybuild/release/2023.1/software/CUDA/12.2.0/stubs/lib64:1;/apps/USE/easybuild/release/2023.1/software/CUDA/12.2.0/lib:1;/apps/USE/easybuild/release/2023.1/software/FFTW/3.3.10-GCC-12.3.0/lib:1;/apps/USE/easybuild/release/2023.1/software/netCDF-Fortran/4.6.1-gompi-2023a/lib:1;/apps/USE/easybuild/release/2023.1/software/netCDF/4.9.2-gompi-2023a/lib:1;/apps/USE/easybuild/release/2023.1/software/bzip2/1.0.8-GCCcore-12.3.0/lib:1;/apps/USE/easybuild/release/2023.1/software/zstd/1.5.5-GCCcore-12.3.0/lib:1;/apps/USE/easybuild/release/2023.1/software/lz4/1.9.4-GCCcore-12.3.0/lib:1;/apps/USE/easybuild/release/2023.1/software/cURL/8.0.1-GCCcore-12.3.0/lib:1;/apps/USE/easybuild/release/2023.1/software/HDF5/1.14.0-gompi-2023a/lib:1;/apps/USE/easybuild/release/2023.1/software/Szip/2.1.1-GCCcore-12.3.0/lib:1;/apps/USE/easybuild/release/2023.1/software/ScaLAPACK/2.2.0-gompi-2023a-fb/lib:1;/apps/USE/easybuild/release/2023.1/software/FlexiBLAS/3.3.1-GCC-12.3.0/lib:1;/apps/USE/easybuild/release/2023.1/software/OpenBLAS/0.3.23-GCC-12.3.0/lib:1;/apps/USE/easybuild/release/2023.1/software/OpenMPI/4.1.5-GCC-12.3.0/lib:1;/apps/USE/easybuild/release/2023.1/software/UCC/1.2.0-GCCcore-12.3.0/lib:1;/apps/USE/easybuild/release/2023.1/software/PMIx/4.2.6-GCCcore-12.3.0/lib:1;/apps/USE/easybuild/release/2023.1/software/libfabric/1.18.0-GCCcore-12.3.0/lib:1;/apps/USE/easybuild/release/2023.1/software/UCX/1.14.1-GCCcore-12.3.0/lib:1;/apps/USE/easybuild/release/2023.1/software/libevent/2.1.12-GCCcore-12.3.0/lib:1;/apps/USE/easybuild/release/2023.1/software/OpenSSL/1.1/lib:1;/apps/USE/easybuild/release/2023.1/software/hwloc/2.9.1-GCCcore-12.3.0/lib:1;/apps/USE/easybuild/release/2023.1/software/libpciaccess/0.17-GCCcore-12.3.0/lib:1;/apps/USE/easybuild/release/2023.1/software/libxml2/2.11.4-GCCcore-12.3.0/lib:1;/apps/USE/easybuild/release/2023.1/software/XZ/5.4.2-GCCcore-12.3.0/lib:1;/apps/USE/easybuild/release/2023.1/software/numactl/2.0.16-GCCcore-12.3.0/lib:1;/apps/USE/easybuild/release/2023.1/software/binutils/2.40-GCCcore-12.3.0/lib:1;/apps/USE/easybuild/release/2023.1/software/zlib/1.2.13-GCCcore-12.3.0/lib:1
EBVERSIONLIBXML2=2.11.4
CUDA_ROOT=/apps/USE/easybuild/release/2023.1/software/CUDA/12.2.0
SLURM_JOB_NAME=CovidWeak
EBVERSIONNCURSES=6.4
LIBRARY_PATH=/apps/USE/easybuild/release/2023.1/software/FFTW.MPI/3.3.10-gompi-2023a/lib:/apps/USE/easybuild/release/2023.1/software/libreadline/8.2-GCCcore-12.3.0/lib:/apps/USE/easybuild/release/2023.1/software/ncurses/6.4-GCCcore-12.3.0/lib:/apps/USE/easybuild/release/2023.1/software/CUDA/12.2.0/stubs/lib64:/apps/USE/easybuild/release/2023.1/software/CUDA/12.2.0/lib:/apps/USE/easybuild/release/2023.1/software/FFTW/3.3.10-GCC-12.3.0/lib:/apps/USE/easybuild/release/2023.1/software/netCDF-Fortran/4.6.1-gompi-2023a/lib:/apps/USE/easybuild/release/2023.1/software/netCDF/4.9.2-gompi-2023a/lib:/apps/USE/easybuild/release/2023.1/software/bzip2/1.0.8-GCCcore-12.3.0/lib:/apps/USE/easybuild/release/2023.1/software/zstd/1.5.5-GCCcore-12.3.0/lib:/apps/USE/easybuild/release/2023.1/software/lz4/1.9.4-GCCcore-12.3.0/lib:/apps/USE/easybuild/release/2023.1/software/cURL/8.0.1-GCCcore-12.3.0/lib:/apps/USE/easybuild/release/2023.1/software/HDF5/1.14.0-gompi-2023a/lib:/apps/USE/easybuild/release/2023.1/software/Szip/2.1.1-GCCcore-12.3.0/lib:/apps/USE/easybuild/release/2023.1/software/ScaLAPACK/2.2.0-gompi-2023a-fb/lib:/apps/USE/easybuild/release/2023.1/software/FlexiBLAS/3.3.1-GCC-12.3.0/lib:/apps/USE/easybuild/release/2023.1/software/OpenBLAS/0.3.23-GCC-12.3.0/lib:/apps/USE/easybuild/release/2023.1/software/OpenMPI/4.1.5-GCC-12.3.0/lib:/apps/USE/easybuild/release/2023.1/software/UCC/1.2.0-GCCcore-12.3.0/lib:/apps/USE/easybuild/release/2023.1/software/PMIx/4.2.6-GCCcore-12.3.0/lib:/apps/USE/easybuild/release/2023.1/software/libfabric/1.18.0-GCCcore-12.3.0/lib:/apps/USE/easybuild/release/2023.1/software/UCX/1.14.1-GCCcore-12.3.0/lib:/apps/USE/easybuild/release/2023.1/software/libevent/2.1.12-GCCcore-12.3.0/lib:/apps/USE/easybuild/release/2023.1/software/OpenSSL/1.1/lib:/apps/USE/easybuild/release/2023.1/software/hwloc/2.9.1-GCCcore-12.3.0/lib:/apps/USE/easybuild/release/2023.1/software/libpciaccess/0.17-GCCcore-12.3.0/lib:/apps/USE/easybuild/release/2023.1/software/libxml2/2.11.4-GCCcore-12.3.0/lib:/apps/USE/easybuild/release/2023.1/software/XZ/5.4.2-GCCcore-12.3.0/lib:/apps/USE/easybuild/release/2023.1/software/numactl/2.0.16-GCCcore-12.3.0/lib:/apps/USE/easybuild/release/2023.1/software/binutils/2.40-GCCcore-12.3.0/lib:/apps/USE/easybuild/release/2023.1/software/zlib/1.2.13-GCCcore-12.3.0/lib:/home/users/u102010/Siesta/elpa-gpu/lib/
_ModuleTable021_=ZS0xMi4zLjAubHVhIiwKZnVsbE5hbWUgPSAibGliZmFicmljLzEuMTguMC1HQ0Njb3JlLTEyLjMuMCIsCmxvYWRPcmRlciA9IDE1LApwcm9wVCA9IHt9LApzdGFja0RlcHRoID0gMywKc3RhdHVzID0gImFjdGl2ZSIsCnVzZXJOYW1lID0gImxpYmZhYnJpYy8xLjE4LjAtR0NDY29yZS0xMi4zLjAiLAp3ViA9ICIwMDAwMDAwMDEuMDAwMDAwMDE4LipnY2Njb3JlLip6ZmluYWwtLjAwMDAwMDAxMi4wMDAwMDAwMDMuKnpmaW5hbCIsCn0sCmxpYnBjaWFjY2VzcyA9IHsKZm4gPSAiL2FwcHMvVVNFL2Vhc3lidWlsZC9yZWxlYXNlLzIwMjMuMS9tb2R1bGVzL2FsbC9saWJwY2lhY2Nlc3MvMC4xNy1HQ0Njb3JlLTEyLjMuMC5sdWEiLApmdWxsTmFtZSA9ICJsaWJwY2lhY2Nlc3MvMC4x
SLURM_JOB_GPUS=0,1,2,3
__LMOD_REF_COUNT_CMAKE_PREFIX_PATH=/apps/USE/easybuild/release/2023.1/software/FFTW.MPI/3.3.10-gompi-2023a:1;/apps/USE/easybuild/release/2023.1/software/libreadline/8.2-GCCcore-12.3.0:1;/apps/USE/easybuild/release/2023.1/software/ncurses/6.4-GCCcore-12.3.0:1;/apps/USE/easybuild/release/2023.1/software/CUDA/12.2.0:1;/apps/USE/easybuild/release/2023.1/software/FFTW/3.3.10-GCC-12.3.0:1;/apps/USE/easybuild/release/2023.1/software/netCDF-Fortran/4.6.1-gompi-2023a:1;/apps/USE/easybuild/release/2023.1/software/netCDF/4.9.2-gompi-2023a:1;/apps/USE/easybuild/release/2023.1/software/bzip2/1.0.8-GCCcore-12.3.0:1;/apps/USE/easybuild/release/2023.1/software/zstd/1.5.5-GCCcore-12.3.0:1;/apps/USE/easybuild/release/2023.1/software/lz4/1.9.4-GCCcore-12.3.0:1;/apps/USE/easybuild/release/2023.1/software/gzip/1.12-GCCcore-12.3.0:1;/apps/USE/easybuild/release/2023.1/software/cURL/8.0.1-GCCcore-12.3.0:1;/apps/USE/easybuild/release/2023.1/software/HDF5/1.14.0-gompi-2023a:1;/apps/USE/easybuild/release/2023.1/software/Szip/2.1.1-GCCcore-12.3.0:1;/apps/USE/easybuild/release/2023.1/software/ScaLAPACK/2.2.0-gompi-2023a-fb:1;/apps/USE/easybuild/release/2023.1/software/FlexiBLAS/3.3.1-GCC-12.3.0:1;/apps/USE/easybuild/release/2023.1/software/OpenBLAS/0.3.23-GCC-12.3.0:1;/apps/USE/easybuild/release/2023.1/software/OpenMPI/4.1.5-GCC-12.3.0:1;/apps/USE/easybuild/release/2023.1/software/UCC/1.2.0-GCCcore-12.3.0:1;/apps/USE/easybuild/release/2023.1/software/PMIx/4.2.6-GCCcore-12.3.0:1;/apps/USE/easybuild/release/2023.1/software/libfabric/1.18.0-GCCcore-12.3.0:1;/apps/USE/easybuild/release/2023.1/software/UCX/1.14.1-GCCcore-12.3.0:1;/apps/USE/easybuild/release/2023.1/software/libevent/2.1.12-GCCcore-12.3.0:1;/apps/USE/easybuild/release/2023.1/software/OpenSSL/1.1:1;/apps/USE/easybuild/release/2023.1/software/hwloc/2.9.1-GCCcore-12.3.0:1;/apps/USE/easybuild/release/2023.1/software/libpciaccess/0.17-GCCcore-12.3.0:1;/apps/USE/easybuild/release/2023.1/software/libxml2/2.11.4-GCCcore-12.3.0:1;/apps/USE/easybuild/release/2023.1/software/XZ/5.4.2-GCCcore-12.3.0:1;/apps/USE/easybuild/release/2023.1/software/numactl/2.0.16-GCCcore-12.3.0:1;/apps/USE/easybuild/release/2023.1/software/binutils/2.40-GCCcore-12.3.0:1;/apps/USE/easybuild/release/2023.1/software/zlib/1.2.13-GCCcore-12.3.0:1;/apps/USE/easybuild/release/2023.1/software/GCCcore/12.3.0:1;/apps/installs/software/myquota/0.3.3:1
LMOD_sys=Linux
_ModuleTable010_=M2EtZmIiLApsb2FkT3JkZXIgPSAyMiwKcHJvcFQgPSB7fSwKc3RhY2tEZXB0aCA9IDAsCnN0YXR1cyA9ICJhY3RpdmUiLAp1c2VyTmFtZSA9ICJTY2FMQVBBQ0svMi4yLjAtZ29tcGktMjAyM2EtZmIiLAp3ViA9ICIwMDAwMDAwMDIuMDAwMDAwMDAyLipnb21waS4qemZpbmFsLS4wMDAwMDIwMjMuKmEuKmZiLip6ZmluYWwiLAp9LApTemlwID0gewpmbiA9ICIvYXBwcy9VU0UvZWFzeWJ1aWxkL3JlbGVhc2UvMjAyMy4xL21vZHVsZXMvYWxsL1N6aXAvMi4xLjEtR0NDY29yZS0xMi4zLjAubHVhIiwKZnVsbE5hbWUgPSAiU3ppcC8yLjEuMS1HQ0Njb3JlLTEyLjMuMCIsCmxvYWRPcmRlciA9IDIzLApwcm9wVCA9IHt9LApzdGFja0RlcHRoID0gMywKc3RhdHVzID0gImFjdGl2ZSIs
SLURM_JOBID=1424478
_ModuleTable001_=X01vZHVsZVRhYmxlXyA9IHsKTVR2ZXJzaW9uID0gMywKY19yZWJ1aWxkVGltZSA9IGZhbHNlLApjX3Nob3J0VGltZSA9IGZhbHNlLApkZXB0aFQgPSB7fSwKZmFtaWx5ID0gewplbnYgPSAiZW52L3JlbGVhc2UiLAp9LAptVCA9IHsKQ1VEQSA9IHsKZm4gPSAiL2FwcHMvVVNFL2Vhc3lidWlsZC9yZWxlYXNlLzIwMjMuMS9tb2R1bGVzL2FsbC9DVURBLzEyLjIuMC5sdWEiLApmdWxsTmFtZSA9ICJDVURBLzEyLjIuMCIsCmxvYWRPcmRlciA9IDMzLApwcm9wVCA9IHt9LApzdGFja0RlcHRoID0gMCwKc3RhdHVzID0gImFjdGl2ZSIsCnVzZXJOYW1lID0gIkNVREEvMTIuMi4wIiwKd1YgPSAiMDAwMDAwMDEyLjAwMDAwMDAwMi4qemZpbmFsIiwKfSwKRkZUVyA9IHsKZm4gPSAiL2Fw
SLURMD_TRES_FREQ=
SLURM_CONF=/var/run/slurm/conf/slurm.conf
EBDEVELGOMPI=/apps/USE/easybuild/release/2023.1/software/gompi/2023a/easybuild/gompi-2023a-easybuild-devel
LOADEDMODULES=env/release/2023.1:lxp-tools/myquota/0.3.3:GCCcore/12.3.0:zlib/1.2.13-GCCcore-12.3.0:binutils/2.40-GCCcore-12.3.0:GCC/12.3.0:numactl/2.0.16-GCCcore-12.3.0:XZ/5.4.2-GCCcore-12.3.0:libxml2/2.11.4-GCCcore-12.3.0:libpciaccess/0.17-GCCcore-12.3.0:hwloc/2.9.1-GCCcore-12.3.0:OpenSSL/1.1:libevent/2.1.12-GCCcore-12.3.0:UCX/1.14.1-GCCcore-12.3.0:libfabric/1.18.0-GCCcore-12.3.0:PMIx/4.2.6-GCCcore-12.3.0:UCC/1.2.0-GCCcore-12.3.0:OpenMPI/4.1.5-GCC-12.3.0:gompi/2023a:OpenBLAS/0.3.23-GCC-12.3.0:FlexiBLAS/3.3.1-GCC-12.3.0:ScaLAPACK/2.2.0-gompi-2023a-fb:Szip/2.1.1-GCCcore-12.3.0:HDF5/1.14.0-gompi-2023a:cURL/8.0.1-GCCcore-12.3.0:gzip/1.12-GCCcore-12.3.0:lz4/1.9.4-GCCcore-12.3.0:zstd/1.5.5-GCCcore-12.3.0:bzip2/1.0.8-GCCcore-12.3.0:netCDF/4.9.2-gompi-2023a:netCDF-Fortran/4.6.1-gompi-2023a:FFTW/3.3.10-GCC-12.3.0:CUDA/12.2.0:ncurses/6.4-GCCcore-12.3.0:libreadline/8.2-GCCcore-12.3.0:FFTW.MPI/3.3.10-gompi-2023a:foss/2023a
__LMOD_REF_COUNT_ACLOCAL_PATH=/apps/USE/easybuild/release/2023.1/software/cURL/8.0.1-GCCcore-12.3.0/share/aclocal:1;/apps/USE/easybuild/release/2023.1/software/libxml2/2.11.4-GCCcore-12.3.0/share/aclocal:1
EBDEVELOPENMPI=/apps/USE/easybuild/release/2023.1/software/OpenMPI/4.1.5-GCC-12.3.0/easybuild/OpenMPI-4.1.5-GCC-12.3.0-easybuild-devel
EBROOTLIBEVENT=/apps/USE/easybuild/release/2023.1/software/libevent/2.1.12-GCCcore-12.3.0
EBROOTFFTWMPI=/apps/USE/easybuild/release/2023.1/software/FFTW.MPI/3.3.10-gompi-2023a
EBDEVELHDF5=/apps/USE/easybuild/release/2023.1/software/HDF5/1.14.0-gompi-2023a/easybuild/HDF5-1.14.0-gompi-2023a-easybuild-devel
EBVERSIONNETCDFMINFORTRAN=4.6.1
_ModuleTable006_=NC4wLWdvbXBpLTIwMjNhIiwKbG9hZE9yZGVyID0gMjQsCnByb3BUID0ge30sCnN0YWNrRGVwdGggPSAyLApzdGF0dXMgPSAiYWN0aXZlIiwKdXNlck5hbWUgPSAiSERGNS8xLjE0LjAtZ29tcGktMjAyM2EiLAp3ViA9ICIwMDAwMDAwMDEuMDAwMDAwMDE0Lipnb21waS4qemZpbmFsLS4wMDAwMDIwMjMuKmEuKnpmaW5hbCIsCn0sCk9wZW5CTEFTID0gewpmbiA9ICIvYXBwcy9VU0UvZWFzeWJ1aWxkL3JlbGVhc2UvMjAyMy4xL21vZHVsZXMvYWxsL09wZW5CTEFTLzAuMy4yMy1HQ0MtMTIuMy4wLmx1YSIsCmZ1bGxOYW1lID0gIk9wZW5CTEFTLzAuMy4yMy1HQ0MtMTIuMy4wIiwKbG9hZE9yZGVyID0gMjAsCnByb3BUID0ge30sCnN0YWNrRGVwdGggPSAyLApzdGF0dXMgPSAiYWN0
__LMOD_REF_COUNT_MANPATH=/apps/USE/easybuild/release/2023.1/software/libreadline/8.2-GCCcore-12.3.0/share/man:1;/apps/USE/easybuild/release/2023.1/software/ncurses/6.4-GCCcore-12.3.0/share/man:1;/apps/USE/easybuild/release/2023.1/software/FFTW/3.3.10-GCC-12.3.0/share/man:1;/apps/USE/easybuild/release/2023.1/software/netCDF-Fortran/4.6.1-gompi-2023a/share/man:1;/apps/USE/easybuild/release/2023.1/software/netCDF/4.9.2-gompi-2023a/share/man:1;/apps/USE/easybuild/release/2023.1/software/bzip2/1.0.8-GCCcore-12.3.0/man:1;/apps/USE/easybuild/release/2023.1/software/zstd/1.5.5-GCCcore-12.3.0/share/man:1;/apps/USE/easybuild/release/2023.1/software/lz4/1.9.4-GCCcore-12.3.0/share/man:1;/apps/USE/easybuild/release/2023.1/software/gzip/1.12-GCCcore-12.3.0/share/man:1;/apps/USE/easybuild/release/2023.1/software/cURL/8.0.1-GCCcore-12.3.0/share/man:1;/apps/USE/easybuild/release/2023.1/software/FlexiBLAS/3.3.1-GCC-12.3.0/share/man:1;/apps/USE/easybuild/release/2023.1/software/OpenMPI/4.1.5-GCC-12.3.0/share/man:1;/apps/USE/easybuild/release/2023.1/software/PMIx/4.2.6-GCCcore-12.3.0/share/man:1;/apps/USE/easybuild/release/2023.1/software/libfabric/1.18.0-GCCcore-12.3.0/share/man:1;/apps/USE/easybuild/release/2023.1/software/hwloc/2.9.1-GCCcore-12.3.0/share/man:1;/apps/USE/easybuild/release/2023.1/software/libxml2/2.11.4-GCCcore-12.3.0/share/man:1;/apps/USE/easybuild/release/2023.1/software/XZ/5.4.2-GCCcore-12.3.0/share/man:1;/apps/USE/easybuild/release/2023.1/software/numactl/2.0.16-GCCcore-12.3.0/share/man:1;/apps/USE/easybuild/release/2023.1/software/binutils/2.40-GCCcore-12.3.0/share/man:1;/apps/USE/easybuild/release/2023.1/software/zlib/1.2.13-GCCcore-12.3.0/share/man:1;/apps/USE/easybuild/release/2023.1/software/GCCcore/12.3.0/share/man:1;/usr/share/lmod/lmod/share/man:1;/opt/parastation/share/man:1
SCRATCH=/mnt/tier1/project/p200585
EBVERSIONZLIB=1.2.13
HDF5_DIR=/apps/USE/easybuild/release/2023.1/software/HDF5/1.14.0-gompi-2023a
_ModuleTable003_=LTIwMjNhLmx1YSIsCmZ1bGxOYW1lID0gIkZGVFcuTVBJLzMuMy4xMC1nb21waS0yMDIzYSIsCmxvYWRPcmRlciA9IDM2LApwcm9wVCA9IHt9LApzdGFja0RlcHRoID0gMSwKc3RhdHVzID0gImFjdGl2ZSIsCnVzZXJOYW1lID0gIkZGVFcuTVBJLzMuMy4xMC1nb21waS0yMDIzYSIsCndWID0gIjAwMDAwMDAwMy4wMDAwMDAwMDMuMDAwMDAwMDEwLipnb21waS4qemZpbmFsLS4wMDAwMDIwMjMuKmEuKnpmaW5hbCIsCn0sCkZsZXhpQkxBUyA9IHsKZm4gPSAiL2FwcHMvVVNFL2Vhc3lidWlsZC9yZWxlYXNlLzIwMjMuMS9tb2R1bGVzL2FsbC9GbGV4aUJMQVMvMy4zLjEtR0NDLTEyLjMuMC5sdWEiLApmdWxsTmFtZSA9ICJGbGV4aUJMQVMvMy4zLjEtR0NDLTEyLjMuMCIsCmxvYWRP
EBDEVELZSTD=/apps/USE/easybuild/release/2023.1/software/zstd/1.5.5-GCCcore-12.3.0/easybuild/zstd-1.5.5-GCCcore-12.3.0-easybuild-devel
LMOD_ROOT=/usr/share/lmod
SLURM_JOB_QOS=default
SLURM_TOPOLOGY_ADDR_PATTERN=switch.switch.switch.node
SSH_TTY=/dev/pts/28
_ModuleTable022_=Ny1HQ0Njb3JlLTEyLjMuMCIsCmxvYWRPcmRlciA9IDEwLApwcm9wVCA9IHt9LApzdGFja0RlcHRoID0gNCwKc3RhdHVzID0gImFjdGl2ZSIsCnVzZXJOYW1lID0gImxpYnBjaWFjY2Vzcy8wLjE3LUdDQ2NvcmUtMTIuMy4wIiwKd1YgPSAiMDAwMDAwMDAwLjAwMDAwMDAxNy4qZ2NjY29yZS4qemZpbmFsLS4wMDAwMDAwMTIuMDAwMDAwMDAzLip6ZmluYWwiLAp9LApsaWJyZWFkbGluZSA9IHsKZm4gPSAiL2FwcHMvVVNFL2Vhc3lidWlsZC9yZWxlYXNlLzIwMjMuMS9tb2R1bGVzL2FsbC9saWJyZWFkbGluZS84LjItR0NDY29yZS0xMi4zLjAubHVhIiwKZnVsbE5hbWUgPSAibGlicmVhZGxpbmUvOC4yLUdDQ2NvcmUtMTIuMy4wIiwKbG9hZE9yZGVyID0gMzUsCnByb3BUID0ge30s
_ModuleTable013_=Zm4gPSAiL2FwcHMvVVNFL2Vhc3lidWlsZC9yZWxlYXNlLzIwMjMuMS9tb2R1bGVzL2FsbC9YWi81LjQuMi1HQ0Njb3JlLTEyLjMuMC5sdWEiLApmdWxsTmFtZSA9ICJYWi81LjQuMi1HQ0Njb3JlLTEyLjMuMCIsCmxvYWRPcmRlciA9IDgsCnByb3BUID0ge30sCnN0YWNrRGVwdGggPSA1LApzdGF0dXMgPSAiYWN0aXZlIiwKdXNlck5hbWUgPSAiWFovNS40LjItR0NDY29yZS0xMi4zLjAiLAp3ViA9ICIwMDAwMDAwMDUuMDAwMDAwMDA0LjAwMDAwMDAwMi4qZ2NjY29yZS4qemZpbmFsLS4wMDAwMDAwMTIuMDAwMDAwMDAzLip6ZmluYWwiLAp9LApiaW51dGlscyA9IHsKZm4gPSAiL2FwcHMvVVNFL2Vhc3lidWlsZC9yZWxlYXNlLzIwMjMuMS9tb2R1bGVzL2FsbC9iaW51dGlscy8y
MAIL=/var/spool/mail/u102010
EBDEVELLIBPCIACCESS=/apps/USE/easybuild/release/2023.1/software/libpciaccess/0.17-GCCcore-12.3.0/easybuild/libpciaccess-0.17-GCCcore-12.3.0-easybuild-devel
SLURM_CPUS_ON_NODE=128
_ModuleTable027_=bWUgPSAibmV0Q0RGLzQuOS4yLWdvbXBpLTIwMjNhIiwKbG9hZE9yZGVyID0gMzAsCnByb3BUID0ge30sCnN0YWNrRGVwdGggPSAxLApzdGF0dXMgPSAiYWN0aXZlIiwKdXNlck5hbWUgPSAibmV0Q0RGLzQuOS4yLWdvbXBpLTIwMjNhIiwKd1YgPSAiMDAwMDAwMDA0LjAwMDAwMDAwOS4wMDAwMDAwMDIuKmdvbXBpLip6ZmluYWwtLjAwMDAwMjAyMy4qYS4qemZpbmFsIiwKfSwKWyJuZXRDREYtRm9ydHJhbiJdID0gewpmbiA9ICIvYXBwcy9VU0UvZWFzeWJ1aWxkL3JlbGVhc2UvMjAyMy4xL21vZHVsZXMvYWxsL25ldENERi1Gb3J0cmFuLzQuNi4xLWdvbXBpLTIwMjNhLmx1YSIsCmZ1bGxOYW1lID0gIm5ldENERi1Gb3J0cmFuLzQuNi4xLWdvbXBpLTIwMjNhIiwKbG9hZE9yZGVy
SLURM_JOB_NUM_NODES=8
OMP_PLACES=cores
__Init_Default_Modules=1
_ModuleTable016_=dGl2ZSIsCnVzZXJOYW1lID0gImNVUkwvOC4wLjEtR0NDY29yZS0xMi4zLjAiLAp3ViA9ICIwMDAwMDAwMDguMDAwMDAwMDAwLjAwMDAwMDAwMS4qZ2NjY29yZS4qemZpbmFsLS4wMDAwMDAwMTIuMDAwMDAwMDAzLip6ZmluYWwiLAp9LApbImVudi9yZWxlYXNlIl0gPSB7CmZuID0gIi9hcHBzL1VTRS9zeXN0ZW0vbW9kdWxlcy9lbnYvcmVsZWFzZS8yMDIzLjEubHVhIiwKZnVsbE5hbWUgPSAiZW52L3JlbGVhc2UvMjAyMy4xIiwKbG9hZE9yZGVyID0gMSwKcHJvcFQgPSB7Cmxtb2QgPSB7CnN0aWNreSA9IDEsCn0sCn0sCnN0YWNrRGVwdGggPSAwLApzdGF0dXMgPSAiYWN0aXZlIiwKdXNlck5hbWUgPSAiZW52L3JlbGVhc2UvMjAyMy4xIiwKd1YgPSAiXjAwMDAyMDIzLjAwMDAw
EBROOTFFTW=/apps/USE/easybuild/release/2023.1/software/FFTW/3.3.10-GCC-12.3.0
_ModuleTable009_=MTIuMy4wLmx1YSIsCmZ1bGxOYW1lID0gIlBNSXgvNC4yLjYtR0NDY29yZS0xMi4zLjAiLApsb2FkT3JkZXIgPSAxNiwKcHJvcFQgPSB7fSwKc3RhY2tEZXB0aCA9IDMsCnN0YXR1cyA9ICJhY3RpdmUiLAp1c2VyTmFtZSA9ICJQTUl4LzQuMi42LUdDQ2NvcmUtMTIuMy4wIiwKd1YgPSAiMDAwMDAwMDA0LjAwMDAwMDAwMi4wMDAwMDAwMDYuKmdjY2NvcmUuKnpmaW5hbC0uMDAwMDAwMDEyLjAwMDAwMDAwMy4qemZpbmFsIiwKfSwKU2NhTEFQQUNLID0gewpmbiA9ICIvYXBwcy9VU0UvZWFzeWJ1aWxkL3JlbGVhc2UvMjAyMy4xL21vZHVsZXMvYWxsL1NjYUxBUEFDSy8yLjIuMC1nb21waS0yMDIzYS1mYi5sdWEiLApmdWxsTmFtZSA9ICJTY2FMQVBBQ0svMi4yLjAtZ29tcGktMjAy
EBDEVELOPENSSL=/apps/USE/easybuild/release/2023.1/software/OpenSSL/1.1/easybuild/OpenSSL-1.1-easybuild-devel
SHELL=/bin/bash
TERM=xterm-256color
J4M_LIB_PATH=/home/users/u102010/Siesta/elpa-gpu/lib/
EBDEVELGCCCORE=/apps/USE/easybuild/release/2023.1/software/GCCcore/12.3.0/easybuild/GCCcore-12.3.0-easybuild-devel
EBROOTHWLOC=/apps/USE/easybuild/release/2023.1/software/hwloc/2.9.1-GCCcore-12.3.0
_ModuleTable_Sz_=31
SLURM_JOB_UID=102010
EBVERSIONLZ4=1.9.4
__LMOD_REF_COUNT_CPATH=/apps/USE/easybuild/release/2023.1/software/FFTW.MPI/3.3.10-gompi-2023a/include:1;/apps/USE/easybuild/release/2023.1/software/libreadline/8.2-GCCcore-12.3.0/include:1;/apps/USE/easybuild/release/2023.1/software/ncurses/6.4-GCCcore-12.3.0/include:1;/apps/USE/easybuild/release/2023.1/software/CUDA/12.2.0/nvvm/include:1;/apps/USE/easybuild/release/2023.1/software/CUDA/12.2.0/extras/CUPTI/include:1;/apps/USE/easybuild/release/2023.1/software/CUDA/12.2.0/include:1;/apps/USE/easybuild/release/2023.1/software/FFTW/3.3.10-GCC-12.3.0/include:1;/apps/USE/easybuild/release/2023.1/software/netCDF-Fortran/4.6.1-gompi-2023a/include:1;/apps/USE/easybuild/release/2023.1/software/netCDF/4.9.2-gompi-2023a/include:1;/apps/USE/easybuild/release/2023.1/software/bzip2/1.0.8-GCCcore-12.3.0/include:1;/apps/USE/easybuild/release/2023.1/software/zstd/1.5.5-GCCcore-12.3.0/include:1;/apps/USE/easybuild/release/2023.1/software/lz4/1.9.4-GCCcore-12.3.0/include:1;/apps/USE/easybuild/release/2023.1/software/cURL/8.0.1-GCCcore-12.3.0/include:1;/apps/USE/easybuild/release/2023.1/software/HDF5/1.14.0-gompi-2023a/include:1;/apps/USE/easybuild/release/2023.1/software/Szip/2.1.1-GCCcore-12.3.0/include:1;/apps/USE/easybuild/release/2023.1/software/FlexiBLAS/3.3.1-GCC-12.3.0/include:1;/apps/USE/easybuild/release/2023.1/software/OpenBLAS/0.3.23-GCC-12.3.0/include:1;/apps/USE/easybuild/release/2023.1/software/OpenMPI/4.1.5-GCC-12.3.0/include:1;/apps/USE/easybuild/release/2023.1/software/UCC/1.2.0-GCCcore-12.3.0/include:1;/apps/USE/easybuild/release/2023.1/software/PMIx/4.2.6-GCCcore-12.3.0/include:1;/apps/USE/easybuild/release/2023.1/software/libfabric/1.18.0-GCCcore-12.3.0/include:1;/apps/USE/easybuild/release/2023.1/software/UCX/1.14.1-GCCcore-12.3.0/include:1;/apps/USE/easybuild/release/2023.1/software/libevent/2.1.12-GCCcore-12.3.0/include:1;/apps/USE/easybuild/release/2023.1/software/OpenSSL/1.1/include:1;/apps/USE/easybuild/release/2023.1/software/hwloc/2.9.1-GCCcore-12.3.0/include:1;/apps/USE/easybuild/release/2023.1/software/libpciaccess/0.17-GCCcore-12.3.0/include:1;/apps/USE/easybuild/release/2023.1/software/libxml2/2.11.4-GCCcore-12.3.0/include/libxml2:1;/apps/USE/easybuild/release/2023.1/software/libxml2/2.11.4-GCCcore-12.3.0/include:1;/apps/USE/easybuild/release/2023.1/software/XZ/5.4.2-GCCcore-12.3.0/include:1;/apps/USE/easybuild/release/2023.1/software/numactl/2.0.16-GCCcore-12.3.0/include:1;/apps/USE/easybuild/release/2023.1/software/binutils/2.40-GCCcore-12.3.0/include:1;/apps/USE/easybuild/release/2023.1/software/zlib/1.2.13-GCCcore-12.3.0/include:1
SLURM_JOB_PARTITION=gpu
EBDEVELNCURSES=/apps/USE/easybuild/release/2023.1/software/ncurses/6.4-GCCcore-12.3.0/easybuild/ncurses-6.4-GCCcore-12.3.0-easybuild-devel
EBROOTLZ4=/apps/USE/easybuild/release/2023.1/software/lz4/1.9.4-GCCcore-12.3.0
EBVERSIONBZIP2=1.0.8
_ModuleTable018_=MSwKc3RhdHVzID0gImFjdGl2ZSIsCnVzZXJOYW1lID0gImdvbXBpLzIwMjNhIiwKd1YgPSAiMDAwMDAyMDIzLiphLip6ZmluYWwiLAp9LApnemlwID0gewpmbiA9ICIvYXBwcy9VU0UvZWFzeWJ1aWxkL3JlbGVhc2UvMjAyMy4xL21vZHVsZXMvYWxsL2d6aXAvMS4xMi1HQ0Njb3JlLTEyLjMuMC5sdWEiLApmdWxsTmFtZSA9ICJnemlwLzEuMTItR0NDY29yZS0xMi4zLjAiLApsb2FkT3JkZXIgPSAyNiwKcHJvcFQgPSB7fSwKc3RhY2tEZXB0aCA9IDMsCnN0YXR1cyA9ICJhY3RpdmUiLAp1c2VyTmFtZSA9ICJnemlwLzEuMTItR0NDY29yZS0xMi4zLjAiLAp3ViA9ICIwMDAwMDAwMDEuMDAwMDAwMDEyLipnY2Njb3JlLip6ZmluYWwtLjAwMDAwMDAxMi4wMDAwMDAwMDMuKnpmaW5h
SELINUX_USE_CURRENT_RANGE=
EBVERSIONNETCDF=4.9.2
EBDEVELBINUTILS=/apps/USE/easybuild/release/2023.1/software/binutils/2.40-GCCcore-12.3.0/easybuild/binutils-2.40-GCCcore-12.3.0-easybuild-devel
SLURM_JOB_USER=u102010
CUDA_VISIBLE_DEVICES=0,1,2,3     
SHLVL=4
SLURM_SUBMIT_HOST=login02.meluxina.lxp.lu
PYTHONPATH=/apps/installs/software/myquota/0.3.3/lib/python3.6/site-packages
SLURM_JOB_ACCOUNT=p200585
EBDEVELNETCDFMINFORTRAN=/apps/USE/easybuild/release/2023.1/software/netCDF-Fortran/4.6.1-gompi-2023a/easybuild/netCDF-Fortran-4.6.1-gompi-2023a-easybuild-devel
ACLOCAL_PATH=/apps/USE/easybuild/release/2023.1/software/cURL/8.0.1-GCCcore-12.3.0/share/aclocal:/apps/USE/easybuild/release/2023.1/software/libxml2/2.11.4-GCCcore-12.3.0/share/aclocal
__AUTO_GPU_DEVICE_ORDINAL=0,1,2,3     
MANPATH=/apps/USE/easybuild/release/2023.1/software/libreadline/8.2-GCCcore-12.3.0/share/man:/apps/USE/easybuild/release/2023.1/software/ncurses/6.4-GCCcore-12.3.0/share/man:/apps/USE/easybuild/release/2023.1/software/FFTW/3.3.10-GCC-12.3.0/share/man:/apps/USE/easybuild/release/2023.1/software/netCDF-Fortran/4.6.1-gompi-2023a/share/man:/apps/USE/easybuild/release/2023.1/software/netCDF/4.9.2-gompi-2023a/share/man:/apps/USE/easybuild/release/2023.1/software/bzip2/1.0.8-GCCcore-12.3.0/man:/apps/USE/easybuild/release/2023.1/software/zstd/1.5.5-GCCcore-12.3.0/share/man:/apps/USE/easybuild/release/2023.1/software/lz4/1.9.4-GCCcore-12.3.0/share/man:/apps/USE/easybuild/release/2023.1/software/gzip/1.12-GCCcore-12.3.0/share/man:/apps/USE/easybuild/release/2023.1/software/cURL/8.0.1-GCCcore-12.3.0/share/man:/apps/USE/easybuild/release/2023.1/software/FlexiBLAS/3.3.1-GCC-12.3.0/share/man:/apps/USE/easybuild/release/2023.1/software/OpenMPI/4.1.5-GCC-12.3.0/share/man:/apps/USE/easybuild/release/2023.1/software/PMIx/4.2.6-GCCcore-12.3.0/share/man:/apps/USE/easybuild/release/2023.1/software/libfabric/1.18.0-GCCcore-12.3.0/share/man:/apps/USE/easybuild/release/2023.1/software/hwloc/2.9.1-GCCcore-12.3.0/share/man:/apps/USE/easybuild/release/2023.1/software/libxml2/2.11.4-GCCcore-12.3.0/share/man:/apps/USE/easybuild/release/2023.1/software/XZ/5.4.2-GCCcore-12.3.0/share/man:/apps/USE/easybuild/release/2023.1/software/numactl/2.0.16-GCCcore-12.3.0/share/man:/apps/USE/easybuild/release/2023.1/software/binutils/2.40-GCCcore-12.3.0/share/man:/apps/USE/easybuild/release/2023.1/software/zlib/1.2.13-GCCcore-12.3.0/share/man:/apps/USE/easybuild/release/2023.1/software/GCCcore/12.3.0/share/man:/usr/share/lmod/lmod/share/man:/opt/parastation/share/man
EBDEVELGCC=/apps/USE/easybuild/release/2023.1/software/GCC/12.3.0/easybuild/GCC-12.3.0-easybuild-devel
LMOD_FAMILY_ENV=env/release
_ModuleTable028_=ID0gMzEsCnByb3BUID0ge30sCnN0YWNrRGVwdGggPSAwLApzdGF0dXMgPSAiYWN0aXZlIiwKdXNlck5hbWUgPSAibmV0Q0RGLUZvcnRyYW4vNC42LjEtZ29tcGktMjAyM2EiLAp3ViA9ICIwMDAwMDAwMDQuMDAwMDAwMDA2LjAwMDAwMDAwMS4qZ29tcGkuKnpmaW5hbC0uMDAwMDAyMDIzLiphLip6ZmluYWwiLAp9LApudW1hY3RsID0gewpmbiA9ICIvYXBwcy9VU0UvZWFzeWJ1aWxkL3JlbGVhc2UvMjAyMy4xL21vZHVsZXMvYWxsL251bWFjdGwvMi4wLjE2LUdDQ2NvcmUtMTIuMy4wLmx1YSIsCmZ1bGxOYW1lID0gIm51bWFjdGwvMi4wLjE2LUdDQ2NvcmUtMTIuMy4wIiwKbG9hZE9yZGVyID0gNywKcHJvcFQgPSB7fSwKc3RhY2tEZXB0aCA9IDQsCnN0YXR1cyA9ICJhY3RpdmUi
HYDRA_BOOTSTRAP=slurm
EBVERSIONFFTW=3.3.10
MODULEPATH=/apps/USE/system/modules:/apps/USE/easybuild/release/2023.1/modules/all
EBROOTZSTD=/apps/USE/easybuild/release/2023.1/software/zstd/1.5.5-GCCcore-12.3.0
EBDEVELLIBREADLINE=/apps/USE/easybuild/release/2023.1/software/libreadline/8.2-GCCcore-12.3.0/easybuild/libreadline-8.2-GCCcore-12.3.0-easybuild-devel
EBDEVELFFTW=/apps/USE/easybuild/release/2023.1/software/FFTW/3.3.10-GCC-12.3.0/easybuild/FFTW-3.3.10-GCC-12.3.0-easybuild-devel
SLURM_GTIDS=0
LOGNAME=u102010
DBUS_SESSION_BUS_ADDRESS=unix:path=/run/user/102010/bus
XDG_RUNTIME_DIR=/run/user/102010
EBVERSIONBINUTILS=2.40
EBROOTCUDA=/apps/USE/easybuild/release/2023.1/software/CUDA/12.2.0
MODULEPATH_ROOT=/apps/USE/system/modules
LMOD_PACKAGE_PATH=/apps/config/lmod
EBROOTPMIX=/apps/USE/easybuild/release/2023.1/software/PMIx/4.2.6-GCCcore-12.3.0
EBDEVELZLIB=/apps/USE/easybuild/release/2023.1/software/zlib/1.2.13-GCCcore-12.3.0/easybuild/zlib-1.2.13-GCCcore-12.3.0-easybuild-devel
_ModuleTable025_=MDAzLjAwMDAwMDAwMy4qemZpbmFsIiwKfSwKbHo0ID0gewpmbiA9ICIvYXBwcy9VU0UvZWFzeWJ1aWxkL3JlbGVhc2UvMjAyMy4xL21vZHVsZXMvYWxsL2x6NC8xLjkuNC1HQ0Njb3JlLTEyLjMuMC5sdWEiLApmdWxsTmFtZSA9ICJsejQvMS45LjQtR0NDY29yZS0xMi4zLjAiLApsb2FkT3JkZXIgPSAyNywKcHJvcFQgPSB7fSwKc3RhY2tEZXB0aCA9IDMsCnN0YXR1cyA9ICJhY3RpdmUiLAp1c2VyTmFtZSA9ICJsejQvMS45LjQtR0NDY29yZS0xMi4zLjAiLAp3ViA9ICIwMDAwMDAwMDEuMDAwMDAwMDA5LjAwMDAwMDAwNC4qZ2NjY29yZS4qemZpbmFsLS4wMDAwMDAwMTIuMDAwMDAwMDAzLip6ZmluYWwiLAp9LApuY3Vyc2VzID0gewpmbiA9ICIvYXBwcy9VU0UvZWFzeWJ1aWxk
EBROOTLIBFABRIC=/apps/USE/easybuild/release/2023.1/software/libfabric/1.18.0-GCCcore-12.3.0
PATH=/apps/USE/easybuild/release/2023.1/software/ncurses/6.4-GCCcore-12.3.0/bin:/apps/USE/easybuild/release/2023.1/software/CUDA/12.2.0/nvvm/bin:/apps/USE/easybuild/release/2023.1/software/CUDA/12.2.0/bin:/apps/USE/easybuild/release/2023.1/software/FFTW/3.3.10-GCC-12.3.0/bin:/apps/USE/easybuild/release/2023.1/software/netCDF-Fortran/4.6.1-gompi-2023a/bin:/apps/USE/easybuild/release/2023.1/software/netCDF/4.9.2-gompi-2023a/bin:/apps/USE/easybuild/release/2023.1/software/bzip2/1.0.8-GCCcore-12.3.0/bin:/apps/USE/easybuild/release/2023.1/software/zstd/1.5.5-GCCcore-12.3.0/bin:/apps/USE/easybuild/release/2023.1/software/lz4/1.9.4-GCCcore-12.3.0/bin:/apps/USE/easybuild/release/2023.1/software/gzip/1.12-GCCcore-12.3.0/bin:/apps/USE/easybuild/release/2023.1/software/cURL/8.0.1-GCCcore-12.3.0/bin:/apps/USE/easybuild/release/2023.1/software/HDF5/1.14.0-gompi-2023a/bin:/apps/USE/easybuild/release/2023.1/software/FlexiBLAS/3.3.1-GCC-12.3.0/bin:/apps/USE/easybuild/release/2023.1/software/OpenMPI/4.1.5-GCC-12.3.0/bin:/apps/USE/easybuild/release/2023.1/software/UCC/1.2.0-GCCcore-12.3.0/bin:/apps/USE/easybuild/release/2023.1/software/PMIx/4.2.6-GCCcore-12.3.0/bin:/apps/USE/easybuild/release/2023.1/software/libfabric/1.18.0-GCCcore-12.3.0/bin:/apps/USE/easybuild/release/2023.1/software/UCX/1.14.1-GCCcore-12.3.0/bin:/apps/USE/easybuild/release/2023.1/software/libevent/2.1.12-GCCcore-12.3.0/bin:/apps/USE/easybuild/release/2023.1/software/OpenSSL/1.1/bin:/apps/USE/easybuild/release/2023.1/software/hwloc/2.9.1-GCCcore-12.3.0/sbin:/apps/USE/easybuild/release/2023.1/software/hwloc/2.9.1-GCCcore-12.3.0/bin:/apps/USE/easybuild/release/2023.1/software/libxml2/2.11.4-GCCcore-12.3.0/bin:/apps/USE/easybuild/release/2023.1/software/XZ/5.4.2-GCCcore-12.3.0/bin:/apps/USE/easybuild/release/2023.1/software/numactl/2.0.16-GCCcore-12.3.0/bin:/apps/USE/easybuild/release/2023.1/software/binutils/2.40-GCCcore-12.3.0/bin:/apps/USE/easybuild/release/2023.1/software/GCCcore/12.3.0/bin:/apps/installs/software/myquota/0.3.3/bin:/home/users/u102010/.local/bin:/home/users/u102010/bin:/usr/local/bin:/usr/bin:/usr/local/sbin:/usr/sbin:/home/users/u102010/Siesta/siesta-gpu/bin/
_ModuleTable014_=LjQwLUdDQ2NvcmUtMTIuMy4wLmx1YSIsCmZ1bGxOYW1lID0gImJpbnV0aWxzLzIuNDAtR0NDY29yZS0xMi4zLjAiLApsb2FkT3JkZXIgPSA1LApwcm9wVCA9IHt9LApzdGFja0RlcHRoID0gMywKc3RhdHVzID0gImFjdGl2ZSIsCnVzZXJOYW1lID0gImJpbnV0aWxzLzIuNDAtR0NDY29yZS0xMi4zLjAiLAp3ViA9ICIwMDAwMDAwMDIuMDAwMDAwMDQwLipnY2Njb3JlLip6ZmluYWwtLjAwMDAwMDAxMi4wMDAwMDAwMDMuKnpmaW5hbCIsCn0sCmJ6aXAyID0gewpmbiA9ICIvYXBwcy9VU0UvZWFzeWJ1aWxkL3JlbGVhc2UvMjAyMy4xL21vZHVsZXMvYWxsL2J6aXAyLzEuMC44LUdDQ2NvcmUtMTIuMy4wLmx1YSIsCmZ1bGxOYW1lID0gImJ6aXAyLzEuMC44LUdDQ2NvcmUtMTIuMy4w
SLURM_JOB_ID=1424478
EBVERSIONLIBREADLINE=8.2
_LMFILES_=/apps/USE/system/modules/env/release/2023.1.lua:/apps/USE/system/modules/lxp-tools/myquota/0.3.3.lua:/apps/USE/easybuild/release/2023.1/modules/all/GCCcore/12.3.0.lua:/apps/USE/easybuild/release/2023.1/modules/all/zlib/1.2.13-GCCcore-12.3.0.lua:/apps/USE/easybuild/release/2023.1/modules/all/binutils/2.40-GCCcore-12.3.0.lua:/apps/USE/easybuild/release/2023.1/modules/all/GCC/12.3.0.lua:/apps/USE/easybuild/release/2023.1/modules/all/numactl/2.0.16-GCCcore-12.3.0.lua:/apps/USE/easybuild/release/2023.1/modules/all/XZ/5.4.2-GCCcore-12.3.0.lua:/apps/USE/easybuild/release/2023.1/modules/all/libxml2/2.11.4-GCCcore-12.3.0.lua:/apps/USE/easybuild/release/2023.1/modules/all/libpciaccess/0.17-GCCcore-12.3.0.lua:/apps/USE/easybuild/release/2023.1/modules/all/hwloc/2.9.1-GCCcore-12.3.0.lua:/apps/USE/easybuild/release/2023.1/modules/all/OpenSSL/1.1.lua:/apps/USE/easybuild/release/2023.1/modules/all/libevent/2.1.12-GCCcore-12.3.0.lua:/apps/USE/easybuild/release/2023.1/modules/all/UCX/1.14.1-GCCcore-12.3.0.lua:/apps/USE/easybuild/release/2023.1/modules/all/libfabric/1.18.0-GCCcore-12.3.0.lua:/apps/USE/easybuild/release/2023.1/modules/all/PMIx/4.2.6-GCCcore-12.3.0.lua:/apps/USE/easybuild/release/2023.1/modules/all/UCC/1.2.0-GCCcore-12.3.0.lua:/apps/USE/easybuild/release/2023.1/modules/all/OpenMPI/4.1.5-GCC-12.3.0.lua:/apps/USE/easybuild/release/2023.1/modules/all/gompi/2023a.lua:/apps/USE/easybuild/release/2023.1/modules/all/OpenBLAS/0.3.23-GCC-12.3.0.lua:/apps/USE/easybuild/release/2023.1/modules/all/FlexiBLAS/3.3.1-GCC-12.3.0.lua:/apps/USE/easybuild/release/2023.1/modules/all/ScaLAPACK/2.2.0-gompi-2023a-fb.lua:/apps/USE/easybuild/release/2023.1/modules/all/Szip/2.1.1-GCCcore-12.3.0.lua:/apps/USE/easybuild/release/2023.1/modules/all/HDF5/1.14.0-gompi-2023a.lua:/apps/USE/easybuild/release/2023.1/modules/all/cURL/8.0.1-GCCcore-12.3.0.lua:/apps/USE/easybuild/release/2023.1/modules/all/gzip/1.12-GCCcore-12.3.0.lua:/apps/USE/easybuild/release/2023.1/modules/all/lz4/1.9.4-GCCcore-12.3.0.lua:/apps/USE/easybuild/release/2023.1/modules/all/zstd/1.5.5-GCCcore-12.3.0.lua:/apps/USE/easybuild/release/2023.1/modules/all/bzip2/1.0.8-GCCcore-12.3.0.lua:/apps/USE/easybuild/release/2023.1/modules/all/netCDF/4.9.2-gompi-2023a.lua:/apps/USE/easybuild/release/2023.1/modules/all/netCDF-Fortran/4.6.1-gompi-2023a.lua:/apps/USE/easybuild/release/2023.1/modules/all/FFTW/3.3.10-GCC-12.3.0.lua:/apps/USE/easybuild/release/2023.1/modules/all/CUDA/12.2.0.lua:/apps/USE/easybuild/release/2023.1/modules/all/ncurses/6.4-GCCcore-12.3.0.lua:/apps/USE/easybuild/release/2023.1/modules/all/libreadline/8.2-GCCcore-12.3.0.lua:/apps/USE/easybuild/release/2023.1/modules/all/FFTW.MPI/3.3.10-gompi-2023a.lua:/apps/USE/easybuild/release/2023.1/modules/all/foss/2023a.lua
EBROOTLIBPCIACCESS=/apps/USE/easybuild/release/2023.1/software/libpciaccess/0.17-GCCcore-12.3.0
DEBUGINFOD_URLS=https://debuginfod.centos.org/ 
__PSID_USE_GPUS=0,1,2,3
EBDEVELLZ4=/apps/USE/easybuild/release/2023.1/software/lz4/1.9.4-GCCcore-12.3.0/easybuild/lz4-1.9.4-GCCcore-12.3.0-easybuild-devel
MODULESHOME=/usr/share/lmod/lmod
PKG_CONFIG_PATH=/apps/USE/easybuild/release/2023.1/software/libreadline/8.2-GCCcore-12.3.0/lib/pkgconfig:/apps/USE/easybuild/release/2023.1/software/CUDA/12.2.0/pkgconfig:/apps/USE/easybuild/release/2023.1/software/FFTW/3.3.10-GCC-12.3.0/lib/pkgconfig:/apps/USE/easybuild/release/2023.1/software/netCDF-Fortran/4.6.1-gompi-2023a/lib/pkgconfig:/apps/USE/easybuild/release/2023.1/software/netCDF/4.9.2-gompi-2023a/lib/pkgconfig:/apps/USE/easybuild/release/2023.1/software/bzip2/1.0.8-GCCcore-12.3.0/lib/pkgconfig:/apps/USE/easybuild/release/2023.1/software/zstd/1.5.5-GCCcore-12.3.0/lib/pkgconfig:/apps/USE/easybuild/release/2023.1/software/lz4/1.9.4-GCCcore-12.3.0/lib/pkgconfig:/apps/USE/easybuild/release/2023.1/software/cURL/8.0.1-GCCcore-12.3.0/lib/pkgconfig:/apps/USE/easybuild/release/2023.1/software/HDF5/1.14.0-gompi-2023a/lib/pkgconfig:/apps/USE/easybuild/release/2023.1/software/ScaLAPACK/2.2.0-gompi-2023a-fb/lib/pkgconfig:/apps/USE/easybuild/release/2023.1/software/FlexiBLAS/3.3.1-GCC-12.3.0/lib/pkgconfig:/apps/USE/easybuild/release/2023.1/software/OpenBLAS/0.3.23-GCC-12.3.0/lib/pkgconfig:/apps/USE/easybuild/release/2023.1/software/OpenMPI/4.1.5-GCC-12.3.0/lib/pkgconfig:/apps/USE/easybuild/release/2023.1/software/PMIx/4.2.6-GCCcore-12.3.0/lib/pkgconfig:/apps/USE/easybuild/release/2023.1/software/libfabric/1.18.0-GCCcore-12.3.0/lib/pkgconfig:/apps/USE/easybuild/release/2023.1/software/UCX/1.14.1-GCCcore-12.3.0/lib/pkgconfig:/apps/USE/easybuild/release/2023.1/software/libevent/2.1.12-GCCcore-12.3.0/lib/pkgconfig:/apps/USE/easybuild/release/2023.1/software/OpenSSL/1.1/lib/pkgconfig:/apps/USE/easybuild/release/2023.1/software/hwloc/2.9.1-GCCcore-12.3.0/lib/pkgconfig:/apps/USE/easybuild/release/2023.1/software/libpciaccess/0.17-GCCcore-12.3.0/lib/pkgconfig:/apps/USE/easybuild/release/2023.1/software/libxml2/2.11.4-GCCcore-12.3.0/lib/pkgconfig:/apps/USE/easybuild/release/2023.1/software/XZ/5.4.2-GCCcore-12.3.0/lib/pkgconfig:/apps/USE/easybuild/release/2023.1/software/numactl/2.0.16-GCCcore-12.3.0/lib/pkgconfig:/apps/USE/easybuild/release/2023.1/software/zlib/1.2.13-GCCcore-12.3.0/lib/pkgconfig
LMOD_SETTARG_FULL_SUPPORT=no
EBVERSIONFLEXIBLAS=3.3.1
_ModuleTable011_=CnVzZXJOYW1lID0gIlN6aXAvMi4xLjEtR0NDY29yZS0xMi4zLjAiLAp3ViA9ICIwMDAwMDAwMDIuMDAwMDAwMDAxLjAwMDAwMDAwMS4qZ2NjY29yZS4qemZpbmFsLS4wMDAwMDAwMTIuMDAwMDAwMDAzLip6ZmluYWwiLAp9LApVQ0MgPSB7CmZuID0gIi9hcHBzL1VTRS9lYXN5YnVpbGQvcmVsZWFzZS8yMDIzLjEvbW9kdWxlcy9hbGwvVUNDLzEuMi4wLUdDQ2NvcmUtMTIuMy4wLmx1YSIsCmZ1bGxOYW1lID0gIlVDQy8xLjIuMC1HQ0Njb3JlLTEyLjMuMCIsCmxvYWRPcmRlciA9IDE3LApwcm9wVCA9IHt9LApzdGFja0RlcHRoID0gMywKc3RhdHVzID0gImFjdGl2ZSIsCnVzZXJOYW1lID0gIlVDQy8xLjIuMC1HQ0Njb3JlLTEyLjMuMCIsCndWID0gIjAwMDAwMDAwMS4wMDAwMDAw
_ModuleTable030_=MDAxLjAwMDAwMDAwMi4wMDAwMDAwMTMuKmdjY2NvcmUuKnpmaW5hbC0uMDAwMDAwMDEyLjAwMDAwMDAwMy4qemZpbmFsIiwKfSwKenN0ZCA9IHsKZm4gPSAiL2FwcHMvVVNFL2Vhc3lidWlsZC9yZWxlYXNlLzIwMjMuMS9tb2R1bGVzL2FsbC96c3RkLzEuNS41LUdDQ2NvcmUtMTIuMy4wLmx1YSIsCmZ1bGxOYW1lID0gInpzdGQvMS41LjUtR0NDY29yZS0xMi4zLjAiLApsb2FkT3JkZXIgPSAyOCwKcHJvcFQgPSB7fSwKc3RhY2tEZXB0aCA9IDIsCnN0YXR1cyA9ICJhY3RpdmUiLAp1c2VyTmFtZSA9ICJ6c3RkLzEuNS41LUdDQ2NvcmUtMTIuMy4wIiwKd1YgPSAiMDAwMDAwMDAxLjAwMDAwMDAwNS4wMDAwMDAwMDUuKmdjY2NvcmUuKnpmaW5hbC0uMDAwMDAwMDEyLjAwMDAwMDAw
EBROOTNUMACTL=/apps/USE/easybuild/release/2023.1/software/numactl/2.0.16-GCCcore-12.3.0
LMOD_FAMILY_ENV_VERSION=2023.1
HISTSIZE=1000
LMOD_PKG=/usr/share/lmod/lmod
CMAKE_LIBRARY_PATH=/apps/USE/easybuild/release/2023.1/software/GCCcore/12.3.0/lib64
LOCALSCRATCH=/mnt/tier0/project/p200585
EBROOTNETCDF=/apps/USE/easybuild/release/2023.1/software/netCDF/4.9.2-gompi-2023a
J4M_HOME=/home/users/u102010/JUBE4MaX-GPU/max-inputs/
EBVERSIONSZIP=2.1.1
EBROOTUCX=/apps/USE/easybuild/release/2023.1/software/UCX/1.14.1-GCCcore-12.3.0
_ModuleTable005_=MDEyLjAwMDAwMDAwMy4qemZpbmFsIiwKfSwKR0NDY29yZSA9IHsKZm4gPSAiL2FwcHMvVVNFL2Vhc3lidWlsZC9yZWxlYXNlLzIwMjMuMS9tb2R1bGVzL2FsbC9HQ0Njb3JlLzEyLjMuMC5sdWEiLApmdWxsTmFtZSA9ICJHQ0Njb3JlLzEyLjMuMCIsCmxvYWRPcmRlciA9IDMsCnByb3BUID0ge30sCnN0YWNrRGVwdGggPSAzLApzdGF0dXMgPSAiYWN0aXZlIiwKdXNlck5hbWUgPSAiR0NDY29yZS8xMi4zLjAiLAp3ViA9ICIwMDAwMDAwMTIuMDAwMDAwMDAzLip6ZmluYWwiLAp9LApIREY1ID0gewpmbiA9ICIvYXBwcy9VU0UvZWFzeWJ1aWxkL3JlbGVhc2UvMjAyMy4xL21vZHVsZXMvYWxsL0hERjUvMS4xNC4wLWdvbXBpLTIwMjNhLmx1YSIsCmZ1bGxOYW1lID0gIkhERjUvMS4x
LMOD_CMD=/usr/share/lmod/lmod/libexec/lmod
SLURM_LOCALID=0
GPU_DEVICE_ORDINAL=0,1,2,3     
OMP_NUM_THREADS=1
LESSOPEN=||/usr/bin/lesspipe.sh %s
_ModuleTable020_=MjMuMS9tb2R1bGVzL2FsbC9saWJldmVudC8yLjEuMTItR0NDY29yZS0xMi4zLjAubHVhIiwKZnVsbE5hbWUgPSAibGliZXZlbnQvMi4xLjEyLUdDQ2NvcmUtMTIuMy4wIiwKbG9hZE9yZGVyID0gMTMsCnByb3BUID0ge30sCnN0YWNrRGVwdGggPSAzLApzdGF0dXMgPSAiYWN0aXZlIiwKdXNlck5hbWUgPSAibGliZXZlbnQvMi4xLjEyLUdDQ2NvcmUtMTIuMy4wIiwKd1YgPSAiMDAwMDAwMDAyLjAwMDAwMDAwMS4wMDAwMDAwMTIuKmdjY2NvcmUuKnpmaW5hbC0uMDAwMDAwMDEyLjAwMDAwMDAwMy4qemZpbmFsIiwKfSwKbGliZmFicmljID0gewpmbiA9ICIvYXBwcy9VU0UvZWFzeWJ1aWxkL3JlbGVhc2UvMjAyMy4xL21vZHVsZXMvYWxsL2xpYmZhYnJpYy8xLjE4LjAtR0NDY29y
EBROOTUCC=/apps/USE/easybuild/release/2023.1/software/UCC/1.2.0-GCCcore-12.3.0
LMOD_DIR=/usr/share/lmod/lmod/libexec
BASH_FUNC_which%%=() {  ( alias;
 eval ${which_declare} ) | /usr/bin/which --tty-only --read-alias --read-functions --show-tilde --show-dot $@
}
BASH_FUNC_module%%=() {  if [ -z "${LMOD_SH_DBG_ON+x}" ]; then
 case "$-" in 
 *v*x*)
 __lmod_sh_dbg='vx'
 ;;
 *v*)
 __lmod_sh_dbg='v'
 ;;
 *x*)
 __lmod_sh_dbg='x'
 ;;
 esac;
 fi;
 if [ -n "${__lmod_sh_dbg:-}" ]; then
 set +$__lmod_sh_dbg;
 echo "Shell debugging temporarily silenced: export LMOD_SH_DBG_ON=1 for Lmod's output" 1>&2;
 fi;
 eval "$($LMOD_CMD shell "$@")" && eval "$(${LMOD_SETTARG_CMD:-:} -s sh)";
 __lmod_my_status=$?;
 if [ -n "${__lmod_sh_dbg:-}" ]; then
 echo "Shell debugging restarted" 1>&2;
 set -$__lmod_sh_dbg;
 fi;
 unset __lmod_sh_dbg;
 return $__lmod_my_status
}
BASH_FUNC_ml%%=() {  eval "$($LMOD_DIR/ml_cmd "$@")"
}
_=/usr/bin/env

Current SIESTA linked libraries
-------------------------------
	linux-vdso.so.1 (0x00007fff939c8000)
	libnetcdff.so.7 => /apps/USE/easybuild/release/2023.1/software/netCDF-Fortran/4.6.1-gompi-2023a/lib/libnetcdff.so.7 (0x0000147e72e7e000)
	libnetcdf.so.19 => /apps/USE/easybuild/release/2023.1/software/netCDF/4.9.2-gompi-2023a/lib/libnetcdf.so.19 (0x0000147e72ac0000)
	libdl.so.2 => /lib64/libdl.so.2 (0x0000147e728bc000)
	libgfortran.so.5 => /apps/USE/easybuild/release/2023.1/software/GCCcore/12.3.0/lib64/libgfortran.so.5 (0x0000147e725ee000)
	libm.so.6 => /lib64/libm.so.6 (0x0000147e7226c000)
	libmvec.so.1 => /lib64/libmvec.so.1 (0x0000147e72041000)
	libpthread.so.0 => /lib64/libpthread.so.0 (0x0000147e71e21000)
	libreadline.so.8 => /apps/USE/easybuild/release/2023.1/software/libreadline/8.2-GCCcore-12.3.0/lib/libreadline.so.8 (0x0000147e72e1b000)
	libelpa.so.19 => /home/users/u102010/Siesta/elpa-gpu/lib/libelpa.so.19 (0x0000147e71a7e000)
	libcusolver.so.11 => /apps/USE/easybuild/release/2023.1/software/CUDA/12.2.0/lib/libcusolver.so.11 (0x0000147e6aa77000)
	libcudart.so.12 => /apps/USE/easybuild/release/2023.1/software/CUDA/12.2.0/lib/libcudart.so.12 (0x0000147e6a7ce000)
	libcublasLt.so.12 => /apps/USE/easybuild/release/2023.1/software/CUDA/12.2.0/lib/libcublasLt.so.12 (0x0000147e48804000)
	libcublas.so.12 => /apps/USE/easybuild/release/2023.1/software/CUDA/12.2.0/lib/libcublas.so.12 (0x0000147e41f7d000)
	libscalapack.so => /apps/USE/easybuild/release/2023.1/software/ScaLAPACK/2.2.0-gompi-2023a-fb/lib/libscalapack.so (0x0000147e419ef000)
	libflexiblas.so.3 => /apps/USE/easybuild/release/2023.1/software/FlexiBLAS/3.3.1-GCC-12.3.0/lib/libflexiblas.so.3 (0x0000147e4160c000)
	libmpi_usempif08.so.40 => /apps/USE/easybuild/release/2023.1/software/OpenMPI/4.1.5-GCC-12.3.0/lib/libmpi_usempif08.so.40 (0x0000147e72de0000)
	libmpi_usempi_ignore_tkr.so.40 => /apps/USE/easybuild/release/2023.1/software/OpenMPI/4.1.5-GCC-12.3.0/lib/libmpi_usempi_ignore_tkr.so.40 (0x0000147e72dd1000)
	libmpi_mpifh.so.40 => /apps/USE/easybuild/release/2023.1/software/OpenMPI/4.1.5-GCC-12.3.0/lib/libmpi_mpifh.so.40 (0x0000147e72d65000)
	libmpi.so.40 => /apps/USE/easybuild/release/2023.1/software/OpenMPI/4.1.5-GCC-12.3.0/lib/libmpi.so.40 (0x0000147e414e1000)
	libopenblas.so.0 => /apps/USE/easybuild/release/2023.1/software/OpenBLAS/0.3.23-GCC-12.3.0/lib/libopenblas.so.0 (0x0000147e40739000)
	libgcc_s.so.1 => /apps/USE/easybuild/release/2023.1/software/GCCcore/12.3.0/lib64/libgcc_s.so.1 (0x0000147e40718000)
	libquadmath.so.0 => /apps/USE/easybuild/release/2023.1/software/GCCcore/12.3.0/lib64/libquadmath.so.0 (0x0000147e406d1000)
	libc.so.6 => /lib64/libc.so.6 (0x0000147e402fb000)
	libhdf5_hl.so.310 => /apps/USE/easybuild/release/2023.1/software/HDF5/1.14.0-gompi-2023a/lib/libhdf5_hl.so.310 (0x0000147e402d6000)
	libhdf5.so.310 => /apps/USE/easybuild/release/2023.1/software/HDF5/1.14.0-gompi-2023a/lib/libhdf5.so.310 (0x0000147e3fe87000)
	libz.so.1 => /apps/USE/easybuild/release/2023.1/software/zlib/1.2.13-GCCcore-12.3.0/lib/libz.so.1 (0x0000147e72d48000)
	libzstd.so.1 => /apps/USE/easybuild/release/2023.1/software/zstd/1.5.5-GCCcore-12.3.0/lib/libzstd.so.1 (0x0000147e3fdc4000)
	libbz2.so.1.0 => /apps/USE/easybuild/release/2023.1/software/bzip2/1.0.8-GCCcore-12.3.0/lib/libbz2.so.1.0 (0x0000147e3fdae000)
	libsz.so.2 => /apps/USE/easybuild/release/2023.1/software/Szip/2.1.1-GCCcore-12.3.0/lib/libsz.so.2 (0x0000147e3fd96000)
	libcurl.so.4 => /apps/USE/easybuild/release/2023.1/software/cURL/8.0.1-GCCcore-12.3.0/lib/libcurl.so.4 (0x0000147e3fd03000)
	libxml2.so.2 => /apps/USE/easybuild/release/2023.1/software/libxml2/2.11.4-GCCcore-12.3.0/lib/libxml2.so.2 (0x0000147e3fba2000)
	/lib64/ld-linux-x86-64.so.2 (0x0000147e72d19000)
	libncurses.so.6 => /apps/USE/easybuild/release/2023.1/software/ncurses/6.4-GCCcore-12.3.0/lib/libncurses.so.6 (0x0000147e3fb3e000)
	libstdc++.so.6 => /apps/USE/easybuild/release/2023.1/software/GCCcore/12.3.0/lib64/libstdc++.so.6 (0x0000147e3f913000)
	libopen-rte.so.40 => /apps/USE/easybuild/release/2023.1/software/OpenMPI/4.1.5-GCC-12.3.0/lib/libopen-rte.so.40 (0x0000147e3f859000)
	libopen-pal.so.40 => /apps/USE/easybuild/release/2023.1/software/OpenMPI/4.1.5-GCC-12.3.0/lib/libopen-pal.so.40 (0x0000147e3f7a7000)
	librt.so.1 => /lib64/librt.so.1 (0x0000147e3f59f000)
	libutil.so.1 => /lib64/libutil.so.1 (0x0000147e3f39b000)
	libhwloc.so.15 => /apps/USE/easybuild/release/2023.1/software/hwloc/2.9.1-GCCcore-12.3.0/lib/libhwloc.so.15 (0x0000147e3f33b000)
	libpciaccess.so.0 => /apps/USE/easybuild/release/2023.1/software/libpciaccess/0.17-GCCcore-12.3.0/lib/libpciaccess.so.0 (0x0000147e3f32f000)
	liblzma.so.5 => /apps/USE/easybuild/release/2023.1/software/XZ/5.4.2-GCCcore-12.3.0/lib/liblzma.so.5 (0x0000147e3f2ff000)
	libevent_core-2.1.so.7 => /apps/USE/easybuild/release/2023.1/software/libevent/2.1.12-GCCcore-12.3.0/lib/libevent_core-2.1.so.7 (0x0000147e3f2c9000)
	libevent_pthreads-2.1.so.7 => /apps/USE/easybuild/release/2023.1/software/libevent/2.1.12-GCCcore-12.3.0/lib/libevent_pthreads-2.1.so.7 (0x0000147e3f2c4000)
	libnvJitLink.so.12 => /apps/USE/easybuild/release/2023.1/software/CUDA/12.2.0/lib/libnvJitLink.so.12 (0x0000147e3c0b3000)
	libcusparse.so.12 => /apps/USE/easybuild/release/2023.1/software/CUDA/12.2.0/lib/libcusparse.so.12 (0x0000147e2c36c000)
	libgomp.so.1 => /apps/USE/easybuild/release/2023.1/software/GCCcore/12.3.0/lib64/libgomp.so.1 (0x0000147e2c323000)
	libssl.so.1.1 => /apps/USE/easybuild/release/2023.1/software/OpenSSL/1.1/lib/libssl.so.1.1 (0x0000147e2c08d000)
	libcrypto.so.1.1 => /apps/USE/easybuild/release/2023.1/software/OpenSSL/1.1/lib/libcrypto.so.1.1 (0x0000147e2bba2000)

SCF_NOT_CONV: SCF did not converge  in maximum number of steps.
Geom step, scf iteration, dDmax, dHmax:    0     5   1234.657410     0.006850
Job completed
