JobId=8026416 JobName=yambo
   UserId=spallanz(327001971) GroupId=pepr_spallanz(327001971) MCS_label=N/A
   Priority=490 Nice=0 Account=project_465001145 QOS=normal
   JobState=RUNNING Reason=None Dependency=(null)
   Requeue=1 Restarts=0 BatchFlag=1 Reboot=0 ExitCode=0:0
   DerivedExitCode=0:0
   RunTime=00:00:05 TimeLimit=04:00:00 TimeMin=N/A
   SubmitTime=2024-09-19T12:57:39 EligibleTime=2024-09-19T12:57:39
   AccrueTime=2024-09-19T12:57:39
   StartTime=2024-09-19T12:57:39 EndTime=2024-09-19T16:57:39 Deadline=N/A
   SuspendTime=None SecsPreSuspend=0 LastSchedEval=2024-09-19T12:57:39 Scheduler=Main
   Partition=standard-g AllocNode:Sid=ln03:174959
   ReqNodeList=(null) ExcNodeList=(null)
   NodeList=nid[005287-005296,005348-005357,005476-005485,006350-006359]
   BatchHost=nid005287
   NumNodes=40 NumCPUs=4480 NumTasks=320 CPUs/Task=1 ReqB:S:C:T=0:0:*:1
   ReqTRES=cpu=320,mem=19200G,node=40,billing=320,gres/gpu:a100=320
   AllocTRES=cpu=4480,node=40,billing=4480,gres/gpu:mi250=320
   Socks/Node=* NtasksPerN:B:S:C=8:0:*:1 CoreSpec=*
   JOB_GRES=gpu:mi250:320
     Nodes=nid[005287-005296,005348-005357,005476-005485,006350-006359] CPU_IDs=2-15,18-31,34-47,50-63,66-79,82-95,98-111,114-127 Mem=0 GRES=gpu:mi250:8(IDX:0-7)
   MinCPUsNode=8 MinMemoryCPU=0 MinTmpDiskNode=0
   Features=(null) DelayBoot=00:00:00
   OverSubscribe=NO Contiguous=0 Licenses=(null) Network=(null)
   Command=/pfs/lustrep2/scratch/project_465001145/spallanz/benchmarks/strongscaling_gpu_omp_61k/000000/000001_submit/work/submit.job
   WorkDir=/pfs/lustrep2/scratch/project_465001145/spallanz/benchmarks/strongscaling_gpu_omp_61k/000000/000001_submit/work
   StdErr=/pfs/lustrep2/scratch/project_465001145/spallanz/benchmarks/strongscaling_gpu_omp_61k/000000/000001_submit/work/slurm-8026416.out
   StdIn=/dev/null
   StdOut=/pfs/lustrep2/scratch/project_465001145/spallanz/benchmarks/strongscaling_gpu_omp_61k/000000/000001_submit/work/slurm-8026416.out
   Power=
   TresPerNode=gres:gpu:8
   

