JobID        JobIDRaw        JobName  Partition  MaxVMSize  MaxVMSizeNode  MaxVMSizeTask  AveVMSize     MaxRSS MaxRSSNode MaxRSSTask     AveRSS MaxPages MaxPagesNode   MaxPagesTask   AvePages     MinCPU MinCPUNode MinCPUTask     AveCPU   NTasks  AllocCPUS    Elapsed      State ExitCode AveCPUFreq ReqCPUFreqMin ReqCPUFreqMax ReqCPUFreqGov     ReqMem ConsumedEnergy  MaxDiskRead MaxDiskReadNode MaxDiskReadTask    AveDiskRead MaxDiskWrite MaxDiskWriteNode MaxDiskWriteTask   AveDiskWrite    ReqTRES  AllocTRES TRESUsageInAve TRESUsageInMax TRESUsageInMaxNode TRESUsageInMaxTask TRESUsageInMin TRESUsageInMinNode TRESUsageInMinTask TRESUsageInTot TRESUsageOutMax TRESUsageOutMaxNode TRESUsageOutMaxTask TRESUsageOutAve TRESUsageOutTot 
------------ ------------ ---------- ---------- ---------- -------------- -------------- ---------- ---------- ---------- ---------- ---------- -------- ------------ -------------- ---------- ---------- ---------- ---------- ---------- -------- ---------- ---------- ---------- -------- ---------- ------------- ------------- ------------- ---------- -------------- ------------ --------------- --------------- -------------- ------------ ---------------- ---------------- -------------- ---------- ---------- -------------- -------------- ------------------ ------------------ -------------- ------------------ ------------------ -------------- --------------- ------------------- ------------------- --------------- --------------- 
7208482      7208482      submit.job dcgp_usr_+                                                                                                                                                                                                            4480   09:54:53    RUNNING      0:0                  Unknown       Unknown       Unknown     19250G                                                                                                                                          billing=4+ billing=4+                                                                                                                                                                                                                                 
7208482.bat+ 7208482.bat+      batch                                                                                                                                                                                                               1        112   09:54:53    RUNNING      0:0          0             0             0             0                         0                                                                                                                                      cpu=112,g+                                                                                                                                                                                                                                 
7208482.ext+ 7208482.ext+     extern                                                                                                                                                                                                              40       4480   09:54:53    RUNNING      0:0          0             0             0             0                         0                                                                                                                                      billing=4+                                                                                                                                                                                                                                 
7208482.0    7208482.0    hydra_bst+             52713440K       lrdn3533              0   3294590K  38730424K   lrdn3533          0 2420651.5+     3797     lrdn3533              0        237 22-00:40:+   lrdn4922         15 25-02:01:+       16       1792   09:54:48  COMPLETED      0:0         9K       Unknown       Unknown       Unknown                         0        0.48M        lrdn3668               2          0.48M        0.34M         lrdn4035                5          0.27M            cpu=1792,+ cpu=25-02:01:+ cpu=32-03:58:+ cpu=lrdn3533,ener+ cpu=0,fs/disk=2,m+ cpu=22-00:40:+ cpu=lrdn4922,ener+ cpu=15,fs/disk=10+ cpu=401-08:31+ energy=0,fs/di+ energy=lrdn4528,fs+           fs/disk=5 energy=0,fs/di+ energy=0,fs/di+ 
7208482.1    7208482.1    hydra_bst+             44488952K       lrdn4419              0  44488952K  31868036K   lrdn4419          0  31868036K     3596     lrdn4419              0       3596 24-08:30:+   lrdn4419          0 24-08:30:+        1        112   09:54:47  COMPLETED      0:0          0       Unknown       Unknown       Unknown                         0        0.47M        lrdn4419               0          0.47M        0.08M         lrdn4419                0          0.08M            cpu=112,g+ cpu=24-08:30:+ cpu=24-08:30:+ cpu=lrdn4419,ener+ cpu=0,fs/disk=0,m+ cpu=24-08:30:+ cpu=lrdn4419,ener+ cpu=0,fs/disk=0,m+ cpu=24-08:30:+ energy=0,fs/di+ energy=lrdn4419,fs+           fs/disk=0 energy=0,fs/di+ energy=0,fs/di+ 
7208482.2    7208482.2    hydra_bst+             53729580K       lrdn3964              0  26864790K  38413704K   lrdn3964          0  19206852K     3601     lrdn3964              0       1800 24-16:03:+   lrdn3964          0 24-20:12:+        2        224   09:54:47  COMPLETED      0:0          0       Unknown       Unknown       Unknown                         0        0.47M        lrdn3994               1          0.47M        0.08M         lrdn3994                1          0.08M            cpu=224,g+ cpu=24-20:12:+ cpu=25-00:21:+ cpu=lrdn3994,ener+ cpu=1,fs/disk=1,m+ cpu=24-16:03:+ cpu=lrdn3964,ener+ cpu=0,fs/disk=0,m+ cpu=49-16:24:+ energy=0,fs/di+ energy=lrdn3994,fs+           fs/disk=1 energy=0,fs/di+ energy=0,fs/di+ 
7208482.3    7208482.3    hydra_bst+             44508216K       lrdn4516              0  44508216K  31856580K   lrdn4516          0  31856580K     3563     lrdn4516              0       3563 25-14:20:+   lrdn4516          0 25-14:20:+        1        112   09:54:47  COMPLETED      0:0         1K       Unknown       Unknown       Unknown                         0        0.47M        lrdn4516               0          0.47M        0.08M         lrdn4516                0          0.08M            cpu=112,g+ cpu=25-14:20:+ cpu=25-14:20:+ cpu=lrdn4516,ener+ cpu=0,fs/disk=0,m+ cpu=25-14:20:+ cpu=lrdn4516,ener+ cpu=0,fs/disk=0,m+ cpu=25-14:20:+ energy=0,fs/di+ energy=lrdn4516,fs+           fs/disk=0 energy=0,fs/di+ energy=0,fs/di+ 
7208482.4    7208482.4    hydra_bst+             53673732K       lrdn3535              0  26836866K  38458756K   lrdn3535          0  19229378K     3638     lrdn3535              0       1819 27-16:09:+   lrdn3575          1 28-13:32:+        2        224   09:54:47  COMPLETED      0:0          0       Unknown       Unknown       Unknown                         0        0.47M        lrdn3535               0          0.47M        0.08M         lrdn3535                0          0.08M            cpu=224,g+ cpu=28-13:32:+ cpu=29-10:56:+ cpu=lrdn3535,ener+ cpu=0,fs/disk=0,m+ cpu=27-16:09:+ cpu=lrdn3575,ener+ cpu=1,fs/disk=1,m+ cpu=57-03:05:+ energy=0,fs/di+ energy=lrdn3535,fs+           fs/disk=0 energy=0,fs/di+ energy=0,fs/di+ 
7208482.5    7208482.5    hydra_bst+             45047004K       lrdn4974              0  45047004K  32512900K   lrdn4974          0  32512900K     3657     lrdn4974              0       3657 22-08:32:+   lrdn4974          0 22-08:32:+        1        112   09:54:47  COMPLETED      0:0          0       Unknown       Unknown       Unknown                         0        0.47M        lrdn4974               0          0.47M        0.08M         lrdn4974                0          0.08M            cpu=112,g+ cpu=22-08:32:+ cpu=22-08:32:+ cpu=lrdn4974,ener+ cpu=0,fs/disk=0,m+ cpu=22-08:32:+ cpu=lrdn4974,ener+ cpu=0,fs/disk=0,m+ cpu=22-08:32:+ energy=0,fs/di+ energy=lrdn4974,fs+           fs/disk=0 energy=0,fs/di+ energy=0,fs/di+ 
7208482.6    7208482.6    hydra_bst+             39281144K       lrdn3727              0  19640572K  27384520K   lrdn3727          0  13692260K     3645     lrdn3727              0       1822 25-14:29:+   lrdn3772          1 25-15:57:+        2        224   09:54:47  COMPLETED      0:0          0       Unknown       Unknown       Unknown                         0        0.47M        lrdn3727               0          0.47M        0.08M         lrdn3727                0          0.08M            cpu=224,g+ cpu=25-15:57:+ cpu=25-17:25:+ cpu=lrdn3727,ener+ cpu=0,fs/disk=0,m+ cpu=25-14:29:+ cpu=lrdn3772,ener+ cpu=1,fs/disk=0,m+ cpu=51-07:54:+ energy=0,fs/di+ energy=lrdn3727,fs+           fs/disk=0 energy=0,fs/di+ energy=0,fs/di+ 
7208482.7    7208482.7    hydra_bst+             29973660K       lrdn4587              0  29973660K  21050388K   lrdn4587          0  21050388K     3604     lrdn4587              0       3604 25-11:55:+   lrdn4587          0 25-11:55:+        1        112   09:54:47  COMPLETED      0:0          0       Unknown       Unknown       Unknown                         0        0.47M        lrdn4587               0          0.47M        0.08M         lrdn4587                0          0.08M            cpu=112,g+ cpu=25-11:55:+ cpu=25-11:55:+ cpu=lrdn4587,ener+ cpu=0,fs/disk=0,m+ cpu=25-11:55:+ cpu=lrdn4587,ener+ cpu=0,fs/disk=0,m+ cpu=25-11:55:+ energy=0,fs/di+ energy=lrdn4587,fs+           fs/disk=0 energy=0,fs/di+ energy=0,fs/di+ 
7208482.8    7208482.8    hydra_bst+             38450836K       lrdn3631              0  19225418K  27409656K   lrdn3631          0  13704828K     3617     lrdn3631              0       1808 25-00:23:+   lrdn3639          1 25-14:34:+        2        224   09:54:47  COMPLETED      0:0          0       Unknown       Unknown       Unknown                         0        0.47M        lrdn3639               1          0.47M        0.08M         lrdn3639                1          0.08M            cpu=224,g+ cpu=25-14:34:+ cpu=26-04:44:+ cpu=lrdn3631,ener+ cpu=0,fs/disk=1,m+ cpu=25-00:23:+ cpu=lrdn3639,ener+ cpu=1,fs/disk=0,m+ cpu=51-05:08:+ energy=0,fs/di+ energy=lrdn3639,fs+           fs/disk=1 energy=0,fs/di+ energy=0,fs/di+ 
7208482.9    7208482.9    hydra_bst+             45108004K       lrdn4891              0  45108004K  32696728K   lrdn4891          0  32696728K     3580     lrdn4891              0       3580 22-07:09:+   lrdn4891          0 22-07:09:+        1        112   09:54:47  COMPLETED      0:0          0       Unknown       Unknown       Unknown                         0        0.47M        lrdn4891               0          0.47M        0.08M         lrdn4891                0          0.08M            cpu=112,g+ cpu=22-07:09:+ cpu=22-07:09:+ cpu=lrdn4891,ener+ cpu=0,fs/disk=0,m+ cpu=22-07:09:+ cpu=lrdn4891,ener+ cpu=0,fs/disk=0,m+ cpu=22-07:09:+ energy=0,fs/di+ energy=lrdn4891,fs+           fs/disk=0 energy=0,fs/di+ energy=0,fs/di+ 
7208482.10   7208482.10   hydra_bst+             45127632K       lrdn4822              0  45127632K  32948236K   lrdn4822          0  32948236K     3576     lrdn4822              0       3576 23-08:58:+   lrdn4822          0 23-08:58:+        1        112   09:54:47  COMPLETED      0:0         1K       Unknown       Unknown       Unknown                         0        0.47M        lrdn4822               0          0.47M        0.08M         lrdn4822                0          0.08M            cpu=112,g+ cpu=23-08:58:+ cpu=23-08:58:+ cpu=lrdn4822,ener+ cpu=0,fs/disk=0,m+ cpu=23-08:58:+ cpu=lrdn4822,ener+ cpu=0,fs/disk=0,m+ cpu=23-08:58:+ energy=0,fs/di+ energy=lrdn4822,fs+           fs/disk=0 energy=0,fs/di+ energy=0,fs/di+ 
7208482.11   7208482.11   hydra_bst+             38453188K       lrdn3838              0  19226594K  27404856K   lrdn3838          0  13702428K     3630     lrdn3838              0       1815 23-02:46:+   lrdn3888          1 23-18:16:+        2        224   09:54:47  COMPLETED      0:0         1K       Unknown       Unknown       Unknown                         0        0.47M        lrdn3838               0          0.47M        0.08M         lrdn3888                1          0.08M            cpu=224,g+ cpu=23-18:16:+ cpu=24-09:45:+ cpu=lrdn3838,ener+ cpu=0,fs/disk=0,m+ cpu=23-02:46:+ cpu=lrdn3888,ener+ cpu=1,fs/disk=1,m+ cpu=47-12:32:+ energy=0,fs/di+ energy=lrdn3888,fs+           fs/disk=1 energy=0,fs/di+ energy=0,fs/di+ 
7208482.12   7208482.12   hydra_bst+             52523052K       lrdn4062              0  26261526K  38496744K   lrdn4062          0  19248372K     3611     lrdn4062              0       1805 25-23:57:+   lrdn4062          0 26-03:00:+        2        224   09:54:47  COMPLETED      0:0          0       Unknown       Unknown       Unknown                         0        0.47M        lrdn4062               0          0.47M        0.08M         lrdn4062                0          0.08M            cpu=224,g+ cpu=26-03:00:+ cpu=26-06:04:+ cpu=lrdn4109,ener+ cpu=1,fs/disk=0,m+ cpu=25-23:57:+ cpu=lrdn4062,ener+ cpu=0,fs/disk=1,m+ cpu=52-06:01:+ energy=0,fs/di+ energy=lrdn4062,fs+           fs/disk=0 energy=0,fs/di+ energy=0,fs/di+ 
7208482.13   7208482.13   hydra_bst+             29937724K       lrdn4300              0  14968862K  21390792K   lrdn4300          0  10695396K     3575     lrdn4300              0       1787 22-16:56:+   lrdn4300          0 22-18:01:+        2        224   09:54:47  COMPLETED      0:0         1K       Unknown       Unknown       Unknown                         0        0.47M        lrdn4300               0          0.47M        0.08M         lrdn4354                1          0.08M            cpu=224,g+ cpu=22-18:01:+ cpu=22-19:06:+ cpu=lrdn4354,ener+ cpu=1,fs/disk=0,m+ cpu=22-16:56:+ cpu=lrdn4300,ener+ cpu=0,fs/disk=1,m+ cpu=45-12:03:+ energy=0,fs/di+ energy=lrdn4354,fs+           fs/disk=1 energy=0,fs/di+ energy=0,fs/di+ 
7208482.14   7208482.14   hydra_bst+             44460340K       lrdn4656              0  44460340K  31831436K   lrdn4656          0  31831436K     3555     lrdn4656              0       3555 24-10:49:+   lrdn4656          0 24-10:49:+        1        112   09:54:47  COMPLETED      0:0          0       Unknown       Unknown       Unknown                         0        0.47M        lrdn4656               0          0.47M        0.08M         lrdn4656                0          0.08M            cpu=112,g+ cpu=24-10:49:+ cpu=24-10:49:+ cpu=lrdn4656,ener+ cpu=0,fs/disk=0,m+ cpu=24-10:49:+ cpu=lrdn4656,ener+ cpu=0,fs/disk=0,m+ cpu=24-10:49:+ energy=0,fs/di+ energy=lrdn4656,fs+           fs/disk=0 energy=0,fs/di+ energy=0,fs/di+ 
7208482.15   7208482.15   hydra_bst+             45011604K       lrdn4741              0  45011604K  32830924K   lrdn4741          0  32830924K     3611     lrdn4741              0       3611 24-12:01:+   lrdn4741          0 24-12:01:+        1        112   09:54:47  COMPLETED      0:0         1K       Unknown       Unknown       Unknown                         0        0.47M        lrdn4741               0          0.47M        0.08M         lrdn4741                0          0.08M            cpu=112,g+ cpu=24-12:01:+ cpu=24-12:01:+ cpu=lrdn4741,ener+ cpu=0,fs/disk=0,m+ cpu=24-12:01:+ cpu=lrdn4741,ener+ cpu=0,fs/disk=0,m+ cpu=24-12:01:+ energy=0,fs/di+ energy=lrdn4741,fs+           fs/disk=0 energy=0,fs/di+ energy=0,fs/di+ 
7208482.16   7208482.16   hydra_bst+             53379992K       lrdn4205              0  26689996K  38586116K   lrdn4205          0  19293058K     3616     lrdn4205              0       1808 24-14:10:+   lrdn4241          1 24-21:19:+        2        224   09:54:47  COMPLETED      0:0         1K       Unknown       Unknown       Unknown                         0        0.47M        lrdn4241               1          0.47M        0.08M         lrdn4205                0          0.08M            cpu=224,g+ cpu=24-21:19:+ cpu=25-04:27:+ cpu=lrdn4205,ener+ cpu=0,fs/disk=1,m+ cpu=24-14:10:+ cpu=lrdn4241,ener+ cpu=1,fs/disk=0,m+ cpu=49-18:38:+ energy=0,fs/di+ energy=lrdn4205,fs+           fs/disk=0 energy=0,fs/di+ energy=0,fs/di+ 
