{
 "global_section": { "_calls": 1, "_time":      657.264, "_%":   100.00,
   "siesta": { "_calls": 1, "_time":      657.264, "_%":   100.00,
     "Setup": { "_calls": 1, "_time":        1.210, "_%":     0.18,
       "bands": { "_calls": 1, "_time":        0.002, "_%":     0.00},
       "KSV_init": { "_calls": 1, "_time":        0.001, "_%":     0.00}
     },
     "IterGeom": { "_calls": 1, "_time":      655.828, "_%":    99.78,
       "geom_init": { "_calls": 1, "_time":       11.356, "_%":     1.73,
         "state_init": { "_calls": 1, "_time":        0.392, "_%":     0.06,
           "hsparse": { "_calls": 1, "_time":        0.132, "_%":     0.02},
           "overlap": { "_calls": 1, "_time":        0.065, "_%":     0.01}
         },
         "Setup_H0": { "_calls": 1, "_time":       10.963, "_%":     1.67,
           "naefs": { "_calls": 1, "_time":        0.024, "_%":     0.00},
           "MolMec": { "_calls": 1, "_time":        0.000, "_%":     0.00},
           "kinefsm": { "_calls": 1, "_time":        0.062, "_%":     0.01},
           "nlefsm": { "_calls": 1, "_time":        0.325, "_%":     0.05},
           "DHSCF_Init": { "_calls": 1, "_time":       10.538, "_%":     1.60,
             "DHSCF1": { "_calls": 1, "_time":        0.078, "_%":     0.01,
               "INITMESH": { "_calls": 1, "_time":        0.000, "_%":     0.00}
             },
             "DHSCF2": { "_calls": 1, "_time":       10.438, "_%":     1.59,
               "REMESH": { "_calls": 1, "_time":        0.104, "_%":     0.02,
                 "INITMESH": { "_calls": 2, "_time":        0.083, "_%":     0.01,
                   "SPLOAD": { "_calls": 2, "_time":        0.074, "_%":     0.01}
                 }
               },
               "REORD": { "_calls": 2, "_time":        0.032, "_%":     0.00},
               "PHION": { "_calls": 1, "_time":        0.333, "_%":     0.05},
               "COMM_BSC": { "_calls": 1, "_time":        0.252, "_%":     0.04},
               "POISON": { "_calls": 1, "_time":        8.926, "_%":     1.36,
                 "fft": { "_calls": 2, "_time":        8.580, "_%":     1.31}
               }
             }
           }
         }
       },
       "IterSCF": { "_calls": 5, "_time":      644.411, "_%":    98.04,
         "setup_H": { "_calls": 5, "_time":       71.079, "_%":    10.81,
           "DHSCF": { "_calls": 5, "_time":       70.540, "_%":    10.73,
             "DHSCF3": { "_calls": 5, "_time":       70.540, "_%":    10.73,
               "rhoofd": { "_calls": 5, "_time":        0.505, "_%":     0.08},
               "COMM_BSC": { "_calls": 10, "_time":        2.628, "_%":     0.40},
               "POISON": { "_calls": 5, "_time":       44.585, "_%":     6.78,
                 "fft": { "_calls": 10, "_time":       42.775, "_%":     6.51}
               },
               "XC": { "_calls": 5, "_time":       18.863, "_%":     2.87,
                 "COMM_BSC": { "_calls": 10, "_time":        2.339, "_%":     0.36},
                 "GXC-CellXC": { "_calls": 5, "_time":       15.766, "_%":     2.40,
                   "gridxc@cellXC": { "_calls": 5, "_time":       15.762, "_%":     2.40}
                 }
               },
               "vmat": { "_calls": 5, "_time":        0.155, "_%":     0.02}
             }
           }
         },
         "compute_dm": { "_calls": 5, "_time":      573.018, "_%":    87.18,
           "diagon": { "_calls": 5, "_time":      571.899, "_%":    87.01,
             "r-eigvec": { "_calls": 5, "_time":      537.767, "_%":    81.82,
               "r-buildHS": { "_calls": 5, "_time":        0.267, "_%":     0.04},
               "rdiag": { "_calls": 5, "_time":      537.499, "_%":    81.78,
                 "rdiag1": { "_calls": 5, "_time":       13.896, "_%":     2.11},
                 "rdiag2": { "_calls": 5, "_time":       39.354, "_%":     5.99},
                 "rdiag3": { "_calls": 5, "_time":      437.690, "_%":    66.59},
                 "rdiag4": { "_calls": 5, "_time":       44.450, "_%":     6.76}
               }
             },
             "r-buildD": { "_calls": 5, "_time":       33.517, "_%":     5.10}
           }
         },
         "MIXER": { "_calls": 5, "_time":        0.189, "_%":     0.03}
       },
       "state_analysis": { "_calls": 1, "_time":        0.053, "_%":     0.01},
       "siesta_move": { "_calls": 1, "_time":        0.000, "_%":     0.00}
     },
     "Analysis": { "_calls": 1, "_time":        0.160, "_%":     0.02,
       "optical": { "_calls": 1, "_time":        0.001, "_%":     0.00}
     }
   }
 }}
