{
 "global_section": { "_calls": 1, "_time":      874.448, "_%":   100.00,
   "siesta": { "_calls": 1, "_time":      874.448, "_%":   100.00,
     "Setup": { "_calls": 1, "_time":        0.803, "_%":     0.09,
       "bands": { "_calls": 1, "_time":        0.002, "_%":     0.00},
       "KSV_init": { "_calls": 1, "_time":        0.000, "_%":     0.00}
     },
     "IterGeom": { "_calls": 1, "_time":      873.550, "_%":    99.90,
       "geom_init": { "_calls": 1, "_time":       13.123, "_%":     1.50,
         "state_init": { "_calls": 1, "_time":        1.558, "_%":     0.18,
           "hsparse": { "_calls": 1, "_time":        0.120, "_%":     0.01},
           "overlap": { "_calls": 1, "_time":        0.035, "_%":     0.00}
         },
         "Setup_H0": { "_calls": 1, "_time":       11.564, "_%":     1.32,
           "naefs": { "_calls": 1, "_time":        0.017, "_%":     0.00},
           "MolMec": { "_calls": 1, "_time":        0.000, "_%":     0.00},
           "kinefsm": { "_calls": 1, "_time":        0.033, "_%":     0.00},
           "nlefsm": { "_calls": 1, "_time":        0.173, "_%":     0.02},
           "DHSCF_Init": { "_calls": 1, "_time":       11.330, "_%":     1.30,
             "DHSCF1": { "_calls": 1, "_time":        0.026, "_%":     0.00,
               "INITMESH": { "_calls": 1, "_time":        0.000, "_%":     0.00}
             },
             "DHSCF2": { "_calls": 1, "_time":       11.288, "_%":     1.29,
               "REMESH": { "_calls": 1, "_time":        8.804, "_%":     1.01,
                 "INITMESH": { "_calls": 2, "_time":        8.274, "_%":     0.95,
                   "SPLOAD": { "_calls": 2, "_time":        2.841, "_%":     0.32}
                 }
               },
               "REORD": { "_calls": 2, "_time":        0.001, "_%":     0.00},
               "PHION": { "_calls": 1, "_time":        0.013, "_%":     0.00},
               "COMM_BSC": { "_calls": 1, "_time":        0.049, "_%":     0.01},
               "POISON": { "_calls": 1, "_time":        0.348, "_%":     0.04,
                 "fft": { "_calls": 2, "_time":        0.342, "_%":     0.04}
               }
             }
           }
         }
       },
       "IterSCF": { "_calls": 5, "_time":      860.243, "_%":    98.38,
         "setup_H": { "_calls": 5, "_time":        1.546, "_%":     0.18,
           "DHSCF": { "_calls": 5, "_time":        1.536, "_%":     0.18,
             "DHSCF3": { "_calls": 5, "_time":        1.536, "_%":     0.18,
               "rhoofd": { "_calls": 5, "_time":        0.023, "_%":     0.00},
               "COMM_BSC": { "_calls": 10, "_time":        0.086, "_%":     0.01},
               "POISON": { "_calls": 5, "_time":        0.574, "_%":     0.07,
                 "fft": { "_calls": 10, "_time":        0.534, "_%":     0.06}
               },
               "XC": { "_calls": 5, "_time":        0.732, "_%":     0.08,
                 "COMM_BSC": { "_calls": 10, "_time":        0.128, "_%":     0.01},
                 "GXC-CellXC": { "_calls": 5, "_time":        0.597, "_%":     0.07,
                   "gridxc@cellXC": { "_calls": 5, "_time":        0.597, "_%":     0.07}
                 }
               },
               "vmat": { "_calls": 5, "_time":        0.028, "_%":     0.00}
             }
           }
         },
         "compute_dm": { "_calls": 5, "_time":      858.660, "_%":    98.19,
           "redist_orbs_fwd": { "_calls": 160, "_time":       90.190, "_%":    10.31},
           "elsi-complex-solver": { "_calls": 5, "_time":      767.271, "_%":    87.74,
             "elsi-solver": { "_calls": 5, "_time":      767.174, "_%":    87.73}
           },
           "redist_dm-edm_bck": { "_calls": 5, "_time":        1.151, "_%":     0.13}
         },
         "MIXER": { "_calls": 5, "_time":        0.010, "_%":     0.00}
       },
       "state_analysis": { "_calls": 1, "_time":        0.034, "_%":     0.00},
       "siesta_move": { "_calls": 1, "_time":        0.000, "_%":     0.00}
     },
     "Analysis": { "_calls": 1, "_time":        0.090, "_%":     0.01,
       "optical": { "_calls": 1, "_time":        0.001, "_%":     0.00}
     }
   }
 }}
