JobId=151852 JobName=CovidWeak
   UserId=aalcaraz(30093) GroupId=aalcaraz(40093) MCS_label=N/A
   Priority=1 Nice=0 Account=eehpc-ben-2024b07-051x QOS=normal
   JobState=RUNNING Reason=None Dependency=(null)
   Requeue=1 Restarts=0 BatchFlag=1 Reboot=0 ExitCode=0:0
   DerivedExitCode=0:0
   RunTime=00:00:02 TimeLimit=00:59:00 TimeMin=N/A
   SubmitTime=2024-10-02T12:09:00 EligibleTime=2024-10-02T12:09:00
   AccrueTime=2024-10-02T12:09:00
   StartTime=2024-10-02T12:19:49 EndTime=2024-10-02T13:18:49 Deadline=N/A
   SuspendTime=None SecsPreSuspend=0 LastSchedEval=2024-10-02T12:19:49 Scheduler=Backfill
   Partition=normal-x86 AllocNode:Sid=ln04-x86:1974837
   ReqNodeList=(null) ExcNodeList=(null)
   NodeList=cnx[180,199,215,295,311,313,342-343]
   BatchHost=cnx180
   NumNodes=8 NumCPUs=1024 NumTasks=1024 CPUs/Task=1 ReqB:S:C:T=0:0:*:1
   ReqTRES=cpu=1024,mem=1936G,node=8,billing=1024
   AllocTRES=cpu=1024,mem=1936G,node=8,billing=1024
   Socks/Node=* NtasksPerN:B:S:C=128:0:*:* CoreSpec=*
   JOB_GRES=(null)
     Nodes=cnx[180,199,215,295,311,313,342-343] CPU_IDs=0-127 Mem=247808 GRES=
   MinCPUsNode=128 MinMemoryNode=0 MinTmpDiskNode=0
   Features=(null) DelayBoot=00:00:00
   OverSubscribe=NO Contiguous=0 Licenses=(null) Network=(null)
   Command=/projects/EEHPC-BEN-2024B07-051/JUBE4MaX/max-inputs/interface/siesta/_CovidWeak/000000/000003_submit/work/submit.job
   WorkDir=/projects/EEHPC-BEN-2024B07-051/JUBE4MaX/max-inputs/interface/siesta/_CovidWeak/000000/000003_submit/work
   StdErr=/projects/EEHPC-BEN-2024B07-051/JUBE4MaX/max-inputs/interface/siesta/_CovidWeak/000000/000003_submit/work/slurm-151852.out
   StdIn=/dev/null
   StdOut=/projects/EEHPC-BEN-2024B07-051/JUBE4MaX/max-inputs/interface/siesta/_CovidWeak/000000/000003_submit/work/slurm-151852.out
   Power=
   TresPerTask=cpu:1
   

