{
 "global_section": { "_calls": 1, "_time":     1947.318, "_%":   100.00,
   "siesta": { "_calls": 1, "_time":     1947.318, "_%":   100.00,
     "Setup": { "_calls": 1, "_time":        1.774, "_%":     0.09,
       "bands": { "_calls": 1, "_time":        0.003, "_%":     0.00},
       "KSV_init": { "_calls": 1, "_time":        0.001, "_%":     0.00}
     },
     "IterGeom": { "_calls": 1, "_time":     1945.129, "_%":    99.89,
       "geom_init": { "_calls": 1, "_time":        7.387, "_%":     0.38,
         "state_init": { "_calls": 1, "_time":        0.706, "_%":     0.04,
           "hsparse": { "_calls": 1, "_time":        0.257, "_%":     0.01},
           "overlap": { "_calls": 1, "_time":        0.059, "_%":     0.00}
         },
         "Setup_H0": { "_calls": 1, "_time":        6.680, "_%":     0.34,
           "naefs": { "_calls": 1, "_time":        0.042, "_%":     0.00},
           "MolMec": { "_calls": 1, "_time":        0.000, "_%":     0.00},
           "kinefsm": { "_calls": 1, "_time":        0.056, "_%":     0.00},
           "nlefsm": { "_calls": 1, "_time":        0.153, "_%":     0.01},
           "DHSCF_Init": { "_calls": 1, "_time":        6.400, "_%":     0.33,
             "DHSCF1": { "_calls": 1, "_time":        0.080, "_%":     0.00,
               "INITMESH": { "_calls": 1, "_time":        0.000, "_%":     0.00}
             },
             "DHSCF2": { "_calls": 1, "_time":        6.284, "_%":     0.32,
               "REMESH": { "_calls": 1, "_time":        2.452, "_%":     0.13,
                 "INITMESH": { "_calls": 2, "_time":        2.328, "_%":     0.12,
                   "SPLOAD": { "_calls": 2, "_time":        0.349, "_%":     0.02}
                 }
               },
               "REORD": { "_calls": 2, "_time":        0.018, "_%":     0.00},
               "PHION": { "_calls": 1, "_time":        0.077, "_%":     0.00},
               "COMM_BSC": { "_calls": 1, "_time":        0.230, "_%":     0.01},
               "POISON": { "_calls": 1, "_time":        2.822, "_%":     0.14,
                 "fft": { "_calls": 2, "_time":        2.737, "_%":     0.14}
               }
             }
           }
         }
       },
       "IterSCF": { "_calls": 5, "_time":     1937.602, "_%":    99.50,
         "setup_H": { "_calls": 5, "_time":       21.057, "_%":     1.08,
           "DHSCF": { "_calls": 5, "_time":       21.050, "_%":     1.08,
             "DHSCF3": { "_calls": 5, "_time":       21.050, "_%":     1.08,
               "rhoofd": { "_calls": 5, "_time":        0.115, "_%":     0.01},
               "COMM_BSC": { "_calls": 10, "_time":        1.101, "_%":     0.06},
               "POISON": { "_calls": 5, "_time":       13.506, "_%":     0.69,
                 "fft": { "_calls": 10, "_time":       13.046, "_%":     0.67}
               },
               "XC": { "_calls": 5, "_time":        5.367, "_%":     0.28,
                 "COMM_BSC": { "_calls": 10, "_time":        0.802, "_%":     0.04},
                 "GXC-CellXC": { "_calls": 5, "_time":        4.453, "_%":     0.23,
                   "gridxc@cellXC": { "_calls": 5, "_time":        4.453, "_%":     0.23}
                 }
               },
               "vmat": { "_calls": 5, "_time":        0.192, "_%":     0.01}
             }
           }
         },
         "compute_dm": { "_calls": 5, "_time":     1916.472, "_%":    98.42,
           "diagon": { "_calls": 5, "_time":     1916.301, "_%":    98.41,
             "r-eigvec": { "_calls": 5, "_time":      793.147, "_%":    40.73,
               "r-buildHS": { "_calls": 5, "_time":        0.245, "_%":     0.01},
               "rdiag": { "_calls": 5, "_time":      792.902, "_%":    40.72,
                 "rdiag1": { "_calls": 5, "_time":       24.691, "_%":     1.27},
                 "rdiag2": { "_calls": 5, "_time":       75.607, "_%":     3.88},
                 "rdiag3": { "_calls": 5, "_time":      629.090, "_%":    32.31},
                 "rdiag4": { "_calls": 5, "_time":       61.083, "_%":     3.14}
               }
             },
             "r-buildD": { "_calls": 5, "_time":     1122.647, "_%":    57.65}
           }
         },
         "MIXER": { "_calls": 5, "_time":        0.025, "_%":     0.00}
       },
       "state_analysis": { "_calls": 1, "_time":        0.126, "_%":     0.01},
       "siesta_move": { "_calls": 1, "_time":        0.000, "_%":     0.00}
     },
     "Analysis": { "_calls": 1, "_time":        0.368, "_%":     0.02,
       "optical": { "_calls": 1, "_time":        0.001, "_%":     0.00}
     }
   }
 }}
