JobId=7777021 JobName=submit.job
   UserId=fpedron0(126159) GroupId=interactive(25200) MCS_label=N/A
   Priority=145260 Nice=0 Account=max3_devel2 QOS=normal
   JobState=RUNNING Reason=None Dependency=(null)
   Requeue=0 Restarts=0 BatchFlag=1 Reboot=0 ExitCode=0:0
   DerivedExitCode=0:0
   RunTime=00:00:03 TimeLimit=01:00:00 TimeMin=N/A
   SubmitTime=2024-09-19T18:41:00 EligibleTime=2024-09-19T18:41:00
   AccrueTime=2024-09-19T18:41:00
   StartTime=2024-09-19T18:41:02 EndTime=2024-09-19T19:41:02 Deadline=N/A
   SuspendTime=None SecsPreSuspend=0 LastSchedEval=2024-09-19T18:41:02 Scheduler=Main
   Partition=dcgp_usr_prod AllocNode:Sid=slurm-controller:2925762
   ReqNodeList=(null) ExcNodeList=(null)
   NodeList=lrdn[4475,4478,4480-4481]
   BatchHost=lrdn4475
   NumNodes=4 NumCPUs=448 NumTasks=448 CPUs/Task=1 ReqB:S:C:T=0:0:*:*
   TRES=cpu=448,mem=1925G,node=4,billing=448,gres/tmpfs=13194139533312
   Socks/Node=* NtasksPerN:B:S:C=112:0:*:* CoreSpec=*
   JOB_GRES=tmpfs:13194139533312
     Nodes=lrdn[4475,4478,4480-4481] CPU_IDs=0-111 Mem=492800 GRES=tmpfs(CNT:3298534883328)
   MinCPUsNode=112 MinMemoryCPU=4400M MinTmpDiskNode=0
   Features=(null) DelayBoot=00:00:00
   OverSubscribe=NO Contiguous=0 Licenses=(null) Network=(null)
   Command=/leonardo/home/userexternal/fpedron0/JUBE4MaX/max-inputs/interface/siesta/_CovidWeak/000000/000010_submit/work/submit.job
   WorkDir=/leonardo/home/userexternal/fpedron0/JUBE4MaX/max-inputs/interface/siesta/_CovidWeak/000000/000010_submit/work
   StdErr=/leonardo/home/userexternal/fpedron0/JUBE4MaX/max-inputs/interface/siesta/_CovidWeak/000000/000010_submit/work/slurm-7777021.out
   StdIn=/dev/null
   StdOut=/leonardo/home/userexternal/fpedron0/JUBE4MaX/max-inputs/interface/siesta/_CovidWeak/000000/000010_submit/work/slurm-7777021.out
   Power=
   TresPerNode=gres:tmpfs:10g
   

