JobID        JobIDRaw        JobName  Partition  MaxVMSize  MaxVMSizeNode  MaxVMSizeTask  AveVMSize     MaxRSS MaxRSSNode MaxRSSTask     AveRSS MaxPages MaxPagesNode   MaxPagesTask   AvePages     MinCPU MinCPUNode MinCPUTask     AveCPU   NTasks  AllocCPUS    Elapsed      State ExitCode AveCPUFreq ReqCPUFreqMin ReqCPUFreqMax ReqCPUFreqGov     ReqMem ConsumedEnergy  MaxDiskRead MaxDiskReadNode MaxDiskReadTask    AveDiskRead MaxDiskWrite MaxDiskWriteNode MaxDiskWriteTask   AveDiskWrite    ReqTRES  AllocTRES TRESUsageInAve TRESUsageInMax TRESUsageInMaxNode TRESUsageInMaxTask TRESUsageInMin TRESUsageInMinNode TRESUsageInMinTask TRESUsageInTot TRESUsageOutMax TRESUsageOutMaxNode TRESUsageOutMaxTask TRESUsageOutAve TRESUsageOutTot 
------------ ------------ ---------- ---------- ---------- -------------- -------------- ---------- ---------- ---------- ---------- ---------- -------- ------------ -------------- ---------- ---------- ---------- ---------- ---------- -------- ---------- ---------- ---------- -------- ---------- ------------- ------------- ------------- ---------- -------------- ------------ --------------- --------------- -------------- ------------ ---------------- ---------------- -------------- ---------- ---------- -------------- -------------- ------------------ ------------------ -------------- ------------------ ------------------ -------------- --------------- ------------------- ------------------- --------------- --------------- 
9595950      9595950       CovidWeak        gpp                                                                                                                                                                                                            7168   00:02:55    RUNNING      0:0                  Unknown       Unknown       Unknown      7000G                                                                                                                                          billing=3+ billing=7+                                                                                                                                                                                                                                 
9595950.bat+ 9595950.bat+      batch                                                                                                                                                                                                               1        224   00:02:55    RUNNING      0:0          0             0             0             0                         0                                                                                                                                      cpu=224,m+                                                                                                                                                                                                                                 
9595950.ext+ 9595950.ext+     extern                                                                                                                                                                                                              32       7168   00:02:55    RUNNING      0:0          0             0             0             0                         0                                                                                                                                      billing=7+                                                                                                                                                                                                                                 
9595950.0    9595950.0        siesta              5386128K      gs07r3b01              0 5230360238    369045K  gs07r3b01          0  253609482       41    gs07r3b53           3134          2   00:00:24  gs07r3b22       1302   00:01:13     3584       7168   00:02:47  COMPLETED      0:0     13.53G       Unknown       Unknown       Unknown                     3.19M       17.89M       gs07r3b01               0         14.42M       30.38M        gs07r3b01                0          4.52M            cpu=7168,+ cpu=00:01:13,+ cpu=00:02:28,+ cpu=gs07r3b01,ene+ cpu=0,fs/disk=0,m+ cpu=00:00:24,+ cpu=gs07r3b22,ene+ cpu=1302,fs/disk=+ cpu=3-01:40:1+ energy=938,fs/+ energy=gs07r3b35,f+           fs/disk=0 energy=3,fs/di+ energy=13085,f+ 
