{
 "global_section": { "_calls": 1, "_time":      147.034, "_%":   100.00,
   "siesta": { "_calls": 1, "_time":      147.034, "_%":   100.00,
     "Setup": { "_calls": 1, "_time":        2.310, "_%":     1.57,
       "bands": { "_calls": 1, "_time":        0.002, "_%":     0.00},
       "KSV_init": { "_calls": 1, "_time":        0.001, "_%":     0.00}
     },
     "IterGeom": { "_calls": 1, "_time":      144.453, "_%":    98.24,
       "geom_init": { "_calls": 1, "_time":       19.903, "_%":    13.54,
         "state_init": { "_calls": 1, "_time":        0.823, "_%":     0.56,
           "hsparse": { "_calls": 1, "_time":        0.201, "_%":     0.14},
           "overlap": { "_calls": 1, "_time":        0.057, "_%":     0.04}
         },
         "Setup_H0": { "_calls": 1, "_time":       19.079, "_%":    12.98,
           "naefs": { "_calls": 1, "_time":        0.027, "_%":     0.02},
           "MolMec": { "_calls": 1, "_time":        0.000, "_%":     0.00},
           "kinefsm": { "_calls": 1, "_time":        0.054, "_%":     0.04},
           "nlefsm": { "_calls": 1, "_time":        0.159, "_%":     0.11},
           "DHSCF_Init": { "_calls": 1, "_time":       18.822, "_%":    12.80,
             "DHSCF1": { "_calls": 1, "_time":        0.041, "_%":     0.03,
               "INITMESH": { "_calls": 1, "_time":        0.000, "_%":     0.00}
             },
             "DHSCF2": { "_calls": 1, "_time":       18.757, "_%":    12.76,
               "REMESH": { "_calls": 1, "_time":       16.025, "_%":    10.90,
                 "INITMESH": { "_calls": 2, "_time":       15.687, "_%":    10.67,
                   "SPLOAD": { "_calls": 2, "_time":        4.565, "_%":     3.10}
                 }
               },
               "REORD": { "_calls": 2, "_time":        0.002, "_%":     0.00},
               "PHION": { "_calls": 1, "_time":        0.035, "_%":     0.02},
               "COMM_BSC": { "_calls": 1, "_time":        0.058, "_%":     0.04},
               "POISON": { "_calls": 1, "_time":        0.655, "_%":     0.45,
                 "fft": { "_calls": 2, "_time":        0.640, "_%":     0.44}
               }
             }
           }
         }
       },
       "IterSCF": { "_calls": 5, "_time":      124.430, "_%":    84.63,
         "setup_H": { "_calls": 5, "_time":        4.554, "_%":     3.10,
           "DHSCF": { "_calls": 5, "_time":        4.548, "_%":     3.09,
             "DHSCF3": { "_calls": 5, "_time":        4.548, "_%":     3.09,
               "rhoofd": { "_calls": 5, "_time":        0.038, "_%":     0.03},
               "COMM_BSC": { "_calls": 10, "_time":        0.199, "_%":     0.14},
               "POISON": { "_calls": 5, "_time":        2.661, "_%":     1.81,
                 "fft": { "_calls": 10, "_time":        2.560, "_%":     1.74}
               },
               "XC": { "_calls": 5, "_time":        1.350, "_%":     0.92,
                 "COMM_BSC": { "_calls": 10, "_time":        0.213, "_%":     0.14},
                 "GXC-CellXC": { "_calls": 5, "_time":        1.115, "_%":     0.76,
                   "gridxc@cellXC": { "_calls": 5, "_time":        1.115, "_%":     0.76}
                 }
               },
               "vmat": { "_calls": 5, "_time":        0.050, "_%":     0.03}
             }
           }
         },
         "compute_dm": { "_calls": 5, "_time":      119.825, "_%":    81.49,
           "elsi": { "_calls": 5, "_time":      119.486, "_%":    81.26,
             "find nnz_g": { "_calls": 5, "_time":        0.000, "_%":     0.00},
             "elsi-solver": { "_calls": 5, "_time":      119.446, "_%":    81.24}
           }
         },
         "MIXER": { "_calls": 5, "_time":        0.030, "_%":     0.02}
       },
       "state_analysis": { "_calls": 1, "_time":        0.106, "_%":     0.07},
       "siesta_move": { "_calls": 1, "_time":        0.000, "_%":     0.00}
     },
     "Analysis": { "_calls": 1, "_time":        0.264, "_%":     0.18,
       "optical": { "_calls": 1, "_time":        0.001, "_%":     0.00}
     }
   }
 }}
