{
 "global_section": { "_calls": 1, "_time":      547.306, "_%":   100.00,
   "siesta": { "_calls": 1, "_time":      547.306, "_%":   100.00,
     "Setup": { "_calls": 1, "_time":        1.345, "_%":     0.25,
       "bands": { "_calls": 1, "_time":        0.002, "_%":     0.00},
       "KSV_init": { "_calls": 1, "_time":        0.001, "_%":     0.00}
     },
     "IterGeom": { "_calls": 1, "_time":      539.566, "_%":    98.59,
       "geom_init": { "_calls": 1, "_time":        8.186, "_%":     1.50,
         "state_init": { "_calls": 1, "_time":        0.654, "_%":     0.12,
           "hsparse": { "_calls": 1, "_time":        0.113, "_%":     0.02},
           "overlap": { "_calls": 1, "_time":        0.074, "_%":     0.01}
         },
         "Setup_H0": { "_calls": 1, "_time":        7.531, "_%":     1.38,
           "naefs": { "_calls": 1, "_time":        0.016, "_%":     0.00},
           "MolMec": { "_calls": 1, "_time":        0.000, "_%":     0.00},
           "kinefsm": { "_calls": 1, "_time":        0.072, "_%":     0.01},
           "nlefsm": { "_calls": 1, "_time":        0.301, "_%":     0.06},
           "DHSCF_Init": { "_calls": 1, "_time":        7.131, "_%":     1.30,
             "DHSCF1": { "_calls": 1, "_time":        0.042, "_%":     0.01,
               "INITMESH": { "_calls": 1, "_time":        0.000, "_%":     0.00}
             },
             "DHSCF2": { "_calls": 1, "_time":        7.077, "_%":     1.29,
               "REMESH": { "_calls": 1, "_time":        1.191, "_%":     0.22,
                 "INITMESH": { "_calls": 2, "_time":        1.158, "_%":     0.21,
                   "SPLOAD": { "_calls": 2, "_time":        1.149, "_%":     0.21}
                 }
               },
               "REORD": { "_calls": 2, "_time":        0.030, "_%":     0.01},
               "PHION": { "_calls": 1, "_time":        0.423, "_%":     0.08},
               "COMM_BSC": { "_calls": 1, "_time":        0.147, "_%":     0.03},
               "POISON": { "_calls": 1, "_time":        4.728, "_%":     0.86,
                 "fft": { "_calls": 2, "_time":        4.521, "_%":     0.83}
               }
             }
           }
         }
       },
       "IterSCF": { "_calls": 5, "_time":      531.222, "_%":    97.06,
         "setup_H": { "_calls": 5, "_time":       41.018, "_%":     7.49,
           "DHSCF": { "_calls": 5, "_time":       40.743, "_%":     7.44,
             "DHSCF3": { "_calls": 5, "_time":       40.743, "_%":     7.44,
               "rhoofd": { "_calls": 5, "_time":        0.287, "_%":     0.05},
               "COMM_BSC": { "_calls": 10, "_time":        1.236, "_%":     0.23},
               "POISON": { "_calls": 5, "_time":       23.071, "_%":     4.22,
                 "fft": { "_calls": 10, "_time":       22.035, "_%":     4.03}
               },
               "XC": { "_calls": 5, "_time":       13.640, "_%":     2.49,
                 "COMM_BSC": { "_calls": 10, "_time":        1.349, "_%":     0.25},
                 "GXC-CellXC": { "_calls": 5, "_time":       11.853, "_%":     2.17,
                   "gridxc@cellXC": { "_calls": 5, "_time":       11.853, "_%":     2.17}
                 }
               },
               "vmat": { "_calls": 5, "_time":        0.486, "_%":     0.09}
             }
           }
         },
         "compute_dm": { "_calls": 5, "_time":      490.166, "_%":    89.56,
           "elsi": { "_calls": 5, "_time":      490.105, "_%":    89.55,
             "find nnz_g": { "_calls": 5, "_time":        0.000, "_%":     0.00},
             "elsi-solver": { "_calls": 5, "_time":      490.085, "_%":    89.55}
           }
         },
         "MIXER": { "_calls": 5, "_time":        0.006, "_%":     0.00}
       },
       "state_analysis": { "_calls": 1, "_time":        0.037, "_%":     0.01},
       "siesta_move": { "_calls": 1, "_time":        0.000, "_%":     0.00}
     },
     "Analysis": { "_calls": 1, "_time":        6.366, "_%":     1.16,
       "optical": { "_calls": 1, "_time":        0.001, "_%":     0.00}
     }
   }
 }}
