{
 "global_section": { "_calls": 1, "_time":      399.226, "_%":   100.00,
   "siesta": { "_calls": 1, "_time":      399.226, "_%":   100.00,
     "Setup": { "_calls": 1, "_time":        0.694, "_%":     0.17,
       "bands": { "_calls": 1, "_time":        0.001, "_%":     0.00},
       "KSV_init": { "_calls": 1, "_time":        0.000, "_%":     0.00}
     },
     "IterGeom": { "_calls": 1, "_time":      394.421, "_%":    98.80,
       "geom_init": { "_calls": 1, "_time":        3.832, "_%":     0.96,
         "state_init": { "_calls": 1, "_time":        0.880, "_%":     0.22,
           "hsparse": { "_calls": 1, "_time":        0.090, "_%":     0.02},
           "overlap": { "_calls": 1, "_time":        0.348, "_%":     0.09}
         },
         "Setup_H0": { "_calls": 1, "_time":        2.952, "_%":     0.74,
           "naefs": { "_calls": 1, "_time":        0.017, "_%":     0.00},
           "MolMec": { "_calls": 1, "_time":        0.000, "_%":     0.00},
           "kinefsm": { "_calls": 1, "_time":        0.344, "_%":     0.09},
           "nlefsm": { "_calls": 1, "_time":        0.451, "_%":     0.11},
           "DHSCF_Init": { "_calls": 1, "_time":        2.129, "_%":     0.53,
             "DHSCF1": { "_calls": 1, "_time":        0.019, "_%":     0.00,
               "INITMESH": { "_calls": 1, "_time":        0.000, "_%":     0.00}
             },
             "DHSCF2": { "_calls": 1, "_time":        2.097, "_%":     0.53,
               "REMESH": { "_calls": 1, "_time":        0.702, "_%":     0.18,
                 "INITMESH": { "_calls": 2, "_time":        0.679, "_%":     0.17,
                   "SPLOAD": { "_calls": 2, "_time":        0.529, "_%":     0.13}
                 }
               },
               "REORD": { "_calls": 2, "_time":        0.008, "_%":     0.00},
               "PHION": { "_calls": 1, "_time":        0.218, "_%":     0.05},
               "COMM_BSC": { "_calls": 1, "_time":        0.040, "_%":     0.01},
               "POISON": { "_calls": 1, "_time":        0.867, "_%":     0.22,
                 "fft": { "_calls": 2, "_time":        0.818, "_%":     0.21}
               }
             }
           }
         }
       },
       "IterSCF": { "_calls": 5, "_time":      390.558, "_%":    97.83,
         "setup_H": { "_calls": 5, "_time":       10.515, "_%":     2.63,
           "DHSCF": { "_calls": 5, "_time":       10.485, "_%":     2.63,
             "DHSCF3": { "_calls": 5, "_time":       10.485, "_%":     2.63,
               "rhoofd": { "_calls": 5, "_time":        0.138, "_%":     0.03},
               "COMM_BSC": { "_calls": 10, "_time":        0.578, "_%":     0.14},
               "POISON": { "_calls": 5, "_time":        4.096, "_%":     1.03,
                 "fft": { "_calls": 10, "_time":        3.845, "_%":     0.96}
               },
               "XC": { "_calls": 5, "_time":        5.069, "_%":     1.27,
                 "COMM_BSC": { "_calls": 10, "_time":        0.272, "_%":     0.07},
                 "GXC-CellXC": { "_calls": 5, "_time":        4.749, "_%":     1.19,
                   "gridxc@cellXC": { "_calls": 5, "_time":        4.749, "_%":     1.19}
                 }
               },
               "vmat": { "_calls": 5, "_time":        0.177, "_%":     0.04}
             }
           }
         },
         "compute_dm": { "_calls": 5, "_time":      380.022, "_%":    95.19,
           "elsi": { "_calls": 5, "_time":      380.000, "_%":    95.18,
             "find nnz_g": { "_calls": 5, "_time":        0.000, "_%":     0.00},
             "elsi-solver": { "_calls": 5, "_time":      379.989, "_%":    95.18}
           }
         },
         "MIXER": { "_calls": 5, "_time":        0.012, "_%":     0.00}
       },
       "state_analysis": { "_calls": 1, "_time":        0.023, "_%":     0.01},
       "siesta_move": { "_calls": 1, "_time":        0.000, "_%":     0.00}
     },
     "Analysis": { "_calls": 1, "_time":        4.078, "_%":     1.02,
       "optical": { "_calls": 1, "_time":        0.000, "_%":     0.00}
     }
   }
 }}
