JobID        JobIDRaw        JobName  Partition  MaxVMSize  MaxVMSizeNode  MaxVMSizeTask  AveVMSize     MaxRSS MaxRSSNode MaxRSSTask     AveRSS MaxPages MaxPagesNode   MaxPagesTask   AvePages     MinCPU MinCPUNode MinCPUTask     AveCPU   NTasks  AllocCPUS    Elapsed      State ExitCode AveCPUFreq ReqCPUFreqMin ReqCPUFreqMax ReqCPUFreqGov     ReqMem ConsumedEnergy  MaxDiskRead MaxDiskReadNode MaxDiskReadTask    AveDiskRead MaxDiskWrite MaxDiskWriteNode MaxDiskWriteTask   AveDiskWrite    ReqTRES  AllocTRES TRESUsageInAve TRESUsageInMax TRESUsageInMaxNode TRESUsageInMaxTask TRESUsageInMin TRESUsageInMinNode TRESUsageInMinTask TRESUsageInTot TRESUsageOutMax TRESUsageOutMaxNode TRESUsageOutMaxTask TRESUsageOutAve TRESUsageOutTot 
------------ ------------ ---------- ---------- ---------- -------------- -------------- ---------- ---------- ---------- ---------- ---------- -------- ------------ -------------- ---------- ---------- ---------- ---------- ---------- -------- ---------- ---------- ---------- -------- ---------- ------------- ------------- ------------- ---------- -------------- ------------ --------------- --------------- -------------- ------------ ---------------- ---------------- -------------- ---------- ---------- -------------- -------------- ------------------ ------------------ -------------- ------------------ ------------------ -------------- --------------- ------------------- ------------------- --------------- --------------- 
4905760      4905760      submit.job standard-g                                                                                                                                                                                                             112   00:19:01    RUNNING      0:0                  Unknown       Unknown       Unknown       480G                                                                                                                                          billing=4+ billing=1+                                                                                                                                                                                                                                 
4905760.bat+ 4905760.bat+      batch                                                                                                                                                                                                               1        112   00:19:01    RUNNING      0:0          0             0             0             0                         0                                                                                                                                      cpu=112,g+                                                                                                                                                                                                                                 
4905760.0    4905760.0    select_gpu             81400048K      nid006551              2  77203107K  54860372K  nid006551          3  52208619K     6412    nid006551              1       6074   00:19:37  nid006551          0   00:19:53        4        112   00:18:52  COMPLETED      0:0      5.24M       Unknown       Unknown       Unknown                   808.25K      131.27M       nid006551               0        129.34M        2.90M        nid006551                3          2.89M            cpu=112,g+ cpu=00:19:53,+ cpu=00:20:01,+ cpu=nid006551,ene+ cpu=1,fs/disk=0,m+ cpu=00:19:37,+ cpu=nid006551,ene+ cpu=0,fs/disk=1,m+ cpu=01:19:34,+ energy=1273,fs+ energy=nid006551,f+           fs/disk=3 energy=170,fs/+ energy=680,fs/+ 
