{
 "global_section": { "_calls": 1, "_time":       52.662, "_%":   100.00,
   "siesta": { "_calls": 1, "_time":       52.662, "_%":   100.00,
     "Setup": { "_calls": 1, "_time":        1.342, "_%":     2.55,
       "bands": { "_calls": 1, "_time":        0.002, "_%":     0.00},
       "KSV_init": { "_calls": 1, "_time":        0.001, "_%":     0.00}
     },
     "IterGeom": { "_calls": 1, "_time":       51.131, "_%":    97.09,
       "geom_init": { "_calls": 1, "_time":        5.549, "_%":    10.54,
         "state_init": { "_calls": 1, "_time":        0.748, "_%":     1.42,
           "hsparse": { "_calls": 1, "_time":        0.136, "_%":     0.26},
           "overlap": { "_calls": 1, "_time":        0.057, "_%":     0.11}
         },
         "Setup_H0": { "_calls": 1, "_time":        4.801, "_%":     9.12,
           "naefs": { "_calls": 1, "_time":        0.027, "_%":     0.05},
           "MolMec": { "_calls": 1, "_time":        0.000, "_%":     0.00},
           "kinefsm": { "_calls": 1, "_time":        0.046, "_%":     0.09},
           "nlefsm": { "_calls": 1, "_time":        0.164, "_%":     0.31},
           "DHSCF_Init": { "_calls": 1, "_time":        4.547, "_%":     8.63,
             "DHSCF1": { "_calls": 1, "_time":        0.053, "_%":     0.10,
               "INITMESH": { "_calls": 1, "_time":        0.000, "_%":     0.00}
             },
             "DHSCF2": { "_calls": 1, "_time":        4.474, "_%":     8.50,
               "REMESH": { "_calls": 1, "_time":        0.426, "_%":     0.81,
                 "INITMESH": { "_calls": 2, "_time":        0.386, "_%":     0.73,
                   "SPLOAD": { "_calls": 2, "_time":        0.131, "_%":     0.25}
                 }
               },
               "REORD": { "_calls": 2, "_time":        0.011, "_%":     0.02},
               "PHION": { "_calls": 1, "_time":        0.092, "_%":     0.17},
               "COMM_BSC": { "_calls": 1, "_time":        0.106, "_%":     0.20},
               "POISON": { "_calls": 1, "_time":        3.456, "_%":     6.56,
                 "fft": { "_calls": 2, "_time":        3.348, "_%":     6.36}
               }
             }
           }
         }
       },
       "IterSCF": { "_calls": 5, "_time":       45.521, "_%":    86.44,
         "setup_H": { "_calls": 5, "_time":       30.951, "_%":    58.77,
           "DHSCF": { "_calls": 5, "_time":       30.499, "_%":    57.92,
             "DHSCF3": { "_calls": 5, "_time":       30.499, "_%":    57.92,
               "rhoofd": { "_calls": 5, "_time":        0.225, "_%":     0.43},
               "COMM_BSC": { "_calls": 10, "_time":        0.938, "_%":     1.78},
               "POISON": { "_calls": 5, "_time":       19.371, "_%":    36.78,
                 "fft": { "_calls": 10, "_time":       18.877, "_%":    35.85}
               },
               "XC": { "_calls": 5, "_time":        8.423, "_%":    15.99,
                 "COMM_BSC": { "_calls": 10, "_time":        3.583, "_%":     6.80},
                 "GXC-CellXC": { "_calls": 5, "_time":        4.709, "_%":     8.94,
                   "gridxc@cellXC": { "_calls": 5, "_time":        4.709, "_%":     8.94}
                 }
               },
               "vmat": { "_calls": 5, "_time":        0.169, "_%":     0.32}
             }
           }
         },
         "compute_dm": { "_calls": 5, "_time":       14.541, "_%":    27.61,
           "redist_orbs_fwd": { "_calls": 20, "_time":        0.529, "_%":     1.00},
           "elsi-complex-solver": { "_calls": 5, "_time":       13.941, "_%":    26.47,
             "elsi-solver": { "_calls": 5, "_time":       11.494, "_%":    21.83}
           },
           "redist_dm-edm_bck": { "_calls": 5, "_time":        0.051, "_%":     0.10}
         },
         "MIXER": { "_calls": 5, "_time":        0.008, "_%":     0.01}
       },
       "state_analysis": { "_calls": 1, "_time":        0.049, "_%":     0.09},
       "siesta_move": { "_calls": 1, "_time":        0.000, "_%":     0.00}
     },
     "Analysis": { "_calls": 1, "_time":        0.160, "_%":     0.30,
       "optical": { "_calls": 1, "_time":        0.001, "_%":     0.00}
     }
   }
 }}
