JobId=1589806 JobName=CovidWeakKPoints
   UserId=it4i-fpedron(9897) GroupId=it4i-fpedron(11979) MCS_label=N/A
   Priority=302498646 Nice=0 Account=dd-24-70 QOS=2820_4664
   JobState=RUNNING Reason=None Dependency=(null)
   Requeue=1 Restarts=0 BatchFlag=1 Reboot=0 ExitCode=0:0
   DerivedExitCode=0:0
   RunTime=00:00:03 TimeLimit=00:59:00 TimeMin=N/A
   SubmitTime=2024-09-06T11:25:37 EligibleTime=2024-09-06T11:25:37
   AccrueTime=2024-09-06T11:25:37
   StartTime=2024-09-06T11:40:50 EndTime=2024-09-06T12:39:50 Deadline=N/A
   PreemptEligibleTime=2024-09-06T11:40:50 PreemptTime=None
   SuspendTime=None SecsPreSuspend=0 LastSchedEval=2024-09-06T11:40:50 Scheduler=Backfill
   Partition=qgpu AllocNode:Sid=login4.karolina.it4i.cz:2332276
   ReqNodeList=(null) ExcNodeList=(null)
   NodeList=acn18
   BatchHost=acn18
   NumNodes=1 NumCPUs=128 NumTasks=64 CPUs/Task=1 ReqB:S:C:T=0:0:*:*
   ReqTRES=cpu=64,mem=485G,node=1,billing=8,gres/gpu=8
   AllocTRES=cpu=128,mem=970G,node=1,billing=8,gres/gpu=8
   Socks/Node=* NtasksPerN:B:S:C=64:0:*:* CoreSpec=*
   JOB_GRES=gpu:a100:8
     Nodes=acn18 CPU_IDs=0-127 Mem=993280 GRES=gpu:a100:8(IDX:0-7)
   MinCPUsNode=64 MinMemoryCPU=7760M MinTmpDiskNode=0
   Features=(null) DelayBoot=00:00:00
   OverSubscribe=NO Contiguous=0 Licenses=(null) Network=(null)
   Command=/home/it4i-fpedron/JUBE4MaX-GPU/max-inputs/interface/siesta/_CovidWeakKPoints/000000/000000_submit/work/submit.job
   WorkDir=/home/it4i-fpedron/JUBE4MaX-GPU/max-inputs/interface/siesta/_CovidWeakKPoints/000000/000000_submit/work
   StdErr=/home/it4i-fpedron/JUBE4MaX-GPU/max-inputs/interface/siesta/_CovidWeakKPoints/000000/000000_submit/work/slurm-1589806.out
   StdIn=/dev/null
   StdOut=/home/it4i-fpedron/JUBE4MaX-GPU/max-inputs/interface/siesta/_CovidWeakKPoints/000000/000000_submit/work/slurm-1589806.out
   Power=
   CpusPerTres=gres/gpu:16
   TresPerNode=gres/gpu:8
   

