{
 "global_section": { "_calls": 1, "_time":      907.994, "_%":   100.00,
   "siesta": { "_calls": 1, "_time":      907.994, "_%":   100.00,
     "Setup": { "_calls": 1, "_time":        1.722, "_%":     0.19,
       "bands": { "_calls": 1, "_time":        0.002, "_%":     0.00},
       "KSV_init": { "_calls": 1, "_time":        0.000, "_%":     0.00}
     },
     "IterGeom": { "_calls": 1, "_time":      906.054, "_%":    99.79,
       "geom_init": { "_calls": 1, "_time":       19.862, "_%":     2.19,
         "state_init": { "_calls": 1, "_time":        0.375, "_%":     0.04,
           "hsparse": { "_calls": 1, "_time":        0.117, "_%":     0.01},
           "overlap": { "_calls": 1, "_time":        0.050, "_%":     0.01}
         },
         "Setup_H0": { "_calls": 1, "_time":       19.487, "_%":     2.15,
           "naefs": { "_calls": 1, "_time":        0.017, "_%":     0.00},
           "MolMec": { "_calls": 1, "_time":        0.000, "_%":     0.00},
           "kinefsm": { "_calls": 1, "_time":        0.047, "_%":     0.01},
           "nlefsm": { "_calls": 1, "_time":        0.202, "_%":     0.02},
           "DHSCF_Init": { "_calls": 1, "_time":       19.209, "_%":     2.12,
             "DHSCF1": { "_calls": 1, "_time":        0.049, "_%":     0.01,
               "INITMESH": { "_calls": 1, "_time":        0.000, "_%":     0.00}
             },
             "DHSCF2": { "_calls": 1, "_time":       19.146, "_%":     2.11,
               "REMESH": { "_calls": 1, "_time":        0.111, "_%":     0.01,
                 "INITMESH": { "_calls": 2, "_time":        0.077, "_%":     0.01,
                   "SPLOAD": { "_calls": 2, "_time":        0.074, "_%":     0.01}
                 }
               },
               "REORD": { "_calls": 2, "_time":        0.111, "_%":     0.01},
               "PHION": { "_calls": 1, "_time":        0.553, "_%":     0.06},
               "COMM_BSC": { "_calls": 1, "_time":        0.477, "_%":     0.05},
               "POISON": { "_calls": 1, "_time":       16.765, "_%":     1.85,
                 "fft": { "_calls": 2, "_time":       15.998, "_%":     1.76}
               }
             }
           }
         }
       },
       "IterSCF": { "_calls": 5, "_time":      886.045, "_%":    97.58,
         "setup_H": { "_calls": 5, "_time":      125.007, "_%":    13.77,
           "DHSCF": { "_calls": 5, "_time":      124.935, "_%":    13.76,
             "DHSCF3": { "_calls": 5, "_time":      124.935, "_%":    13.76,
               "rhoofd": { "_calls": 5, "_time":        0.782, "_%":     0.09},
               "COMM_BSC": { "_calls": 10, "_time":        3.862, "_%":     0.43},
               "POISON": { "_calls": 5, "_time":       84.063, "_%":     9.26,
                 "fft": { "_calls": 10, "_time":       80.246, "_%":     8.84}
               },
               "XC": { "_calls": 5, "_time":       29.027, "_%":     3.20,
                 "COMM_BSC": { "_calls": 10, "_time":        4.597, "_%":     0.51},
                 "GXC-CellXC": { "_calls": 5, "_time":       23.299, "_%":     2.57,
                   "gridxc@cellXC": { "_calls": 5, "_time":       23.299, "_%":     2.57}
                 }
               },
               "vmat": { "_calls": 5, "_time":        0.569, "_%":     0.06}
             }
           }
         },
         "compute_dm": { "_calls": 5, "_time":      761.026, "_%":    83.81,
           "redist_orbs_fwd": { "_calls": 5, "_time":        0.006, "_%":     0.00},
           "elsi-complex-solver": { "_calls": 5, "_time":      760.952, "_%":    83.81,
             "elsi-solver": { "_calls": 5, "_time":      760.768, "_%":    83.79}
           },
           "redist_dm-edm_bck": { "_calls": 5, "_time":        0.056, "_%":     0.01}
         },
         "MIXER": { "_calls": 5, "_time":        0.004, "_%":     0.00}
       },
       "state_analysis": { "_calls": 1, "_time":        0.066, "_%":     0.01},
       "siesta_move": { "_calls": 1, "_time":        0.000, "_%":     0.00}
     },
     "Analysis": { "_calls": 1, "_time":        0.180, "_%":     0.02,
       "optical": { "_calls": 1, "_time":        0.001, "_%":     0.00}
     }
   }
 }}
