JobID        JobIDRaw        JobName  Partition  MaxVMSize  MaxVMSizeNode  MaxVMSizeTask  AveVMSize     MaxRSS MaxRSSNode MaxRSSTask     AveRSS MaxPages MaxPagesNode   MaxPagesTask   AvePages     MinCPU MinCPUNode MinCPUTask     AveCPU   NTasks  AllocCPUS    Elapsed      State ExitCode AveCPUFreq ReqCPUFreqMin ReqCPUFreqMax ReqCPUFreqGov     ReqMem ConsumedEnergy  MaxDiskRead MaxDiskReadNode MaxDiskReadTask    AveDiskRead MaxDiskWrite MaxDiskWriteNode MaxDiskWriteTask   AveDiskWrite    ReqTRES  AllocTRES TRESUsageInAve TRESUsageInMax TRESUsageInMaxNode TRESUsageInMaxTask TRESUsageInMin TRESUsageInMinNode TRESUsageInMinTask TRESUsageInTot TRESUsageOutMax TRESUsageOutMaxNode TRESUsageOutMaxTask TRESUsageOutAve TRESUsageOutTot 
------------ ------------ ---------- ---------- ---------- -------------- -------------- ---------- ---------- ---------- ---------- ---------- -------- ------------ -------------- ---------- ---------- ---------- ---------- ---------- -------- ---------- ---------- ---------- -------- ---------- ------------- ------------- ------------- ---------- -------------- ------------ --------------- --------------- -------------- ------------ ---------------- ---------------- -------------- ---------- ---------- -------------- -------------- ------------------ ------------------ -------------- ------------------ ------------------ -------------- --------------- ------------------- ------------------- --------------- --------------- 
7356322      7356322      submit.job boost_usr+                                                                                                                                                                                                            1280   02:46:38    RUNNING      0:0                  Unknown       Unknown       Unknown     19250G                                                                                                                                          billing=1+ billing=1+                                                                                                                                                                                                                                 
7356322.bat+ 7356322.bat+      batch                                                                                                                                                                                                               1         32   02:46:38    RUNNING      0:0          0             0             0             0                         0                                                                                                                                      cpu=32,gr+                                                                                                                                                                                                                                 
7356322.ext+ 7356322.ext+     extern                                                                                                                                                                                                              40       1280   02:46:38    RUNNING      0:0          0             0             0             0                         0                                                                                                                                      billing=1+                                                                                                                                                                                                                                 
7356322.0    7356322.0         orted             81551796K       lrdn0540              0 2141257412  67126232K   lrdn0540          0 1762493886     8311     lrdn0540              0        213   11:05:16   lrdn0783         25   11:05:20       39       1248   02:46:32  COMPLETED      0:0      2.38M       Unknown       Unknown       Unknown                         0        0.34M        lrdn0736              21          0.34M        0.01M         lrdn0540                0          0.01M            cpu=1248,+ cpu=11:05:20,+ cpu=11:05:27,+ cpu=lrdn0696,ener+ cpu=16,fs/disk=21+ cpu=11:05:16,+ cpu=lrdn0783,ener+ cpu=25,fs/disk=0,+ cpu=18-00:28:+ energy=0,fs/di+ energy=lrdn0687,fs+           fs/disk=0 energy=0,fs/di+ energy=0,fs/di+ 
