JobId=7356322 JobName=submit.job
   UserId=nspallan(25378) GroupId=interactive(25200) MCS_label=N/A
   Priority=132961 Nice=0 Account=euhpc_e01_022 QOS=normal
   JobState=RUNNING Reason=None Dependency=(null)
   Requeue=0 Restarts=0 BatchFlag=1 Reboot=0 ExitCode=0:0
   DerivedExitCode=0:0
   RunTime=00:00:05 TimeLimit=06:00:00 TimeMin=N/A
   SubmitTime=2024-09-02T11:57:24 EligibleTime=2024-09-02T11:57:24
   AccrueTime=2024-09-02T11:57:24
   StartTime=2024-09-02T11:57:48 EndTime=2024-09-02T17:57:49 Deadline=N/A
   SuspendTime=None SecsPreSuspend=0 LastSchedEval=2024-09-02T11:57:48 Scheduler=Backfill
   Partition=boost_usr_prod AllocNode:Sid=slurm-controller:573659
   ReqNodeList=(null) ExcNodeList=(null)
   NodeList=lrdn[0532,0540,0554,0560,0565,0582-0583,0596,0613,0620,0626,0638,0648,0657,0665,0677,0687,0696,0707,0713,0726,0731,0736,0751,0766-0767,0783,2099,2378,2390,2395,2403,2428-2429,2437,2450,2455,2474,2483,2490]
   BatchHost=lrdn0532
   NumNodes=40 NumCPUs=1280 NumTasks=160 CPUs/Task=8 ReqB:S:C:T=0:0:*:*
   TRES=cpu=1280,mem=19250G,node=40,billing=1280,gres/gpu=160
   Socks/Node=* NtasksPerN:B:S:C=4:0:*:* CoreSpec=*
   JOB_GRES=gpu:a100:160
     Nodes=lrdn[0532,0540,0554,0560,0565,0582-0583,0596,0613,0620,0626,0638,0648,0657,0665,0677,0687,0696,0707,0713,0726,0731,0736,0751,0766-0767,0783,2099,2378,2390,2395,2403,2428-2429,2437,2450,2455,2474,2483,2490] CPU_IDs=0-31 Mem=492800 GRES=gpu:a100:4(IDX:0-3)
   MinCPUsNode=32 MinMemoryCPU=15400M MinTmpDiskNode=0
   Features=(null) DelayBoot=00:00:00
   OverSubscribe=NO Contiguous=0 Licenses=(null) Network=(null)
   Command=/leonardo_work/EUHPC_E01_022/nspallan/benchmarks/strongscaling_gpu_cuf_61k/000000/000002_submit/work/submit.job
   WorkDir=/leonardo_work/EUHPC_E01_022/nspallan/benchmarks/strongscaling_gpu_cuf_61k/000000/000002_submit/work
   StdErr=/leonardo_work/EUHPC_E01_022/nspallan/benchmarks/strongscaling_gpu_cuf_61k/000000/000002_submit/work/slurm-7356322.out
   StdIn=/dev/null
   StdOut=/leonardo_work/EUHPC_E01_022/nspallan/benchmarks/strongscaling_gpu_cuf_61k/000000/000002_submit/work/slurm-7356322.out
   Power=
   TresPerNode=gres:gpu:4
   

