JobId=11909010 JobName=submit.job
   UserId=lbellen1(33678) GroupId=interactive(25200) MCS_label=N/A
   Priority=247839 Nice=0 Account=cin_staff QOS=boost_qos_dbg
   JobState=RUNNING Reason=None Dependency=(null)
   Requeue=0 Restarts=0 BatchFlag=1 Reboot=0 ExitCode=0:0
   DerivedExitCode=0:0
   RunTime=00:00:05 TimeLimit=00:20:00 TimeMin=N/A
   SubmitTime=2025-01-28T12:47:09 EligibleTime=2025-01-28T12:47:09
   AccrueTime=2025-01-28T12:47:09
   StartTime=2025-01-28T12:50:26 EndTime=2025-01-28T13:10:28 Deadline=N/A
   SuspendTime=None SecsPreSuspend=0 LastSchedEval=2025-01-28T12:50:26 Scheduler=Main
   Partition=boost_usr_prod AllocNode:Sid=slurm-controller:1415676
   ReqNodeList=(null) ExcNodeList=(null)
   NodeList=lrdn0001
   BatchHost=lrdn0001
   NumNodes=1 NumCPUs=32 NumTasks=4 CPUs/Task=8 ReqB:S:C:T=0:0:*:*
   TRES=cpu=32,mem=492800M,node=1,billing=32,gres/gpu=4
   Socks/Node=* NtasksPerN:B:S:C=4:0:*:* CoreSpec=*
   JOB_GRES=gpu:a100:4
     Nodes=lrdn0001 CPU_IDs=0-31 Mem=492800 GRES=gpu:a100:4(IDX:0-3)
   MinCPUsNode=32 MinMemoryCPU=15400M MinTmpDiskNode=0
   Features=(null) DelayBoot=00:00:00
   OverSubscribe=NO Contiguous=0 Licenses=(null) Network=(null)
   Command=/leonardo_scratch/fast/Max3_devel_2/WP3/qe/benchmarks/bench-qe7.3.1-ausurf112-2scf/ausurf112_fullscf/000001/000002_submit_N1np4/work/submit.job
   WorkDir=/leonardo_scratch/fast/Max3_devel_2/WP3/qe/benchmarks/bench-qe7.3.1-ausurf112-2scf/ausurf112_fullscf/000001/000002_submit_N1np4/work
   StdErr=/leonardo_scratch/fast/Max3_devel_2/WP3/qe/benchmarks/bench-qe7.3.1-ausurf112-2scf/ausurf112_fullscf/000001/000002_submit_N1np4/work/slurm-11909010.out
   StdIn=/dev/null
   StdOut=/leonardo_scratch/fast/Max3_devel_2/WP3/qe/benchmarks/bench-qe7.3.1-ausurf112-2scf/ausurf112_fullscf/000001/000002_submit_N1np4/work/slurm-11909010.out
   Power=
   TresPerNode=gres:gpu:4
   

