{
 "global_section": { "_calls": 1, "_time":     2225.719, "_%":   100.00,
   "siesta": { "_calls": 1, "_time":     2225.719, "_%":   100.00,
     "Setup": { "_calls": 1, "_time":        1.431, "_%":     0.06,
       "bands": { "_calls": 1, "_time":        0.002, "_%":     0.00},
       "KSV_init": { "_calls": 1, "_time":        0.001, "_%":     0.00}
     },
     "IterGeom": { "_calls": 1, "_time":     2006.974, "_%":    90.17,
       "geom_init": { "_calls": 1, "_time":        7.420, "_%":     0.33,
         "state_init": { "_calls": 1, "_time":        2.089, "_%":     0.09,
           "hsparse": { "_calls": 1, "_time":        1.432, "_%":     0.06},
           "overlap": { "_calls": 1, "_time":        0.096, "_%":     0.00}
         },
         "Setup_H0": { "_calls": 1, "_time":        5.330, "_%":     0.24,
           "naefs": { "_calls": 1, "_time":        0.122, "_%":     0.01},
           "MolMec": { "_calls": 1, "_time":        0.000, "_%":     0.00},
           "kinefsm": { "_calls": 1, "_time":        0.094, "_%":     0.00},
           "nlefsm": { "_calls": 1, "_time":        0.267, "_%":     0.01},
           "DHSCF_Init": { "_calls": 1, "_time":        4.783, "_%":     0.21,
             "DHSCF1": { "_calls": 1, "_time":        0.028, "_%":     0.00,
               "INITMESH": { "_calls": 1, "_time":        0.000, "_%":     0.00}
             },
             "DHSCF2": { "_calls": 1, "_time":        4.744, "_%":     0.21,
               "REMESH": { "_calls": 1, "_time":        2.629, "_%":     0.12,
                 "INITMESH": { "_calls": 2, "_time":        2.510, "_%":     0.11,
                   "SPLOAD": { "_calls": 2, "_time":        0.506, "_%":     0.02}
                 }
               },
               "REORD": { "_calls": 2, "_time":        0.001, "_%":     0.00},
               "PHION": { "_calls": 1, "_time":        0.100, "_%":     0.00},
               "COMM_BSC": { "_calls": 1, "_time":        0.010, "_%":     0.00},
               "POISON": { "_calls": 1, "_time":        0.230, "_%":     0.01,
                 "fft": { "_calls": 2, "_time":        0.221, "_%":     0.01}
               }
             }
           }
         }
       },
       "IterSCF": { "_calls": 5, "_time":     1999.449, "_%":    89.83,
         "setup_H": { "_calls": 5, "_time":        3.391, "_%":     0.15,
           "DHSCF": { "_calls": 5, "_time":        3.384, "_%":     0.15,
             "DHSCF3": { "_calls": 5, "_time":        3.384, "_%":     0.15,
               "rhoofd": { "_calls": 5, "_time":        0.096, "_%":     0.00},
               "COMM_BSC": { "_calls": 10, "_time":        0.101, "_%":     0.00},
               "POISON": { "_calls": 5, "_time":        1.100, "_%":     0.05,
                 "fft": { "_calls": 10, "_time":        1.066, "_%":     0.05}
               },
               "XC": { "_calls": 5, "_time":        1.903, "_%":     0.09,
                 "COMM_BSC": { "_calls": 10, "_time":        0.093, "_%":     0.00},
                 "GXC-CellXC": { "_calls": 5, "_time":        1.797, "_%":     0.08,
                   "gridxc@cellXC": { "_calls": 5, "_time":        1.797, "_%":     0.08}
                 }
               },
               "vmat": { "_calls": 5, "_time":        0.083, "_%":     0.00}
             }
           }
         },
         "compute_dm": { "_calls": 5, "_time":     1996.031, "_%":    89.68,
           "diagon": { "_calls": 5, "_time":     1995.968, "_%":    89.68,
             "r-eigvec": { "_calls": 5, "_time":      790.287, "_%":    35.51,
               "r-buildHS": { "_calls": 5, "_time":        0.196, "_%":     0.01},
               "rdiag": { "_calls": 5, "_time":      790.091, "_%":    35.50,
                 "rdiag1": { "_calls": 5, "_time":       24.551, "_%":     1.10},
                 "rdiag2": { "_calls": 5, "_time":       67.204, "_%":     3.02},
                 "rdiag3": { "_calls": 5, "_time":      634.448, "_%":    28.51},
                 "rdiag4": { "_calls": 5, "_time":       61.650, "_%":     2.77}
               }
             },
             "r-buildD": { "_calls": 5, "_time":     1205.066, "_%":    54.14}
           }
         },
         "MIXER": { "_calls": 5, "_time":        0.012, "_%":     0.00}
       },
       "state_analysis": { "_calls": 1, "_time":        0.099, "_%":     0.00},
       "siesta_move": { "_calls": 1, "_time":        0.000, "_%":     0.00}
     },
     "Analysis": { "_calls": 1, "_time":      215.486, "_%":     9.68,
       "optical": { "_calls": 1, "_time":        0.001, "_%":     0.00}
     }
   }
 }}
