{
 "global_section": { "_calls": 1, "_time":      713.612, "_%":   100.00,
   "siesta": { "_calls": 1, "_time":      713.612, "_%":   100.00,
     "Setup": { "_calls": 1, "_time":        1.068, "_%":     0.15,
       "bands": { "_calls": 1, "_time":        0.001, "_%":     0.00},
       "KSV_init": { "_calls": 1, "_time":        0.000, "_%":     0.00}
     },
     "IterGeom": { "_calls": 1, "_time":      705.216, "_%":    98.82,
       "geom_init": { "_calls": 1, "_time":        5.945, "_%":     0.83,
         "state_init": { "_calls": 1, "_time":        0.502, "_%":     0.07,
           "hsparse": { "_calls": 1, "_time":        0.186, "_%":     0.03},
           "overlap": { "_calls": 1, "_time":        0.043, "_%":     0.01}
         },
         "Setup_H0": { "_calls": 1, "_time":        5.442, "_%":     0.76,
           "naefs": { "_calls": 1, "_time":        0.040, "_%":     0.01},
           "MolMec": { "_calls": 1, "_time":        0.000, "_%":     0.00},
           "kinefsm": { "_calls": 1, "_time":        0.043, "_%":     0.01},
           "nlefsm": { "_calls": 1, "_time":        0.075, "_%":     0.01},
           "DHSCF_Init": { "_calls": 1, "_time":        5.257, "_%":     0.74,
             "DHSCF1": { "_calls": 1, "_time":        0.034, "_%":     0.00,
               "INITMESH": { "_calls": 1, "_time":        0.000, "_%":     0.00}
             },
             "DHSCF2": { "_calls": 1, "_time":        5.197, "_%":     0.73,
               "REMESH": { "_calls": 1, "_time":        2.282, "_%":     0.32,
                 "INITMESH": { "_calls": 2, "_time":        2.205, "_%":     0.31,
                   "SPLOAD": { "_calls": 2, "_time":        0.450, "_%":     0.06}
                 }
               },
               "REORD": { "_calls": 2, "_time":        0.007, "_%":     0.00},
               "PHION": { "_calls": 1, "_time":        0.067, "_%":     0.01},
               "COMM_BSC": { "_calls": 1, "_time":        0.063, "_%":     0.01},
               "POISON": { "_calls": 1, "_time":        2.313, "_%":     0.32,
                 "fft": { "_calls": 2, "_time":        2.224, "_%":     0.31}
               }
             }
           }
         }
       },
       "IterSCF": { "_calls": 5, "_time":      699.219, "_%":    97.98,
         "setup_H": { "_calls": 5, "_time":       17.711, "_%":     2.48,
           "DHSCF": { "_calls": 5, "_time":       17.673, "_%":     2.48,
             "DHSCF3": { "_calls": 5, "_time":       17.673, "_%":     2.48,
               "rhoofd": { "_calls": 5, "_time":        0.108, "_%":     0.02},
               "COMM_BSC": { "_calls": 10, "_time":        0.617, "_%":     0.09},
               "POISON": { "_calls": 5, "_time":       11.342, "_%":     1.59,
                 "fft": { "_calls": 10, "_time":       10.894, "_%":     1.53}
               },
               "XC": { "_calls": 5, "_time":        4.657, "_%":     0.65,
                 "COMM_BSC": { "_calls": 10, "_time":        0.634, "_%":     0.09},
                 "GXC-CellXC": { "_calls": 5, "_time":        3.921, "_%":     0.55,
                   "gridxc@cellXC": { "_calls": 5, "_time":        3.921, "_%":     0.55}
                 }
               },
               "vmat": { "_calls": 5, "_time":        0.130, "_%":     0.02}
             }
           }
         },
         "compute_dm": { "_calls": 5, "_time":      681.450, "_%":    95.49,
           "diagon": { "_calls": 5, "_time":      681.393, "_%":    95.49,
             "r-eigvec": { "_calls": 5, "_time":      523.650, "_%":    73.38,
               "r-buildHS": { "_calls": 5, "_time":        0.220, "_%":     0.03},
               "rdiag": { "_calls": 5, "_time":      523.430, "_%":    73.35,
                 "rdiag1": { "_calls": 5, "_time":       16.726, "_%":     2.34},
                 "rdiag2": { "_calls": 5, "_time":       55.681, "_%":     7.80},
                 "rdiag3": { "_calls": 5, "_time":      398.456, "_%":    55.84},
                 "rdiag4": { "_calls": 5, "_time":       50.359, "_%":     7.06}
               }
             },
             "r-buildD": { "_calls": 5, "_time":      157.229, "_%":    22.03}
           }
         },
         "MIXER": { "_calls": 5, "_time":        0.047, "_%":     0.01}
       },
       "state_analysis": { "_calls": 1, "_time":        0.043, "_%":     0.01},
       "siesta_move": { "_calls": 1, "_time":        0.000, "_%":     0.00}
     },
     "Analysis": { "_calls": 1, "_time":        6.805, "_%":     0.95,
       "optical": { "_calls": 1, "_time":        0.000, "_%":     0.00}
     }
   }
 }}
