JobID        JobIDRaw        JobName  Partition  MaxVMSize  MaxVMSizeNode  MaxVMSizeTask  AveVMSize     MaxRSS MaxRSSNode MaxRSSTask     AveRSS MaxPages MaxPagesNode   MaxPagesTask   AvePages     MinCPU MinCPUNode MinCPUTask     AveCPU   NTasks  AllocCPUS    Elapsed      State ExitCode AveCPUFreq ReqCPUFreqMin ReqCPUFreqMax ReqCPUFreqGov     ReqMem ConsumedEnergy  MaxDiskRead MaxDiskReadNode MaxDiskReadTask    AveDiskRead MaxDiskWrite MaxDiskWriteNode MaxDiskWriteTask   AveDiskWrite    ReqTRES  AllocTRES TRESUsageInAve TRESUsageInMax TRESUsageInMaxNode TRESUsageInMaxTask TRESUsageInMin TRESUsageInMinNode TRESUsageInMinTask TRESUsageInTot TRESUsageOutMax TRESUsageOutMaxNode TRESUsageOutMaxTask TRESUsageOutAve TRESUsageOutTot 
------------ ------------ ---------- ---------- ---------- -------------- -------------- ---------- ---------- ---------- ---------- ---------- -------- ------------ -------------- ---------- ---------- ---------- ---------- ---------- -------- ---------- ---------- ---------- -------- ---------- ------------- ------------- ------------- ---------- -------------- ------------ --------------- --------------- -------------- ------------ ---------------- ---------------- -------------- ---------- ---------- -------------- -------------- ------------------ ------------------ -------------- ------------------ ------------------ -------------- --------------- ------------------- ------------------- --------------- --------------- 
7682159      7682159      submit.job dcgp_usr_+                                                                                                                                                                                                             224   00:01:27    RUNNING      0:0                  Unknown       Unknown       Unknown    962.50G                                                                                                                                          billing=2+ billing=2+                                                                                                                                                                                                                                 
7682159.bat+ 7682159.bat+      batch                                                                                                                                                                                                               1        112   00:01:27    RUNNING      0:0          0             0             0             0                         0                                                                                                                                      cpu=112,g+                                                                                                                                                                                                                                 
7682159.ext+ 7682159.ext+     extern                                                                                                                                                                                                               2        224   00:01:27    RUNNING      0:0          0             0             0             0                         0                                                                                                                                      billing=2+                                                                                                                                                                                                                                 
7682159.0    7682159.0        siesta               893132K       lrdn4824             12  398281581    883192K   lrdn4824         12  392799140      359     lrdn4824              0         11   00:01:07   lrdn4825        170   00:01:13      224        224   00:01:23  COMPLETED      0:0      3.18G       Unknown       Unknown       Unknown                         0        2.35M        lrdn4824               0          1.39M       16.78M         lrdn4824                0          0.08M            cpu=224,g+ cpu=00:01:13,+ cpu=00:01:17,+ cpu=lrdn4824,ener+ cpu=18,fs/disk=0,+ cpu=00:01:07,+ cpu=lrdn4825,ener+ cpu=170,fs/disk=2+ cpu=04:35:16,+ energy=0,fs/di+ energy=lrdn4825,fs+           fs/disk=0 energy=0,fs/di+ energy=0,fs/di+ 
