{
 "global_section": { "_calls": 1, "_time":       31.412, "_%":   100.00,
   "siesta": { "_calls": 1, "_time":       31.412, "_%":   100.00,
     "Setup": { "_calls": 1, "_time":        2.104, "_%":     6.70,
       "bands": { "_calls": 1, "_time":        0.003, "_%":     0.01},
       "KSV_init": { "_calls": 1, "_time":        0.001, "_%":     0.00}
     },
     "IterGeom": { "_calls": 1, "_time":       29.108, "_%":    92.67,
       "geom_init": { "_calls": 1, "_time":        5.371, "_%":    17.10,
         "state_init": { "_calls": 1, "_time":        0.690, "_%":     2.20,
           "hsparse": { "_calls": 1, "_time":        0.136, "_%":     0.43},
           "overlap": { "_calls": 1, "_time":        0.072, "_%":     0.23}
         },
         "Setup_H0": { "_calls": 1, "_time":        4.680, "_%":    14.90,
           "naefs": { "_calls": 1, "_time":        0.023, "_%":     0.07},
           "MolMec": { "_calls": 1, "_time":        0.000, "_%":     0.00},
           "kinefsm": { "_calls": 1, "_time":        0.071, "_%":     0.22},
           "nlefsm": { "_calls": 1, "_time":        0.235, "_%":     0.75},
           "DHSCF_Init": { "_calls": 1, "_time":        4.336, "_%":    13.80,
             "DHSCF1": { "_calls": 1, "_time":        0.054, "_%":     0.17,
               "INITMESH": { "_calls": 1, "_time":        0.000, "_%":     0.00}
             },
             "DHSCF2": { "_calls": 1, "_time":        4.261, "_%":    13.56,
               "REMESH": { "_calls": 1, "_time":        1.242, "_%":     3.95,
                 "INITMESH": { "_calls": 2, "_time":        1.203, "_%":     3.83,
                   "SPLOAD": { "_calls": 2, "_time":        0.988, "_%":     3.15}
                 }
               },
               "REORD": { "_calls": 2, "_time":        0.016, "_%":     0.05},
               "PHION": { "_calls": 1, "_time":        0.137, "_%":     0.43},
               "COMM_BSC": { "_calls": 1, "_time":        0.205, "_%":     0.65},
               "POISON": { "_calls": 1, "_time":        2.301, "_%":     7.32,
                 "fft": { "_calls": 2, "_time":        2.206, "_%":     7.02}
               }
             }
           }
         }
       },
       "IterSCF": { "_calls": 5, "_time":       23.644, "_%":    75.27,
         "setup_H": { "_calls": 5, "_time":       18.339, "_%":    58.38,
           "DHSCF": { "_calls": 5, "_time":       18.323, "_%":    58.33,
             "DHSCF3": { "_calls": 5, "_time":       18.323, "_%":    58.33,
               "rhoofd": { "_calls": 5, "_time":        0.114, "_%":     0.36},
               "COMM_BSC": { "_calls": 10, "_time":        0.903, "_%":     2.88},
               "POISON": { "_calls": 5, "_time":       11.325, "_%":    36.05,
                 "fft": { "_calls": 10, "_time":       10.850, "_%":    34.54}
               },
               "XC": { "_calls": 5, "_time":        4.828, "_%":    15.37,
                 "COMM_BSC": { "_calls": 10, "_time":        0.659, "_%":     2.10},
                 "GXC-CellXC": { "_calls": 5, "_time":        4.056, "_%":    12.91,
                   "gridxc@cellXC": { "_calls": 5, "_time":        4.056, "_%":    12.91}
                 }
               },
               "vmat": { "_calls": 5, "_time":        0.142, "_%":     0.45}
             }
           }
         },
         "compute_dm": { "_calls": 5, "_time":        5.249, "_%":    16.71,
           "elsi": { "_calls": 5, "_time":        5.248, "_%":    16.71,
             "find nnz_g": { "_calls": 5, "_time":        0.000, "_%":     0.00},
             "elsi-solver": { "_calls": 5, "_time":        5.224, "_%":    16.63}
           }
         },
         "MIXER": { "_calls": 5, "_time":        0.029, "_%":     0.09}
       },
       "state_analysis": { "_calls": 1, "_time":        0.075, "_%":     0.24},
       "siesta_move": { "_calls": 1, "_time":        0.000, "_%":     0.00}
     },
     "Analysis": { "_calls": 1, "_time":        0.185, "_%":     0.59,
       "optical": { "_calls": 1, "_time":        0.001, "_%":     0.00}
     }
   }
 }}
