JobID        JobIDRaw        JobName  Partition  MaxVMSize  MaxVMSizeNode  MaxVMSizeTask  AveVMSize     MaxRSS MaxRSSNode MaxRSSTask     AveRSS MaxPages MaxPagesNode   MaxPagesTask   AvePages     MinCPU MinCPUNode MinCPUTask     AveCPU   NTasks  AllocCPUS    Elapsed      State ExitCode AveCPUFreq ReqCPUFreqMin ReqCPUFreqMax ReqCPUFreqGov     ReqMem ConsumedEnergy  MaxDiskRead MaxDiskReadNode MaxDiskReadTask    AveDiskRead MaxDiskWrite MaxDiskWriteNode MaxDiskWriteTask   AveDiskWrite    ReqTRES  AllocTRES TRESUsageInAve TRESUsageInMax TRESUsageInMaxNode TRESUsageInMaxTask TRESUsageInMin TRESUsageInMinNode TRESUsageInMinTask TRESUsageInTot TRESUsageOutMax TRESUsageOutMaxNode TRESUsageOutMaxTask TRESUsageOutAve TRESUsageOutTot 
------------ ------------ ---------- ---------- ---------- -------------- -------------- ---------- ---------- ---------- ---------- ---------- -------- ------------ -------------- ---------- ---------- ---------- ---------- ---------- -------- ---------- ---------- ---------- -------- ---------- ------------- ------------- ------------- ---------- -------------- ------------ --------------- --------------- -------------- ------------ ---------------- ---------------- -------------- ---------- ---------- -------------- -------------- ------------------ ------------------ -------------- ------------------ ------------------ -------------- --------------- ------------------- ------------------- --------------- --------------- 
34389171     34389171     CovidStro+        cpu                                                                                                                                                                                                             512   01:21:30    RUNNING      0:0                  Unknown       Unknown       Unknown       250G                                                                                                                                          billing=2+ billing=5+                                                                                                                                                                                                                                 
34389171.ba+ 34389171.ba+      batch                                                                                                                                                                                                               1        256   01:21:30    RUNNING      0:0          0             0             0             0                         0                                                                                                                                      cpu=256,m+                                                                                                                                                                                                                                 
34389171.ex+ 34389171.ex+     extern                                                                                                                                                                                                               2        512   01:21:30    RUNNING      0:0          0             0             0             0                         0                                                                                                                                      billing=5+                                                                                                                                                                                                                                 
34389171.0   34389171.0       siesta              1178016K         cn0862            214 1002360768   1142304K     cn0862        250  993025712     1327       cn0862            148        545   01:16:22     cn0859         78   01:17:09      256        512   01:21:28  COMPLETED      0:0     61.01M       Unknown       Unknown       Unknown                         0       28.12M          cn0859               0         26.94M       20.03M           cn0859                0          5.23M            cpu=512,m+ cpu=01:17:09,+ cpu=01:18:01,+ cpu=cn0862,energy+ cpu=243,fs/disk=0+ cpu=01:16:22,+ cpu=cn0859,energy+ cpu=78,fs/disk=23+ cpu=13-17:10:+ energy=0,fs/di+ energy=cn0859,fs/d+           fs/disk=0 energy=0,fs/di+ energy=0,fs/di+ 
