{
 "global_section": { "_calls": 1, "_time":     4878.019, "_%":   100.00,
   "siesta": { "_calls": 1, "_time":     4878.019, "_%":   100.00,
     "Setup": { "_calls": 1, "_time":        1.303, "_%":     0.03,
       "bands": { "_calls": 1, "_time":        0.002, "_%":     0.00},
       "KSV_init": { "_calls": 1, "_time":        0.001, "_%":     0.00}
     },
     "IterGeom": { "_calls": 1, "_time":     4673.177, "_%":    95.80,
       "geom_init": { "_calls": 1, "_time":       13.013, "_%":     0.27,
         "state_init": { "_calls": 1, "_time":        1.955, "_%":     0.04,
           "hsparse": { "_calls": 1, "_time":        0.134, "_%":     0.00},
           "overlap": { "_calls": 1, "_time":        0.737, "_%":     0.02}
         },
         "Setup_H0": { "_calls": 1, "_time":       11.057, "_%":     0.23,
           "naefs": { "_calls": 1, "_time":        0.023, "_%":     0.00},
           "MolMec": { "_calls": 1, "_time":        0.000, "_%":     0.00},
           "kinefsm": { "_calls": 1, "_time":        0.752, "_%":     0.02},
           "nlefsm": { "_calls": 1, "_time":        1.666, "_%":     0.03},
           "DHSCF_Init": { "_calls": 1, "_time":        8.601, "_%":     0.18,
             "DHSCF1": { "_calls": 1, "_time":        0.061, "_%":     0.00,
               "INITMESH": { "_calls": 1, "_time":        0.000, "_%":     0.00}
             },
             "DHSCF2": { "_calls": 1, "_time":        8.521, "_%":     0.17,
               "REMESH": { "_calls": 1, "_time":        2.759, "_%":     0.06,
                 "INITMESH": { "_calls": 2, "_time":        2.729, "_%":     0.06,
                   "SPLOAD": { "_calls": 2, "_time":        2.696, "_%":     0.06}
                 }
               },
               "REORD": { "_calls": 2, "_time":        0.023, "_%":     0.00},
               "PHION": { "_calls": 1, "_time":        0.543, "_%":     0.01},
               "COMM_BSC": { "_calls": 1, "_time":        0.085, "_%":     0.00},
               "POISON": { "_calls": 1, "_time":        4.318, "_%":     0.09,
                 "fft": { "_calls": 2, "_time":        4.130, "_%":     0.08}
               }
             }
           }
         }
       },
       "IterSCF": { "_calls": 5, "_time":     4660.107, "_%":    95.53,
         "setup_H": { "_calls": 5, "_time":       35.074, "_%":     0.72,
           "DHSCF": { "_calls": 5, "_time":       34.993, "_%":     0.72,
             "DHSCF3": { "_calls": 5, "_time":       34.993, "_%":     0.72,
               "rhoofd": { "_calls": 5, "_time":        0.354, "_%":     0.01},
               "COMM_BSC": { "_calls": 10, "_time":        1.880, "_%":     0.04},
               "POISON": { "_calls": 5, "_time":       21.385, "_%":     0.44,
                 "fft": { "_calls": 10, "_time":       20.349, "_%":     0.42}
               },
               "XC": { "_calls": 5, "_time":        9.023, "_%":     0.18,
                 "COMM_BSC": { "_calls": 10, "_time":        0.959, "_%":     0.02},
                 "GXC-CellXC": { "_calls": 5, "_time":        7.818, "_%":     0.16,
                   "gridxc@cellXC": { "_calls": 5, "_time":        7.818, "_%":     0.16}
                 }
               },
               "vmat": { "_calls": 5, "_time":        0.351, "_%":     0.01}
             }
           }
         },
         "compute_dm": { "_calls": 5, "_time":     4624.768, "_%":    94.81,
           "diagon": { "_calls": 5, "_time":     4622.063, "_%":    94.75,
             "r-eigvec": { "_calls": 5, "_time":     4449.036, "_%":    91.21,
               "r-buildHS": { "_calls": 5, "_time":        0.845, "_%":     0.02},
               "rdiag": { "_calls": 5, "_time":     4448.191, "_%":    91.19,
                 "rdiag1": { "_calls": 5, "_time":      104.088, "_%":     2.13},
                 "rdiag2": { "_calls": 5, "_time":      294.666, "_%":     6.04},
                 "rdiag3": { "_calls": 5, "_time":     3584.148, "_%":    73.48},
                 "rdiag4": { "_calls": 5, "_time":      450.161, "_%":     9.23}
               }
             },
             "r-buildD": { "_calls": 5, "_time":      170.974, "_%":     3.50}
           }
         },
         "MIXER": { "_calls": 5, "_time":        0.238, "_%":     0.00}
       },
       "state_analysis": { "_calls": 1, "_time":        0.049, "_%":     0.00},
       "siesta_move": { "_calls": 1, "_time":        0.000, "_%":     0.00}
     },
     "Analysis": { "_calls": 1, "_time":      202.991, "_%":     4.16,
       "optical": { "_calls": 1, "_time":        0.001, "_%":     0.00}
     }
   }
 }}
