
     Program PWSCF v.7.3.1 starts on 28Dec2024 at 22:29: 6 

     This program is part of the open-source Quantum ESPRESSO suite
     for quantum simulation of materials; please cite
         "P. Giannozzi et al., J. Phys.:Condens. Matter 21 395502 (2009);
         "P. Giannozzi et al., J. Phys.:Condens. Matter 29 465901 (2017);
         "P. Giannozzi et al., J. Chem. Phys. 152 154105 (2020);
          URL http://www.quantum-espresso.org", 
     in publications or presentations arising from this work. More details at
     http://www.quantum-espresso.org/quote

     Parallel version (MPI & OpenMP), running on       4 processor cores
     Number of MPI processes:                 4
     Threads/MPI process:                     1

     MPI processes distributed on     1 nodes
     502504 MiB available memory on the printing compute node when the environment starts
 
     Reading input from pwscf.36.in
Warning: card &CELL ignored
Warning: card / ignored

     Current dimensions of program PWSCF are:
     Max number of different atomic species (ntypx) = 10
     Max number of k-points (npk) =  40000
     Max angular momentum in pseudopotentials (lmaxx) =  4
     file O.pbe-mt.UPF: wavefunction(s)  4f renormalized
     Found identity + (  0.5000  0.0000  0.0000) symmetry
     This is a supercell, fractional translations are disabled
 
     K-points division:     npool     =       4
     Subspace diagonalization in iterative solution of the eigenvalue problem:
     a serial algorithm will be used

 
     G-vector sticks info
     --------------------
     sticks:   dense  smooth     PW     G-vecs:    dense   smooth      PW
     Sum        7595    7595   2029               294685   294685   40503
 
     Using Slab Decomposition
 

     Title: 
     'srtio_bulk'                                                               


     bravais-lattice index     =            8
     lattice parameter (alat)  =      18.5722  a.u.
     unit-cell volume          =    3051.0810 (a.u.)^3
     number of atoms/cell      =           36
     number of atomic types    =            2
     number of electrons       =       192.00
     number of Kohn-Sham states=           96
     kinetic-energy cutoff     =      80.0000  Ry
     charge density cutoff     =     320.0000  Ry
     scf convergence threshold =      1.0E-10
     mixing beta               =       0.7000
     number of iterations used =            8  plain     mixing
     Exchange-correlation= PBE
                           (   1   4   3   4   0   0   0)

     GPU acceleration is ACTIVE.  1 visible GPUs per MPI rank
     GPU-aware MPI enabled

     Message from routine print_cuda_info:
     High GPU oversubscription detected. Are you sure this is what you want?

     celldm(1)=  18.572236  celldm(2)=   0.866025  celldm(3)=   0.549959
     celldm(4)=   0.000000  celldm(5)=   0.000000  celldm(6)=   0.000000

     crystal axes: (cart. coord. in units of alat)
               a(1) = (   1.000000   0.000000   0.000000 )  
               a(2) = (   0.000000   0.866025   0.000000 )  
               a(3) = (   0.000000   0.000000   0.549959 )  

     reciprocal axes: (cart. coord. in units 2 pi/alat)
               b(1) = (  1.000000  0.000000  0.000000 )  
               b(2) = (  0.000000  1.154701  0.000000 )  
               b(3) = (  0.000000  0.000000  1.818316 )  


     PseudoPot. # 1 for Si read from file:
     ./Si.pbe-rrkj.UPF
     MD5 check sum: cf7ab5690cd9a85b22c4813f7e365554
     Pseudo is Norm-conserving, Zval =  4.0
     Generated by new atomic code, or converted to UPF format
     Using radial grid of  883 points,  3 beta functions with: 
                l(1) =   0
                l(2) =   0
                l(3) =   1

     PseudoPot. # 2 for O  read from file:
     ./O.pbe-mt.UPF
     MD5 check sum: a3e1ba1345403f1d3f3510e3a35dc3de
     Pseudo is Norm-conserving, Zval =  6.0
     Generated using Fritz-Haber code, data in Abinit PP tables
     Using radial grid of  473 points,  3 beta functions with: 
                l(1) =   0
                l(2) =   1
                l(3) =   3

     atomic species   valence    mass     pseudopotential
     Si                4.00    47.86700     Si( 1.00)
     O                 6.00    15.99940     O ( 1.00)

      2 Sym. Ops. (no inversion) found



   Cartesian axes

     site n.     atom                  positions (alat units)
         1        Si     tau(   1) = (   0.2311121   0.0000000   0.0000000  )
         2        Si     tau(   2) = (   0.7311121   0.0000000   0.0000000  )
         3        Si     tau(   3) = (   0.4811121   0.4330127   0.0000000  )
         4        Si     tau(   4) = (   0.9811121   0.4330127   0.0000000  )
         5        O      tau(   5) = (   0.1338450   0.7446650   0.0590732  )
         6        O      tau(   6) = (   0.6338450   0.7446650   0.0590732  )
         7        O      tau(   7) = (   0.3838450   0.3116523   0.0590732  )
         8        O      tau(   8) = (   0.8838450   0.3116523   0.0590731  )
         9        O      tau(   9) = (   0.3279876   0.0552698   0.1242343  )
        10        O      tau(  10) = (   0.8279876   0.0552698   0.1242343  )
        11        O      tau(  11) = (   0.0779875   0.4882825   0.1242343  )
        12        O      tau(  12) = (   0.5779875   0.4882824   0.1242343  )
        13        Si     tau(  13) = (   0.3844407   0.2001676   0.1833369  )
        14        Si     tau(  14) = (   0.8844407   0.2001676   0.1833369  )
        15        Si     tau(  15) = (   0.1344407   0.6331804   0.1833369  )
        16        Si     tau(  16) = (   0.6344407   0.6331804   0.1833368  )
        17        O      tau(  17) = (   0.0381707   0.1764718   0.2424120  )
        18        O      tau(  18) = (   0.5381707   0.1764718   0.2424120  )
        19        O      tau(  19) = (   0.2881707   0.6094844   0.2424120  )
        20        O      tau(  20) = (   0.7881707   0.6094844   0.2424120  )
        21        O      tau(  21) = (   0.0381707   0.6895536   0.3075473  )
        22        O      tau(  22) = (   0.5381707   0.6895536   0.3075473  )
        23        O      tau(  23) = (   0.2881707   0.2565410   0.3075473  )
        24        O      tau(  24) = (   0.7881707   0.2565410   0.3075473  )
        25        Si     tau(  25) = (   0.3844407   0.6658578   0.3666224  )
        26        Si     tau(  26) = (   0.8844407   0.6658578   0.3666224  )
        27        Si     tau(  27) = (   0.1344407   0.2328450   0.3666224  )
        28        Si     tau(  28) = (   0.6344407   0.2328450   0.3666225  )
        29        O      tau(  29) = (   0.3279876   0.8107556   0.4257250  )
        30        O      tau(  30) = (   0.8279876   0.8107556   0.4257250  )
        31        O      tau(  31) = (   0.0779875   0.3777429   0.4257250  )
        32        O      tau(  32) = (   0.5779875   0.3777430   0.4257250  )
        33        O      tau(  33) = (   0.1338450   0.1213604   0.4908861  )
        34        O      tau(  34) = (   0.6338450   0.1213604   0.4908861  )
        35        O      tau(  35) = (   0.3838450   0.5543731   0.4908861  )
        36        O      tau(  36) = (   0.8838450   0.5543731   0.4908862  )

     number of k points=     8
                       cart. coord. in units 2pi/alat
        k(    1) = (   0.2500000   0.1443376   0.2272895), wk =   0.2500000
        k(    2) = (   0.2500000   0.1443376   0.6818686), wk =   0.2500000
        k(    3) = (   0.2500000   0.4330127   0.2272895), wk =   0.2500000
        k(    4) = (   0.2500000   0.4330127   0.6818686), wk =   0.2500000
        k(    5) = (  -0.2500000   0.1443376  -0.2272895), wk =   0.2500000
        k(    6) = (  -0.2500000   0.1443376  -0.6818686), wk =   0.2500000
        k(    7) = (  -0.2500000   0.4330127  -0.2272895), wk =   0.2500000
        k(    8) = (  -0.2500000   0.4330127  -0.6818686), wk =   0.2500000

     Dense  grid:   294685 G-vectors     FFT dimensions: ( 108,  96,  60)

     Estimated max dynamical RAM per process >    1009.98 MB

     Estimated total dynamical RAM >       3.73 GB

     Initial potential from superposition of free atoms

     starting charge     191.9933, renormalised to     192.0000
     Starting wfcs are  432 randomized atomic wfcs

     total cpu time spent up to now is        2.9 secs

     per-process dynamical memory:  1914.6 Mb

     Self-consistent Calculation

     iteration #  1     ecut=    80.00 Ry     beta= 0.70
     Davidson diagonalization with overlap
     ethr =  1.00E-02,  avg # of iterations =  2.0

     total cpu time spent up to now is        3.6 secs

     total energy              =    -862.14876285 Ry
     estimated scf accuracy    <       8.65767308 Ry

     iteration #  2     ecut=    80.00 Ry     beta= 0.70
     Davidson diagonalization with overlap
     ethr =  4.51E-03,  avg # of iterations =  2.0

     total cpu time spent up to now is        4.3 secs

     total energy              =    -864.89883520 Ry
     estimated scf accuracy    <       4.82274219 Ry

     iteration #  3     ecut=    80.00 Ry     beta= 0.70
     Davidson diagonalization with overlap
     ethr =  2.51E-03,  avg # of iterations =  2.0

     total cpu time spent up to now is        5.0 secs

     total energy              =    -865.62001024 Ry
     estimated scf accuracy    <       0.07114459 Ry

     iteration #  4     ecut=    80.00 Ry     beta= 0.70
     Davidson diagonalization with overlap
     ethr =  3.71E-05,  avg # of iterations =  4.0

     total cpu time spent up to now is        5.8 secs

     total energy              =    -865.66986754 Ry
     estimated scf accuracy    <       0.08012142 Ry

     iteration #  5     ecut=    80.00 Ry     beta= 0.70
     Davidson diagonalization with overlap
     ethr =  3.71E-05,  avg # of iterations =  1.0

     total cpu time spent up to now is        6.4 secs

     total energy              =    -865.66578752 Ry
     estimated scf accuracy    <       0.02060257 Ry

     iteration #  6     ecut=    80.00 Ry     beta= 0.70
     Davidson diagonalization with overlap
     ethr =  1.07E-05,  avg # of iterations =  2.0

     total cpu time spent up to now is        7.0 secs

     total energy              =    -865.66885705 Ry
     estimated scf accuracy    <       0.00080806 Ry

     iteration #  7     ecut=    80.00 Ry     beta= 0.70
     Davidson diagonalization with overlap
     ethr =  4.21E-07,  avg # of iterations =  3.0

     total cpu time spent up to now is        7.8 secs

     total energy              =    -865.66923793 Ry
     estimated scf accuracy    <       0.00008620 Ry

     iteration #  8     ecut=    80.00 Ry     beta= 0.70
     Davidson diagonalization with overlap
     ethr =  4.49E-08,  avg # of iterations =  2.0

     total cpu time spent up to now is        8.4 secs

     total energy              =    -865.66920006 Ry
     estimated scf accuracy    <       0.00006823 Ry

     iteration #  9     ecut=    80.00 Ry     beta= 0.70
     Davidson diagonalization with overlap
     ethr =  3.55E-08,  avg # of iterations =  2.0

     total cpu time spent up to now is        9.1 secs

     total energy              =    -865.66922189 Ry
     estimated scf accuracy    <       0.00000785 Ry

     iteration # 10     ecut=    80.00 Ry     beta= 0.70
     Davidson diagonalization with overlap
     ethr =  4.09E-09,  avg # of iterations =  2.0

     total cpu time spent up to now is        9.7 secs

     total energy              =    -865.66922090 Ry
     estimated scf accuracy    <       0.00000308 Ry

     iteration # 11     ecut=    80.00 Ry     beta= 0.70
     Davidson diagonalization with overlap
     ethr =  1.60E-09,  avg # of iterations =  2.0

     total cpu time spent up to now is       10.4 secs

     total energy              =    -865.66922133 Ry
     estimated scf accuracy    <       0.00000011 Ry

     iteration # 12     ecut=    80.00 Ry     beta= 0.70
     Davidson diagonalization with overlap
     ethr =  5.84E-11,  avg # of iterations =  2.5

     total cpu time spent up to now is       11.1 secs

     total energy              =    -865.66922136 Ry
     estimated scf accuracy    <          1.1E-09 Ry

     iteration # 13     ecut=    80.00 Ry     beta= 0.70
     Davidson diagonalization with overlap
     ethr =  5.49E-13,  avg # of iterations =  6.0

     total cpu time spent up to now is       12.0 secs

     total energy              =    -865.66922137 Ry
     estimated scf accuracy    <          2.2E-09 Ry

     iteration # 14     ecut=    80.00 Ry     beta= 0.70
     Davidson diagonalization with overlap
     ethr =  5.49E-13,  avg # of iterations =  2.0

     total cpu time spent up to now is       12.7 secs

     total energy              =    -865.66922137 Ry
     estimated scf accuracy    <          3.9E-10 Ry

     iteration # 15     ecut=    80.00 Ry     beta= 0.70
     Davidson diagonalization with overlap
     ethr =  2.01E-13,  avg # of iterations =  3.0

     total cpu time spent up to now is       13.4 secs

     End of self-consistent calculation

          k = 0.2500 0.1443 0.2273 ( 36875 PWs)   bands (ev):

   -16.4584 -16.2129 -16.0378 -15.9115 -15.6727 -15.5620 -15.4150 -15.3160
   -15.0715 -15.0485 -15.0124 -14.8580 -14.5220 -14.5212 -14.5121 -14.4903
   -14.4875 -14.4794 -14.4685 -14.4566 -14.4487 -14.4482 -14.4327 -14.4120
    -5.6673  -5.4965  -5.4758  -5.4649  -4.8352  -4.6523  -4.4654  -4.1882
    -3.6711  -3.3282  -3.1216  -2.8083  -2.6460  -2.6391  -2.6212  -2.5781
    -2.5089  -2.4463  -2.4363  -2.4135  -2.2759  -2.0340  -1.8776  -1.8152
    -0.4408  -0.3890  -0.3765  -0.3756  -0.2239  -0.2043  -0.1324  -0.1221
    -0.0994  -0.0249   0.0564   0.0996   0.3297   0.3667   0.3821   0.5521
     0.6295   0.6823   0.7002   0.8314   0.9230   1.0065   1.0716   1.1469
     1.1816   1.2568   1.2847   1.2949   1.4092   1.4138   1.4330   1.4542
     1.6258   1.6287   1.6535   1.6736   1.6801   1.8775   2.0001   2.0892
     2.2296   2.2362   2.2644   2.3073   2.4805   2.5389   2.5428   2.5433

          k = 0.2500 0.1443 0.6819 ( 36851 PWs)   bands (ev):

   -16.2297 -16.0567 -15.9757 -15.9335 -15.8158 -15.6783 -15.5567 -15.4959
   -15.1965 -15.1067 -14.8984 -14.5689 -14.5412 -14.5396 -14.5165 -14.5121
   -14.4956 -14.4798 -14.4751 -14.4724 -14.4577 -14.4495 -14.4323 -14.4299
    -6.1430  -5.6433  -5.3358  -5.1419  -4.4946  -4.4075  -4.2010  -3.9255
    -3.7187  -3.5848  -3.4965  -3.2232  -2.7260  -2.6503  -2.5848  -2.5444
    -2.4847  -2.3333  -2.2261  -2.2238  -2.1538  -2.1323  -2.0807  -1.9864
    -0.5552  -0.5203  -0.4917  -0.3709  -0.3139  -0.2676  -0.2322   0.0075
     0.0556   0.0861   0.1653   0.2159   0.3637   0.4929   0.5000   0.6358
     0.7282   0.7391   0.7550   0.7821   0.8602   1.0167   1.0324   1.1397
     1.1819   1.3254   1.3352   1.3876   1.4251   1.4640   1.5347   1.5680
     1.5771   1.6511   1.6541   1.6990   1.7583   1.8458   1.9773   1.9875
     2.0302   2.0771   2.1901   2.2628   2.3427   2.4067   2.4360   2.5054

          k = 0.2500 0.4330 0.2273 ( 36906 PWs)   bands (ev):

   -16.3709 -16.2129 -16.1508 -16.0346 -15.5735 -15.4639 -15.4147 -15.3391
   -15.0344 -15.0302 -15.0125 -14.9184 -14.5261 -14.5169 -14.5124 -14.4918
   -14.4858 -14.4805 -14.4797 -14.4647 -14.4521 -14.4396 -14.4326 -14.4196
    -5.5800  -5.4953  -5.4735  -5.4656  -4.7927  -4.6527  -4.6212  -4.4621
    -3.3255  -3.1229  -3.1170  -2.9102  -2.6576  -2.6423  -2.6389  -2.6129
    -2.4728  -2.4553  -2.4515  -2.4366  -2.2306  -2.0336  -1.9562  -1.8944
    -0.4529  -0.4429  -0.4402  -0.4264  -0.1838  -0.1154  -0.1095  -0.0992
     0.0081   0.0169   0.0574   0.1260   0.2428   0.3294   0.4282   0.4597
     0.6189   0.6813   0.7552   0.7985   0.9785   0.9866   1.0711   1.0985
     1.2071   1.2309   1.2709   1.2848   1.4328   1.4490   1.4510   1.4970
     1.5965   1.6289   1.6520   1.7148   1.7412   1.8769   1.9334   1.9439
     2.2298   2.2637   2.2996   2.3052   2.5043   2.5157   2.5436   2.5518

          k = 0.2500 0.4330 0.6819 ( 36864 PWs)   bands (ev):

   -16.1610 -16.0567 -16.0274 -15.9713 -15.7724 -15.6781 -15.6269 -15.5719
   -15.0895 -14.9910 -14.8988 -14.6820 -14.5461 -14.5294 -14.5162 -14.4944
   -14.4939 -14.4830 -14.4799 -14.4589 -14.4556 -14.4497 -14.4430 -14.4389
    -5.9572  -5.6427  -5.5335  -5.3366  -4.4009  -4.2995  -4.2012  -4.0210
    -3.5893  -3.4969  -3.4838  -3.3513  -2.6527  -2.6033  -2.5839  -2.5312
    -2.5109  -2.3336  -2.2639  -2.2099  -2.1726  -2.0911  -2.0811  -2.0310
    -0.5341  -0.4909  -0.4909  -0.4139  -0.3694  -0.3605  -0.2665  -0.0762
     0.1416   0.1799   0.2156   0.2590   0.3582   0.3637   0.4392   0.5130
     0.7131   0.7235   0.7271   0.7938   0.9687   1.1070   1.1402   1.1681
     1.2475   1.3350   1.3351   1.3920   1.4170   1.5077   1.5209   1.5342
     1.5602   1.6474   1.6501   1.6841   1.7367   1.7581   1.9116   1.9423
     2.0323   2.1314   2.1899   2.2943   2.3828   2.4364   2.4565   2.4801

          k =-0.2500 0.1443-0.2273 ( 36875 PWs)   bands (ev):

   -16.4582 -16.2111 -16.0346 -15.9115 -15.6727 -15.5732 -15.4295 -15.3190
   -15.0715 -15.0346 -14.9906 -14.8522 -14.5259 -14.5209 -14.5167 -14.4906
   -14.4857 -14.4797 -14.4682 -14.4565 -14.4526 -14.4492 -14.4371 -14.4144
    -5.6670  -5.4960  -5.4759  -5.4647  -4.8347  -4.6488  -4.4618  -4.1880
    -3.6713  -3.3270  -3.1169  -2.8041  -2.6486  -2.6253  -2.6127  -2.5782
    -2.4958  -2.4555  -2.4478  -2.4135  -2.2952  -2.0603  -1.8940  -1.8151
    -0.4930  -0.4523  -0.4001  -0.3755  -0.2042  -0.1830  -0.1223  -0.1047
    -0.0912   0.0080   0.0882   0.0990   0.4000   0.4436   0.4599   0.5524
     0.6184   0.6288   0.6328   0.8316   0.9859   1.0439   1.0977   1.1000
     1.1469   1.1909   1.2237   1.2812   1.4140   1.4279   1.4318   1.4517
     1.5694   1.6534   1.6690   1.7122   1.7150   1.8314   1.9438   2.0893
     2.2297   2.2986   2.3300   2.3310   2.4590   2.5011   2.5158   2.5387

          k =-0.2500 0.1443-0.6819 ( 36851 PWs)   bands (ev):

   -16.2290 -16.0520 -15.9711 -15.9335 -15.8173 -15.6895 -15.5717 -15.4959
   -15.1965 -15.0900 -14.8810 -14.5611 -14.5455 -14.5410 -14.5238 -14.5123
   -14.4944 -14.4822 -14.4751 -14.4686 -14.4595 -14.4510 -14.4462 -14.4270
    -6.1428  -5.6427  -5.3360  -5.1420  -4.4943  -4.4007  -4.1927  -3.9237
    -3.7188  -3.5900  -3.5032  -3.2242  -2.7297  -2.6425  -2.5675  -2.5309
    -2.4848  -2.3302  -2.2260  -2.2099  -2.1727  -2.1538  -2.1196  -1.9959
    -0.5552  -0.5334  -0.5080  -0.3599  -0.3182  -0.2560  -0.2322   0.0074
     0.0429   0.0913   0.1797   0.2167   0.4091   0.5129   0.5232   0.6361
     0.7628   0.7640   0.7817   0.7933   0.8602   0.9689   1.0202   1.0804
     1.1315   1.3232   1.3407   1.3915   1.4235   1.4642   1.5108   1.5211
     1.5680   1.6252   1.6839   1.6992   1.8564   1.9422   1.9772   1.9907
     2.0306   2.0315   2.2028   2.2625   2.3733   2.3828   2.3861   2.4725

          k =-0.2500 0.4330-0.2273 ( 36906 PWs)   bands (ev):

   -16.3709 -16.2111 -16.1468 -16.0377 -15.5624 -15.4882 -15.4292 -15.3391
   -15.0484 -14.9946 -14.9907 -14.9184 -14.5246 -14.5216 -14.5165 -14.4924
   -14.4879 -14.4818 -14.4802 -14.4644 -14.4484 -14.4462 -14.4372 -14.4194
    -5.5798  -5.4950  -5.4727  -5.4660  -4.7930  -4.6488  -4.6149  -4.4653
    -3.3270  -3.1183  -3.1098  -2.9101  -2.6422  -2.6251  -2.6215  -2.6116
    -2.5229  -2.4515  -2.4481  -2.4460  -2.2307  -2.0598  -1.9938  -1.8778
    -0.5156  -0.4923  -0.4431  -0.3892  -0.2249  -0.1178  -0.1095  -0.0907
    -0.0250   0.0995   0.1104   0.1263   0.3665   0.4283   0.4428   0.4436
     0.6328   0.6350   0.7006   0.7982   0.9235   1.0317   1.0985   1.1110
     1.1824   1.1907   1.2077   1.2712   1.4326   1.4491   1.4539   1.4894
     1.5958   1.6691   1.6798   1.7288   1.7404   1.8206   1.8315   2.0003
     2.2376   2.3054   2.3305   2.3664   2.4710   2.5008   2.5048   2.5421

          k =-0.2500 0.4330-0.6819 ( 36864 PWs)   bands (ev):

   -16.1610 -16.0519 -16.0185 -15.9757 -15.7724 -15.6894 -15.6506 -15.5570
   -15.1062 -14.9599 -14.8814 -14.6819 -14.5404 -14.5400 -14.5232 -14.4957
   -14.4942 -14.4854 -14.4821 -14.4572 -14.4558 -14.4515 -14.4463 -14.4385
    -5.9571  -5.6423  -5.5327  -5.3366  -4.4071  -4.2860  -4.1923  -4.0215
    -3.5845  -3.5040  -3.4947  -3.3510  -2.6522  -2.5716  -2.5670  -2.5451
    -2.5114  -2.3301  -2.2525  -2.2235  -2.1658  -2.1322  -2.1201  -2.0310
    -0.5254  -0.5207  -0.5070  -0.4140  -0.3718  -0.3375  -0.2552  -0.0763
     0.1416   0.1654   0.2167   0.2538   0.4085   0.4398   0.4469   0.4930
     0.7129   0.7556   0.7619   0.7701   1.0319   1.0703   1.0809   1.1070
     1.2479   1.2926   1.3223   1.3879   1.4170   1.5070   1.5106   1.5108
     1.5777   1.6250   1.6500   1.6546   1.8468   1.8565   1.9093   1.9113
     2.0773   2.1057   2.2018   2.2943   2.3863   2.4062   2.4209   2.4571

     highest occupied level (ev):     2.5518

!    total energy              =    -865.66922137 Ry
     estimated scf accuracy    <          6.2E-11 Ry

     The total energy is the sum of the following terms:
     one-electron contribution =    -392.56238542 Ry
     hartree contribution      =     298.80269717 Ry
     xc contribution           =    -202.05304312 Ry
     ewald contribution        =    -569.85648999 Ry

     convergence has been achieved in  15 iterations

     Writing all to output data dir ./out/SiO2_OR_36_nc.save/ :
     XML data file, charge density, pseudopotentials, collected wavefunctions
 
     init_run     :      1.45s CPU      2.72s WALL (       1 calls)
     electrons    :     10.39s CPU     10.57s WALL (       1 calls)

     Called by init_run:
     wfcinit      :      1.19s CPU      2.22s WALL (       1 calls)
     potinit      :      0.05s CPU      0.07s WALL (       1 calls)
     hinit0       :      0.12s CPU      0.18s WALL (       1 calls)

     Called by electrons:
     c_bands      :      7.62s CPU      7.69s WALL (      15 calls)
     sum_band     :      1.83s CPU      1.85s WALL (      15 calls)
     v_of_rho     :      0.27s CPU      0.30s WALL (      16 calls)
     mix_rho      :      0.44s CPU      0.47s WALL (      15 calls)

     Called by c_bands:
     init_us_2    :      0.12s CPU      0.12s WALL (      62 calls)
     cegterg      :      6.10s CPU      6.14s WALL (      30 calls)

     Called by *egterg:
     cdiaghg      :      0.92s CPU      1.17s WALL (     105 calls)
                                        1.16s GPU  (     105 calls)
     h_psi        :      5.52s CPU      6.26s WALL (     107 calls)
                                        6.23s GPU  (     107 calls)
     g_psi        :      0.00s CPU      0.03s WALL (      75 calls)
                                        0.02s GPU  (      75 calls)

     Called by h_psi:
     h_psi:calbec :      0.51s CPU      1.33s WALL (     107 calls)
                                        1.33s GPU  (     107 calls)
     vloc_psi     :      4.17s CPU      4.19s WALL (     107 calls)
                                        4.19s GPU  (     107 calls)
     add_vuspsi   :      0.59s CPU      0.67s WALL (     107 calls)
                                        0.67s GPU  (     107 calls)

     General routines
     calbec       :      0.51s CPU      1.23s WALL (     107 calls)
     fft          :      0.02s CPU      0.08s WALL (     159 calls)
                                        0.08s GPU  (     159 calls)
     ffts         :      0.00s CPU      0.00s WALL (      15 calls)
                                        0.00s GPU  (      15 calls)
     fftw         :      0.02s CPU      3.30s WALL (    1364 calls)
                                        3.28s GPU  (    1364 calls)
 
     Parallel routines
 
     PWSCF        :     11.99s CPU     13.66s WALL

 
   This run was terminated on:  22:29:20  28Dec2024            

=------------------------------------------------------------------------------=
   JOB DONE.
=------------------------------------------------------------------------------=
