       JobID     JobIDRaw    JobName  Partition  MaxVMSize  MaxVMSizeNode  MaxVMSizeTask  AveVMSize     MaxRSS MaxRSSNode MaxRSSTask     AveRSS MaxPages MaxPagesNode   MaxPagesTask   AvePages     MinCPU MinCPUNode MinCPUTask     AveCPU   NTasks  AllocCPUS    Elapsed      State ExitCode AveCPUFreq ReqCPUFreqMin ReqCPUFreqMax ReqCPUFreqGov     ReqMem ConsumedEnergy  MaxDiskRead MaxDiskReadNode MaxDiskReadTask    AveDiskRead MaxDiskWrite MaxDiskWriteNode MaxDiskWriteTask   AveDiskWrite    AllocGRES      ReqGRES    ReqTRES  AllocTRES TRESUsageInAve TRESUsageInMax TRESUsageInMaxNode TRESUsageInMaxTask TRESUsageInMin TRESUsageInMinNode TRESUsageInMinTask TRESUsageInTot TRESUsageOutMax TRESUsageOutMaxNode TRESUsageOutMaxTask TRESUsageOutAve TRESUsageOutTot 
------------ ------------ ---------- ---------- ---------- -------------- -------------- ---------- ---------- ---------- ---------- ---------- -------- ------------ -------------- ---------- ---------- ---------- ---------- ---------- -------- ---------- ---------- ---------- -------- ---------- ------------- ------------- ------------- ---------- -------------- ------------ --------------- --------------- -------------- ------------ ---------------- ---------------- -------------- ------------ ------------ ---------- ---------- -------------- -------------- ------------------ ------------------ -------------- ------------------ ------------------ -------------- --------------- ------------------- ------------------- --------------- --------------- 
248110       248110        CovidWeak         cn                                                                                                                                                                                                            2048   00:18:09    RUNNING      0:0                  Unknown       Unknown       Unknown        1Gc                                                                                                                                                                    billing=2+ billing=2+                                                                                                                                                                                                                                 
248110.batch 248110.batch      batch                                                                                                                                                                                                               1        128   00:18:09    RUNNING      0:0          0             0             0             0        1Gc              0                                                                                                                                                                cpu=128,m+                                                                                                                                                                                                                                 
248110.0     248110.0         siesta              1777576K         cn0545              0 1357770094    477468K     cn0562       1408  378952010      113       cn0545              0         21   00:17:44     cn0562       1412   00:17:52     2048       2048   00:18:07  COMPLETED      0:0      1.63M       Unknown       Unknown       Unknown        1Gc              0       11.92M          cn0546             224          8.54M       27.42M           cn0545                0          5.14M                                      cpu=2048,+ cpu=00:17:52,+ cpu=00:17:53,+ cpu=cn0547,energy+ cpu=299,fs/disk=2+ cpu=00:17:44,+ cpu=cn0562,energy+ cpu=1412,fs/disk=+ cpu=25-10:06:+ energy=0,fs/di+ energy=cn0562,fs/d+           fs/disk=0 energy=0,fs/di+ energy=0,fs/di+ 
