Unloading profile/base
  ERROR: Module evaluation aborted
[0] MPI startup(): Intel(R) MPI Library, Version 2021.10  Build 20230619 (id: c2e19c2f3e)
[0] MPI startup(): Copyright (C) 2003-2023 Intel Corporation.  All rights reserved.
[0] MPI startup(): library kind: release
[0] MPI startup(): libfabric version: 1.18.0-impi
[0] MPI startup(): libfabric provider: mlx
[0] MPI startup(): File "/leonardo/prod/spack/05/install/0.21/linux-rhel8-icelake/gcc-8.5.0/intel-oneapi-mpi-2021.10.0-6ff7efudnkj4xa7o4j67mxatygwzfwqc/mpi/2021.10.0/etc/tuning_spr_shm-ofi_mlx_100.dat" not found
[0] MPI startup(): Load tuning file: "/leonardo/prod/spack/05/install/0.21/linux-rhel8-icelake/gcc-8.5.0/intel-oneapi-mpi-2021.10.0-6ff7efudnkj4xa7o4j67mxatygwzfwqc/mpi/2021.10.0/etc/tuning_spr_shm-ofi.dat"
[0] MPI startup(): Rank    Pid      Node name                Pin cpu
[0] MPI startup(): 0       311876   lrdn3606.leonardo.local  {0,1,2,3,4,5,6,7,8,9,10,11,12,13}
[0] MPI startup(): 1       311877   lrdn3606.leonardo.local  {14,15,16,17,18,19,20,21,22,23,24,25,26,27}
[0] MPI startup(): 2       311878   lrdn3606.leonardo.local  {28,29,30,31,32,33,34,35,36,37,38,39,40,41}
[0] MPI startup(): 3       311879   lrdn3606.leonardo.local  {42,43,44,45,46,47,48,49,50,51,52,53,54,55}
[0] MPI startup(): 4       311880   lrdn3606.leonardo.local  {56,57,58,59,60,61,62,63,64,65,66,67,68,69}
[0] MPI startup(): 5       311881   lrdn3606.leonardo.local  {70,71,72,73,74,75,76,77,78,79,80,81,82,83}
[0] MPI startup(): 6       311882   lrdn3606.leonardo.local  {84,85,86,87,88,89,90,91,92,93,94,95,96,97}
[0] MPI startup(): 7       311883   lrdn3606.leonardo.local  {98,99,100,101,102,103,104,105,106,107,108,109,110,111}
[0] MPI startup(): 8       310326   lrdn3607.leonardo.local  {0,1,2,3,4,5,6,7,8,9,10,11,12,13}
[0] MPI startup(): 9       310327   lrdn3607.leonardo.local  {14,15,16,17,18,19,20,21,22,23,24,25,26,27}
[0] MPI startup(): 10      310328   lrdn3607.leonardo.local  {28,29,30,31,32,33,34,35,36,37,38,39,40,41}
[0] MPI startup(): 11      310329   lrdn3607.leonardo.local  {42,43,44,45,46,47,48,49,50,51,52,53,54,55}
[0] MPI startup(): 12      310330   lrdn3607.leonardo.local  {56,57,58,59,60,61,62,63,64,65,66,67,68,69}
[0] MPI startup(): 13      310331   lrdn3607.leonardo.local  {70,71,72,73,74,75,76,77,78,79,80,81,82,83}
[0] MPI startup(): 14      310332   lrdn3607.leonardo.local  {84,85,86,87,88,89,90,91,92,93,94,95,96,97}
[0] MPI startup(): 15      310333   lrdn3607.leonardo.local  {98,99,100,101,102,103,104,105,106,107,108,109,110,111}
[0] MPI startup(): 16      327047   lrdn3608.leonardo.local  {0,1,2,3,4,5,6,7,8,9,10,11,12,13}
[0] MPI startup(): 17      327048   lrdn3608.leonardo.local  {14,15,16,17,18,19,20,21,22,23,24,25,26,27}
[0] MPI startup(): 18      327049   lrdn3608.leonardo.local  {28,29,30,31,32,33,34,35,36,37,38,39,40,41}
[0] MPI startup(): 19      327050   lrdn3608.leonardo.local  {42,43,44,45,46,47,48,49,50,51,52,53,54,55}
[0] MPI startup(): 20      327051   lrdn3608.leonardo.local  {56,57,58,59,60,61,62,63,64,65,66,67,68,69}
[0] MPI startup(): 21      327052   lrdn3608.leonardo.local  {70,71,72,73,74,75,76,77,78,79,80,81,82,83}
[0] MPI startup(): 22      327053   lrdn3608.leonardo.local  {84,85,86,87,88,89,90,91,92,93,94,95,96,97}
[0] MPI startup(): 23      327054   lrdn3608.leonardo.local  {98,99,100,101,102,103,104,105,106,107,108,109,110,111}
[0] MPI startup(): 24      327801   lrdn3609.leonardo.local  {0,1,2,3,4,5,6,7,8,9,10,11,12,13}
[0] MPI startup(): 25      327802   lrdn3609.leonardo.local  {14,15,16,17,18,19,20,21,22,23,24,25,26,27}
[0] MPI startup(): 26      327803   lrdn3609.leonardo.local  {28,29,30,31,32,33,34,35,36,37,38,39,40,41}
[0] MPI startup(): 27      327804   lrdn3609.leonardo.local  {42,43,44,45,46,47,48,49,50,51,52,53,54,55}
[0] MPI startup(): 28      327805   lrdn3609.leonardo.local  {56,57,58,59,60,61,62,63,64,65,66,67,68,69}
[0] MPI startup(): 29      327806   lrdn3609.leonardo.local  {70,71,72,73,74,75,76,77,78,79,80,81,82,83}
[0] MPI startup(): 30      327807   lrdn3609.leonardo.local  {84,85,86,87,88,89,90,91,92,93,94,95,96,97}
[0] MPI startup(): 31      327808   lrdn3609.leonardo.local  {98,99,100,101,102,103,104,105,106,107,108,109,110,111}
[0] MPI startup(): 32      417822   lrdn3611.leonardo.local  {0,1,2,3,4,5,6,7,8,9,10,11,12,13}
[0] MPI startup(): 33      417823   lrdn3611.leonardo.local  {14,15,16,17,18,19,20,21,22,23,24,25,26,27}
[0] MPI startup(): 34      417824   lrdn3611.leonardo.local  {28,29,30,31,32,33,34,35,36,37,38,39,40,41}
[0] MPI startup(): 35      417825   lrdn3611.leonardo.local  {42,43,44,45,46,47,48,49,50,51,52,53,54,55}
[0] MPI startup(): 36      417826   lrdn3611.leonardo.local  {56,57,58,59,60,61,62,63,64,65,66,67,68,69}
[0] MPI startup(): 37      417827   lrdn3611.leonardo.local  {70,71,72,73,74,75,76,77,78,79,80,81,82,83}
[0] MPI startup(): 38      417828   lrdn3611.leonardo.local  {84,85,86,87,88,89,90,91,92,93,94,95,96,97}
[0] MPI startup(): 39      417829   lrdn3611.leonardo.local  {98,99,100,101,102,103,104,105,106,107,108,109,110,111}
[0] MPI startup(): 40      332994   lrdn3613.leonardo.local  {0,1,2,3,4,5,6,7,8,9,10,11,12,13}
[0] MPI startup(): 41      332995   lrdn3613.leonardo.local  {14,15,16,17,18,19,20,21,22,23,24,25,26,27}
[0] MPI startup(): 42      332996   lrdn3613.leonardo.local  {28,29,30,31,32,33,34,35,36,37,38,39,40,41}
[0] MPI startup(): 43      332997   lrdn3613.leonardo.local  {42,43,44,45,46,47,48,49,50,51,52,53,54,55}
[0] MPI startup(): 44      332998   lrdn3613.leonardo.local  {56,57,58,59,60,61,62,63,64,65,66,67,68,69}
[0] MPI startup(): 45      332999   lrdn3613.leonardo.local  {70,71,72,73,74,75,76,77,78,79,80,81,82,83}
[0] MPI startup(): 46      333000   lrdn3613.leonardo.local  {84,85,86,87,88,89,90,91,92,93,94,95,96,97}
[0] MPI startup(): 47      333001   lrdn3613.leonardo.local  {98,99,100,101,102,103,104,105,106,107,108,109,110,111}
[0] MPI startup(): 48      322793   lrdn3614.leonardo.local  {0,1,2,3,4,5,6,7,8,9,10,11,12,13}
[0] MPI startup(): 49      322794   lrdn3614.leonardo.local  {14,15,16,17,18,19,20,21,22,23,24,25,26,27}
[0] MPI startup(): 50      322795   lrdn3614.leonardo.local  {28,29,30,31,32,33,34,35,36,37,38,39,40,41}
[0] MPI startup(): 51      322796   lrdn3614.leonardo.local  {42,43,44,45,46,47,48,49,50,51,52,53,54,55}
[0] MPI startup(): 52      322797   lrdn3614.leonardo.local  {56,57,58,59,60,61,62,63,64,65,66,67,68,69}
[0] MPI startup(): 53      322798   lrdn3614.leonardo.local  {70,71,72,73,74,75,76,77,78,79,80,81,82,83}
[0] MPI startup(): 54      322799   lrdn3614.leonardo.local  {84,85,86,87,88,89,90,91,92,93,94,95,96,97}
[0] MPI startup(): 55      322800   lrdn3614.leonardo.local  {98,99,100,101,102,103,104,105,106,107,108,109,110,111}
[0] MPI startup(): 56      327631   lrdn3621.leonardo.local  {0,1,2,3,4,5,6,7,8,9,10,11,12,13}
[0] MPI startup(): 57      327632   lrdn3621.leonardo.local  {14,15,16,17,18,19,20,21,22,23,24,25,26,27}
[0] MPI startup(): 58      327633   lrdn3621.leonardo.local  {28,29,30,31,32,33,34,35,36,37,38,39,40,41}
[0] MPI startup(): 59      327634   lrdn3621.leonardo.local  {42,43,44,45,46,47,48,49,50,51,52,53,54,55}
[0] MPI startup(): 60      327635   lrdn3621.leonardo.local  {56,57,58,59,60,61,62,63,64,65,66,67,68,69}
[0] MPI startup(): 61      327636   lrdn3621.leonardo.local  {70,71,72,73,74,75,76,77,78,79,80,81,82,83}
[0] MPI startup(): 62      327637   lrdn3621.leonardo.local  {84,85,86,87,88,89,90,91,92,93,94,95,96,97}
[0] MPI startup(): 63      327638   lrdn3621.leonardo.local  {98,99,100,101,102,103,104,105,106,107,108,109,110,111}
[0] MPI startup(): I_MPI_ROOT=/leonardo/prod/spack/05/install/0.21/linux-rhel8-icelake/gcc-8.5.0/intel-oneapi-mpi-2021.10.0-6ff7efudnkj4xa7o4j67mxatygwzfwqc/mpi/2021.10.0
[0] MPI startup(): I_MPI_MPIRUN=mpirun
[0] MPI startup(): I_MPI_BIND_WIN_ALLOCATE=localalloc
[0] MPI startup(): I_MPI_HYDRA_TOPOLIB=hwloc
[0] MPI startup(): I_MPI_JOB_RESPECT_PROCESS_PLACEMENT=0
[0] MPI startup(): I_MPI_HYDRA_BOOTSTRAP=slurm
[0] MPI startup(): I_MPI_RETURN_WIN_MEM_NUMA=0
[0] MPI startup(): I_MPI_PIN_CELL=core
[0] MPI startup(): I_MPI_PIN_DOMAIN=14
[0] MPI startup(): I_MPI_PIN_ORDER=range
[0] MPI startup(): I_MPI_INTERNAL_MEM_POLICY=default
[0] MPI startup(): I_MPI_DEBUG=5
      Welcome to FLEUR        (www.flapw.de)   
      MaX-Release 7.0          (www.max-centre.eu)
 Running on           64  PE
           1  jobs are distributed on           64  unassigned PE
 Now copying inp_dump.xml
 
 ========== k-point set info ==========
 Selected k-point list: default
 k-point list type: unspecified
 Number of k points: 1
 
 --------------------------------------------------------
 Number of MPI-tasks:            64
 Number of PE/node  :             8
 Number of OMP-threads:          12
 k-points in parallel:            1
 pe's per k-point:               64
 # of k-point loops:              1
 --------------------------------------------------------
 Signal           11  detected on PE:           0
 This might be due to either:
  - A bug
  - Your job running out of memory
  - Your job got killed externally (e.g. no cpu-time left)
  - ....
 Please check and report if you believe you found a bug
 Signal           11  detected on PE:           2
 This might be due to either:
  - A bug
  - Your job running out of memory
  - Your job got killed externally (e.g. no cpu-time left)
  - ....
 Please check and report if you believe you found a bug
 Signal           11  detected on PE:           1
 Signal           11  detected on PE:           3
 This might be due to either:
  - A bug
  - Your job running out of memory
  - Your job got killed externally (e.g. no cpu-time left)
  - ....
 Please check and report if you believe you found a bug
 This might be due to either:
  - A bug
  - Your job running out of memory
  - Your job got killed externally (e.g. no cpu-time left)
  - ....
 Please check and report if you believe you found a bug
 Signal           11  detected on PE:           4
 This might be due to either:
  - A bug
  - Your job running out of memory
  - Your job got killed externally (e.g. no cpu-time left)
  - ....
 Please check and report if you believe you found a bug
 Signal           11  detected on PE:           5
 This might be due to either:
  - A bug
  - Your job running out of memory
  - Your job got killed externally (e.g. no cpu-time left)
  - ....
 Please check and report if you believe you found a bug
 Signal           11  detected on PE:           6
 This might be due to either:
  - A bug
  - Your job running out of memory
  - Your job got killed externally (e.g. no cpu-time left)
  - ....
 Please check and report if you believe you found a bug
 Signal           11  detected on PE:           7
 This might be due to either:
  - A bug
  - Your job running out of memory
  - Your job got killed externally (e.g. no cpu-time left)
  - ....
 Please check and report if you believe you found a bug
 Signal           11  detected on PE:           8
 Signal           11  detected on PE:          11
 This might be due to either:
  - A bug
  - Your job running out of memory
  - Your job got killed externally (e.g. no cpu-time left)
  - ....
 Please check and report if you believe you found a bug
 This might be due to either:
  - A bug
  - Your job running out of memory
  - Your job got killed externally (e.g. no cpu-time left)
  - ....
 Please check and report if you believe you found a bug
 Signal           11  detected on PE:           9
 Signal           11  detected on PE:          10
 This might be due to either:
  - A bug
  - Your job running out of memory
  - Your job got killed externally (e.g. no cpu-time left)
  - ....
 Please check and report if you believe you found a bug
 Signal           11  detected on PE:          24
 Signal           11  detected on PE:          12
 This might be due to either:
  - A bug
  - Your job running out of memory
  - Your job got killed externally (e.g. no cpu-time left)
  - ....
 Please check and report if you believe you found a bug
 Signal           11  detected on PE:          28
 This might be due to either:
  - A bug
  - Your job running out of memory
  - Your job got killed externally (e.g. no cpu-time left)
  - ....
 Please check and report if you believe you found a bug
 Signal           11  detected on PE:          13
 This might be due to either:
  - A bug
  - Your job running out of memory
  - Your job got killed externally (e.g. no cpu-time left)
  - ....
 Please check and report if you believe you found a bug
 Signal           11  detected on PE:          30
 Signal           11  detected on PE:          14
 This might be due to either:
  - A bug
  - Your job running out of memory
  - Your job got killed externally (e.g. no cpu-time left)
  - ....
 Please check and report if you believe you found a bug
 This might be due to either:
  - A bug
  - Your job running out of memory
  - Your job got killed externally (e.g. no cpu-time left)
  - ....
 Please check and report if you believe you found a bug
 This might be due to either:
  - A bug
  - Your job running out of memory
  - Your job got killed externally (e.g. no cpu-time left)
  - ....
 Please check and report if you believe you found a bug
 Signal           11  detected on PE:          25
 This might be due to either:
  - A bug
  - Your job running out of memory
  - Your job got killed externally (e.g. no cpu-time left)
  - ....
 Please check and report if you believe you found a bug
 Signal           11  detected on PE:          15
 This might be due to either:
  - A bug
  - Your job running out of memory
  - Your job got killed externally (e.g. no cpu-time left)
  - ....
 Signal           11  detected on PE:          26
 This might be due to either:
  - A bug
  - Your job running out of memory
  - Your job got killed externally (e.g. no cpu-time left)
  - ....
 Please check and report if you believe you found a bug
 Please check and report if you believe you found a bug
 Signal           11  detected on PE:          27
 This might be due to either:
  - A bug
  - Your job running out of memory
  - Your job got killed externally (e.g. no cpu-time left)
  - ....
 Please check and report if you believe you found a bug
 Signal           11  detected on PE:          29
 This might be due to either:
  - A bug
  - Your job running out of memory
  - Your job got killed externally (e.g. no cpu-time left)
  - ....
 Please check and report if you believe you found a bug
 Signal           11  detected on PE:          31
 This might be due to either:
  - A bug
  - Your job running out of memory
  - Your job got killed externally (e.g. no cpu-time left)
  - ....
 Please check and report if you believe you found a bug
 Signal           11  detected on PE:          49
 Signal           11  detected on PE:          32
 Signal           11  detected on PE:          52
 This might be due to either:
  - A bug
  - Your job running out of memory
  - Your job got killed externally (e.g. no cpu-time left)
  - ....
 Please check and report if you believe you found a bug
 Signal           11  detected on PE:          33
 This might be due to either:
  - A bug
  - Your job running out of memory
  - Your job got killed externally (e.g. no cpu-time left)
  - ....
 Please check and report if you believe you found a bug
 Signal           11  detected on PE:          53
 This might be due to either:
  - A bug
  - Your job running out of memory
  - Your job got killed externally (e.g. no cpu-time left)
  - ....
 Please check and report if you believe you found a bug
 Signal           11  detected on PE:          34
 This might be due to either:
  - A bug
  - Your job running out of memory
  - Your job got killed externally (e.g. no cpu-time left)
  - ....
 Please check and report if you believe you found a bug
 Signal           11  detected on PE:          40
 Signal           11  detected on PE:          56
 Signal           11  detected on PE:          55
 This might be due to either:
  - A bug
  - Your job running out of memory
  - Your job got killed externally (e.g. no cpu-time left)
  - ....
 Please check and report if you believe you found a bug
 Signal           11  detected on PE:          35
 This might be due to either:
  - A bug
  - Your job running out of memory
  - Your job got killed externally (e.g. no cpu-time left)
  - ....
 Please check and report if you believe you found a bug
 Signal           11  detected on PE:          48
 This might be due to either:
  - A bug
  - Your job running out of memory
  - Your job got killed externally (e.g. no cpu-time left)
  - ....
 Please check and report if you believe you found a bug
 Signal           11  detected on PE:          17
 Signal           11  detected on PE:          39
 This might be due to either:
  - A bug
  - Your job running out of memory
  - Your job got killed externally (e.g. no cpu-time left)
  - ....
 Please check and report if you believe you found a bug
 Signal           11  detected on PE:          41
 This might be due to either:
  - A bug
  - Your job running out of memory
  - Your job got killed externally (e.g. no cpu-time left)
  - ....
 Please check and report if you believe you found a bug
 Signal           11  detected on PE:          57
 This might be due to either:
  - A bug
  - Your job running out of memory
  - Your job got killed externally (e.g. no cpu-time left)
  - ....
 Please check and report if you believe you found a bug
 This might be due to either:
  - A bug
  - Your job running out of memory
  - Your job got killed externally (e.g. no cpu-time left)
  - ....
 Please check and report if you believe you found a bug
 Signal           11  detected on PE:          18
 This might be due to either:
  - A bug
  - Your job running out of memory
  - Your job got killed externally (e.g. no cpu-time left)
  - ....
 Please check and report if you believe you found a bug
 This might be due to either:
  - A bug
  - Your job running out of memory
  - Your job got killed externally (e.g. no cpu-time left)
  - ....
 Please check and report if you believe you found a bug
 Signal           11  detected on PE:          42
 This might be due to either:
  - A bug
  - Your job running out of memory
  - Your job got killed externally (e.g. no cpu-time left)
  - ....
 Please check and report if you believe you found a bug
 Signal           11  detected on PE:          58
 This might be due to either:
  - A bug
 Signal           11  detected on PE:          50
 This might be due to either:
  - A bug
  - Your job running out of memory
  - Your job got killed externally (e.g. no cpu-time left)
  - ....
 Please check and report if you believe you found a bug
 Signal           11  detected on PE:          19
 This might be due to either:
  - A bug
  - Your job running out of memory
  - Your job got killed externally (e.g. no cpu-time left)
  - ....
 Please check and report if you believe you found a bug
 Signal           11  detected on PE:          36
 This might be due to either:
  - A bug
  - Your job running out of memory
  - Your job got killed externally (e.g. no cpu-time left)
  - ....
 Please check and report if you believe you found a bug
 Signal           11  detected on PE:          43
 This might be due to either:
  - A bug
  - Your job running out of memory
  - Your job got killed externally (e.g. no cpu-time left)
  - ....
 Please check and report if you believe you found a bug
 Signal           11  detected on PE:          60
 This might be due to either:
  - A bug
  - Your job running out of memory
  - Your job got killed externally (e.g. no cpu-time left)
  - ....
 Please check and report if you believe you found a bug
 Signal           11  detected on PE:          51
 This might be due to either:
  - A bug
  - Your job running out of memory
  - Your job got killed externally (e.g. no cpu-time left)
  - ....
 Please check and report if you believe you found a bug
 Signal           11  detected on PE:          20
 This might be due to either:
  - A bug
  - Your job running out of memory
  - Your job got killed externally (e.g. no cpu-time left)
  - ....
 Please check and report if you believe you found a bug
 Signal           11  detected on PE:          37
 This might be due to either:
  - A bug
  - Your job running out of memory
  - Your job got killed externally (e.g. no cpu-time left)
  - ....
 Please check and report if you believe you found a bug
 Signal           11  detected on PE:          44
 This might be due to either:
  - A bug
  - Your job running out of memory
  - Your job got killed externally (e.g. no cpu-time left)
  - ....
 Please check and report if you believe you found a bug
 Signal           11  detected on PE:          61
 This might be due to either:
  - A bug
  - Your job running out of memory
  - Your job got killed externally (e.g. no cpu-time left)
  - ....
 Please check and report if you believe you found a bug
 Signal           11  detected on PE:          54
 This might be due to either:
  - A bug
  - Your job running out of memory
  - Your job got killed externally (e.g. no cpu-time left)
  - ....
 Please check and report if you believe you found a bug
 Signal           11  detected on PE:          21
 This might be due to either:
  - A bug
  - Your job running out of memory
  - Your job got killed externally (e.g. no cpu-time left)
  - ....
 Please check and report if you believe you found a bug
 Signal           11  detected on PE:          38
 This might be due to either:
  - A bug
  - Your job running out of memory
  - Your job got killed externally (e.g. no cpu-time left)
  - ....
 Please check and report if you believe you found a bug
 Signal           11  detected on PE:          46
 This might be due to either:
  - A bug
  - Your job running out of memory
  - Your job got killed externally (e.g. no cpu-time left)
  - ....
 Please check and report if you believe you found a bug
 Signal           11  detected on PE:          62
 This might be due to either:
  - A bug
  - Your job running out of memory
  - Your job got killed externally (e.g. no cpu-time left)
  - ....
 Please check and report if you believe you found a bug
 Signal           11  detected on PE:          16
 This might be due to either:
  - A bug
  - Your job running out of memory
  - Your job got killed externally (e.g. no cpu-time left)
  - ....
 Please check and report if you believe you found a bug
 Signal           11  detected on PE:          47
 This might be due to either:
  - A bug
  - Your job running out of memory
  - Your job got killed externally (e.g. no cpu-time left)
  - ....
 Please check and report if you believe you found a bug
 Signal           11  detected on PE:          63
 This might be due to either:
  - A bug
  - Your job running out of memory
  - Your job got killed externally (e.g. no cpu-time left)
  - ....
 Please check and report if you believe you found a bug
 This might be due to either:
  - A bug
  - Your job running out of memory
  - Your job got killed externally (e.g. no cpu-time left)
  - ....
 Please check and report if you believe you found a bug
 This might be due to either:
  - A bug
  - Your job running out of memory
  - Your job got killed externally (e.g. no cpu-time left)
  - ....
 Please check and report if you believe you found a bug
 This might be due to either:
  - A bug
  - Your job running out of memory
  - Your job got killed externally (e.g. no cpu-time left)
  - ....
 Please check and report if you believe you found a bug
 Signal           11  detected on PE:          22
 This might be due to either:
  - A bug
  - Your job running out of memory
  - Your job got killed externally (e.g. no cpu-time left)
  - ....
 Please check and report if you believe you found a bug
 Signal           11  detected on PE:          45
 This might be due to either:
  - A bug
  - Your job running out of memory
  - Your job got killed externally (e.g. no cpu-time left)
  - ....
 Please check and report if you believe you found a bug
  - Your job running out of memory
  - Your job got killed externally (e.g. no cpu-time left)
  - ....
 Please check and report if you believe you found a bug
 Signal           11  detected on PE:          23
 This might be due to either:
  - A bug
  - Your job running out of memory
  - Your job got killed externally (e.g. no cpu-time left)
  - ....
 Please check and report if you believe you found a bug
 Signal           11  detected on PE:          59
 This might be due to either:
  - A bug
  - Your job running out of memory
  - Your job got killed externally (e.g. no cpu-time left)
  - ....
 Please check and report if you believe you found a bug
Abort(0) on node 8 (rank 8 in comm 0): application called MPI_Abort(MPI_COMM_WORLD, 0) - process 8
Abort(0) on node 10 (rank 10 in comm 0): application called MPI_Abort(MPI_COMM_WORLD, 0) - process 10
Abort(0) on node 11 (rank 11 in comm 0): application called MPI_Abort(MPI_COMM_WORLD, 0) - process 11
Abort(0) on node 12 (rank 12 in comm 0): application called MPI_Abort(MPI_COMM_WORLD, 0) - process 12
Abort(0) on node 9 (rank 9 in comm 0): application called MPI_Abort(MPI_COMM_WORLD, 0) - process 9
Abort(0) on node 13 (rank 13 in comm 0): application called MPI_Abort(MPI_COMM_WORLD, 0) - process 13
Abort(0) on node 14 (rank 14 in comm 0): application called MPI_Abort(MPI_COMM_WORLD, 0) - process 14
Abort(0) on node 15 (rank 15 in comm 0): application called MPI_Abort(MPI_COMM_WORLD, 0) - process 15
Abort(0) on node 29 (rank 29 in comm 0): application called MPI_Abort(MPI_COMM_WORLD, 0) - process 29
Abort(0) on node 31 (rank 31 in comm 0): application called MPI_Abort(MPI_COMM_WORLD, 0) - process 31
