Unloading profile/base
  ERROR: Module evaluation aborted
Loading quantum-espresso/7.3.1--intel-oneapi-mpi--2021.10.0--intel--2021.10.0-mkl
  Loading requirement: intel-oneapi-mpi/2021.10.0 intel-oneapi-tbb/2021.10.0
    intel-oneapi-mkl/2023.2.0--intel-oneapi-mpi--2021.10.0-scalapack-openmp-qkfqalj libxc/5.2.3--intel--2021.10.0-hf2rg24
slurmstepd: error: Detected 1 oom-kill event(s) in StepId=7464826.0. Some of your processes may have been killed by the cgroup out-of-memory handler.
srun: error: lrdn4530: task 0: Out Of Memory
slurmstepd: error: *** STEP 7464826.0 ON lrdn4530 CANCELLED AT 2024-09-10T14:40:04 DUE TO TIME LIMIT ***
slurmstepd: error: *** JOB 7464826 ON lrdn4530 CANCELLED AT 2024-09-10T14:40:04 DUE TO TIME LIMIT ***
srun: Job step aborted: Waiting up to 92 seconds for job step to finish.
