JobID        JobIDRaw        JobName  Partition  MaxVMSize  MaxVMSizeNode  MaxVMSizeTask  AveVMSize     MaxRSS MaxRSSNode MaxRSSTask     AveRSS MaxPages MaxPagesNode   MaxPagesTask   AvePages     MinCPU MinCPUNode MinCPUTask     AveCPU   NTasks  AllocCPUS    Elapsed      State ExitCode AveCPUFreq ReqCPUFreqMin ReqCPUFreqMax ReqCPUFreqGov     ReqMem ConsumedEnergy  MaxDiskRead MaxDiskReadNode MaxDiskReadTask    AveDiskRead MaxDiskWrite MaxDiskWriteNode MaxDiskWriteTask   AveDiskWrite    ReqTRES  AllocTRES TRESUsageInAve TRESUsageInMax TRESUsageInMaxNode TRESUsageInMaxTask TRESUsageInMin TRESUsageInMinNode TRESUsageInMinTask TRESUsageInTot TRESUsageOutMax TRESUsageOutMaxNode TRESUsageOutMaxTask TRESUsageOutAve TRESUsageOutTot 
------------ ------------ ---------- ---------- ---------- -------------- -------------- ---------- ---------- ---------- ---------- ---------- -------- ------------ -------------- ---------- ---------- ---------- ---------- ---------- -------- ---------- ---------- ---------- -------- ---------- ------------- ------------- ------------- ---------- -------------- ------------ --------------- --------------- -------------- ------------ ---------------- ---------------- -------------- ---------- ---------- -------------- -------------- ------------------ ------------------ -------------- ------------------ ------------------ -------------- --------------- ------------------- ------------------- --------------- --------------- 
155738       155738       CovidWeak+ normal-x86                                                                                                                                                                                                             256   00:01:03    RUNNING      0:0                  Unknown       Unknown       Unknown       484G                                                                                                                                          billing=2+ billing=2+                                                                                                                                                                                                                                 
155738.batch 155738.batch      batch                                                                                                                                                                                                               1        128   00:01:03    RUNNING      0:0          0             0             0             0                         0                                                                                                                                      cpu=128,m+                                                                                                                                                                                                                                 
155738.exte+ 155738.exte+     extern                                                                                                                                                                                                               2        256   00:01:03    RUNNING      0:0          0             0             0             0                         0                                                                                                                                      billing=2+                                                                                                                                                                                                                                 
155738.0     155738.0          orted             47728428K         cnx161              0  47728428K  46793340K     cnx161          0  46793340K      462       cnx161              0        462   01:55:56     cnx161          0   01:55:56        1        256   00:01:03  COMPLETED      0:0       168K             0             0             0                               2611.36M          cnx161               0       2593.61M      527.37M           cnx161                0        523.37M            billing=2+ cpu=01:55:56,+ cpu=01:55:56,+ cpu=cnx161,energy+ cpu=0,fs/disk=0,m+ cpu=01:55:56,+ cpu=cnx161,energy+ cpu=0,fs/disk=0,m+ cpu=01:55:56,+ energy=0,fs/di+ energy=cnx161,fs/d+           fs/disk=0 energy=0,fs/di+ energy=0,fs/di+ 
