JobId=1422989 JobName=CovidWeak
   UserId=u102010(102010) GroupId=hpcusers(555) MCS_label=N/A
   Priority=260645 Nice=0 Account=p200521 QOS=default
   JobState=RUNNING Reason=None Dependency=(null)
   Requeue=0 Restarts=0 BatchFlag=1 Reboot=0 ExitCode=0:0
   DerivedExitCode=0:0
   RunTime=00:00:05 TimeLimit=00:59:00 TimeMin=N/A
   SubmitTime=2024-10-01T11:45:06 EligibleTime=2024-10-01T11:45:06
   AccrueTime=2024-10-01T11:45:06
   StartTime=2024-10-01T12:29:57 EndTime=2024-10-01T13:28:59 Deadline=N/A
   PreemptEligibleTime=2024-10-01T12:29:57 PreemptTime=None
   SuspendTime=None SecsPreSuspend=0 LastSchedEval=2024-10-01T12:29:57 Scheduler=Main
   Partition=cpu AllocNode:Sid=login02.meluxina.lxp.lu:2161051
   ReqNodeList=(null) ExcNodeList=(null)
   NodeList=mel[0193,0205,0317,0326,0330,0424,0524,0563]
   BatchHost=mel0193
   NumNodes=8 NumCPUs=2048 NumTasks=1024 CPUs/Task=2 ReqB:S:C:T=0:0:*:*
   ReqTRES=cpu=1024,mem=3840G,node=8,billing=1024
   AllocTRES=cpu=2048,mem=3840G,node=8,billing=2048,gres/cpun=8
   Socks/Node=* NtasksPerN:B:S:C=128:0:*:* CoreSpec=*
   JOB_GRES=cpuN:8
     Nodes=mel[0193,0205,0317,0326,0330,0424,0524,0563] CPU_IDs=0-255 Mem=491520 GRES=cpuN(CNT:1)
   MinCPUsNode=256 MinMemoryNode=0 MinTmpDiskNode=0
   Features=(null) DelayBoot=00:00:00
   OverSubscribe=NO Contiguous=0 Licenses=(null) Network=(null)
   Command=/mnt/tier2/users/u102010/JUBE4MaX/max-inputs/interface/siesta/_CovidWeak/000000/000009_submit/work/submit.job
   WorkDir=/mnt/tier2/users/u102010/JUBE4MaX/max-inputs/interface/siesta/_CovidWeak/000000/000009_submit/work
   StdErr=/mnt/tier2/users/u102010/JUBE4MaX/max-inputs/interface/siesta/_CovidWeak/000000/000009_submit/work/slurm-1422989.out
   StdIn=/dev/null
   StdOut=/mnt/tier2/users/u102010/JUBE4MaX/max-inputs/interface/siesta/_CovidWeak/000000/000009_submit/work/slurm-1422989.out
   Power=
   TresPerTask=cpu:1
   

