JobId=34596022 JobName=CovidStrong
   UserId=eufedericop(1977552410) GroupId=eufedericop(1977552410) MCS_label=N/A
   Priority=66267276 Nice=0 Account=b2024b06-053-users QOS=normal
   JobState=RUNNING Reason=None Dependency=(null)
   Requeue=1 Restarts=0 BatchFlag=1 Reboot=0 ExitCode=0:0
   DerivedExitCode=0:0
   RunTime=00:00:03 TimeLimit=1-00:00:00 TimeMin=N/A
   SubmitTime=2024-09-12T10:33:12 EligibleTime=2024-09-12T10:33:12
   AccrueTime=2024-09-12T10:33:12
   StartTime=2024-09-12T11:55:37 EndTime=2024-09-13T11:55:37 Deadline=N/A
   SuspendTime=None SecsPreSuspend=0 LastSchedEval=2024-09-12T11:55:37 Scheduler=Main
   Partition=cpu AllocNode:Sid=login0005-dmz:340330
   ReqNodeList=(null) ExcNodeList=(null)
   NodeList=cn[0097-0101,0103-0114,0116-0119,0431,0451-0452,0454,0456-0457,0460,0464,0467,0469,0472]
   BatchHost=cn0097
   NumNodes=32 NumCPUs=8192 NumTasks=4096 CPUs/Task=1 ReqB:S:C:T=0:0:*:1
   ReqTRES=cpu=4096,mem=4000G,node=32,billing=4096
   AllocTRES=cpu=8192,mem=4000G,node=32,billing=8192
   Socks/Node=* NtasksPerN:B:S:C=128:0:*:* CoreSpec=*
   JOB_GRES=(null)
     Nodes=cn[0097-0101,0103-0114,0116-0119,0431,0451-0452,0454,0456-0457,0460,0464,0467,0469,0472] CPU_IDs=0-255 Mem=128000 GRES=
   MinCPUsNode=128 MinMemoryCPU=1000M MinTmpDiskNode=0
   Features=(null) DelayBoot=00:00:00
   OverSubscribe=NO Contiguous=0 Licenses=(null) Network=(null)
   Command=/ceph/hpc/home/eufedericop/JUBE4MaX/max-inputs/interface/siesta/_CovidStrong/000001/000002_submit/work/submit.job
   WorkDir=/ceph/hpc/home/eufedericop/JUBE4MaX/max-inputs/interface/siesta/_CovidStrong/000001/000002_submit/work
   StdErr=/ceph/hpc/home/eufedericop/JUBE4MaX/max-inputs/interface/siesta/_CovidStrong/000001/000002_submit/work/slurm-34596022.out
   StdIn=/dev/null
   StdOut=/ceph/hpc/home/eufedericop/JUBE4MaX/max-inputs/interface/siesta/_CovidStrong/000001/000002_submit/work/slurm-34596022.out
   Power=
   TresPerTask=cpu:1
   

