JobID        JobIDRaw        JobName  Partition  MaxVMSize  MaxVMSizeNode  MaxVMSizeTask  AveVMSize     MaxRSS MaxRSSNode MaxRSSTask     AveRSS MaxPages MaxPagesNode   MaxPagesTask   AvePages     MinCPU MinCPUNode MinCPUTask     AveCPU   NTasks  AllocCPUS    Elapsed      State ExitCode AveCPUFreq ReqCPUFreqMin ReqCPUFreqMax ReqCPUFreqGov     ReqMem ConsumedEnergy  MaxDiskRead MaxDiskReadNode MaxDiskReadTask    AveDiskRead MaxDiskWrite MaxDiskWriteNode MaxDiskWriteTask   AveDiskWrite    ReqTRES  AllocTRES TRESUsageInAve TRESUsageInMax TRESUsageInMaxNode TRESUsageInMaxTask TRESUsageInMin TRESUsageInMinNode TRESUsageInMinTask TRESUsageInTot TRESUsageOutMax TRESUsageOutMaxNode TRESUsageOutMaxTask TRESUsageOutAve TRESUsageOutTot 
------------ ------------ ---------- ---------- ---------- -------------- -------------- ---------- ---------- ---------- ---------- ---------- -------- ------------ -------------- ---------- ---------- ---------- ---------- ---------- -------- ---------- ---------- ---------- -------- ---------- ------------- ------------- ------------- ---------- -------------- ------------ --------------- --------------- -------------- ------------ ---------------- ---------------- -------------- ---------- ---------- -------------- -------------- ------------------ ------------------ -------------- ------------------ ------------------ -------------- --------------- ------------------- ------------------- --------------- --------------- 
9552712      9552712       CovidWeak        gpp                                                                                                                                                                                                             448   00:05:18    RUNNING      0:0                  Unknown       Unknown       Unknown    437.50G                                                                                                                                          billing=2+ billing=4+                                                                                                                                                                                                                                 
9552712.bat+ 9552712.bat+      batch                                                                                                                                                                                                               1        224   00:05:18    RUNNING      0:0          0             0             0             0                         0                                                                                                                                      cpu=224,m+                                                                                                                                                                                                                                 
9552712.ext+ 9552712.ext+     extern                                                                                                                                                                                                               2        448   00:05:18    RUNNING      0:0          0             0             0             0                         0                                                                                                                                      billing=4+                                                                                                                                                                                                                                 
9552712.0    9552712.0        siesta              6182660K      gs09r3b21             56 6077504950    990168K  gs09r3b21         40  769901737       20    gs09r3b21             81          2   00:03:48  gs09r3b21         97   00:04:44      224        448   00:05:01  COMPLETED      0:0    426.55M       Unknown       Unknown       Unknown                   516.12K       12.15M       gs09r3b21               0         10.91M       17.09M        gs09r3b21                0          4.20M            cpu=448,m+ cpu=00:04:44,+ cpu=00:04:46,+ cpu=gs09r3b21,ene+ cpu=10,fs/disk=0,+ cpu=00:03:48,+ cpu=gs09r3b21,ene+ cpu=97,fs/disk=97+ cpu=17:43:14,+ energy=956,fs/+ energy=gs09r3b22,f+           fs/disk=0 energy=3,fs/di+ energy=759,fs/+ 
