{
 "global_section": { "_calls": 1, "_time":     2202.290, "_%":   100.00,
   "siesta": { "_calls": 1, "_time":     2202.290, "_%":   100.00,
     "Setup": { "_calls": 1, "_time":        2.003, "_%":     0.09,
       "bands": { "_calls": 1, "_time":        0.004, "_%":     0.00},
       "KSV_init": { "_calls": 1, "_time":        0.001, "_%":     0.00}
     },
     "IterGeom": { "_calls": 1, "_time":     2199.189, "_%":    99.86,
       "geom_init": { "_calls": 1, "_time":       65.686, "_%":     2.98,
         "state_init": { "_calls": 1, "_time":        1.406, "_%":     0.06,
           "hsparse": { "_calls": 1, "_time":        0.175, "_%":     0.01},
           "overlap": { "_calls": 1, "_time":        0.652, "_%":     0.03}
         },
         "Setup_H0": { "_calls": 1, "_time":       64.279, "_%":     2.92,
           "naefs": { "_calls": 1, "_time":        0.030, "_%":     0.00},
           "MolMec": { "_calls": 1, "_time":        0.000, "_%":     0.00},
           "kinefsm": { "_calls": 1, "_time":        0.647, "_%":     0.03},
           "nlefsm": { "_calls": 1, "_time":        1.977, "_%":     0.09},
           "DHSCF_Init": { "_calls": 1, "_time":       61.606, "_%":     2.80,
             "DHSCF1": { "_calls": 1, "_time":        0.053, "_%":     0.00,
               "INITMESH": { "_calls": 1, "_time":        0.000, "_%":     0.00}
             },
             "DHSCF2": { "_calls": 1, "_time":       61.518, "_%":     2.79,
               "REMESH": { "_calls": 1, "_time":       56.290, "_%":     2.56,
                 "INITMESH": { "_calls": 2, "_time":       52.852, "_%":     2.40,
                   "SPLOAD": { "_calls": 2, "_time":        1.830, "_%":     0.08}
                 }
               },
               "REORD": { "_calls": 2, "_time":        0.001, "_%":     0.00},
               "PHION": { "_calls": 1, "_time":        0.054, "_%":     0.00},
               "COMM_BSC": { "_calls": 1, "_time":        0.028, "_%":     0.00},
               "POISON": { "_calls": 1, "_time":        0.393, "_%":     0.02,
                 "fft": { "_calls": 2, "_time":        0.378, "_%":     0.02}
               }
             }
           }
         }
       },
       "IterSCF": { "_calls": 5, "_time":     2133.403, "_%":    96.87,
         "setup_H": { "_calls": 5, "_time":        3.466, "_%":     0.16,
           "DHSCF": { "_calls": 5, "_time":        3.459, "_%":     0.16,
             "DHSCF3": { "_calls": 5, "_time":        3.459, "_%":     0.16,
               "rhoofd": { "_calls": 5, "_time":        0.094, "_%":     0.00},
               "COMM_BSC": { "_calls": 10, "_time":        0.138, "_%":     0.01},
               "POISON": { "_calls": 5, "_time":        1.754, "_%":     0.08,
                 "fft": { "_calls": 10, "_time":        1.623, "_%":     0.07}
               },
               "XC": { "_calls": 5, "_time":        1.128, "_%":     0.05,
                 "COMM_BSC": { "_calls": 10, "_time":        0.142, "_%":     0.01},
                 "GXC-CellXC": { "_calls": 5, "_time":        0.963, "_%":     0.04,
                   "gridxc@cellXC": { "_calls": 5, "_time":        0.963, "_%":     0.04}
                 }
               },
               "vmat": { "_calls": 5, "_time":        0.076, "_%":     0.00}
             }
           }
         },
         "compute_dm": { "_calls": 5, "_time":     2129.908, "_%":    96.71,
           "diagon": { "_calls": 5, "_time":     2129.558, "_%":    96.70,
             "r-eigvec": { "_calls": 5, "_time":     1189.334, "_%":    54.00,
               "r-buildHS": { "_calls": 5, "_time":        0.150, "_%":     0.01},
               "rdiag": { "_calls": 5, "_time":     1189.183, "_%":    54.00,
                 "rdiag1": { "_calls": 5, "_time":       47.333, "_%":     2.15},
                 "rdiag2": { "_calls": 5, "_time":      226.166, "_%":    10.27},
                 "rdiag3": { "_calls": 5, "_time":      812.796, "_%":    36.91},
                 "rdiag4": { "_calls": 5, "_time":      101.434, "_%":     4.61}
               }
             },
             "r-buildD": { "_calls": 5, "_time":      939.581, "_%":    42.66}
           }
         },
         "MIXER": { "_calls": 5, "_time":        0.009, "_%":     0.00}
       },
       "state_analysis": { "_calls": 1, "_time":        0.088, "_%":     0.00},
       "siesta_move": { "_calls": 1, "_time":        0.000, "_%":     0.00}
     },
     "Analysis": { "_calls": 1, "_time":        0.938, "_%":     0.04,
       "optical": { "_calls": 1, "_time":        0.001, "_%":     0.00}
     }
   }
 }}
