mpi: 128
thrs: 6
thr_tot: 768
nodes: 16
nodes_io: 1
mpi/gpu: 8
Time-Profile: 648.0000
io_ATMPROJ_pwscf: 0.0008
io_KB_abinit: 0.0003
IO_and_Messaging_switch: 0.0001
MATRIX transfer (X_G_finite_q_X_redux_2_2): 0.1742
MATRIX transfer (X_G_finite_q_X_redux_1_2): 0.0968
MATRIX transfer (X_G_finite_q_X_redux_2_1): 0.0173
HF(REDUX): 0.7925
MATRIX transfer (X_G_finite_q_X_redux_1_1): 0.0181
PP_uspp_init: 0.0008
io_Double_Grid: 0.0083
io_HF: 0.0201
io_COL_CUT: 0.0126
scatter_Gamp_gpu: 0.0046
HF: 0.0866
io_QINDX: 0.0102
GW(REDUX): 1.5491
io_QP_and_GF: 0.0199
io_GROT: 0.0266
io_KB_pwscf: 0.0633
Coulomb Cutoff: 0.0610
io_fragment: 0.5381
FFT_setup: 0.1520
io_X: 1.8359
X (procedure): 10.5696
io_WF: 1.7003
io_DIPOLES: 1.1634
X (REDUX): 11.1054
XC_potential_driver: 0.7537
XCo_local: 0.7776
RIM: 1.5950
GW(ppa): 8.4709
SERIAL_lin_system: 10.1059
LINEAR ALGEBRA: 10.1060
Xo (REDUX): 293.7216
DIPOLE_transverse: 19.2390
WF_load_FFT: 19.4503
Dipoles: 22.5341
Xo (procedure): 570.0321
Xo: 570.0321
X: 10.5696
Self energy: 8.5575
Other: 36.3067
