JobId=9549955 JobName=CovidStrong
   UserId=icn2553284(51005) GroupId=icn2(50004) MCS_label=N/A
   Priority=67437 Nice=0 Account=icn85 QOS=gp_resa
   JobState=RUNNING Reason=None Dependency=(null)
   Requeue=0 Restarts=0 BatchFlag=1 Reboot=0 ExitCode=0:0
   RunTime=00:00:06 TimeLimit=02:00:00 TimeMin=N/A
   SubmitTime=2024-09-30T10:58:02 EligibleTime=2024-09-30T10:58:02
   AccrueTime=2024-09-30T10:58:02
   StartTime=2024-09-30T10:58:20 EndTime=2024-09-30T12:58:20 Deadline=N/A
   SuspendTime=None SecsPreSuspend=0 LastSchedEval=2024-09-30T10:58:20 Scheduler=Backfill
   Partition=gpp AllocNode:Sid=glogin1:2011625
   ReqNodeList=(null) ExcNodeList=(null)
   NodeList=gs17r2b[27-42]
   BatchHost=gs17r2b27
   NumNodes=16 NumCPUs=3584 NumTasks=1792 CPUs/Task=1 ReqB:S:C:T=0:0:*:1
   ReqTRES=cpu=1792,mem=3500G,node=16,billing=1792
   AllocTRES=cpu=3584,mem=3500G,node=16,billing=3584
   Socks/Node=* NtasksPerN:B:S:C=112:0:*:* CoreSpec=*
   MinCPUsNode=112 MinMemoryCPU=2000M MinTmpDiskNode=0
   Features=(null) DelayBoot=00:00:00
   OverSubscribe=NO Contiguous=0 Licenses=(null) Network=(null)
   Command=/gpfs/home/icn2/icn2553284/jube4max/max-inputs/interface/siesta/_CovidStrong/000001/000013_submit/work/submit.job
   WorkDir=/gpfs/home/icn2/icn2553284/jube4max/max-inputs/interface/siesta/_CovidStrong/000001/000013_submit/work
   StdErr=/gpfs/home/icn2/icn2553284/jube4max/max-inputs/interface/siesta/_CovidStrong/000001/000013_submit/work/job_9549955.err
   StdIn=/dev/null
   StdOut=/gpfs/home/icn2/icn2553284/jube4max/max-inputs/interface/siesta/_CovidStrong/000001/000013_submit/work/job_9549955.out
   Power=
   

