Current loaded modules
----------------------
Currently Loaded Modulefiles:
 1) gcc/latest                       9) zstd/1/latest-gcc                      
 2) openblas/0/latest-gcc           10) zlib/1/latest-gcc                      
 3) lapack/latest-gcc               11) fftw/3/latest-gcc-openmpi              
 4) scalapack/2/latest-gcc-openmpi  12) hdf5/1/1.14/latest-gcc-openmpi         
 5) ucx/1/latest                    13) netcdf/c/4.9/latest-gcc-openmpi        
 6) libfabric/1/latest              14) pnetcdf/1/latest-gcc-openmpi           
 7) libaec/1/latest-gcc             15) netcdf/fortran/4.6/latest-gcc-openmpi  
 8) openmpi/4/gcc/latest            

Current environment variables
-----------------------------
SLURM_MEM_PER_CPU=1024
LD_LIBRARY_PATH=/opt/software/netcdf-fortran/4/4.6.1-gcc-openmpi/lib:/opt/software/pnetcdf/1/1.12.2-gcc-openmpi//lib:/opt/software/netcdf-c/4/4.9.2-gcc-openmpi/lib64:/opt/software/hdf/5/1.14.3-gcc-openmpi/lib:/opt/software/fftw/3/3.3.10-gcc-openmpi/lib:/opt/software/zlib/1/1.3.1-gcc/lib:/opt/software/zstd/1/1.5.6-gcc/lib64:/opt/software/openmpi/4/4.1.6-gcc/lib/openmpi:/opt/software/openmpi/4/4.1.6-gcc/lib:/opt/software/libaec/1/1.1.3-gcc/lib64:/opt/software/libfabric/1/1.13.2/lib:/opt/software/ucx/1/1.17.0/lib/ucx:/opt/software/ucx/1/1.17.0/lib:/opt/software/scalapack/2/2.2.0-gcc-openmpi/lib:/opt/software/lapack/3/3.12.0-gcc/lib64:/opt/software/openblas/0/0.3.25-gcc/lib64:/opt/software/gnu/gcc-14/gcc-14.2.0/lib64:/opt/software/gnu/gcc-14/gcc-14.2.0/lib:
LS_COLORS=rs=0:di=38;5;33:ln=38;5;51:mh=00:pi=40;38;5;11:so=38;5;13:do=38;5;5:bd=48;5;232;38;5;11:cd=48;5;232;38;5;3:or=48;5;232;38;5;9:mi=01;05;37;41:su=48;5;196;38;5;15:sg=48;5;11;38;5;16:ca=48;5;196;38;5;226:tw=48;5;10;38;5;16:ow=48;5;10;38;5;21:st=48;5;21;38;5;15:ex=38;5;40:*.tar=38;5;9:*.tgz=38;5;9:*.arc=38;5;9:*.arj=38;5;9:*.taz=38;5;9:*.lha=38;5;9:*.lz4=38;5;9:*.lzh=38;5;9:*.lzma=38;5;9:*.tlz=38;5;9:*.txz=38;5;9:*.tzo=38;5;9:*.t7z=38;5;9:*.zip=38;5;9:*.z=38;5;9:*.dz=38;5;9:*.gz=38;5;9:*.lrz=38;5;9:*.lz=38;5;9:*.lzo=38;5;9:*.xz=38;5;9:*.zst=38;5;9:*.tzst=38;5;9:*.bz2=38;5;9:*.bz=38;5;9:*.tbz=38;5;9:*.tbz2=38;5;9:*.tz=38;5;9:*.deb=38;5;9:*.rpm=38;5;9:*.jar=38;5;9:*.war=38;5;9:*.ear=38;5;9:*.sar=38;5;9:*.rar=38;5;9:*.alz=38;5;9:*.ace=38;5;9:*.zoo=38;5;9:*.cpio=38;5;9:*.7z=38;5;9:*.rz=38;5;9:*.cab=38;5;9:*.wim=38;5;9:*.swm=38;5;9:*.dwm=38;5;9:*.esd=38;5;9:*.jpg=38;5;13:*.jpeg=38;5;13:*.mjpg=38;5;13:*.mjpeg=38;5;13:*.gif=38;5;13:*.bmp=38;5;13:*.pbm=38;5;13:*.pgm=38;5;13:*.ppm=38;5;13:*.tga=38;5;13:*.xbm=38;5;13:*.xpm=38;5;13:*.tif=38;5;13:*.tiff=38;5;13:*.png=38;5;13:*.svg=38;5;13:*.svgz=38;5;13:*.mng=38;5;13:*.pcx=38;5;13:*.mov=38;5;13:*.mpg=38;5;13:*.mpeg=38;5;13:*.m2v=38;5;13:*.mkv=38;5;13:*.webm=38;5;13:*.ogm=38;5;13:*.mp4=38;5;13:*.m4v=38;5;13:*.mp4v=38;5;13:*.vob=38;5;13:*.qt=38;5;13:*.nuv=38;5;13:*.wmv=38;5;13:*.asf=38;5;13:*.rm=38;5;13:*.rmvb=38;5;13:*.flc=38;5;13:*.avi=38;5;13:*.fli=38;5;13:*.flv=38;5;13:*.gl=38;5;13:*.dl=38;5;13:*.xcf=38;5;13:*.xwd=38;5;13:*.yuv=38;5;13:*.cgm=38;5;13:*.emf=38;5;13:*.ogv=38;5;13:*.ogx=38;5;13:*.aac=38;5;45:*.au=38;5;45:*.flac=38;5;45:*.m4a=38;5;45:*.mid=38;5;45:*.midi=38;5;45:*.mka=38;5;45:*.mp3=38;5;45:*.mpc=38;5;45:*.ogg=38;5;45:*.ra=38;5;45:*.wav=38;5;45:*.oga=38;5;45:*.opus=38;5;45:*.spx=38;5;45:*.xspf=38;5;45:
J4M_ACCOUNT=ehpc-ben-2024b06-053
SLURM_NODEID=0
SLURM_TASK_PID=2635841
SSH_CONNECTION=10.112.0.77 49578 10.101.1.1 22
SLURM_PRIO_PROCESS=0
GOTO_NUM_THREADS=1
MODULES_RUN_QUARANTINE=LD_LIBRARY_PATH LD_PRELOAD
LANG=C.UTF-8
SLURM_SUBMIT_DIR=/home/fpedron/JUBE4MaX/max-inputs/interface/siesta/_CovidStrong/000000/000011_submit/work
HISTCONTROL=ignoredups
HOSTNAME=cn0018
LD_RUN_PATH_modshare=/opt/software/libfabric/1/1.13.2/lib:1:/opt/software/hdf/5/1.14.3-gcc-openmpi/lib:1:/opt/software/netcdf-c/4/4.9.2-gcc-openmpi/lib64:1:/opt/software/lapack/3/3.12.0-gcc/lib64:1:/opt/software/pnetcdf/1/1.12.2-gcc-openmpi//lib:1:/opt/software/gnu/gcc-14/gcc-14.2.0/lib:1:/opt/software/libaec/1/1.1.3-gcc/lib64:1:/opt/software/zstd/1/1.5.6-gcc/lib64:1:/opt/software/fftw/3/3.3.10-gcc-openmpi/lib:1:/opt/software/scalapack/2/2.2.0-gcc-openmpi/lib:1:/opt/software/ucx/1/1.17.0/lib/ucx:1:/opt/software/zlib/1/1.3.1-gcc/lib:1:/opt/software/openmpi/4/4.1.6-gcc/lib:1:/opt/software/ucx/1/1.17.0/lib:1:/opt/software/openblas/0/0.3.25-gcc/lib64:1:/opt/software/netcdf-fortran/4/4.6.1-gcc-openmpi/lib:1:/opt/software/gnu/gcc-14/gcc-14.2.0/lib64:1
OPENBLAS_NUM_THREADS=1
OLDPWD=/home/fpedron
PORTALS4_CQ_MAXPIDS=8
J4M_BIN_PATH=/home/fpedron/Siesta/siesta-gnu/bin/
SLURM_CPUS_PER_TASK=1
OMP_PROC_BIND=true
ENVIRONMENT=BATCH
PATH_modshare=/opt/software/netcdf-fortran/4/4.6.1-gcc-openmpi/bin:1:/usr/bin:1:/opt/software/libfabric/1/1.13.2/bin:1:/usr/share/Modules/bin:1:/usr/local/bin:1:/opt/software/hdf/5/1.14.3-gcc-openmpi/bin:1:/home/fpedron/.local/bin:1:/home/fpedron/bin:1:/opt/software/pnetcdf/1/1.12.2-gcc-openmpi//bin:1:/opt/software/gnu/gcc-14/gcc-14.2.0/bin:1:/opt/software/netcdf-c/4/4.9.2-gcc-openmpi/bin:1:/usr/sbin:1:/opt/software/libaec/1/1.1.3-gcc/bin:1:/opt/software/fftw/3/3.3.10-gcc-openmpi/bin:1:/opt/software/openmpi/4/4.1.6-gcc/bin:1:/usr/local/sbin:1
LOADEDMODULES_modshare=netcdf/fortran/4.6/latest-gcc-openmpi:1:gcc/latest:1:lapack/latest-gcc:1:zstd/1/latest-gcc:1:ucx/1/latest:1:fftw/3/latest-gcc-openmpi:1:hdf5/1/1.14/latest-gcc-openmpi:1:pnetcdf/1/latest-gcc-openmpi:1:scalapack/2/latest-gcc-openmpi:1:zlib/1/latest-gcc:1:openblas/0/latest-gcc:1:libfabric/1/latest:1:openmpi/4/gcc/latest:1:netcdf/c/4.9/latest-gcc-openmpi:1:libaec/1/latest-gcc:1
CMAKE_MODULE_PATH=/opt/software/hdf/5/1.14.3-gcc-openmpi/cmake;/opt/software/fftw/3/3.3.10-gcc-openmpi/lib/cmake/fftw3;/opt/software/scalapack/2/2.2.0-gcc-openmpi/lib/cmake/scalapack-2.1.0
CMAKE_MODULE_PATH_modshare=/opt/software/hdf/5/1.14.3-gcc-openmpi/cmake:1:/opt/software/fftw/3/3.3.10-gcc-openmpi/lib/cmake/fftw3:1:/opt/software/scalapack/2/2.2.0-gcc-openmpi/lib/cmake/scalapack-2.1.0:1
SLURM_PROCID=0
CFLAGS=-I/opt/software/netcdf-fortran/4/4.6.1-gcc-openmpi/include -I/opt/software/pnetcdf/1/1.12.2-gcc-openmpi//include -I/opt/software/netcdf-c/4/4.9.2-gcc-openmpi/include -I/opt/software/hdf/5/1.14.3-gcc-openmpi/include -I/opt/software/fftw/3/3.3.10-gcc-openmpi/include -I/opt/software/zlib/1/1.3.1-gcc/include -I/opt/software/zstd/1/1.5.6-gcc/include -I/opt/software/openmpi/4/4.1.6-gcc/include -I/opt/software/libaec/1/1.1.3-gcc/include -I/opt/software/ucx/1/1.17.0/include -I/opt/software/scalapack/2/2.2.0-gcc-openmpi/include -I/opt/software/openblas/0/0.3.25-gcc/include -I/opt/software/gnu/gcc-14/gcc-14.2.0/include
SLURM_JOB_GID=5340
PKG_CONFIG_PATH_modshare=/opt/software/zstd/1/1.5.6-gcc/lib64/pkgconfig:1:/opt/software/hdf/5/1.14.3-gcc-openmpi/lib/pkgconfig:1:/opt/software/fftw/3/3.3.10-gcc-openmpi/lib/pkgconfig:1:/opt/software/scalapack/2/2.2.0-gcc-openmpi/lib/pkgconfig:1:/opt/software/zlib/1/1.3.1-gcc/share/pkgconfig:1:/opt/software/openmpi/4/4.1.6-gcc/lib/pkgconfig:1
SLURMD_NODENAME=cn0018
SLURM_TASKS_PER_NODE=128(x8)
which_declare=declare -f
LD_LIBRARY_PATH_modshare=/opt/software/libfabric/1/1.13.2/lib:1:/opt/software/hdf/5/1.14.3-gcc-openmpi/lib:1:/opt/software/netcdf-c/4/4.9.2-gcc-openmpi/lib64:1:/opt/software/lapack/3/3.12.0-gcc/lib64:1:/opt/software/pnetcdf/1/1.12.2-gcc-openmpi//lib:1:/opt/software/gnu/gcc-14/gcc-14.2.0/lib:1:/opt/software/libaec/1/1.1.3-gcc/lib64:1:/opt/software/zstd/1/1.5.6-gcc/lib64:1:/opt/software/scalapack/2/2.2.0-gcc-openmpi/lib:1:/opt/software/fftw/3/3.3.10-gcc-openmpi/lib:1:/opt/software/openmpi/4/4.1.6-gcc/lib/openmpi:1:/opt/software/ucx/1/1.17.0/lib/ucx:1:/opt/software/openmpi/4/4.1.6-gcc/lib:1:/opt/software/zlib/1/1.3.1-gcc/lib:1:/opt/software/ucx/1/1.17.0/lib:1:/opt/software/openblas/0/0.3.25-gcc/lib64:1:/opt/software/netcdf-fortran/4/4.6.1-gcc-openmpi/lib:1:/opt/software/gnu/gcc-14/gcc-14.2.0/lib64:1
CC=gcc
XDG_SESSION_ID=110861
MODULES_CMD=/usr/share/Modules/libexec/modulecmd.tcl
LIBRARY_PATH_modshare=/opt/software/gnu/gcc-14/gcc-14.2.0/lib:1:/opt/software/gnu/gcc-14/gcc-14.2.0/lib64:1
SLURM_NNODES=8
USER=fpedron
MODULES_LMPREREQ=openmpi/4/gcc/latest&ucx/1/latest&libfabric/1/latest:fftw/3/latest-gcc-openmpi&openmpi/4/gcc/latest:hdf5/1/1.14/latest-gcc-openmpi&zlib/1/latest-gcc&libaec/1/latest-gcc&openmpi/4/gcc/latest:netcdf/c/4.9/latest-gcc-openmpi&hdf5/1/1.14/latest-gcc-openmpi&zstd/1/latest-gcc:netcdf/fortran/4.6/latest-gcc-openmpi&netcdf/c/4.9/latest-gcc-openmpi
CXXFLAGS=-I/opt/software/netcdf-fortran/4/4.6.1-gcc-openmpi/include -I/opt/software/pnetcdf/1/1.12.2-gcc-openmpi//include -I/opt/software/netcdf-c/4/4.9.2-gcc-openmpi/include -I/opt/software/hdf/5/1.14.3-gcc-openmpi/include -I/opt/software/fftw/3/3.3.10-gcc-openmpi/include -I/opt/software/zlib/1/1.3.1-gcc/include -I/opt/software/zstd/1/1.5.6-gcc/include -I/opt/software/openmpi/4/4.1.6-gcc/include -I/opt/software/libaec/1/1.1.3-gcc/include -I/opt/software/ucx/1/1.17.0/include -I/opt/software/scalapack/2/2.2.0-gcc-openmpi/include -I/opt/software/openblas/0/0.3.25-gcc/include -I/opt/software/gnu/gcc-14/gcc-14.2.0/include
FFLAGS_modshare=-I/opt/software/fftw/3/3.3.10-gcc-openmpi/include:1:-I/opt/software/libaec/1/1.1.3-gcc/include:1:-I/opt/software/openblas/0/0.3.25-gcc/include:1:-I/opt/software/zlib/1/1.3.1-gcc/include:1:-I/opt/software/openmpi/4/4.1.6-gcc/include:1
SLURM_NTASKS_PER_NODE=128
SELINUX_ROLE_REQUESTED=
PWD=/home/fpedron/JUBE4MaX/max-inputs/interface/siesta/_CovidStrong/000000/000011_submit/work
SLURM_JOB_NODELIST=cn[0018-0019,0021-0024,0031-0032]
HOME=/home/fpedron
SLURM_CLUSTER_NAME=discoverer
SLURM_NODELIST=cn[0018-0019,0021-0024,0031-0032]
SSH_CLIENT=10.112.0.77 49578 22
SLURM_NTASKS=1024
F77=gfortran
SELINUX_LEVEL_REQUESTED=
SLURM_JOB_CPUS_PER_NODE=128(x8)
SLURM_TOPOLOGY_ADDR=L2.pm1-isw1.cn0018
_LMFILES__modshare=/opt/software/modulefiles/hdf5/1/1.14/latest-gcc-openmpi:1:/opt/software/modulefiles/libaec/1/latest-gcc:1:/opt/software/modulefiles/pnetcdf/1/latest-gcc-openmpi:1:/opt/software/modulefiles/scalapack/2/latest-gcc-openmpi:1:/opt/software/modulefiles/netcdf/fortran/4.6/latest-gcc-openmpi:1:/opt/software/modulefiles/lapack/latest-gcc:1:/opt/software/modulefiles/libfabric/1/latest:1:/opt/software/modulefiles/openmpi/4/gcc/latest:1:/opt/software/modulefiles/zstd/1/latest-gcc:1:/opt/software/modulefiles/fftw/3/latest-gcc-openmpi:1:/opt/software/modulefiles/zlib/1/latest-gcc:1:/opt/software/modulefiles/gcc/latest:1:/opt/software/modulefiles/openblas/0/latest-gcc:1:/opt/software/modulefiles/netcdf/c/4.9/latest-gcc-openmpi:1:/opt/software/modulefiles/ucx/1/latest:1
CXXFLAGS_modshare=-I/opt/software/ucx/1/1.17.0/include:1:-I/opt/software/netcdf-fortran/4/4.6.1-gcc-openmpi/include:1:-I/opt/software/zstd/1/1.5.6-gcc/include:1:-I/opt/software/hdf/5/1.14.3-gcc-openmpi/include:1:-I/opt/software/openblas/0/0.3.25-gcc/include:1:-I/opt/software/pnetcdf/1/1.12.2-gcc-openmpi//include:1:-I/opt/software/gnu/gcc-14/gcc-14.2.0/include:1:-I/opt/software/netcdf-c/4/4.9.2-gcc-openmpi/include:1:-I/opt/software/fftw/3/3.3.10-gcc-openmpi/include:1:-I/opt/software/libaec/1/1.1.3-gcc/include:1:-I/opt/software/scalapack/2/2.2.0-gcc-openmpi/include:1:-I/opt/software/zlib/1/1.3.1-gcc/include:1:-I/opt/software/openmpi/4/4.1.6-gcc/include:1
FCFLAGS=-I/opt/software/netcdf-fortran/4/4.6.1-gcc-openmpi/include -I/opt/software/pnetcdf/1/1.12.2-gcc-openmpi//include -I/opt/software/netcdf-c/4/4.9.2-gcc-openmpi/include -I/opt/software/hdf/5/1.14.3-gcc-openmpi/include -I/opt/software/fftw/3/3.3.10-gcc-openmpi/include -I/opt/software/zlib/1/1.3.1-gcc/include -I/opt/software/zstd/1/1.5.6-gcc/include -I/opt/software/openmpi/4/4.1.6-gcc/include -I/opt/software/libaec/1/1.1.3-gcc/include -I/opt/software/ucx/1/1.17.0/include -I/opt/software/scalapack/2/2.2.0-gcc-openmpi/include -I/opt/software/openblas/0/0.3.25-gcc/include -I/opt/software/gnu/gcc-14/gcc-14.2.0/include
SLURM_WORKING_CLUSTER=discoverer:10.101.0.249:6817:8960:101
SLURM_JOB_NAME=CovidStrong
TMPDIR=/tmp
LIBRARY_PATH=/opt/software/gnu/gcc-14/gcc-14.2.0/lib64:/opt/software/gnu/gcc-14/gcc-14.2.0/lib:
SLURM_JOBID=244500
SLURM_CONF=/etc/slurm/slurm.conf
LOADEDMODULES=gcc/latest:openblas/0/latest-gcc:lapack/latest-gcc:scalapack/2/latest-gcc-openmpi:ucx/1/latest:libfabric/1/latest:libaec/1/latest-gcc:openmpi/4/gcc/latest:zstd/1/latest-gcc:zlib/1/latest-gcc:fftw/3/latest-gcc-openmpi:hdf5/1/1.14/latest-gcc-openmpi:netcdf/c/4.9/latest-gcc-openmpi:pnetcdf/1/latest-gcc-openmpi:netcdf/fortran/4.6/latest-gcc-openmpi
FC=gfortran
SLURM_NODE_ALIASES=(null)
SLURM_JOB_QOS=ehpc-ben-2024b06-053
SLURM_TOPOLOGY_ADDR_PATTERN=switch.switch.node
SSH_TTY=/dev/pts/80
MAIL=/var/spool/mail/fpedron
SLURM_CPUS_ON_NODE=128
CXX=g++
SLURM_JOB_NUM_NODES=8
OMP_PLACES=cores
SHELL=/bin/bash
TERM=xterm-256color
J4M_LIB_PATH=
SLURM_JOB_UID=5340
MANPATH_modshare=/opt/software/gnu/gcc-14/gcc-14.2.0/share/man:1::1:/opt/software/openmpi/4/4.1.6-gcc/share/man:1
SLURM_JOB_PARTITION=cn
SELINUX_USE_CURRENT_RANGE=
UCX_NET_DEVICES=mlx5_0:1
LD_RUN_PATH=/opt/software/netcdf-fortran/4/4.6.1-gcc-openmpi/lib:/opt/software/pnetcdf/1/1.12.2-gcc-openmpi//lib:/opt/software/netcdf-c/4/4.9.2-gcc-openmpi/lib64:/opt/software/hdf/5/1.14.3-gcc-openmpi/lib:/opt/software/fftw/3/3.3.10-gcc-openmpi/lib:/opt/software/zlib/1/1.3.1-gcc/lib:/opt/software/zstd/1/1.5.6-gcc/lib64:/opt/software/openmpi/4/4.1.6-gcc/lib:/opt/software/libaec/1/1.1.3-gcc/lib64:/opt/software/libfabric/1/1.13.2/lib:/opt/software/ucx/1/1.17.0/lib/ucx:/opt/software/ucx/1/1.17.0/lib:/opt/software/scalapack/2/2.2.0-gcc-openmpi/lib:/opt/software/lapack/3/3.12.0-gcc/lib64:/opt/software/openblas/0/0.3.25-gcc/lib64:/opt/software/gnu/gcc-14/gcc-14.2.0/lib64:/opt/software/gnu/gcc-14/gcc-14.2.0/lib
SLURM_JOB_USER=fpedron
SLURM_NPROCS=1024
SHLVL=4
LDFLAGS_modshare=-L/opt/software/hdf/5/1.14.3-gcc-openmpi/lib:1:-L/opt/software/scalapack/2/2.2.0-gcc-openmpi/lib:1:-L/opt/software/netcdf-c/4/4.9.2-gcc-openmpi/lib64:1:-L/opt/software/fftw/3/3.3.10-gcc-openmpi/lib:1:-lnetcdf:1:-L/opt/software/openmpi/4/4.1.6-gcc/lib:1:-L/opt/software/openblas/0/0.3.25-gcc/lib64:1:-L/opt/software/libaec/1/1.1.3-gcc/lib64:1:-lsz:1:-L/opt/software/gnu/gcc-14/gcc-14.2.0/lib64:1:-L/opt/software/zstd/1/1.5.6-gcc/lib64:1:-laec:1:-L/opt/software/libaec/1/1.1.3-gcc/lib:1:-L/opt/software/zlib/1/1.3.1-gcc/lib:1:-L/opt/software/pnetcdf/1/1.12.2-gcc-openmpi//lib:1:-L/opt/software/ucx/1/1.17.0/lib/ucx:1:-L/opt/software/lapack/3/3.12.0-gcc/lib64:1:-L/opt/software/ucx/1/1.17.0/lib:1:-L/opt/software/gnu/gcc-14/gcc-14.2.0/lib:1:-L/opt/software/netcdf-fortran/4/4.6.1-gcc-openmpi/lib:1
SLURM_SUBMIT_HOST=login1.discoverer.sofiatech.bg
SLURM_JOB_ACCOUNT=ehpc-ben-2024b06-053
FFLAGS=-I/opt/software/fftw/3/3.3.10-gcc-openmpi/include -I/opt/software/zlib/1/1.3.1-gcc/include -I/opt/software/openmpi/4/4.1.6-gcc/include -I/opt/software/libaec/1/1.1.3-gcc/include -I/opt/software/openblas/0/0.3.25-gcc/include
MANPATH=/opt/software/openmpi/4/4.1.6-gcc/share/man:/opt/software/gnu/gcc-14/gcc-14.2.0/share/man::
CFLAGS_modshare=-I/opt/software/ucx/1/1.17.0/include:1:-I/opt/software/netcdf-fortran/4/4.6.1-gcc-openmpi/include:1:-I/opt/software/zstd/1/1.5.6-gcc/include:1:-I/opt/software/hdf/5/1.14.3-gcc-openmpi/include:1:-I/opt/software/openblas/0/0.3.25-gcc/include:1:-I/opt/software/pnetcdf/1/1.12.2-gcc-openmpi//include:1:-I/opt/software/gnu/gcc-14/gcc-14.2.0/include:1:-I/opt/software/netcdf-c/4/4.9.2-gcc-openmpi/include:1:-I/opt/software/fftw/3/3.3.10-gcc-openmpi/include:1:-I/opt/software/libaec/1/1.1.3-gcc/include:1:-I/opt/software/scalapack/2/2.2.0-gcc-openmpi/include:1:-I/opt/software/zlib/1/1.3.1-gcc/include:1:-I/opt/software/openmpi/4/4.1.6-gcc/include:1
F90=gfortran
F95=gfortran
MODULEPATH=/opt/software/modulefiles
SLURM_GTIDS=0
LOGNAME=fpedron
MODULES_LMPREREQ_modshare=openmpi/4/gcc/latest&ucx/1/latest&libfabric/1/latest:1:fftw/3/latest-gcc-openmpi&openmpi/4/gcc/latest:1:netcdf/fortran/4.6/latest-gcc-openmpi&netcdf/c/4.9/latest-gcc-openmpi:1:hdf5/1/1.14/latest-gcc-openmpi&zlib/1/latest-gcc&libaec/1/latest-gcc&openmpi/4/gcc/latest:1:netcdf/c/4.9/latest-gcc-openmpi&hdf5/1/1.14/latest-gcc-openmpi&zstd/1/latest-gcc:1
DBUS_SESSION_BUS_ADDRESS=unix:path=/run/user/5340/bus
XDG_RUNTIME_DIR=/run/user/5340
LDFLAGS=-L/opt/software/netcdf-fortran/4/4.6.1-gcc-openmpi/lib -L/opt/software/pnetcdf/1/1.12.2-gcc-openmpi//lib -L/opt/software/netcdf-c/4/4.9.2-gcc-openmpi/lib64 -lnetcdf -L/opt/software/hdf/5/1.14.3-gcc-openmpi/lib -L/opt/software/fftw/3/3.3.10-gcc-openmpi/lib -L/opt/software/zlib/1/1.3.1-gcc/lib -L/opt/software/zstd/1/1.5.6-gcc/lib64 -L/opt/software/openmpi/4/4.1.6-gcc/lib -L/opt/software/libaec/1/1.1.3-gcc/lib64 -L/opt/software/libaec/1/1.1.3-gcc/lib -lsz -laec -L/opt/software/ucx/1/1.17.0/lib -L/opt/software/ucx/1/1.17.0/lib/ucx -L/opt/software/scalapack/2/2.2.0-gcc-openmpi/lib -L/opt/software/lapack/3/3.12.0-gcc/lib64 -L/opt/software/openblas/0/0.3.25-gcc/lib64 -L/opt/software/gnu/gcc-14/gcc-14.2.0/lib -L/opt/software/gnu/gcc-14/gcc-14.2.0/lib64
MODULEPATH_modshare=/opt/software/modulefiles:1
PORTALS4_CQ_GROUP=244500
PATH=/opt/software/netcdf-fortran/4/4.6.1-gcc-openmpi/bin:/opt/software/pnetcdf/1/1.12.2-gcc-openmpi//bin:/opt/software/netcdf-c/4/4.9.2-gcc-openmpi/bin:/opt/software/hdf/5/1.14.3-gcc-openmpi/bin:/opt/software/fftw/3/3.3.10-gcc-openmpi/bin:/opt/software/openmpi/4/4.1.6-gcc/bin:/opt/software/libaec/1/1.1.3-gcc/bin:/opt/software/libfabric/1/1.13.2/bin:/opt/software/gnu/gcc-14/gcc-14.2.0/bin:/home/fpedron/.local/bin:/home/fpedron/bin:/usr/share/Modules/bin:/usr/local/bin:/usr/bin:/usr/local/sbin:/usr/sbin:/home/fpedron/Siesta/siesta-gnu/bin/
SLURM_JOB_ID=244500
_LMFILES_=/opt/software/modulefiles/gcc/latest:/opt/software/modulefiles/openblas/0/latest-gcc:/opt/software/modulefiles/lapack/latest-gcc:/opt/software/modulefiles/scalapack/2/latest-gcc-openmpi:/opt/software/modulefiles/ucx/1/latest:/opt/software/modulefiles/libfabric/1/latest:/opt/software/modulefiles/libaec/1/latest-gcc:/opt/software/modulefiles/openmpi/4/gcc/latest:/opt/software/modulefiles/zstd/1/latest-gcc:/opt/software/modulefiles/zlib/1/latest-gcc:/opt/software/modulefiles/fftw/3/latest-gcc-openmpi:/opt/software/modulefiles/hdf5/1/1.14/latest-gcc-openmpi:/opt/software/modulefiles/netcdf/c/4.9/latest-gcc-openmpi:/opt/software/modulefiles/pnetcdf/1/latest-gcc-openmpi:/opt/software/modulefiles/netcdf/fortran/4.6/latest-gcc-openmpi
MODULESHOME=/usr/share/Modules
PKG_CONFIG_PATH=/opt/software/hdf/5/1.14.3-gcc-openmpi/lib/pkgconfig:/opt/software/fftw/3/3.3.10-gcc-openmpi/lib/pkgconfig:/opt/software/zlib/1/1.3.1-gcc/share/pkgconfig:/opt/software/zstd/1/1.5.6-gcc/lib64/pkgconfig:/opt/software/openmpi/4/4.1.6-gcc/lib/pkgconfig:/opt/software/scalapack/2/2.2.0-gcc-openmpi/lib/pkgconfig
INFOPATH_modshare=/opt/software/gnu/gcc-14/gcc-14.2.0/share/info:1:/opt/software/openmpi/4/4.1.6-gcc/share/info:1
INFOPATH=/opt/software/openmpi/4/4.1.6-gcc/share/info:/opt/software/gnu/gcc-14/gcc-14.2.0/share/info
HISTSIZE=1000
J4M_HOME=/home/fpedron/JUBE4MaX/max-inputs/
FCFLAGS_modshare=-I/opt/software/ucx/1/1.17.0/include:1:-I/opt/software/netcdf-fortran/4/4.6.1-gcc-openmpi/include:1:-I/opt/software/zstd/1/1.5.6-gcc/include:1:-I/opt/software/hdf/5/1.14.3-gcc-openmpi/include:1:-I/opt/software/openblas/0/0.3.25-gcc/include:1:-I/opt/software/pnetcdf/1/1.12.2-gcc-openmpi//include:1:-I/opt/software/gnu/gcc-14/gcc-14.2.0/include:1:-I/opt/software/netcdf-c/4/4.9.2-gcc-openmpi/include:1:-I/opt/software/fftw/3/3.3.10-gcc-openmpi/include:1:-I/opt/software/libaec/1/1.1.3-gcc/include:1:-I/opt/software/scalapack/2/2.2.0-gcc-openmpi/include:1:-I/opt/software/zlib/1/1.3.1-gcc/include:1:-I/opt/software/openmpi/4/4.1.6-gcc/include:1
SLURM_LOCALID=0
OMP_NUM_THREADS=1
LESSOPEN=||/usr/bin/lesspipe.sh %s
BASH_FUNC_which%%=() {  ( alias;
 eval ${which_declare} ) | /usr/bin/which --tty-only --read-alias --read-functions --show-tilde --show-dot $@
}
BASH_FUNC_module%%=() {  _module_raw "$@" 2>&1
}
BASH_FUNC__module_raw%%=() {  unset _mlshdbg;
 if [ "${MODULES_SILENT_SHELL_DEBUG:-0}" = '1' ]; then
 case "$-" in 
 *v*x*)
 set +vx;
 _mlshdbg='vx'
 ;;
 *v*)
 set +v;
 _mlshdbg='v'
 ;;
 *x*)
 set +x;
 _mlshdbg='x'
 ;;
 *)
 _mlshdbg=''
 ;;
 esac;
 fi;
 unset _mlre _mlIFS;
 if [ -n "${IFS+x}" ]; then
 _mlIFS=$IFS;
 fi;
 IFS=' ';
 for _mlv in ${MODULES_RUN_QUARANTINE:-};
 do
 if [ "${_mlv}" = "${_mlv##*[!A-Za-z0-9_]}" -a "${_mlv}" = "${_mlv#[0-9]}" ]; then
 if [ -n "`eval 'echo ${'$_mlv'+x}'`" ]; then
 _mlre="${_mlre:-}${_mlv}_modquar='`eval 'echo ${'$_mlv'}'`' ";
 fi;
 _mlrv="MODULES_RUNENV_${_mlv}";
 _mlre="${_mlre:-}${_mlv}='`eval 'echo ${'$_mlrv':-}'`' ";
 fi;
 done;
 if [ -n "${_mlre:-}" ]; then
 eval `eval ${_mlre} /usr/bin/tclsh /usr/share/Modules/libexec/modulecmd.tcl bash '"$@"'`;
 else
 eval `/usr/bin/tclsh /usr/share/Modules/libexec/modulecmd.tcl bash "$@"`;
 fi;
 _mlstatus=$?;
 if [ -n "${_mlIFS+x}" ]; then
 IFS=$_mlIFS;
 else
 unset IFS;
 fi;
 unset _mlre _mlv _mlrv _mlIFS;
 if [ -n "${_mlshdbg:-}" ]; then
 set -$_mlshdbg;
 fi;
 unset _mlshdbg;
 return $_mlstatus
}
BASH_FUNC_switchml%%=() {  typeset swfound=1;
 if [ "${MODULES_USE_COMPAT_VERSION:-0}" = '1' ]; then
 typeset swname='main';
 if [ -e /usr/share/Modules/libexec/modulecmd.tcl ]; then
 typeset swfound=0;
 unset MODULES_USE_COMPAT_VERSION;
 fi;
 else
 typeset swname='compatibility';
 if [ -e /usr/share/Modules/libexec/modulecmd-compat ]; then
 typeset swfound=0;
 MODULES_USE_COMPAT_VERSION=1;
 export MODULES_USE_COMPAT_VERSION;
 fi;
 fi;
 if [ $swfound -eq 0 ]; then
 echo "Switching to Modules $swname version";
 source /usr/share/Modules/init/bash;
 else
 echo "Cannot switch to Modules $swname version, command not found";
 return 1;
 fi
}
BASH_FUNC_ml%%=() {  module ml "$@"
}
_=/usr/bin/env

Current SIESTA linked libraries
-------------------------------
	linux-vdso.so.1 (0x00007ffe8bca7000)
	libnetcdf.so.19 => /opt/software/netcdf-c/4/4.9.2-gcc-openmpi/lib64/libnetcdf.so.19 (0x00007fca31461000)
	libsz.so.2 => /opt/software/libaec/1/1.1.3-gcc/lib64/libsz.so.2 (0x00007fca31255000)
	libaec.so.0 => /opt/software/libaec/1/1.1.3-gcc/lib64/libaec.so.0 (0x00007fca3104a000)
	libnetcdff.so.7 => /opt/software/netcdf-fortran/4/4.6.1-gcc-openmpi/lib/libnetcdff.so.7 (0x00007fca30d8d000)
	libdl.so.2 => /lib64/libdl.so.2 (0x00007fca30b89000)
	libgfortran.so.5 => /opt/software/gnu/gcc-14/gcc-14.2.0/lib64/libgfortran.so.5 (0x00007fca30304000)
	libm.so.6 => /lib64/libm.so.6 (0x00007fca2ff82000)
	libmvec.so.1 => /lib64/libmvec.so.1 (0x00007fca2fd57000)
	libreadline.so.7 => /lib64/libreadline.so.7 (0x00007fca2fb08000)
	libmpi_usempif08.so.40 => /opt/software/openmpi/4/4.1.6-gcc/lib/libmpi_usempif08.so.40 (0x00007fca2f8cb000)
	libmpi_usempi_ignore_tkr.so.40 => /opt/software/openmpi/4/4.1.6-gcc/lib/libmpi_usempi_ignore_tkr.so.40 (0x00007fca2f6bd000)
	libmpi_mpifh.so.40 => /opt/software/openmpi/4/4.1.6-gcc/lib/libmpi_mpifh.so.40 (0x00007fca2f459000)
	libmpi.so.40 => /opt/software/openmpi/4/4.1.6-gcc/lib/libmpi.so.40 (0x00007fca2f10c000)
	libscalapack.so => /opt/software/scalapack/2/2.2.0-gcc-openmpi/lib/libscalapack.so (0x00007fca2e937000)
	liblapack.so.3 => /opt/software/lapack/3/3.12.0-gcc/lib64/liblapack.so.3 (0x00007fca2e061000)
	libopenblas.so.0 => /opt/software/openblas/0/0.3.25-gcc/lib64/libopenblas.so.0 (0x00007fca2d0ce000)
	libgomp.so.1 => /opt/software/gnu/gcc-14/gcc-14.2.0/lib64/libgomp.so.1 (0x00007fca2ce6e000)
	libpthread.so.0 => /lib64/libpthread.so.0 (0x00007fca2cc4e000)
	libmpi_cxx.so.40 => /opt/software/openmpi/4/4.1.6-gcc/lib/libmpi_cxx.so.40 (0x00007fca2ca33000)
	libstdc++.so.6 => /opt/software/gnu/gcc-14/gcc-14.2.0/lib64/libstdc++.so.6 (0x00007fca2c590000)
	libgcc_s.so.1 => /opt/software/gnu/gcc-14/gcc-14.2.0/lib64/libgcc_s.so.1 (0x00007fca2c35e000)
	libc.so.6 => /lib64/libc.so.6 (0x00007fca2bf99000)
	libhdf5_hl.so.310 => /opt/software/hdf/5/1.14.3-gcc-openmpi/lib/libhdf5_hl.so.310 (0x00007fca2bd76000)
	libhdf5.so.310 => /opt/software/hdf/5/1.14.3-gcc-openmpi/lib/libhdf5.so.310 (0x00007fca2b6e6000)
	libz.so.1 => /opt/software/zlib/1/1.3.1-gcc/lib/libz.so.1 (0x00007fca2b4ca000)
	libzip.so.5 => /opt/software/libzip/1/1.10.1-gcc/lib64/libzip.so.5 (0x00007fca2b1c1000)
	libzstd.so.1 => /opt/software/zstd/1/1.5.6-gcc/lib64/libzstd.so.1 (0x00007fca2aeb0000)
	libcurl.so.4 => /lib64/libcurl.so.4 (0x00007fca2ac21000)
	libxml2.so.2 => /lib64/libxml2.so.2 (0x00007fca2a8b9000)
	libquadmath.so.0 => /opt/software/gnu/gcc-14/gcc-14.2.0/lib64/libquadmath.so.0 (0x00007fca2a669000)
	/lib64/ld-linux-x86-64.so.2 (0x00007fca318bb000)
	libtinfo.so.6 => /lib64/libtinfo.so.6 (0x00007fca2a43c000)
	libopen-rte.so.40 => /opt/software/openmpi/4/4.1.6-gcc/lib/libopen-rte.so.40 (0x00007fca2a185000)
	libopen-pal.so.40 => /opt/software/openmpi/4/4.1.6-gcc/lib/libopen-pal.so.40 (0x00007fca29e96000)
	libucs.so.0 => /opt/software/ucx/1/1.15.0/lib/libucs.so.0 (0x00007fca29af0000)
	libucm.so.0 => /opt/software/ucx/1/1.15.0/lib/libucm.so.0 (0x00007fca298d6000)
	librt.so.1 => /lib64/librt.so.1 (0x00007fca296ce000)
	libutil.so.1 => /lib64/libutil.so.1 (0x00007fca294ca000)
	libevent_core-2.1.so.6 => /lib64/libevent_core-2.1.so.6 (0x00007fca29291000)
	libevent_pthreads-2.1.so.6 => /lib64/libevent_pthreads-2.1.so.6 (0x00007fca2908e000)
	libblas.so.3 => /opt/software/lapack/3/3.12.0-gcc/lib64/libblas.so.3 (0x00007fca28df2000)
	liblzma.so.5 => /lib64/liblzma.so.5 (0x00007fca28bcb000)
	libcrypto.so.1.1 => /lib64/libcrypto.so.1.1 (0x00007fca286e1000)
	libnghttp2.so.14 => /lib64/libnghttp2.so.14 (0x00007fca284ba000)
	libidn2.so.0 => /lib64/libidn2.so.0 (0x00007fca2829c000)
	libssh.so.4 => /lib64/libssh.so.4 (0x00007fca2802d000)
	libpsl.so.5 => /lib64/libpsl.so.5 (0x00007fca27e1c000)
	libssl.so.1.1 => /lib64/libssl.so.1.1 (0x00007fca27b88000)
	libgssapi_krb5.so.2 => /lib64/libgssapi_krb5.so.2 (0x00007fca27933000)
	libkrb5.so.3 => /lib64/libkrb5.so.3 (0x00007fca2764a000)
	libk5crypto.so.3 => /lib64/libk5crypto.so.3 (0x00007fca27433000)
	libcom_err.so.2 => /lib64/libcom_err.so.2 (0x00007fca2722f000)
	libldap-2.4.so.2 => /lib64/libldap-2.4.so.2 (0x00007fca26fe1000)
	liblber-2.4.so.2 => /lib64/liblber-2.4.so.2 (0x00007fca26dd1000)
	libbrotlidec.so.1 => /lib64/libbrotlidec.so.1 (0x00007fca26bc4000)
	libunistring.so.2 => /lib64/libunistring.so.2 (0x00007fca26843000)
	libkrb5support.so.0 => /lib64/libkrb5support.so.0 (0x00007fca26632000)
	libkeyutils.so.1 => /lib64/libkeyutils.so.1 (0x00007fca2642e000)
	libresolv.so.2 => /lib64/libresolv.so.2 (0x00007fca26217000)
	libsasl2.so.3 => /lib64/libsasl2.so.3 (0x00007fca25ff9000)
	libbrotlicommon.so.1 => /lib64/libbrotlicommon.so.1 (0x00007fca25dd8000)
	libselinux.so.1 => /lib64/libselinux.so.1 (0x00007fca25bae000)
	libcrypt.so.1 => /lib64/libcrypt.so.1 (0x00007fca25985000)
	libpcre2-8.so.0 => /lib64/libpcre2-8.so.0 (0x00007fca25701000)

SCF_NOT_CONV: SCF did not converge  in maximum number of steps.
Geom step, scf iteration, dDmax, dHmax:    0     5    791.927150     9.638119
Job completed
