{
 "global_section": { "_calls": 1, "_time":       40.974, "_%":   100.00,
   "siesta": { "_calls": 1, "_time":       40.974, "_%":   100.00,
     "Setup": { "_calls": 1, "_time":        2.046, "_%":     4.99,
       "bands": { "_calls": 1, "_time":        0.004, "_%":     0.01},
       "KSV_init": { "_calls": 1, "_time":        0.001, "_%":     0.00}
     },
     "IterGeom": { "_calls": 1, "_time":       38.696, "_%":    94.44,
       "geom_init": { "_calls": 1, "_time":       13.217, "_%":    32.26,
         "state_init": { "_calls": 1, "_time":        2.530, "_%":     6.18,
           "hsparse": { "_calls": 1, "_time":        0.177, "_%":     0.43},
           "overlap": { "_calls": 1, "_time":        1.265, "_%":     3.09}
         },
         "Setup_H0": { "_calls": 1, "_time":       10.685, "_%":    26.08,
           "naefs": { "_calls": 1, "_time":        0.030, "_%":     0.07},
           "MolMec": { "_calls": 1, "_time":        0.000, "_%":     0.00},
           "kinefsm": { "_calls": 1, "_time":        1.255, "_%":     3.06},
           "nlefsm": { "_calls": 1, "_time":        2.953, "_%":     7.21},
           "DHSCF_Init": { "_calls": 1, "_time":        6.429, "_%":    15.69,
             "DHSCF1": { "_calls": 1, "_time":        0.060, "_%":     0.15,
               "INITMESH": { "_calls": 1, "_time":        0.000, "_%":     0.00}
             },
             "DHSCF2": { "_calls": 1, "_time":        6.333, "_%":    15.46,
               "REMESH": { "_calls": 1, "_time":        3.432, "_%":     8.38,
                 "INITMESH": { "_calls": 2, "_time":        3.210, "_%":     7.83,
                   "SPLOAD": { "_calls": 2, "_time":        1.856, "_%":     4.53}
                 }
               },
               "REORD": { "_calls": 2, "_time":        0.013, "_%":     0.03},
               "PHION": { "_calls": 1, "_time":        0.202, "_%":     0.49},
               "COMM_BSC": { "_calls": 1, "_time":        0.068, "_%":     0.17},
               "POISON": { "_calls": 1, "_time":        2.014, "_%":     4.91,
                 "fft": { "_calls": 2, "_time":        1.929, "_%":     4.71}
               }
             }
           }
         }
       },
       "IterSCF": { "_calls": 5, "_time":       25.376, "_%":    61.93,
         "setup_H": { "_calls": 5, "_time":       15.385, "_%":    37.55,
           "DHSCF": { "_calls": 5, "_time":       15.374, "_%":    37.52,
             "DHSCF3": { "_calls": 5, "_time":       15.374, "_%":    37.52,
               "rhoofd": { "_calls": 5, "_time":        0.180, "_%":     0.44},
               "COMM_BSC": { "_calls": 10, "_time":        0.473, "_%":     1.15},
               "POISON": { "_calls": 5, "_time":        9.740, "_%":    23.77,
                 "fft": { "_calls": 10, "_time":        9.263, "_%":    22.61}
               },
               "XC": { "_calls": 5, "_time":        3.720, "_%":     9.08,
                 "COMM_BSC": { "_calls": 10, "_time":        0.405, "_%":     0.99},
                 "GXC-CellXC": { "_calls": 5, "_time":        3.174, "_%":     7.75,
                   "gridxc@cellXC": { "_calls": 5, "_time":        3.174, "_%":     7.75}
                 }
               },
               "vmat": { "_calls": 5, "_time":        0.173, "_%":     0.42}
             }
           }
         },
         "compute_dm": { "_calls": 5, "_time":        9.960, "_%":    24.31,
           "elsi": { "_calls": 5, "_time":        9.958, "_%":    24.30,
             "find nnz_g": { "_calls": 5, "_time":        0.000, "_%":     0.00},
             "elsi-solver": { "_calls": 5, "_time":        9.892, "_%":    24.14}
           }
         },
         "MIXER": { "_calls": 5, "_time":        0.009, "_%":     0.02}
       },
       "state_analysis": { "_calls": 1, "_time":        0.084, "_%":     0.21},
       "siesta_move": { "_calls": 1, "_time":        0.000, "_%":     0.00}
     },
     "Analysis": { "_calls": 1, "_time":        0.224, "_%":     0.55,
       "optical": { "_calls": 1, "_time":        0.001, "_%":     0.00}
     }
   }
 }}
