JobId=7326595 JobName=submit.job
   UserId=nspallan(25378) GroupId=interactive(25200) MCS_label=N/A
   Priority=205377 Nice=0 Account=euhpc_e01_022 QOS=boost_qos_bprod
   JobState=RUNNING Reason=None Dependency=(null)
   Requeue=0 Restarts=0 BatchFlag=1 Reboot=0 ExitCode=0:0
   DerivedExitCode=0:0
   RunTime=00:00:05 TimeLimit=01:00:00 TimeMin=N/A
   SubmitTime=2024-08-30T11:56:09 EligibleTime=2024-08-30T11:56:09
   AccrueTime=2024-08-30T11:56:09
   StartTime=2024-08-30T13:31:34 EndTime=2024-08-30T14:31:35 Deadline=N/A
   SuspendTime=None SecsPreSuspend=0 LastSchedEval=2024-08-30T13:31:34 Scheduler=Main
   Partition=boost_usr_prod AllocNode:Sid=slurm-controller:2033042
   ReqNodeList=(null) ExcNodeList=(null)
   NodeList=lrdn[0006,0017,0027,0060,0062,0095,0119,0125,0168,0177,0193,0198,0228,0282,0311,0354,0439,0459,0463,0498,0518,0547,0557,0589,0597,0607,0624,0637,0640,0657,0668,0677,0783,0802,0822-0823,0837,0846,0884,0983,0998,1001,1012,1025,1032,1063,1102,1117,1135,1139,1169,1196,1214,1229,1258,1268,1279,1284,1328,1347,1349,1369,1375,1383,1398,1404,1411,1419,1437,1441,1455,1469,1475,1486,1490,1502,1520,1526,1540,1543,1569,1573,1603,1616,1626,1650,1655,1660,1674,1683,1695,1698,1714,1720,1731,1742,1760,1774,1779,1791,1805,1812,1815,1832,1840,1853,1865,1877,1888,1897,1907,1914,1927,1932,1943,1954,1976,1984,1992,2003,2011,2029,2033,2041,2060-2061,2073,2085,2088,2102,2110,2115,2136,2148,2156,2161,2170,2176,2192,2200,2213,2222,2239,2252,2262,2265,2282,2302,2312,2320,2334,2341,2363,2369,2377,2381,2386,2402,2410,2415,2434,2440,2455,2469,2488,2502,2505,2526,2535,2538,2551,2567,2572,2582,2589,2601,2617,2635,2643,2651,2701,2712,2733,2746-2747,2765,2777,2794,2799,2805,2822,2839,2844,2857,2867,2874,2898,2904,2913,2935]
   BatchHost=lrdn0006
   NumNodes=200 NumCPUs=6400 NumTasks=800 CPUs/Task=8 ReqB:S:C:T=0:0:*:*
   TRES=cpu=6400,mem=96250G,node=200,billing=6400,gres/gpu=800
   Socks/Node=* NtasksPerN:B:S:C=4:0:*:* CoreSpec=*
   JOB_GRES=gpu:a100:800
     Nodes=lrdn[0006,0017,0027,0060,0062,0095,0119,0125,0168,0177,0193,0198,0228,0282,0311,0354,0439,0459,0463,0498,0518,0547,0557,0589,0597,0607,0624,0637,0640,0657,0668,0677,0783,0802,0822-0823,0837,0846,0884,0983,0998,1001,1012,1025,1032,1063,1102,1117,1135,1139,1169,1196,1214,1229,1258,1268,1279,1284,1328,1347,1349,1369,1375,1383,1398,1404,1411,1419,1437,1441,1455,1469,1475,1486,1490,1502,1520,1526,1540,1543,1569,1573,1603,1616,1626,1650,1655,1660,1674,1683,1695,1698,1714,1720,1731,1742,1760,1774,1779,1791,1805,1812,1815,1832,1840,1853,1865,1877,1888,1897,1907,1914,1927,1932,1943,1954,1976,1984,1992,2003,2011,2029,2033,2041,2060-2061,2073,2085,2088,2102,2110,2115,2136,2148,2156,2161,2170,2176,2192,2200,2213,2222,2239,2252,2262,2265,2282,2302,2312,2320,2334,2341,2363,2369,2377,2381,2386,2402,2410,2415,2434,2440,2455,2469,2488,2502,2505,2526,2535,2538,2551,2567,2572,2582,2589,2601,2617,2635,2643,2651,2701,2712,2733,2746-2747,2765,2777,2794,2799,2805,2822,2839,2844,2857,2867,2874,2898,2904,2913,2935] CPU_IDs=0-31 Mem=492800 GRES=gpu:a100:4(IDX:0-3)
   MinCPUsNode=32 MinMemoryCPU=15400M MinTmpDiskNode=0
   Features=(null) DelayBoot=00:00:00
   OverSubscribe=NO Contiguous=0 Licenses=(null) Network=(null)
   Command=/leonardo_work/EUHPC_E01_022/nspallan/benchmarks/run_workflow_dft/000004/000006_submit/work/submit.job
   WorkDir=/leonardo_work/EUHPC_E01_022/nspallan/benchmarks/run_workflow_dft/000004/000006_submit/work
   StdErr=/leonardo_work/EUHPC_E01_022/nspallan/benchmarks/run_workflow_dft/000004/000006_submit/work/slurm-7326595.out
   StdIn=/dev/null
   StdOut=/leonardo_work/EUHPC_E01_022/nspallan/benchmarks/run_workflow_dft/000004/000006_submit/work/slurm-7326595.out
   Power=
   TresPerNode=gres:gpu:4
   

