{
 "global_section": { "_calls": 1, "_time":      511.659, "_%":   100.00,
   "siesta": { "_calls": 1, "_time":      511.659, "_%":   100.00,
     "Setup": { "_calls": 1, "_time":        0.835, "_%":     0.16,
       "bands": { "_calls": 1, "_time":        0.001, "_%":     0.00},
       "KSV_init": { "_calls": 1, "_time":        0.000, "_%":     0.00}
     },
     "IterGeom": { "_calls": 1, "_time":      492.345, "_%":    96.23,
       "geom_init": { "_calls": 1, "_time":        6.406, "_%":     1.25,
         "state_init": { "_calls": 1, "_time":        0.733, "_%":     0.14,
           "hsparse": { "_calls": 1, "_time":        0.093, "_%":     0.02},
           "overlap": { "_calls": 1, "_time":        0.311, "_%":     0.06}
         },
         "Setup_H0": { "_calls": 1, "_time":        5.673, "_%":     1.11,
           "naefs": { "_calls": 1, "_time":        0.019, "_%":     0.00},
           "MolMec": { "_calls": 1, "_time":        0.000, "_%":     0.00},
           "kinefsm": { "_calls": 1, "_time":        0.317, "_%":     0.06},
           "nlefsm": { "_calls": 1, "_time":        0.418, "_%":     0.08},
           "DHSCF_Init": { "_calls": 1, "_time":        4.908, "_%":     0.96,
             "DHSCF1": { "_calls": 1, "_time":        0.018, "_%":     0.00,
               "INITMESH": { "_calls": 1, "_time":        0.000, "_%":     0.00}
             },
             "DHSCF2": { "_calls": 1, "_time":        4.877, "_%":     0.95,
               "REMESH": { "_calls": 1, "_time":        3.701, "_%":     0.72,
                 "INITMESH": { "_calls": 2, "_time":        3.414, "_%":     0.67,
                   "SPLOAD": { "_calls": 2, "_time":        0.769, "_%":     0.15}
                 }
               },
               "REORD": { "_calls": 2, "_time":        0.001, "_%":     0.00},
               "PHION": { "_calls": 1, "_time":        0.059, "_%":     0.01},
               "COMM_BSC": { "_calls": 1, "_time":        0.019, "_%":     0.00},
               "POISON": { "_calls": 1, "_time":        0.419, "_%":     0.08,
                 "fft": { "_calls": 2, "_time":        0.407, "_%":     0.08}
               }
             }
           }
         }
       },
       "IterSCF": { "_calls": 5, "_time":      485.903, "_%":    94.97,
         "setup_H": { "_calls": 5, "_time":        3.841, "_%":     0.75,
           "DHSCF": { "_calls": 5, "_time":        3.807, "_%":     0.74,
             "DHSCF3": { "_calls": 5, "_time":        3.807, "_%":     0.74,
               "rhoofd": { "_calls": 5, "_time":        0.066, "_%":     0.01},
               "COMM_BSC": { "_calls": 10, "_time":        0.127, "_%":     0.02},
               "POISON": { "_calls": 5, "_time":        1.960, "_%":     0.38,
                 "fft": { "_calls": 10, "_time":        1.849, "_%":     0.36}
               },
               "XC": { "_calls": 5, "_time":        1.351, "_%":     0.26,
                 "COMM_BSC": { "_calls": 10, "_time":        0.152, "_%":     0.03},
                 "GXC-CellXC": { "_calls": 5, "_time":        1.174, "_%":     0.23,
                   "gridxc@cellXC": { "_calls": 5, "_time":        1.174, "_%":     0.23}
                 }
               },
               "vmat": { "_calls": 5, "_time":        0.085, "_%":     0.02}
             }
           }
         },
         "compute_dm": { "_calls": 5, "_time":      482.009, "_%":    94.21,
           "elsi": { "_calls": 5, "_time":      482.003, "_%":    94.20,
             "find nnz_g": { "_calls": 5, "_time":        0.000, "_%":     0.00},
             "elsi-solver": { "_calls": 5, "_time":      481.993, "_%":    94.20}
           }
         },
         "MIXER": { "_calls": 5, "_time":        0.042, "_%":     0.01}
       },
       "state_analysis": { "_calls": 1, "_time":        0.025, "_%":     0.00},
       "siesta_move": { "_calls": 1, "_time":        0.000, "_%":     0.00}
     },
     "Analysis": { "_calls": 1, "_time":       17.868, "_%":     3.49,
       "optical": { "_calls": 1, "_time":        0.000, "_%":     0.00}
     }
   }
 }}
