JobId=35111133 JobName=CovidWeak
   UserId=eufedericop(1977552410) GroupId=eufedericop(1977552410) MCS_label=N/A
   Priority=65899669 Nice=0 Account=b2024b06-053-users QOS=normal
   JobState=RUNNING Reason=None Dependency=(null)
   Requeue=1 Restarts=0 BatchFlag=1 Reboot=0 ExitCode=0:0
   DerivedExitCode=0:0
   RunTime=00:00:04 TimeLimit=1-00:00:00 TimeMin=N/A
   SubmitTime=2024-09-18T12:00:45 EligibleTime=2024-09-18T12:00:45
   AccrueTime=2024-09-18T12:00:45
   StartTime=2024-09-18T12:00:45 EndTime=2024-09-19T12:00:45 Deadline=N/A
   SuspendTime=None SecsPreSuspend=0 LastSchedEval=2024-09-18T12:00:45 Scheduler=Main
   Partition=cpu AllocNode:Sid=login0001-dmz:2130782
   ReqNodeList=(null) ExcNodeList=(null)
   NodeList=cn[0174,0182-0183,0185]
   BatchHost=cn0174
   NumNodes=4 NumCPUs=1024 NumTasks=512 CPUs/Task=1 ReqB:S:C:T=0:0:*:1
   ReqTRES=cpu=512,mem=500G,node=4,billing=512
   AllocTRES=cpu=1024,mem=500G,node=4,billing=1024
   Socks/Node=* NtasksPerN:B:S:C=128:0:*:* CoreSpec=*
   JOB_GRES=(null)
     Nodes=cn[0174,0182-0183,0185] CPU_IDs=0-255 Mem=128000 GRES=
   MinCPUsNode=128 MinMemoryCPU=1000M MinTmpDiskNode=0
   Features=(null) DelayBoot=00:00:00
   OverSubscribe=NO Contiguous=0 Licenses=(null) Network=(null)
   Command=/ceph/hpc/home/eufedericop/JUBE4MaX/max-inputs/interface/siesta/_CovidWeak/000000/000006_submit/work/submit.job
   WorkDir=/ceph/hpc/home/eufedericop/JUBE4MaX/max-inputs/interface/siesta/_CovidWeak/000000/000006_submit/work
   StdErr=/ceph/hpc/home/eufedericop/JUBE4MaX/max-inputs/interface/siesta/_CovidWeak/000000/000006_submit/work/slurm-35111133.out
   StdIn=/dev/null
   StdOut=/ceph/hpc/home/eufedericop/JUBE4MaX/max-inputs/interface/siesta/_CovidWeak/000000/000006_submit/work/slurm-35111133.out
   Power=
   TresPerTask=cpu:1
   

