{
 "global_section": { "_calls": 1, "_time":      864.857, "_%":   100.00,
   "siesta": { "_calls": 1, "_time":      864.857, "_%":   100.00,
     "Setup": { "_calls": 1, "_time":        1.287, "_%":     0.15,
       "bands": { "_calls": 1, "_time":        0.003, "_%":     0.00},
       "KSV_init": { "_calls": 1, "_time":        0.001, "_%":     0.00}
     },
     "IterGeom": { "_calls": 1, "_time":      722.051, "_%":    83.49,
       "geom_init": { "_calls": 1, "_time":        5.860, "_%":     0.68,
         "state_init": { "_calls": 1, "_time":        1.643, "_%":     0.19,
           "hsparse": { "_calls": 1, "_time":        0.766, "_%":     0.09},
           "overlap": { "_calls": 1, "_time":        0.107, "_%":     0.01}
         },
         "Setup_H0": { "_calls": 1, "_time":        4.215, "_%":     0.49,
           "naefs": { "_calls": 1, "_time":        0.065, "_%":     0.01},
           "MolMec": { "_calls": 1, "_time":        0.000, "_%":     0.00},
           "kinefsm": { "_calls": 1, "_time":        0.104, "_%":     0.01},
           "nlefsm": { "_calls": 1, "_time":        0.519, "_%":     0.06},
           "DHSCF_Init": { "_calls": 1, "_time":        3.493, "_%":     0.40,
             "DHSCF1": { "_calls": 1, "_time":        0.021, "_%":     0.00,
               "INITMESH": { "_calls": 1, "_time":        0.000, "_%":     0.00}
             },
             "DHSCF2": { "_calls": 1, "_time":        3.464, "_%":     0.40,
               "REMESH": { "_calls": 1, "_time":        2.428, "_%":     0.28,
                 "INITMESH": { "_calls": 2, "_time":        2.386, "_%":     0.28,
                   "SPLOAD": { "_calls": 2, "_time":        2.153, "_%":     0.25}
                 }
               },
               "REORD": { "_calls": 2, "_time":        0.001, "_%":     0.00},
               "PHION": { "_calls": 1, "_time":        0.204, "_%":     0.02},
               "COMM_BSC": { "_calls": 1, "_time":        0.008, "_%":     0.00},
               "POISON": { "_calls": 1, "_time":        0.211, "_%":     0.02,
                 "fft": { "_calls": 2, "_time":        0.203, "_%":     0.02}
               }
             }
           }
         }
       },
       "IterSCF": { "_calls": 5, "_time":      716.129, "_%":    82.80,
         "setup_H": { "_calls": 5, "_time":        3.424, "_%":     0.40,
           "DHSCF": { "_calls": 5, "_time":        3.412, "_%":     0.39,
             "DHSCF3": { "_calls": 5, "_time":        3.412, "_%":     0.39,
               "rhoofd": { "_calls": 5, "_time":        0.189, "_%":     0.02},
               "COMM_BSC": { "_calls": 10, "_time":        0.064, "_%":     0.01},
               "POISON": { "_calls": 5, "_time":        0.999, "_%":     0.12,
                 "fft": { "_calls": 10, "_time":        0.956, "_%":     0.11}
               },
               "XC": { "_calls": 5, "_time":        1.896, "_%":     0.22,
                 "COMM_BSC": { "_calls": 10, "_time":        0.062, "_%":     0.01},
                 "GXC-CellXC": { "_calls": 5, "_time":        1.823, "_%":     0.21,
                   "gridxc@cellXC": { "_calls": 5, "_time":        1.823, "_%":     0.21}
                 }
               },
               "vmat": { "_calls": 5, "_time":        0.159, "_%":     0.02}
             }
           }
         },
         "compute_dm": { "_calls": 5, "_time":      712.669, "_%":    82.40,
           "diagon": { "_calls": 5, "_time":      710.561, "_%":    82.16,
             "r-eigvec": { "_calls": 5, "_time":      627.398, "_%":    72.54,
               "r-buildHS": { "_calls": 5, "_time":        0.294, "_%":     0.03},
               "rdiag": { "_calls": 5, "_time":      627.103, "_%":    72.51,
                 "rdiag1": { "_calls": 5, "_time":       14.903, "_%":     1.72},
                 "rdiag2": { "_calls": 5, "_time":       45.610, "_%":     5.27},
                 "rdiag3": { "_calls": 5, "_time":      517.502, "_%":    59.84},
                 "rdiag4": { "_calls": 5, "_time":       46.370, "_%":     5.36}
               }
             },
             "r-buildD": { "_calls": 5, "_time":       82.496, "_%":     9.54}
           }
         },
         "MIXER": { "_calls": 5, "_time":        0.019, "_%":     0.00}
       },
       "state_analysis": { "_calls": 1, "_time":        0.054, "_%":     0.01},
       "siesta_move": { "_calls": 1, "_time":        0.000, "_%":     0.00}
     },
     "Analysis": { "_calls": 1, "_time":      141.483, "_%":    16.36,
       "optical": { "_calls": 1, "_time":        0.001, "_%":     0.00}
     }
   }
 }}
