JobID        JobIDRaw        JobName  Partition  MaxVMSize  MaxVMSizeNode  MaxVMSizeTask  AveVMSize     MaxRSS MaxRSSNode MaxRSSTask     AveRSS MaxPages MaxPagesNode   MaxPagesTask   AvePages     MinCPU MinCPUNode MinCPUTask     AveCPU   NTasks  AllocCPUS    Elapsed      State ExitCode AveCPUFreq ReqCPUFreqMin ReqCPUFreqMax ReqCPUFreqGov     ReqMem ConsumedEnergy  MaxDiskRead MaxDiskReadNode MaxDiskReadTask    AveDiskRead MaxDiskWrite MaxDiskWriteNode MaxDiskWriteTask   AveDiskWrite    ReqTRES  AllocTRES TRESUsageInAve TRESUsageInMax TRESUsageInMaxNode TRESUsageInMaxTask TRESUsageInMin TRESUsageInMinNode TRESUsageInMinTask TRESUsageInTot TRESUsageOutMax TRESUsageOutMaxNode TRESUsageOutMaxTask TRESUsageOutAve TRESUsageOutTot 
------------ ------------ ---------- ---------- ---------- -------------- -------------- ---------- ---------- ---------- ---------- ---------- -------- ------------ -------------- ---------- ---------- ---------- ---------- ---------- -------- ---------- ---------- ---------- -------- ---------- ------------- ------------- ------------- ---------- -------------- ------------ --------------- --------------- -------------- ------------ ---------------- ---------------- -------------- ---------- ---------- -------------- -------------- ------------------ ------------------ -------------- ------------------ ------------------ -------------- --------------- ------------------- ------------------- --------------- --------------- 
34389173     34389173     CovidStro+        cpu                                                                                                                                                                                                             512   01:04:13    RUNNING      0:0                  Unknown       Unknown       Unknown       250G                                                                                                                                          billing=2+ billing=5+                                                                                                                                                                                                                                 
34389173.ba+ 34389173.ba+      batch                                                                                                                                                                                                               1        256   01:04:13    RUNNING      0:0          0             0             0             0                         0                                                                                                                                      cpu=256,m+                                                                                                                                                                                                                                 
34389173.ex+ 34389173.ex+     extern                                                                                                                                                                                                               2        512   01:04:13    RUNNING      0:0          0             0             0             0                         0                                                                                                                                      billing=5+                                                                                                                                                                                                                                 
34389173.0   34389173.0       siesta              1182288K         cn0586            139 1059157760   1159280K     cn0586        139 1021698672       73       cn0585              4          9   00:59:48     cn0586        207   01:00:01      256        512   01:04:09  COMPLETED      0:0     82.44M       Unknown       Unknown       Unknown                         0       28.17M          cn0585               0         26.96M       20.05M           cn0585                0          5.23M            cpu=512,m+ cpu=01:00:01,+ cpu=01:00:33,+ cpu=cn0585,energy+ cpu=87,fs/disk=0,+ cpu=00:59:48,+ cpu=cn0586,energy+ cpu=207,fs/disk=2+ cpu=10-16:05:+ energy=0,fs/di+ energy=cn0586,fs/d+           fs/disk=0 energy=0,fs/di+ energy=0,fs/di+ 
