{
 "global_section": { "_calls": 1, "_time":      815.490, "_%":   100.00,
   "siesta": { "_calls": 1, "_time":      815.490, "_%":   100.00,
     "Setup": { "_calls": 1, "_time":        1.919, "_%":     0.24,
       "bands": { "_calls": 1, "_time":        0.002, "_%":     0.00},
       "KSV_init": { "_calls": 1, "_time":        0.001, "_%":     0.00}
     },
     "IterGeom": { "_calls": 1, "_time":      741.457, "_%":    90.92,
       "geom_init": { "_calls": 1, "_time":        5.647, "_%":     0.69,
         "state_init": { "_calls": 1, "_time":        0.668, "_%":     0.08,
           "hsparse": { "_calls": 1, "_time":        0.227, "_%":     0.03},
           "overlap": { "_calls": 1, "_time":        0.090, "_%":     0.01}
         },
         "Setup_H0": { "_calls": 1, "_time":        4.978, "_%":     0.61,
           "naefs": { "_calls": 1, "_time":        0.033, "_%":     0.00},
           "MolMec": { "_calls": 1, "_time":        0.000, "_%":     0.00},
           "kinefsm": { "_calls": 1, "_time":        0.085, "_%":     0.01},
           "nlefsm": { "_calls": 1, "_time":        0.384, "_%":     0.05},
           "DHSCF_Init": { "_calls": 1, "_time":        4.454, "_%":     0.55,
             "DHSCF1": { "_calls": 1, "_time":        0.057, "_%":     0.01,
               "INITMESH": { "_calls": 1, "_time":        0.000, "_%":     0.00}
             },
             "DHSCF2": { "_calls": 1, "_time":        4.372, "_%":     0.54,
               "REMESH": { "_calls": 1, "_time":        0.887, "_%":     0.11,
                 "INITMESH": { "_calls": 2, "_time":        0.854, "_%":     0.10,
                   "SPLOAD": { "_calls": 2, "_time":        0.687, "_%":     0.08}
                 }
               },
               "REORD": { "_calls": 2, "_time":        0.017, "_%":     0.00},
               "PHION": { "_calls": 1, "_time":        0.160, "_%":     0.02},
               "COMM_BSC": { "_calls": 1, "_time":        0.068, "_%":     0.01},
               "POISON": { "_calls": 1, "_time":        2.698, "_%":     0.33,
                 "fft": { "_calls": 2, "_time":        2.599, "_%":     0.32}
               }
             }
           }
         }
       },
       "IterSCF": { "_calls": 5, "_time":      735.657, "_%":    90.21,
         "setup_H": { "_calls": 5, "_time":       22.794, "_%":     2.80,
           "DHSCF": { "_calls": 5, "_time":       22.710, "_%":     2.78,
             "DHSCF3": { "_calls": 5, "_time":       22.710, "_%":     2.78,
               "rhoofd": { "_calls": 5, "_time":        0.158, "_%":     0.02},
               "COMM_BSC": { "_calls": 10, "_time":        1.054, "_%":     0.13},
               "POISON": { "_calls": 5, "_time":       13.141, "_%":     1.61,
                 "fft": { "_calls": 10, "_time":       12.605, "_%":     1.55}
               },
               "XC": { "_calls": 5, "_time":        6.919, "_%":     0.85,
                 "COMM_BSC": { "_calls": 10, "_time":        0.587, "_%":     0.07},
                 "GXC-CellXC": { "_calls": 5, "_time":        6.124, "_%":     0.75,
                   "gridxc@cellXC": { "_calls": 5, "_time":        6.124, "_%":     0.75}
                 }
               },
               "vmat": { "_calls": 5, "_time":        0.281, "_%":     0.03}
             }
           }
         },
         "compute_dm": { "_calls": 5, "_time":      712.777, "_%":    87.40,
           "elsi": { "_calls": 5, "_time":      712.480, "_%":    87.37,
             "find nnz_g": { "_calls": 5, "_time":        0.000, "_%":     0.00},
             "elsi-solver": { "_calls": 5, "_time":      712.459, "_%":    87.37}
           }
         },
         "MIXER": { "_calls": 5, "_time":        0.010, "_%":     0.00}
       },
       "state_analysis": { "_calls": 1, "_time":        0.072, "_%":     0.01},
       "siesta_move": { "_calls": 1, "_time":        0.000, "_%":     0.00}
     },
     "Analysis": { "_calls": 1, "_time":       28.879, "_%":     3.54,
       "optical": { "_calls": 1, "_time":        0.001, "_%":     0.00}
     }
   }
 }}
