JobID        JobIDRaw        JobName  Partition  MaxVMSize  MaxVMSizeNode  MaxVMSizeTask  AveVMSize     MaxRSS MaxRSSNode MaxRSSTask     AveRSS MaxPages MaxPagesNode   MaxPagesTask   AvePages     MinCPU MinCPUNode MinCPUTask     AveCPU   NTasks  AllocCPUS    Elapsed      State ExitCode AveCPUFreq ReqCPUFreqMin ReqCPUFreqMax ReqCPUFreqGov     ReqMem ConsumedEnergy  MaxDiskRead MaxDiskReadNode MaxDiskReadTask    AveDiskRead MaxDiskWrite MaxDiskWriteNode MaxDiskWriteTask   AveDiskWrite    ReqTRES  AllocTRES TRESUsageInAve TRESUsageInMax TRESUsageInMaxNode TRESUsageInMaxTask TRESUsageInMin TRESUsageInMinNode TRESUsageInMinTask TRESUsageInTot TRESUsageOutMax TRESUsageOutMaxNode TRESUsageOutMaxTask TRESUsageOutAve TRESUsageOutTot 
------------ ------------ ---------- ---------- ---------- -------------- -------------- ---------- ---------- ---------- ---------- ---------- -------- ------------ -------------- ---------- ---------- ---------- ---------- ---------- -------- ---------- ---------- ---------- -------- ---------- ------------- ------------- ------------- ---------- -------------- ------------ --------------- --------------- -------------- ------------ ---------------- ---------------- -------------- ---------- ---------- -------------- -------------- ------------------ ------------------ -------------- ------------------ ------------------ -------------- --------------- ------------------- ------------------- --------------- --------------- 
4905781      4905781      submit.job standard-g                                                                                                                                                                                                             224   00:13:25    RUNNING      0:0                  Unknown       Unknown       Unknown       960G                                                                                                                                          billing=1+ billing=2+                                                                                                                                                                                                                                 
4905781.bat+ 4905781.bat+      batch                                                                                                                                                                                                               1        112   00:13:25    RUNNING      0:0          0             0             0             0                         0                                                                                                                                      cpu=112,g+                                                                                                                                                                                                                                 
4905781.0    4905781.0    select_gpu             31786036K      nid007230              1  29293030K  16591796K  nid007230          1 155257295+    16323    nid007231             15      15630   00:13:13  nid007230          2   00:13:22       16        224   00:13:13  COMPLETED      0:0     25.21M       Unknown       Unknown       Unknown                     1.28M      131.79M       nid007230               0        129.00M        3.16M        nid007231                8          3.07M            cpu=224,g+ cpu=00:13:22,+ cpu=00:13:31,+ cpu=nid007231,ene+ cpu=13,fs/disk=0,+ cpu=00:13:13,+ cpu=nid007230,ene+ cpu=2,fs/disk=12,+ cpu=03:33:58,+ energy=1391,fs+ energy=nid007230,f+           fs/disk=8 energy=95,fs/d+ energy=1520,fs+ 
