{
 "global_section": { "_calls": 1, "_time":      101.398, "_%":   100.00,
   "siesta": { "_calls": 1, "_time":      101.398, "_%":   100.00,
     "Setup": { "_calls": 1, "_time":        1.891, "_%":     1.86,
       "bands": { "_calls": 1, "_time":        0.003, "_%":     0.00},
       "KSV_init": { "_calls": 1, "_time":        0.001, "_%":     0.00}
     },
     "IterGeom": { "_calls": 1, "_time":       99.311, "_%":    97.94,
       "geom_init": { "_calls": 1, "_time":       18.328, "_%":    18.08,
         "state_init": { "_calls": 1, "_time":        2.141, "_%":     2.11,
           "hsparse": { "_calls": 1, "_time":        0.142, "_%":     0.14},
           "overlap": { "_calls": 1, "_time":        1.272, "_%":     1.25}
         },
         "Setup_H0": { "_calls": 1, "_time":       16.187, "_%":    15.96,
           "naefs": { "_calls": 1, "_time":        0.023, "_%":     0.02},
           "MolMec": { "_calls": 1, "_time":        0.000, "_%":     0.00},
           "kinefsm": { "_calls": 1, "_time":        1.259, "_%":     1.24},
           "nlefsm": { "_calls": 1, "_time":        3.134, "_%":     3.09},
           "DHSCF_Init": { "_calls": 1, "_time":       11.756, "_%":    11.59,
             "DHSCF1": { "_calls": 1, "_time":        0.078, "_%":     0.08,
               "INITMESH": { "_calls": 1, "_time":        0.000, "_%":     0.00}
             },
             "DHSCF2": { "_calls": 1, "_time":       11.655, "_%":    11.49,
               "REMESH": { "_calls": 1, "_time":        0.717, "_%":     0.71,
                 "INITMESH": { "_calls": 2, "_time":        0.666, "_%":     0.66,
                   "SPLOAD": { "_calls": 2, "_time":        0.655, "_%":     0.65}
                 }
               },
               "REORD": { "_calls": 2, "_time":        0.051, "_%":     0.05},
               "PHION": { "_calls": 1, "_time":        1.039, "_%":     1.02},
               "COMM_BSC": { "_calls": 1, "_time":        0.175, "_%":     0.17},
               "POISON": { "_calls": 1, "_time":        8.905, "_%":     8.78,
                 "fft": { "_calls": 2, "_time":        8.546, "_%":     8.43}
               }
             }
           }
         }
       },
       "IterSCF": { "_calls": 5, "_time":       80.895, "_%":    79.78,
         "setup_H": { "_calls": 5, "_time":       68.938, "_%":    67.99,
           "DHSCF": { "_calls": 5, "_time":       68.880, "_%":    67.93,
             "DHSCF3": { "_calls": 5, "_time":       68.880, "_%":    67.93,
               "rhoofd": { "_calls": 5, "_time":        0.595, "_%":     0.59},
               "COMM_BSC": { "_calls": 10, "_time":        1.950, "_%":     1.92},
               "POISON": { "_calls": 5, "_time":       44.242, "_%":    43.63,
                 "fft": { "_calls": 10, "_time":       42.363, "_%":    41.78}
               },
               "XC": { "_calls": 5, "_time":       17.229, "_%":    16.99,
                 "COMM_BSC": { "_calls": 10, "_time":        2.308, "_%":     2.28},
                 "GXC-CellXC": { "_calls": 5, "_time":       14.387, "_%":    14.19,
                   "gridxc@cellXC": { "_calls": 5, "_time":       14.387, "_%":    14.19}
                 }
               },
               "vmat": { "_calls": 5, "_time":        0.605, "_%":     0.60}
             }
           }
         },
         "compute_dm": { "_calls": 5, "_time":       11.908, "_%":    11.74,
           "elsi": { "_calls": 5, "_time":       11.907, "_%":    11.74,
             "find nnz_g": { "_calls": 5, "_time":        0.000, "_%":     0.00},
             "elsi-solver": { "_calls": 5, "_time":       11.882, "_%":    11.72}
           }
         },
         "MIXER": { "_calls": 5, "_time":        0.031, "_%":     0.03}
       },
       "state_analysis": { "_calls": 1, "_time":        0.073, "_%":     0.07},
       "siesta_move": { "_calls": 1, "_time":        0.000, "_%":     0.00}
     },
     "Analysis": { "_calls": 1, "_time":        0.176, "_%":     0.17,
       "optical": { "_calls": 1, "_time":        0.001, "_%":     0.00}
     }
   }
 }}
