JobId=8336955 JobName=submit.job
   UserId=lbellen1(33678) GroupId=interactive(25200) MCS_label=N/A
   Priority=130799 Nice=0 Account=cin_staff QOS=normal
   JobState=RUNNING Reason=None Dependency=(null)
   Requeue=0 Restarts=0 BatchFlag=1 Reboot=0 ExitCode=0:0
   DerivedExitCode=0:0
   RunTime=00:00:03 TimeLimit=04:00:00 TimeMin=N/A
   SubmitTime=2024-10-15T11:47:45 EligibleTime=2024-10-15T11:47:45
   AccrueTime=2024-10-15T11:47:45
   StartTime=2024-10-15T11:48:23 EndTime=2024-10-15T15:48:24 Deadline=N/A
   SuspendTime=None SecsPreSuspend=0 LastSchedEval=2024-10-15T11:48:23 Scheduler=Backfill
   Partition=boost_usr_prod AllocNode:Sid=slurm-controller:1123640
   ReqNodeList=(null) ExcNodeList=(null)
   NodeList=lrdn3155
   BatchHost=lrdn3155
   NumNodes=1 NumCPUs=32 NumTasks=18 CPUs/Task=1 ReqB:S:C:T=0:0:*:*
   TRES=cpu=32,mem=492800M,node=1,billing=32,gres/gpu=4
   Socks/Node=* NtasksPerN:B:S:C=18:0:*:* CoreSpec=*
   JOB_GRES=gpu:a100:4
     Nodes=lrdn3155 CPU_IDs=0-31 Mem=492800 GRES=gpu:a100:4(IDX:0-3)
   MinCPUsNode=18 MinMemoryCPU=15400M MinTmpDiskNode=0
   Features=(null) DelayBoot=00:00:00
   OverSubscribe=NO Contiguous=0 Licenses=(null) Network=(null)
   Command=/leonardo_scratch/fast/Max3_devel_2/WP3/qe/mps/phonon/quartz9/phonon/logfiles/000003/000003_submit_N1np18/work/submit.job
   WorkDir=/leonardo_scratch/fast/Max3_devel_2/WP3/qe/mps/phonon/quartz9/phonon/logfiles/000003/000003_submit_N1np18/work
   StdErr=/leonardo_scratch/fast/Max3_devel_2/WP3/qe/mps/phonon/quartz9/phonon/logfiles/000003/000003_submit_N1np18/work/slurm-8336955.out
   StdIn=/dev/null
   StdOut=/leonardo_scratch/fast/Max3_devel_2/WP3/qe/mps/phonon/quartz9/phonon/logfiles/000003/000003_submit_N1np18/work/slurm-8336955.out
   Power=
   TresPerNode=gres:gpu:1
   

