{
 "global_section": { "_calls": 1, "_time":      875.739, "_%":   100.00,
   "siesta": { "_calls": 1, "_time":      875.739, "_%":   100.00,
     "Setup": { "_calls": 1, "_time":        0.709, "_%":     0.08,
       "bands": { "_calls": 1, "_time":        0.001, "_%":     0.00},
       "KSV_init": { "_calls": 1, "_time":        0.000, "_%":     0.00}
     },
     "IterGeom": { "_calls": 1, "_time":      873.400, "_%":    99.73,
       "geom_init": { "_calls": 1, "_time":        8.038, "_%":     0.92,
         "state_init": { "_calls": 1, "_time":        0.941, "_%":     0.11,
           "hsparse": { "_calls": 1, "_time":        0.095, "_%":     0.01},
           "overlap": { "_calls": 1, "_time":        0.514, "_%":     0.06}
         },
         "Setup_H0": { "_calls": 1, "_time":        7.096, "_%":     0.81,
           "naefs": { "_calls": 1, "_time":        0.018, "_%":     0.00},
           "MolMec": { "_calls": 1, "_time":        0.000, "_%":     0.00},
           "kinefsm": { "_calls": 1, "_time":        0.505, "_%":     0.06},
           "nlefsm": { "_calls": 1, "_time":        0.746, "_%":     0.09},
           "DHSCF_Init": { "_calls": 1, "_time":        5.817, "_%":     0.66,
             "DHSCF1": { "_calls": 1, "_time":        0.028, "_%":     0.00,
               "INITMESH": { "_calls": 1, "_time":        0.000, "_%":     0.00}
             },
             "DHSCF2": { "_calls": 1, "_time":        5.771, "_%":     0.66,
               "REMESH": { "_calls": 1, "_time":        0.115, "_%":     0.01,
                 "INITMESH": { "_calls": 2, "_time":        0.091, "_%":     0.01,
                   "SPLOAD": { "_calls": 2, "_time":        0.083, "_%":     0.01}
                 }
               },
               "REORD": { "_calls": 2, "_time":        0.029, "_%":     0.00},
               "PHION": { "_calls": 1, "_time":        0.855, "_%":     0.10},
               "COMM_BSC": { "_calls": 1, "_time":        0.169, "_%":     0.02},
               "POISON": { "_calls": 1, "_time":        4.021, "_%":     0.46,
                 "fft": { "_calls": 2, "_time":        3.835, "_%":     0.44}
               }
             }
           }
         }
       },
       "IterSCF": { "_calls": 5, "_time":      865.324, "_%":    98.81,
         "setup_H": { "_calls": 5, "_time":       39.224, "_%":     4.48,
           "DHSCF": { "_calls": 5, "_time":       39.171, "_%":     4.47,
             "DHSCF3": { "_calls": 5, "_time":       39.171, "_%":     4.47,
               "rhoofd": { "_calls": 5, "_time":        0.494, "_%":     0.06},
               "COMM_BSC": { "_calls": 10, "_time":        1.966, "_%":     0.22},
               "POISON": { "_calls": 5, "_time":       19.196, "_%":     2.19,
                 "fft": { "_calls": 10, "_time":       18.219, "_%":     2.08}
               },
               "XC": { "_calls": 5, "_time":       15.355, "_%":     1.75,
                 "COMM_BSC": { "_calls": 10, "_time":        1.535, "_%":     0.18},
                 "GXC-CellXC": { "_calls": 5, "_time":       13.674, "_%":     1.56,
                   "gridxc@cellXC": { "_calls": 5, "_time":       13.674, "_%":     1.56}
                 }
               },
               "vmat": { "_calls": 5, "_time":        0.698, "_%":     0.08}
             }
           }
         },
         "compute_dm": { "_calls": 5, "_time":      826.053, "_%":    94.33,
           "elsi": { "_calls": 5, "_time":      826.018, "_%":    94.32,
             "find nnz_g": { "_calls": 5, "_time":        0.000, "_%":     0.00},
             "elsi-solver": { "_calls": 5, "_time":      825.994, "_%":    94.32}
           }
         },
         "MIXER": { "_calls": 5, "_time":        0.040, "_%":     0.00}
       },
       "state_analysis": { "_calls": 1, "_time":        0.023, "_%":     0.00},
       "siesta_move": { "_calls": 1, "_time":        0.000, "_%":     0.00}
     },
     "Analysis": { "_calls": 1, "_time":        1.587, "_%":     0.18,
       "optical": { "_calls": 1, "_time":        0.000, "_%":     0.00}
     }
   }
 }}
