JobId=244508 JobName=CovidWeakKPoints
   UserId=fpedron(5340) GroupId=fpedron(5340) MCS_label=N/A
   Priority=1 Nice=0 Account=ehpc-ben-2024b06-053 QOS=ehpc-ben-2024b06-053
   JobState=RUNNING Reason=None Dependency=(null)
   Requeue=1 Restarts=0 BatchFlag=1 Reboot=0 ExitCode=0:0
   DerivedExitCode=0:0
   RunTime=00:00:01 TimeLimit=05:59:00 TimeMin=N/A
   SubmitTime=2024-09-10T18:22:03 EligibleTime=2024-09-10T18:22:03
   AccrueTime=2024-09-10T18:22:03
   StartTime=2024-09-10T18:40:50 EndTime=2024-09-11T00:39:50 Deadline=N/A
   SuspendTime=None SecsPreSuspend=0 LastSchedEval=2024-09-10T18:40:50
   Partition=cn AllocNode:Sid=login1:3540154
   ReqNodeList=(null) ExcNodeList=(null)
   NodeList=cn[0301-0312,0319-0322]
   BatchHost=cn0301
   NumNodes=16 NumCPUs=2048 NumTasks=2048 CPUs/Task=1 ReqB:S:C:T=0:0:*:*
   TRES=cpu=2048,mem=2T,node=16,billing=2048
   Socks/Node=* NtasksPerN:B:S:C=128:0:*:* CoreSpec=*
   JOB_GRES=(null)
     Nodes=cn[0301-0312,0319-0322] CPU_IDs=0-127 Mem=131072 GRES=
   MinCPUsNode=128 MinMemoryCPU=1G MinTmpDiskNode=0
   Features=(null) DelayBoot=00:00:00
   OverSubscribe=OK Contiguous=0 Licenses=(null) Network=(null)
   Command=/home/fpedron/JUBE4MaX/max-inputs/interface/siesta/_CovidWeakKPoints/000000/000004_submit/work/submit.job
   WorkDir=/home/fpedron/JUBE4MaX/max-inputs/interface/siesta/_CovidWeakKPoints/000000/000004_submit/work
   StdErr=/home/fpedron/JUBE4MaX/max-inputs/interface/siesta/_CovidWeakKPoints/000000/000004_submit/work/slurm-244508.out
   StdIn=/dev/null
   StdOut=/home/fpedron/JUBE4MaX/max-inputs/interface/siesta/_CovidWeakKPoints/000000/000004_submit/work/slurm-244508.out
   Power=
   MailUser=fpedron MailType=NONE

