{
 "global_section": { "_calls": 1, "_time":       82.808, "_%":   100.00,
   "siesta": { "_calls": 1, "_time":       82.808, "_%":   100.00,
     "Setup": { "_calls": 1, "_time":        2.011, "_%":     2.43,
       "bands": { "_calls": 1, "_time":        0.002, "_%":     0.00},
       "KSV_init": { "_calls": 1, "_time":        0.001, "_%":     0.00}
     },
     "IterGeom": { "_calls": 1, "_time":       80.490, "_%":    97.20,
       "geom_init": { "_calls": 1, "_time":       13.616, "_%":    16.44,
         "state_init": { "_calls": 1, "_time":        1.553, "_%":     1.88,
           "hsparse": { "_calls": 1, "_time":        0.107, "_%":     0.13},
           "overlap": { "_calls": 1, "_time":        0.553, "_%":     0.67}
         },
         "Setup_H0": { "_calls": 1, "_time":       12.062, "_%":    14.57,
           "naefs": { "_calls": 1, "_time":        0.015, "_%":     0.02},
           "MolMec": { "_calls": 1, "_time":        0.000, "_%":     0.00},
           "kinefsm": { "_calls": 1, "_time":        0.551, "_%":     0.67},
           "nlefsm": { "_calls": 1, "_time":        1.206, "_%":     1.46},
           "DHSCF_Init": { "_calls": 1, "_time":       10.280, "_%":    12.41,
             "DHSCF1": { "_calls": 1, "_time":        0.042, "_%":     0.05,
               "INITMESH": { "_calls": 1, "_time":        0.000, "_%":     0.00}
             },
             "DHSCF2": { "_calls": 1, "_time":       10.224, "_%":    12.35,
               "REMESH": { "_calls": 1, "_time":        1.492, "_%":     1.80,
                 "INITMESH": { "_calls": 2, "_time":        1.438, "_%":     1.74,
                   "SPLOAD": { "_calls": 2, "_time":        1.428, "_%":     1.72}
                 }
               },
               "REORD": { "_calls": 2, "_time":        0.037, "_%":     0.04},
               "PHION": { "_calls": 1, "_time":        0.960, "_%":     1.16},
               "COMM_BSC": { "_calls": 1, "_time":        0.171, "_%":     0.21},
               "POISON": { "_calls": 1, "_time":        6.841, "_%":     8.26,
                 "fft": { "_calls": 2, "_time":        6.575, "_%":     7.94}
               }
             }
           }
         }
       },
       "IterSCF": { "_calls": 5, "_time":       66.807, "_%":    80.68,
         "setup_H": { "_calls": 5, "_time":       55.822, "_%":    67.41,
           "DHSCF": { "_calls": 5, "_time":       55.815, "_%":    67.40,
             "DHSCF3": { "_calls": 5, "_time":       55.815, "_%":    67.40,
               "rhoofd": { "_calls": 5, "_time":        0.593, "_%":     0.72},
               "COMM_BSC": { "_calls": 10, "_time":        1.830, "_%":     2.21},
               "POISON": { "_calls": 5, "_time":       34.182, "_%":    41.28,
                 "fft": { "_calls": 10, "_time":       32.707, "_%":    39.50}
               },
               "XC": { "_calls": 5, "_time":       15.453, "_%":    18.66,
                 "COMM_BSC": { "_calls": 10, "_time":        1.826, "_%":     2.21},
                 "GXC-CellXC": { "_calls": 5, "_time":       13.303, "_%":    16.06,
                   "gridxc@cellXC": { "_calls": 5, "_time":       13.303, "_%":    16.06}
                 }
               },
               "vmat": { "_calls": 5, "_time":        0.672, "_%":     0.81}
             }
           }
         },
         "compute_dm": { "_calls": 5, "_time":       10.958, "_%":    13.23,
           "elsi": { "_calls": 5, "_time":       10.956, "_%":    13.23,
             "find nnz_g": { "_calls": 5, "_time":        0.000, "_%":     0.00},
             "elsi-solver": { "_calls": 5, "_time":       10.932, "_%":    13.20}
           }
         },
         "MIXER": { "_calls": 5, "_time":        0.009, "_%":     0.01}
       },
       "state_analysis": { "_calls": 1, "_time":        0.055, "_%":     0.07},
       "siesta_move": { "_calls": 1, "_time":        0.000, "_%":     0.00}
     },
     "Analysis": { "_calls": 1, "_time":        0.202, "_%":     0.24,
       "optical": { "_calls": 1, "_time":        0.001, "_%":     0.00}
     }
   }
 }}
