JobId=248119 JobName=CovidWeak
   UserId=fpedron(5340) GroupId=fpedron(5340) MCS_label=N/A
   Priority=1 Nice=0 Account=ehpc-ben-2024b06-053 QOS=ehpc-ben-2024b06-053
   JobState=RUNNING Reason=None Dependency=(null)
   Requeue=1 Restarts=0 BatchFlag=1 Reboot=0 ExitCode=0:0
   DerivedExitCode=0:0
   RunTime=00:00:03 TimeLimit=12:00:00 TimeMin=N/A
   SubmitTime=2024-09-25T11:23:37 EligibleTime=2024-09-25T11:23:37
   AccrueTime=2024-09-25T11:23:37
   StartTime=2024-09-25T15:00:14 EndTime=2024-09-26T03:00:14 Deadline=N/A
   SuspendTime=None SecsPreSuspend=0 LastSchedEval=2024-09-25T15:00:14
   Partition=cn AllocNode:Sid=login1:517187
   ReqNodeList=(null) ExcNodeList=(null)
   NodeList=cn[0157-0169,0172,0175,0178,0181-0184,0187-0190,0344,0347,0363,0365-0366,0368-0369,0371]
   BatchHost=cn0157
   NumNodes=32 NumCPUs=4096 NumTasks=4096 CPUs/Task=1 ReqB:S:C:T=0:0:*:*
   TRES=cpu=4096,mem=4T,node=32,billing=4096
   Socks/Node=* NtasksPerN:B:S:C=128:0:*:* CoreSpec=*
   JOB_GRES=(null)
     Nodes=cn[0157-0169,0172,0175,0178,0181-0184,0187-0188] CPU_IDs=0-127 Mem=131072 GRES=
     Nodes=cn0189 CPU_IDs=2-129 Mem=131072 GRES=
     Nodes=cn[0190,0344,0347,0363,0365-0366,0368-0369,0371] CPU_IDs=0-127 Mem=131072 GRES=
   MinCPUsNode=128 MinMemoryCPU=1G MinTmpDiskNode=0
   Features=(null) DelayBoot=00:00:00
   OverSubscribe=OK Contiguous=0 Licenses=(null) Network=(null)
   Command=/home/fpedron/JUBE4MaX/max-inputs/interface/siesta/_CovidWeak/000001/000002_submit/work/submit.job
   WorkDir=/home/fpedron/JUBE4MaX/max-inputs/interface/siesta/_CovidWeak/000001/000002_submit/work
   StdErr=/home/fpedron/JUBE4MaX/max-inputs/interface/siesta/_CovidWeak/000001/000002_submit/work/slurm-248119.out
   StdIn=/dev/null
   StdOut=/home/fpedron/JUBE4MaX/max-inputs/interface/siesta/_CovidWeak/000001/000002_submit/work/slurm-248119.out
   Power=
   MailUser=fpedron MailType=NONE

