[2023-10-02 13:27:33,159]:DEBUG: Command: jube run bench-nodyn0.xml
[2023-10-02 13:27:33,159]:DEBUG: Version: 2.5.1
[2023-10-02 13:27:33,159]:DEBUG: Parsing bench-nodyn0.xml
[2023-10-02 13:27:33,160]:DEBUG:   --> Preprocess run 1 <--
[2023-10-02 13:27:33,160]:DEBUG:   Remove invalid tags
[2023-10-02 13:27:33,160]:DEBUG:     Available tags: 
[2023-10-02 13:27:33,161]:DEBUG:   Remove invalid tags
[2023-10-02 13:27:33,161]:DEBUG:     Available tags: 
[2023-10-02 13:27:33,161]:DEBUG:   Parsing <include-path>
[2023-10-02 13:27:33,161]:DEBUG:     New path: /leonardo_work/Max3_devel_2/WP3/JUBE4MaX/max-inputs/platforms/leonardo
[2023-10-02 13:27:33,161]:DEBUG:     New path: /leonardo_work/Max3_devel_2/WP3/JUBE4MaX/max-inputs/applications/qe/7.2/ph
[2023-10-02 13:27:33,161]:DEBUG:     New path: /leonardo_work/cin_staff/lbellen1/benchmarks/quantum_espresso/si16l-allirrep/workload-nodyn0
[2023-10-02 13:27:33,161]:DEBUG:   Read $JUBE_INCLUDE_PATH
[2023-10-02 13:27:33,161]:DEBUG:   Preprocess xml tree
[2023-10-02 13:27:33,161]:DEBUG:     path: /leonardo_work/Max3_devel_2/WP3/JUBE4MaX/max-inputs/platforms/leonardo
[2023-10-02 13:27:33,161]:DEBUG:     path: /leonardo_work/Max3_devel_2/WP3/JUBE4MaX/max-inputs/applications/qe/7.2/ph
[2023-10-02 13:27:33,161]:DEBUG:     path: /leonardo_work/cin_staff/lbellen1/benchmarks/quantum_espresso/si16l-allirrep/workload-nodyn0
[2023-10-02 13:27:33,161]:DEBUG:     path: .
[2023-10-02 13:27:33,162]:DEBUG:   No preprocessing changes were detected, stop additional include-preprocess runs.
[2023-10-02 13:27:33,162]:DEBUG:   Remove invalid tags
[2023-10-02 13:27:33,162]:DEBUG:     Available tags: 
[2023-10-02 13:27:33,162]:DEBUG:   Preprocess done
[2023-10-02 13:27:33,162]:DEBUG:   Preprocess benchmark xml tree
[2023-10-02 13:27:33,162]:DEBUG:   Parsing <parameterset name="systemParameter">
[2023-10-02 13:27:33,162]:DEBUG:     Searching for <parameterset name="systemParameter"> in platform.xml
[2023-10-02 13:27:33,170]:DEBUG:   Parsing <parameterset name="applicationParameter">
[2023-10-02 13:27:33,171]:DEBUG:     Searching for <parameterset name="applicationParameter"> in application.xml
[2023-10-02 13:27:33,172]:DEBUG:   Parsing <parameterset name="executeset">
[2023-10-02 13:27:33,172]:DEBUG:     Searching for <parameterset name="executeset"> in platform.xml
[2023-10-02 13:27:33,173]:DEBUG:   Parsing <parameterset name="testcaseset">
[2023-10-02 13:27:33,173]:DEBUG:     Searching for <parameterset name="testcaseset"> in workload.xml
[2023-10-02 13:27:33,174]:DEBUG:   Parsing <substituteset name="executesub">
[2023-10-02 13:27:33,174]:DEBUG:     Searching for <substituteset name="executesub"> in platform.xml
[2023-10-02 13:27:33,176]:DEBUG:   Parsing <fileset name="jobfiles">
[2023-10-02 13:27:33,176]:DEBUG:     Searching for <fileset name="jobfiles"> in platform.xml
[2023-10-02 13:27:33,177]:DEBUG:   Parsing <patternset name="pattern">
[2023-10-02 13:27:33,177]:DEBUG:     Searching for <patternset name="pattern"> in application.xml
[2023-10-02 13:27:33,178]:DEBUG:   Parsing <step name="submit">
[2023-10-02 13:27:33,178]:DEBUG:   Parsing <analyser name="analyse">
[2023-10-02 13:27:33,178]:DEBUG: Start consistency check
[2023-10-02 13:27:33,178]:DEBUG: Create benchmark directory
[2023-10-03 08:47:48,061]:DEBUG: Command: jube analyse bench_nodyn0/ --id 0
[2023-10-03 08:47:48,084]:DEBUG: Version: 2.5.1
[2023-10-03 08:47:48,084]:DEBUG: Parsing bench_nodyn0/000000/configuration.xml
[2023-10-03 08:47:48,086]:DEBUG:   --> Preprocess run 1 <--
[2023-10-03 08:47:48,086]:DEBUG:   Remove invalid tags
[2023-10-03 08:47:48,086]:DEBUG:     Available tags: 
[2023-10-03 08:47:48,086]:DEBUG:   Remove invalid tags
[2023-10-03 08:47:48,086]:DEBUG:     Available tags: 
[2023-10-03 08:47:48,087]:DEBUG:   Read $JUBE_INCLUDE_PATH
[2023-10-03 08:47:48,087]:DEBUG:   Preprocess xml tree
[2023-10-03 08:47:48,087]:DEBUG:     path: bench_nodyn0/000000
[2023-10-03 08:47:48,087]:DEBUG:   No preprocessing changes were detected, stop additional include-preprocess runs.
[2023-10-03 08:47:48,087]:DEBUG:   Remove invalid tags
[2023-10-03 08:47:48,087]:DEBUG:     Available tags: 
[2023-10-03 08:47:48,087]:DEBUG:   Preprocess done
[2023-10-03 08:47:48,087]:DEBUG:   Preprocess benchmark xml tree
[2023-10-03 08:47:48,087]:DEBUG:   Parsing <parameterset name="systemParameter">
[2023-10-03 08:47:48,088]:DEBUG:   Parsing <parameterset name="applicationParameter">
[2023-10-03 08:47:48,088]:DEBUG:   Parsing <parameterset name="executeset">
[2023-10-03 08:47:48,088]:DEBUG:   Parsing <parameterset name="testcaseset">
[2023-10-03 08:47:48,088]:DEBUG:   Parsing <substituteset name="executesub">
[2023-10-03 08:47:48,088]:DEBUG:   Parsing <fileset name="jobfiles">
[2023-10-03 08:47:48,088]:DEBUG:   Parsing <patternset name="pattern">
[2023-10-03 08:47:48,089]:DEBUG:   Parsing <step name="submit">
[2023-10-03 08:47:48,089]:DEBUG:   Parsing <analyser name="analyse">
[2023-10-03 08:47:48,089]:DEBUG: Parsing bench_nodyn0/000000/workpackages.xml
[2023-10-03 08:47:54,300]:DEBUG: Command: jube result bench_nodyn0/ --id 0
[2023-10-03 08:47:54,300]:DEBUG: Version: 2.5.1
[2023-10-03 08:47:54,300]:DEBUG: Parsing bench_nodyn0/000000/configuration.xml
[2023-10-03 08:47:54,302]:DEBUG:   --> Preprocess run 1 <--
[2023-10-03 08:47:54,302]:DEBUG:   Remove invalid tags
[2023-10-03 08:47:54,302]:DEBUG:     Available tags: 
[2023-10-03 08:47:54,302]:DEBUG:   Remove invalid tags
[2023-10-03 08:47:54,302]:DEBUG:     Available tags: 
[2023-10-03 08:47:54,302]:DEBUG:   Read $JUBE_INCLUDE_PATH
[2023-10-03 08:47:54,302]:DEBUG:   Preprocess xml tree
[2023-10-03 08:47:54,302]:DEBUG:     path: bench_nodyn0/000000
[2023-10-03 08:47:54,303]:DEBUG:   No preprocessing changes were detected, stop additional include-preprocess runs.
[2023-10-03 08:47:54,303]:DEBUG:   Remove invalid tags
[2023-10-03 08:47:54,303]:DEBUG:     Available tags: 
[2023-10-03 08:47:54,303]:DEBUG:   Preprocess done
[2023-10-03 08:47:54,303]:DEBUG:   Preprocess benchmark xml tree
[2023-10-03 08:47:54,303]:DEBUG:   Parsing <parameterset name="systemParameter">
[2023-10-03 08:47:54,303]:DEBUG:   Parsing <parameterset name="applicationParameter">
[2023-10-03 08:47:54,303]:DEBUG:   Parsing <parameterset name="executeset">
[2023-10-03 08:47:54,304]:DEBUG:   Parsing <parameterset name="testcaseset">
[2023-10-03 08:47:54,304]:DEBUG:   Parsing <substituteset name="executesub">
[2023-10-03 08:47:54,304]:DEBUG:   Parsing <fileset name="jobfiles">
[2023-10-03 08:47:54,304]:DEBUG:   Parsing <patternset name="pattern">
[2023-10-03 08:47:54,304]:DEBUG:   Parsing <step name="submit">
[2023-10-03 08:47:54,304]:DEBUG:   Parsing <analyser name="analyse">
[2023-10-03 08:47:54,304]:DEBUG: Parsing bench_nodyn0/000000/workpackages.xml
[2023-10-03 08:47:54,323]:DEBUG: Parsing bench_nodyn0/000000/analyse.xml
[2023-10-03 08:49:47,866]:DEBUG: Command: jube result bench_nodyn0/ --id 0
[2023-10-03 08:49:47,867]:DEBUG: Version: 2.5.1
[2023-10-03 08:49:47,867]:DEBUG: Parsing bench_nodyn0/000000/configuration.xml
[2023-10-03 08:49:47,868]:DEBUG:   --> Preprocess run 1 <--
[2023-10-03 08:49:47,868]:DEBUG:   Remove invalid tags
[2023-10-03 08:49:47,868]:DEBUG:     Available tags: 
[2023-10-03 08:49:47,868]:DEBUG:   Remove invalid tags
[2023-10-03 08:49:47,868]:DEBUG:     Available tags: 
[2023-10-03 08:49:47,869]:DEBUG:   Read $JUBE_INCLUDE_PATH
[2023-10-03 08:49:47,869]:DEBUG:   Preprocess xml tree
[2023-10-03 08:49:47,869]:DEBUG:     path: bench_nodyn0/000000
[2023-10-03 08:49:47,869]:DEBUG:   No preprocessing changes were detected, stop additional include-preprocess runs.
[2023-10-03 08:49:47,869]:DEBUG:   Remove invalid tags
[2023-10-03 08:49:47,869]:DEBUG:     Available tags: 
[2023-10-03 08:49:47,869]:DEBUG:   Preprocess done
[2023-10-03 08:49:47,869]:DEBUG:   Preprocess benchmark xml tree
[2023-10-03 08:49:47,869]:DEBUG:   Parsing <parameterset name="systemParameter">
[2023-10-03 08:49:47,870]:DEBUG:   Parsing <parameterset name="applicationParameter">
[2023-10-03 08:49:47,870]:DEBUG:   Parsing <parameterset name="executeset">
[2023-10-03 08:49:47,870]:DEBUG:   Parsing <parameterset name="testcaseset">
[2023-10-03 08:49:47,870]:DEBUG:   Parsing <substituteset name="executesub">
[2023-10-03 08:49:47,870]:DEBUG:   Parsing <fileset name="jobfiles">
[2023-10-03 08:49:47,870]:DEBUG:   Parsing <patternset name="pattern_ph">
[2023-10-03 08:49:47,870]:DEBUG:   Parsing <step name="submit">
[2023-10-03 08:49:47,871]:DEBUG:   Parsing <analyser name="analyse">
[2023-10-03 08:49:47,871]:DEBUG: Parsing bench_nodyn0/000000/workpackages.xml
[2023-10-03 08:49:47,888]:DEBUG: Parsing bench_nodyn0/000000/analyse.xml
[2023-10-03 08:50:02,182]:DEBUG: Command: jube result bench_nodyn0/ --id 0
[2023-10-03 08:50:02,183]:DEBUG: Version: 2.5.1
[2023-10-03 08:50:02,183]:DEBUG: Parsing bench_nodyn0/000000/configuration.xml
[2023-10-03 08:50:02,184]:DEBUG:   --> Preprocess run 1 <--
[2023-10-03 08:50:02,184]:DEBUG:   Remove invalid tags
[2023-10-03 08:50:02,184]:DEBUG:     Available tags: 
[2023-10-03 08:50:02,184]:DEBUG:   Remove invalid tags
[2023-10-03 08:50:02,185]:DEBUG:     Available tags: 
[2023-10-03 08:50:02,185]:DEBUG:   Read $JUBE_INCLUDE_PATH
[2023-10-03 08:50:02,185]:DEBUG:   Preprocess xml tree
[2023-10-03 08:50:02,185]:DEBUG:     path: bench_nodyn0/000000
[2023-10-03 08:50:02,185]:DEBUG:   No preprocessing changes were detected, stop additional include-preprocess runs.
[2023-10-03 08:50:02,185]:DEBUG:   Remove invalid tags
[2023-10-03 08:50:02,185]:DEBUG:     Available tags: 
[2023-10-03 08:50:02,185]:DEBUG:   Preprocess done
[2023-10-03 08:50:02,185]:DEBUG:   Preprocess benchmark xml tree
[2023-10-03 08:50:02,185]:DEBUG:   Parsing <parameterset name="systemParameter">
[2023-10-03 08:50:02,186]:DEBUG:   Parsing <parameterset name="applicationParameter">
[2023-10-03 08:50:02,186]:DEBUG:   Parsing <parameterset name="executeset">
[2023-10-03 08:50:02,186]:DEBUG:   Parsing <parameterset name="testcaseset">
[2023-10-03 08:50:02,186]:DEBUG:   Parsing <substituteset name="executesub">
[2023-10-03 08:50:02,186]:DEBUG:   Parsing <fileset name="jobfiles">
[2023-10-03 08:50:02,186]:DEBUG:   Parsing <patternset name="pattern_ph">
[2023-10-03 08:50:02,187]:DEBUG:   Parsing <step name="submit">
[2023-10-03 08:50:02,187]:DEBUG:   Parsing <analyser name="analyse">
[2023-10-03 08:50:02,187]:DEBUG: Parsing bench_nodyn0/000000/workpackages.xml
[2023-10-03 08:50:02,205]:DEBUG: Parsing bench_nodyn0/000000/analyse.xml
[2023-10-03 08:50:14,993]:DEBUG: Command: jube result bench_nodyn0/ --id 0
[2023-10-03 08:50:14,993]:DEBUG: Version: 2.5.1
[2023-10-03 08:50:14,993]:DEBUG: Parsing bench_nodyn0/000000/configuration.xml
[2023-10-03 08:50:14,995]:DEBUG:   --> Preprocess run 1 <--
[2023-10-03 08:50:14,995]:DEBUG:   Remove invalid tags
[2023-10-03 08:50:14,995]:DEBUG:     Available tags: 
[2023-10-03 08:50:14,995]:DEBUG:   Remove invalid tags
[2023-10-03 08:50:14,995]:DEBUG:     Available tags: 
[2023-10-03 08:50:14,995]:DEBUG:   Read $JUBE_INCLUDE_PATH
[2023-10-03 08:50:14,995]:DEBUG:   Preprocess xml tree
[2023-10-03 08:50:14,995]:DEBUG:     path: bench_nodyn0/000000
[2023-10-03 08:50:14,996]:DEBUG:   No preprocessing changes were detected, stop additional include-preprocess runs.
[2023-10-03 08:50:14,996]:DEBUG:   Remove invalid tags
[2023-10-03 08:50:14,996]:DEBUG:     Available tags: 
[2023-10-03 08:50:14,996]:DEBUG:   Preprocess done
[2023-10-03 08:50:14,996]:DEBUG:   Preprocess benchmark xml tree
[2023-10-03 08:50:14,996]:DEBUG:   Parsing <parameterset name="systemParameter">
[2023-10-03 08:50:14,996]:DEBUG:   Parsing <parameterset name="applicationParameter">
[2023-10-03 08:50:14,997]:DEBUG:   Parsing <parameterset name="executeset">
[2023-10-03 08:50:14,997]:DEBUG:   Parsing <parameterset name="testcaseset">
[2023-10-03 08:50:14,997]:DEBUG:   Parsing <substituteset name="executesub">
[2023-10-03 08:50:14,997]:DEBUG:   Parsing <fileset name="jobfiles">
[2023-10-03 08:50:14,997]:DEBUG:   Parsing <patternset name="pattern_ph">
[2023-10-03 08:50:14,997]:DEBUG:   Parsing <step name="submit">
[2023-10-03 08:50:14,997]:DEBUG:   Parsing <analyser name="analyse">
[2023-10-03 08:50:14,998]:DEBUG: Parsing bench_nodyn0/000000/workpackages.xml
[2023-10-03 08:50:15,016]:DEBUG: Parsing bench_nodyn0/000000/analyse.xml
[2023-10-03 08:50:17,728]:DEBUG: Command: jube result bench_nodyn0/ --id 0
[2023-10-03 08:50:17,728]:DEBUG: Version: 2.5.1
[2023-10-03 08:50:17,728]:DEBUG: Parsing bench_nodyn0/000000/configuration.xml
[2023-10-03 08:50:17,730]:DEBUG:   --> Preprocess run 1 <--
[2023-10-03 08:50:17,730]:DEBUG:   Remove invalid tags
[2023-10-03 08:50:17,730]:DEBUG:     Available tags: 
[2023-10-03 08:50:17,730]:DEBUG:   Remove invalid tags
[2023-10-03 08:50:17,730]:DEBUG:     Available tags: 
[2023-10-03 08:50:17,730]:DEBUG:   Read $JUBE_INCLUDE_PATH
[2023-10-03 08:50:17,730]:DEBUG:   Preprocess xml tree
[2023-10-03 08:50:17,730]:DEBUG:     path: bench_nodyn0/000000
[2023-10-03 08:50:17,730]:DEBUG:   No preprocessing changes were detected, stop additional include-preprocess runs.
[2023-10-03 08:50:17,730]:DEBUG:   Remove invalid tags
[2023-10-03 08:50:17,730]:DEBUG:     Available tags: 
[2023-10-03 08:50:17,730]:DEBUG:   Preprocess done
[2023-10-03 08:50:17,730]:DEBUG:   Preprocess benchmark xml tree
[2023-10-03 08:50:17,731]:DEBUG:   Parsing <parameterset name="systemParameter">
[2023-10-03 08:50:17,731]:DEBUG:   Parsing <parameterset name="applicationParameter">
[2023-10-03 08:50:17,731]:DEBUG:   Parsing <parameterset name="executeset">
[2023-10-03 08:50:17,731]:DEBUG:   Parsing <parameterset name="testcaseset">
[2023-10-03 08:50:17,731]:DEBUG:   Parsing <substituteset name="executesub">
[2023-10-03 08:50:17,732]:DEBUG:   Parsing <fileset name="jobfiles">
[2023-10-03 08:50:17,732]:DEBUG:   Parsing <patternset name="pattern_ph">
[2023-10-03 08:50:17,732]:DEBUG:   Parsing <step name="submit">
[2023-10-03 08:50:17,732]:DEBUG:   Parsing <analyser name="analyse">
[2023-10-03 08:50:17,732]:DEBUG: Parsing bench_nodyn0/000000/workpackages.xml
[2023-10-03 08:50:17,750]:DEBUG: Parsing bench_nodyn0/000000/analyse.xml
[2023-10-03 08:51:56,818]:DEBUG: Command: jube analyse bench_nodyn0/ --id 0
[2023-10-03 08:51:56,818]:DEBUG: Version: 2.5.1
[2023-10-03 08:51:56,818]:DEBUG: Parsing bench_nodyn0/000000/configuration.xml
[2023-10-03 08:51:56,820]:DEBUG:   --> Preprocess run 1 <--
[2023-10-03 08:51:56,820]:DEBUG:   Remove invalid tags
[2023-10-03 08:51:56,820]:DEBUG:     Available tags: 
[2023-10-03 08:51:56,820]:DEBUG:   Remove invalid tags
[2023-10-03 08:51:56,820]:DEBUG:     Available tags: 
[2023-10-03 08:51:56,820]:DEBUG:   Read $JUBE_INCLUDE_PATH
[2023-10-03 08:51:56,820]:DEBUG:   Preprocess xml tree
[2023-10-03 08:51:56,820]:DEBUG:     path: bench_nodyn0/000000
[2023-10-03 08:51:56,820]:DEBUG:   No preprocessing changes were detected, stop additional include-preprocess runs.
[2023-10-03 08:51:56,820]:DEBUG:   Remove invalid tags
[2023-10-03 08:51:56,820]:DEBUG:     Available tags: 
[2023-10-03 08:51:56,821]:DEBUG:   Preprocess done
[2023-10-03 08:51:56,821]:DEBUG:   Preprocess benchmark xml tree
[2023-10-03 08:51:56,821]:DEBUG:   Parsing <parameterset name="systemParameter">
[2023-10-03 08:51:56,821]:DEBUG:   Parsing <parameterset name="applicationParameter">
[2023-10-03 08:51:56,821]:DEBUG:   Parsing <parameterset name="executeset">
[2023-10-03 08:51:56,821]:DEBUG:   Parsing <parameterset name="testcaseset">
[2023-10-03 08:51:56,822]:DEBUG:   Parsing <substituteset name="executesub">
[2023-10-03 08:51:56,822]:DEBUG:   Parsing <fileset name="jobfiles">
[2023-10-03 08:51:56,822]:DEBUG:   Parsing <patternset name="pattern_ph">
[2023-10-03 08:51:56,822]:DEBUG:   Parsing <step name="submit">
[2023-10-03 08:51:56,822]:DEBUG:   Parsing <analyser name="analyse">
[2023-10-03 08:51:56,822]:DEBUG: Parsing bench_nodyn0/000000/workpackages.xml
[2023-10-03 08:52:02,963]:DEBUG: Command: jube result bench_nodyn0/ --id 0
[2023-10-03 08:52:02,963]:DEBUG: Version: 2.5.1
[2023-10-03 08:52:02,963]:DEBUG: Parsing bench_nodyn0/000000/configuration.xml
[2023-10-03 08:52:02,965]:DEBUG:   --> Preprocess run 1 <--
[2023-10-03 08:52:02,965]:DEBUG:   Remove invalid tags
[2023-10-03 08:52:02,965]:DEBUG:     Available tags: 
[2023-10-03 08:52:02,965]:DEBUG:   Remove invalid tags
[2023-10-03 08:52:02,965]:DEBUG:     Available tags: 
[2023-10-03 08:52:02,965]:DEBUG:   Read $JUBE_INCLUDE_PATH
[2023-10-03 08:52:02,965]:DEBUG:   Preprocess xml tree
[2023-10-03 08:52:02,965]:DEBUG:     path: bench_nodyn0/000000
[2023-10-03 08:52:02,965]:DEBUG:   No preprocessing changes were detected, stop additional include-preprocess runs.
[2023-10-03 08:52:02,965]:DEBUG:   Remove invalid tags
[2023-10-03 08:52:02,966]:DEBUG:     Available tags: 
[2023-10-03 08:52:02,966]:DEBUG:   Preprocess done
[2023-10-03 08:52:02,966]:DEBUG:   Preprocess benchmark xml tree
[2023-10-03 08:52:02,966]:DEBUG:   Parsing <parameterset name="systemParameter">
[2023-10-03 08:52:02,966]:DEBUG:   Parsing <parameterset name="applicationParameter">
[2023-10-03 08:52:02,966]:DEBUG:   Parsing <parameterset name="executeset">
[2023-10-03 08:52:02,967]:DEBUG:   Parsing <parameterset name="testcaseset">
[2023-10-03 08:52:02,967]:DEBUG:   Parsing <substituteset name="executesub">
[2023-10-03 08:52:02,967]:DEBUG:   Parsing <fileset name="jobfiles">
[2023-10-03 08:52:02,967]:DEBUG:   Parsing <patternset name="pattern_ph">
[2023-10-03 08:52:02,967]:DEBUG:   Parsing <step name="submit">
[2023-10-03 08:52:02,967]:DEBUG:   Parsing <analyser name="analyse">
[2023-10-03 08:52:02,967]:DEBUG: Parsing bench_nodyn0/000000/workpackages.xml
[2023-10-03 08:52:02,985]:DEBUG: Parsing bench_nodyn0/000000/analyse.xml
[2023-10-03 09:03:04,480]:DEBUG: Command: jube continue bench_nodyn0/ --id 0
[2023-10-03 09:03:04,480]:DEBUG: Version: 2.5.1
[2023-10-03 09:03:04,480]:DEBUG: Parsing bench_nodyn0/000000/configuration.xml
[2023-10-03 09:03:04,482]:DEBUG:   --> Preprocess run 1 <--
[2023-10-03 09:03:04,482]:DEBUG:   Remove invalid tags
[2023-10-03 09:03:04,482]:DEBUG:     Available tags: 
[2023-10-03 09:03:04,482]:DEBUG:   Remove invalid tags
[2023-10-03 09:03:04,482]:DEBUG:     Available tags: 
[2023-10-03 09:03:04,482]:DEBUG:   Read $JUBE_INCLUDE_PATH
[2023-10-03 09:03:04,482]:DEBUG:   Preprocess xml tree
[2023-10-03 09:03:04,482]:DEBUG:     path: bench_nodyn0/000000
[2023-10-03 09:03:04,483]:DEBUG:   No preprocessing changes were detected, stop additional include-preprocess runs.
[2023-10-03 09:03:04,483]:DEBUG:   Remove invalid tags
[2023-10-03 09:03:04,483]:DEBUG:     Available tags: 
[2023-10-03 09:03:04,483]:DEBUG:   Preprocess done
[2023-10-03 09:03:04,483]:DEBUG:   Preprocess benchmark xml tree
[2023-10-03 09:03:04,483]:DEBUG:   Parsing <parameterset name="systemParameter">
[2023-10-03 09:03:04,483]:DEBUG:   Parsing <parameterset name="applicationParameter">
[2023-10-03 09:03:04,484]:DEBUG:   Parsing <parameterset name="executeset">
[2023-10-03 09:03:04,484]:DEBUG:   Parsing <parameterset name="testcaseset">
[2023-10-03 09:03:04,484]:DEBUG:   Parsing <substituteset name="executesub">
[2023-10-03 09:03:04,484]:DEBUG:   Parsing <fileset name="jobfiles">
[2023-10-03 09:03:04,484]:DEBUG:   Parsing <patternset name="pattern_ph">
[2023-10-03 09:03:04,484]:DEBUG:   Parsing <step name="submit">
[2023-10-03 09:03:04,484]:DEBUG:   Parsing <analyser name="analyse">
[2023-10-03 09:03:04,484]:DEBUG: Parsing bench_nodyn0/000000/workpackages.xml
[2023-10-03 09:03:04,502]:DEBUG: Parsing bench_nodyn0/000000/analyse.xml
[2023-10-10 17:52:52,231]:DEBUG: Command: jube analyse p-boost-special --id 0
[2023-10-10 17:52:52,253]:DEBUG: Version: 2.5.1
[2023-10-10 17:52:52,253]:DEBUG: Parsing p-boost-special/000000/configuration.xml
[2023-10-10 17:52:52,255]:DEBUG:   --> Preprocess run 1 <--
[2023-10-10 17:52:52,255]:DEBUG:   Remove invalid tags
[2023-10-10 17:52:52,255]:DEBUG:     Available tags: 
[2023-10-10 17:52:52,255]:DEBUG:   Remove invalid tags
[2023-10-10 17:52:52,255]:DEBUG:     Available tags: 
[2023-10-10 17:52:52,256]:DEBUG:   Read $JUBE_INCLUDE_PATH
[2023-10-10 17:52:52,256]:DEBUG:   Preprocess xml tree
[2023-10-10 17:52:52,256]:DEBUG:     path: p-boost-special/000000
[2023-10-10 17:52:52,256]:DEBUG:   No preprocessing changes were detected, stop additional include-preprocess runs.
[2023-10-10 17:52:52,256]:DEBUG:   Remove invalid tags
[2023-10-10 17:52:52,256]:DEBUG:     Available tags: 
[2023-10-10 17:52:52,256]:DEBUG:   Preprocess done
[2023-10-10 17:52:52,256]:DEBUG:   Preprocess benchmark xml tree
[2023-10-10 17:52:52,256]:DEBUG:   Parsing <parameterset name="systemParameter">
[2023-10-10 17:52:52,257]:DEBUG:   Parsing <parameterset name="applicationParameter">
[2023-10-10 17:52:52,257]:DEBUG:   Parsing <parameterset name="executeset">
[2023-10-10 17:52:52,257]:DEBUG:   Parsing <parameterset name="testcaseset">
[2023-10-10 17:52:52,257]:DEBUG:   Parsing <substituteset name="executesub">
[2023-10-10 17:52:52,257]:DEBUG:   Parsing <fileset name="jobfiles">
[2023-10-10 17:52:52,257]:DEBUG:   Parsing <patternset name="pattern_ph">
[2023-10-10 17:52:52,257]:DEBUG:   Parsing <step name="submit">
[2023-10-10 17:52:52,258]:DEBUG:   Parsing <analyser name="analyse">
[2023-10-10 17:52:52,258]:DEBUG: Parsing p-boost-special/000000/workpackages.xml
[2023-10-10 17:52:57,724]:DEBUG: Command: jube result p-boost-special --id 0
[2023-10-10 17:52:57,724]:DEBUG: Version: 2.5.1
[2023-10-10 17:52:57,724]:DEBUG: Parsing p-boost-special/000000/configuration.xml
[2023-10-10 17:52:57,726]:DEBUG:   --> Preprocess run 1 <--
[2023-10-10 17:52:57,726]:DEBUG:   Remove invalid tags
[2023-10-10 17:52:57,726]:DEBUG:     Available tags: 
[2023-10-10 17:52:57,726]:DEBUG:   Remove invalid tags
[2023-10-10 17:52:57,726]:DEBUG:     Available tags: 
[2023-10-10 17:52:57,726]:DEBUG:   Read $JUBE_INCLUDE_PATH
[2023-10-10 17:52:57,727]:DEBUG:   Preprocess xml tree
[2023-10-10 17:52:57,727]:DEBUG:     path: p-boost-special/000000
[2023-10-10 17:52:57,727]:DEBUG:   No preprocessing changes were detected, stop additional include-preprocess runs.
[2023-10-10 17:52:57,727]:DEBUG:   Remove invalid tags
[2023-10-10 17:52:57,727]:DEBUG:     Available tags: 
[2023-10-10 17:52:57,727]:DEBUG:   Preprocess done
[2023-10-10 17:52:57,727]:DEBUG:   Preprocess benchmark xml tree
[2023-10-10 17:52:57,727]:DEBUG:   Parsing <parameterset name="systemParameter">
[2023-10-10 17:52:57,728]:DEBUG:   Parsing <parameterset name="applicationParameter">
[2023-10-10 17:52:57,728]:DEBUG:   Parsing <parameterset name="executeset">
[2023-10-10 17:52:57,728]:DEBUG:   Parsing <parameterset name="testcaseset">
[2023-10-10 17:52:57,728]:DEBUG:   Parsing <substituteset name="executesub">
[2023-10-10 17:52:57,728]:DEBUG:   Parsing <fileset name="jobfiles">
[2023-10-10 17:52:57,728]:DEBUG:   Parsing <patternset name="pattern_ph">
[2023-10-10 17:52:57,728]:DEBUG:   Parsing <step name="submit">
[2023-10-10 17:52:57,729]:DEBUG:   Parsing <analyser name="analyse">
[2023-10-10 17:52:57,729]:DEBUG: Parsing p-boost-special/000000/workpackages.xml
[2023-10-10 17:52:57,747]:DEBUG: Parsing p-boost-special/000000/analyse.xml
[2023-10-10 17:56:49,538]:DEBUG: Command: jube result p-boost-special/ --id 0
[2023-10-10 17:56:49,539]:DEBUG: Version: 2.5.1
[2023-10-10 17:56:49,539]:DEBUG: Parsing p-boost-special/000000/configuration.xml
[2023-10-10 17:56:49,541]:DEBUG:   --> Preprocess run 1 <--
[2023-10-10 17:56:49,541]:DEBUG:   Remove invalid tags
[2023-10-10 17:56:49,541]:DEBUG:     Available tags: 
[2023-10-10 17:56:49,541]:DEBUG:   Remove invalid tags
[2023-10-10 17:56:49,541]:DEBUG:     Available tags: 
[2023-10-10 17:56:49,541]:DEBUG:   Read $JUBE_INCLUDE_PATH
[2023-10-10 17:56:49,541]:DEBUG:   Preprocess xml tree
[2023-10-10 17:56:49,541]:DEBUG:     path: p-boost-special/000000
[2023-10-10 17:56:49,541]:DEBUG:   No preprocessing changes were detected, stop additional include-preprocess runs.
[2023-10-10 17:56:49,541]:DEBUG:   Remove invalid tags
[2023-10-10 17:56:49,541]:DEBUG:     Available tags: 
[2023-10-10 17:56:49,542]:DEBUG:   Preprocess done
[2023-10-10 17:56:49,542]:DEBUG:   Preprocess benchmark xml tree
[2023-10-10 17:56:49,542]:DEBUG:   Parsing <parameterset name="systemParameter">
[2023-10-10 17:56:49,542]:DEBUG:   Parsing <parameterset name="applicationParameter">
[2023-10-10 17:56:49,542]:DEBUG:   Parsing <parameterset name="executeset">
[2023-10-10 17:56:49,542]:DEBUG:   Parsing <parameterset name="testcaseset">
[2023-10-10 17:56:49,543]:DEBUG:   Parsing <substituteset name="executesub">
[2023-10-10 17:56:49,543]:DEBUG:   Parsing <fileset name="jobfiles">
[2023-10-10 17:56:49,543]:DEBUG:   Parsing <patternset name="pattern_ph">
[2023-10-10 17:56:49,543]:DEBUG:   Parsing <step name="submit">
[2023-10-10 17:56:49,543]:DEBUG:   Parsing <analyser name="analyse">
[2023-10-10 17:56:49,543]:DEBUG: Parsing p-boost-special/000000/workpackages.xml
[2023-10-10 17:56:49,577]:DEBUG: Parsing p-boost-special/000000/analyse.xml
[2023-10-11 09:55:45,955]:DEBUG: Command: jube analyse p-boost-special/ --id 0
[2023-10-11 09:55:45,974]:DEBUG: Version: 2.5.1
[2023-10-11 09:55:45,974]:DEBUG: Parsing p-boost-special/000000/configuration.xml
[2023-10-11 09:55:45,975]:DEBUG:   --> Preprocess run 1 <--
[2023-10-11 09:55:45,976]:DEBUG:   Remove invalid tags
[2023-10-11 09:55:45,976]:DEBUG:     Available tags: 
[2023-10-11 09:55:45,976]:DEBUG:   Remove invalid tags
[2023-10-11 09:55:45,976]:DEBUG:     Available tags: 
[2023-10-11 09:55:45,976]:DEBUG:   Read $JUBE_INCLUDE_PATH
[2023-10-11 09:55:45,976]:DEBUG:   Preprocess xml tree
[2023-10-11 09:55:45,976]:DEBUG:     path: p-boost-special/000000
[2023-10-11 09:55:45,976]:DEBUG:   No preprocessing changes were detected, stop additional include-preprocess runs.
[2023-10-11 09:55:45,976]:DEBUG:   Remove invalid tags
[2023-10-11 09:55:45,976]:DEBUG:     Available tags: 
[2023-10-11 09:55:45,976]:DEBUG:   Preprocess done
[2023-10-11 09:55:45,976]:DEBUG:   Preprocess benchmark xml tree
[2023-10-11 09:55:45,977]:DEBUG:   Parsing <parameterset name="systemParameter">
[2023-10-11 09:55:45,977]:DEBUG:   Parsing <parameterset name="applicationParameter">
[2023-10-11 09:55:45,977]:DEBUG:   Parsing <parameterset name="executeset">
[2023-10-11 09:55:45,977]:DEBUG:   Parsing <parameterset name="testcaseset">
[2023-10-11 09:55:45,977]:DEBUG:   Parsing <substituteset name="executesub">
[2023-10-11 09:55:45,978]:DEBUG:   Parsing <fileset name="jobfiles">
[2023-10-11 09:55:45,978]:DEBUG:   Parsing <patternset name="pattern_ph">
[2023-10-11 09:55:45,978]:DEBUG:   Parsing <step name="submit">
[2023-10-11 09:55:45,978]:DEBUG:   Parsing <analyser name="analyse">
[2023-10-11 09:55:45,978]:DEBUG: Parsing p-boost-special/000000/workpackages.xml
[2023-10-11 09:55:51,981]:DEBUG: Command: jube result p-boost-special/ --id 0
[2023-10-11 09:55:51,981]:DEBUG: Version: 2.5.1
[2023-10-11 09:55:51,981]:DEBUG: Parsing p-boost-special/000000/configuration.xml
[2023-10-11 09:55:51,983]:DEBUG:   --> Preprocess run 1 <--
[2023-10-11 09:55:51,983]:DEBUG:   Remove invalid tags
[2023-10-11 09:55:51,983]:DEBUG:     Available tags: 
[2023-10-11 09:55:51,983]:DEBUG:   Remove invalid tags
[2023-10-11 09:55:51,983]:DEBUG:     Available tags: 
[2023-10-11 09:55:51,983]:DEBUG:   Read $JUBE_INCLUDE_PATH
[2023-10-11 09:55:51,983]:DEBUG:   Preprocess xml tree
[2023-10-11 09:55:51,984]:DEBUG:     path: p-boost-special/000000
[2023-10-11 09:55:51,984]:DEBUG:   No preprocessing changes were detected, stop additional include-preprocess runs.
[2023-10-11 09:55:51,984]:DEBUG:   Remove invalid tags
[2023-10-11 09:55:51,984]:DEBUG:     Available tags: 
[2023-10-11 09:55:51,984]:DEBUG:   Preprocess done
[2023-10-11 09:55:51,984]:DEBUG:   Preprocess benchmark xml tree
[2023-10-11 09:55:51,984]:DEBUG:   Parsing <parameterset name="systemParameter">
[2023-10-11 09:55:51,984]:DEBUG:   Parsing <parameterset name="applicationParameter">
[2023-10-11 09:55:51,985]:DEBUG:   Parsing <parameterset name="executeset">
[2023-10-11 09:55:51,985]:DEBUG:   Parsing <parameterset name="testcaseset">
[2023-10-11 09:55:51,985]:DEBUG:   Parsing <substituteset name="executesub">
[2023-10-11 09:55:51,985]:DEBUG:   Parsing <fileset name="jobfiles">
[2023-10-11 09:55:51,985]:DEBUG:   Parsing <patternset name="pattern_ph">
[2023-10-11 09:55:51,985]:DEBUG:   Parsing <step name="submit">
[2023-10-11 09:55:51,985]:DEBUG:   Parsing <analyser name="analyse">
[2023-10-11 09:55:51,986]:DEBUG: Parsing p-boost-special/000000/workpackages.xml
[2023-10-11 09:55:52,004]:DEBUG: Parsing p-boost-special/000000/analyse.xml
[2023-10-12 08:23:14,451]:DEBUG: Command: jube analyse p-boost-special --id 0
[2023-10-12 08:23:14,467]:DEBUG: Version: 2.5.1
[2023-10-12 08:23:14,467]:DEBUG: Parsing p-boost-special/000000/configuration.xml
[2023-10-12 08:23:14,469]:DEBUG:   --> Preprocess run 1 <--
[2023-10-12 08:23:14,469]:DEBUG:   Remove invalid tags
[2023-10-12 08:23:14,469]:DEBUG:     Available tags: 
[2023-10-12 08:23:14,469]:DEBUG:   Remove invalid tags
[2023-10-12 08:23:14,469]:DEBUG:     Available tags: 
[2023-10-12 08:23:14,469]:DEBUG:   Read $JUBE_INCLUDE_PATH
[2023-10-12 08:23:14,469]:DEBUG:   Preprocess xml tree
[2023-10-12 08:23:14,470]:DEBUG:     path: p-boost-special/000000
[2023-10-12 08:23:14,470]:DEBUG:   No preprocessing changes were detected, stop additional include-preprocess runs.
[2023-10-12 08:23:14,470]:DEBUG:   Remove invalid tags
[2023-10-12 08:23:14,470]:DEBUG:     Available tags: 
[2023-10-12 08:23:14,470]:DEBUG:   Preprocess done
[2023-10-12 08:23:14,470]:DEBUG:   Preprocess benchmark xml tree
[2023-10-12 08:23:14,470]:DEBUG:   Parsing <parameterset name="systemParameter">
[2023-10-12 08:23:14,470]:DEBUG:   Parsing <parameterset name="applicationParameter">
[2023-10-12 08:23:14,471]:DEBUG:   Parsing <parameterset name="executeset">
[2023-10-12 08:23:14,471]:DEBUG:   Parsing <parameterset name="testcaseset">
[2023-10-12 08:23:14,471]:DEBUG:   Parsing <substituteset name="executesub">
[2023-10-12 08:23:14,471]:DEBUG:   Parsing <fileset name="jobfiles">
[2023-10-12 08:23:14,471]:DEBUG:   Parsing <patternset name="pattern_ph">
[2023-10-12 08:23:14,471]:DEBUG:   Parsing <step name="submit">
[2023-10-12 08:23:14,471]:DEBUG:   Parsing <analyser name="analyse">
[2023-10-12 08:23:14,472]:DEBUG: Parsing p-boost-special/000000/workpackages.xml
[2023-10-12 08:23:21,941]:DEBUG: Command: jube result p-boost-special --id 0
[2023-10-12 08:23:21,941]:DEBUG: Version: 2.5.1
[2023-10-12 08:23:21,941]:DEBUG: Parsing p-boost-special/000000/configuration.xml
[2023-10-12 08:23:21,943]:DEBUG:   --> Preprocess run 1 <--
[2023-10-12 08:23:21,943]:DEBUG:   Remove invalid tags
[2023-10-12 08:23:21,943]:DEBUG:     Available tags: 
[2023-10-12 08:23:21,943]:DEBUG:   Remove invalid tags
[2023-10-12 08:23:21,943]:DEBUG:     Available tags: 
[2023-10-12 08:23:21,943]:DEBUG:   Read $JUBE_INCLUDE_PATH
[2023-10-12 08:23:21,943]:DEBUG:   Preprocess xml tree
[2023-10-12 08:23:21,943]:DEBUG:     path: p-boost-special/000000
[2023-10-12 08:23:21,943]:DEBUG:   No preprocessing changes were detected, stop additional include-preprocess runs.
[2023-10-12 08:23:21,943]:DEBUG:   Remove invalid tags
[2023-10-12 08:23:21,943]:DEBUG:     Available tags: 
[2023-10-12 08:23:21,944]:DEBUG:   Preprocess done
[2023-10-12 08:23:21,944]:DEBUG:   Preprocess benchmark xml tree
[2023-10-12 08:23:21,944]:DEBUG:   Parsing <parameterset name="systemParameter">
[2023-10-12 08:23:21,944]:DEBUG:   Parsing <parameterset name="applicationParameter">
[2023-10-12 08:23:21,944]:DEBUG:   Parsing <parameterset name="executeset">
[2023-10-12 08:23:21,944]:DEBUG:   Parsing <parameterset name="testcaseset">
[2023-10-12 08:23:21,945]:DEBUG:   Parsing <substituteset name="executesub">
[2023-10-12 08:23:21,945]:DEBUG:   Parsing <fileset name="jobfiles">
[2023-10-12 08:23:21,945]:DEBUG:   Parsing <patternset name="pattern_ph">
[2023-10-12 08:23:21,945]:DEBUG:   Parsing <step name="submit">
[2023-10-12 08:23:21,945]:DEBUG:   Parsing <analyser name="analyse">
[2023-10-12 08:23:21,945]:DEBUG: Parsing p-boost-special/000000/workpackages.xml
[2023-10-12 08:23:21,963]:DEBUG: Parsing p-boost-special/000000/analyse.xml
[2023-10-12 08:24:07,366]:DEBUG: Command: jube result p-boost-special --id 0
[2023-10-12 08:24:07,366]:DEBUG: Version: 2.5.1
[2023-10-12 08:24:07,366]:DEBUG: Parsing p-boost-special/000000/configuration.xml
[2023-10-12 08:24:07,368]:DEBUG:   --> Preprocess run 1 <--
[2023-10-12 08:24:07,368]:DEBUG:   Remove invalid tags
[2023-10-12 08:24:07,368]:DEBUG:     Available tags: 
[2023-10-12 08:24:07,368]:DEBUG:   Remove invalid tags
[2023-10-12 08:24:07,368]:DEBUG:     Available tags: 
[2023-10-12 08:24:07,368]:DEBUG:   Read $JUBE_INCLUDE_PATH
[2023-10-12 08:24:07,368]:DEBUG:   Preprocess xml tree
[2023-10-12 08:24:07,368]:DEBUG:     path: p-boost-special/000000
[2023-10-12 08:24:07,368]:DEBUG:   No preprocessing changes were detected, stop additional include-preprocess runs.
[2023-10-12 08:24:07,368]:DEBUG:   Remove invalid tags
[2023-10-12 08:24:07,368]:DEBUG:     Available tags: 
[2023-10-12 08:24:07,369]:DEBUG:   Preprocess done
[2023-10-12 08:24:07,369]:DEBUG:   Preprocess benchmark xml tree
[2023-10-12 08:24:07,369]:DEBUG:   Parsing <parameterset name="systemParameter">
[2023-10-12 08:24:07,369]:DEBUG:   Parsing <parameterset name="applicationParameter">
[2023-10-12 08:24:07,369]:DEBUG:   Parsing <parameterset name="executeset">
[2023-10-12 08:24:07,369]:DEBUG:   Parsing <parameterset name="testcaseset">
[2023-10-12 08:24:07,370]:DEBUG:   Parsing <substituteset name="executesub">
[2023-10-12 08:24:07,370]:DEBUG:   Parsing <fileset name="jobfiles">
[2023-10-12 08:24:07,370]:DEBUG:   Parsing <patternset name="pattern_ph">
[2023-10-12 08:24:07,370]:DEBUG:   Parsing <step name="submit">
[2023-10-12 08:24:07,370]:DEBUG:   Parsing <analyser name="analyse">
[2023-10-12 08:24:07,370]:DEBUG: Parsing p-boost-special/000000/workpackages.xml
[2023-10-12 08:24:07,388]:DEBUG: Parsing p-boost-special/000000/analyse.xml
[2023-10-12 08:24:10,092]:DEBUG: Command: jube analyse p-boost-special --id 0
[2023-10-12 08:24:10,092]:DEBUG: Version: 2.5.1
[2023-10-12 08:24:10,092]:DEBUG: Parsing p-boost-special/000000/configuration.xml
[2023-10-12 08:24:10,094]:DEBUG:   --> Preprocess run 1 <--
[2023-10-12 08:24:10,094]:DEBUG:   Remove invalid tags
[2023-10-12 08:24:10,094]:DEBUG:     Available tags: 
[2023-10-12 08:24:10,094]:DEBUG:   Remove invalid tags
[2023-10-12 08:24:10,094]:DEBUG:     Available tags: 
[2023-10-12 08:24:10,094]:DEBUG:   Read $JUBE_INCLUDE_PATH
[2023-10-12 08:24:10,094]:DEBUG:   Preprocess xml tree
[2023-10-12 08:24:10,094]:DEBUG:     path: p-boost-special/000000
[2023-10-12 08:24:10,094]:DEBUG:   No preprocessing changes were detected, stop additional include-preprocess runs.
[2023-10-12 08:24:10,094]:DEBUG:   Remove invalid tags
[2023-10-12 08:24:10,094]:DEBUG:     Available tags: 
[2023-10-12 08:24:10,094]:DEBUG:   Preprocess done
[2023-10-12 08:24:10,095]:DEBUG:   Preprocess benchmark xml tree
[2023-10-12 08:24:10,095]:DEBUG:   Parsing <parameterset name="systemParameter">
[2023-10-12 08:24:10,095]:DEBUG:   Parsing <parameterset name="applicationParameter">
[2023-10-12 08:24:10,095]:DEBUG:   Parsing <parameterset name="executeset">
[2023-10-12 08:24:10,095]:DEBUG:   Parsing <parameterset name="testcaseset">
[2023-10-12 08:24:10,095]:DEBUG:   Parsing <substituteset name="executesub">
[2023-10-12 08:24:10,096]:DEBUG:   Parsing <fileset name="jobfiles">
[2023-10-12 08:24:10,096]:DEBUG:   Parsing <patternset name="pattern_ph">
[2023-10-12 08:24:10,096]:DEBUG:   Parsing <step name="submit">
[2023-10-12 08:24:10,096]:DEBUG:   Parsing <analyser name="analyse">
[2023-10-12 08:24:10,096]:DEBUG: Parsing p-boost-special/000000/workpackages.xml
[2023-10-12 08:24:12,295]:DEBUG: Command: jube result p-boost-special --id 0
[2023-10-12 08:24:12,295]:DEBUG: Version: 2.5.1
[2023-10-12 08:24:12,295]:DEBUG: Parsing p-boost-special/000000/configuration.xml
[2023-10-12 08:24:12,296]:DEBUG:   --> Preprocess run 1 <--
[2023-10-12 08:24:12,296]:DEBUG:   Remove invalid tags
[2023-10-12 08:24:12,296]:DEBUG:     Available tags: 
[2023-10-12 08:24:12,297]:DEBUG:   Remove invalid tags
[2023-10-12 08:24:12,297]:DEBUG:     Available tags: 
[2023-10-12 08:24:12,297]:DEBUG:   Read $JUBE_INCLUDE_PATH
[2023-10-12 08:24:12,297]:DEBUG:   Preprocess xml tree
[2023-10-12 08:24:12,297]:DEBUG:     path: p-boost-special/000000
[2023-10-12 08:24:12,297]:DEBUG:   No preprocessing changes were detected, stop additional include-preprocess runs.
[2023-10-12 08:24:12,297]:DEBUG:   Remove invalid tags
[2023-10-12 08:24:12,297]:DEBUG:     Available tags: 
[2023-10-12 08:24:12,297]:DEBUG:   Preprocess done
[2023-10-12 08:24:12,297]:DEBUG:   Preprocess benchmark xml tree
[2023-10-12 08:24:12,298]:DEBUG:   Parsing <parameterset name="systemParameter">
[2023-10-12 08:24:12,298]:DEBUG:   Parsing <parameterset name="applicationParameter">
[2023-10-12 08:24:12,298]:DEBUG:   Parsing <parameterset name="executeset">
[2023-10-12 08:24:12,298]:DEBUG:   Parsing <parameterset name="testcaseset">
[2023-10-12 08:24:12,298]:DEBUG:   Parsing <substituteset name="executesub">
[2023-10-12 08:24:12,299]:DEBUG:   Parsing <fileset name="jobfiles">
[2023-10-12 08:24:12,299]:DEBUG:   Parsing <patternset name="pattern_ph">
[2023-10-12 08:24:12,299]:DEBUG:   Parsing <step name="submit">
[2023-10-12 08:24:12,299]:DEBUG:   Parsing <analyser name="analyse">
[2023-10-12 08:24:12,299]:DEBUG: Parsing p-boost-special/000000/workpackages.xml
[2023-10-12 08:24:12,317]:DEBUG: Parsing p-boost-special/000000/analyse.xml
[2023-10-12 08:25:11,809]:DEBUG: Command: jube analyse p-boost-special --id 0
[2023-10-12 08:25:11,809]:DEBUG: Version: 2.5.1
[2023-10-12 08:25:11,809]:DEBUG: Parsing p-boost-special/000000/configuration.xml
[2023-10-12 08:25:11,810]:DEBUG:   --> Preprocess run 1 <--
[2023-10-12 08:25:11,810]:DEBUG:   Remove invalid tags
[2023-10-12 08:25:11,810]:DEBUG:     Available tags: 
[2023-10-12 08:25:11,811]:DEBUG:   Remove invalid tags
[2023-10-12 08:25:11,811]:DEBUG:     Available tags: 
[2023-10-12 08:25:11,811]:DEBUG:   Read $JUBE_INCLUDE_PATH
[2023-10-12 08:25:11,811]:DEBUG:   Preprocess xml tree
[2023-10-12 08:25:11,811]:DEBUG:     path: p-boost-special/000000
[2023-10-12 08:25:11,811]:DEBUG:   No preprocessing changes were detected, stop additional include-preprocess runs.
[2023-10-12 08:25:11,811]:DEBUG:   Remove invalid tags
[2023-10-12 08:25:11,811]:DEBUG:     Available tags: 
[2023-10-12 08:25:11,811]:DEBUG:   Preprocess done
[2023-10-12 08:25:11,811]:DEBUG:   Preprocess benchmark xml tree
[2023-10-12 08:25:11,812]:DEBUG:   Parsing <parameterset name="systemParameter">
[2023-10-12 08:25:11,812]:DEBUG:   Parsing <parameterset name="applicationParameter">
[2023-10-12 08:25:11,812]:DEBUG:   Parsing <parameterset name="executeset">
[2023-10-12 08:25:11,812]:DEBUG:   Parsing <parameterset name="testcaseset">
[2023-10-12 08:25:11,812]:DEBUG:   Parsing <substituteset name="executesub">
[2023-10-12 08:25:11,813]:DEBUG:   Parsing <fileset name="jobfiles">
[2023-10-12 08:25:11,813]:DEBUG:   Parsing <patternset name="pattern_ph">
[2023-10-12 08:25:11,813]:DEBUG:   Parsing <step name="submit">
[2023-10-12 08:25:11,813]:DEBUG:   Parsing <analyser name="analyse">
[2023-10-12 08:25:11,813]:DEBUG: Parsing p-boost-special/000000/workpackages.xml
[2023-10-12 08:25:14,056]:DEBUG: Command: jube result p-boost-special --id 0
[2023-10-12 08:25:14,056]:DEBUG: Version: 2.5.1
[2023-10-12 08:25:14,056]:DEBUG: Parsing p-boost-special/000000/configuration.xml
[2023-10-12 08:25:14,058]:DEBUG:   --> Preprocess run 1 <--
[2023-10-12 08:25:14,058]:DEBUG:   Remove invalid tags
[2023-10-12 08:25:14,058]:DEBUG:     Available tags: 
[2023-10-12 08:25:14,058]:DEBUG:   Remove invalid tags
[2023-10-12 08:25:14,058]:DEBUG:     Available tags: 
[2023-10-12 08:25:14,058]:DEBUG:   Read $JUBE_INCLUDE_PATH
[2023-10-12 08:25:14,058]:DEBUG:   Preprocess xml tree
[2023-10-12 08:25:14,058]:DEBUG:     path: p-boost-special/000000
[2023-10-12 08:25:14,058]:DEBUG:   No preprocessing changes were detected, stop additional include-preprocess runs.
[2023-10-12 08:25:14,058]:DEBUG:   Remove invalid tags
[2023-10-12 08:25:14,059]:DEBUG:     Available tags: 
[2023-10-12 08:25:14,059]:DEBUG:   Preprocess done
[2023-10-12 08:25:14,059]:DEBUG:   Preprocess benchmark xml tree
[2023-10-12 08:25:14,059]:DEBUG:   Parsing <parameterset name="systemParameter">
[2023-10-12 08:25:14,059]:DEBUG:   Parsing <parameterset name="applicationParameter">
[2023-10-12 08:25:14,059]:DEBUG:   Parsing <parameterset name="executeset">
[2023-10-12 08:25:14,060]:DEBUG:   Parsing <parameterset name="testcaseset">
[2023-10-12 08:25:14,060]:DEBUG:   Parsing <substituteset name="executesub">
[2023-10-12 08:25:14,060]:DEBUG:   Parsing <fileset name="jobfiles">
[2023-10-12 08:25:14,060]:DEBUG:   Parsing <patternset name="pattern_ph">
[2023-10-12 08:25:14,060]:DEBUG:   Parsing <step name="submit">
[2023-10-12 08:25:14,060]:DEBUG:   Parsing <analyser name="analyse">
[2023-10-12 08:25:14,060]:DEBUG: Parsing p-boost-special/000000/workpackages.xml
[2023-10-12 08:25:14,078]:DEBUG: Parsing p-boost-special/000000/analyse.xml
[2023-10-12 08:26:25,254]:DEBUG: Command: jube result p-boost-special --id 0
[2023-10-12 08:26:25,254]:DEBUG: Version: 2.5.1
[2023-10-12 08:26:25,254]:DEBUG: Parsing p-boost-special/000000/configuration.xml
[2023-10-12 08:26:25,255]:DEBUG:   --> Preprocess run 1 <--
[2023-10-12 08:26:25,256]:DEBUG:   Remove invalid tags
[2023-10-12 08:26:25,256]:DEBUG:     Available tags: 
[2023-10-12 08:26:25,256]:DEBUG:   Remove invalid tags
[2023-10-12 08:26:25,256]:DEBUG:     Available tags: 
[2023-10-12 08:26:25,256]:DEBUG:   Read $JUBE_INCLUDE_PATH
[2023-10-12 08:26:25,256]:DEBUG:   Preprocess xml tree
[2023-10-12 08:26:25,256]:DEBUG:     path: p-boost-special/000000
[2023-10-12 08:26:25,256]:DEBUG:   No preprocessing changes were detected, stop additional include-preprocess runs.
[2023-10-12 08:26:25,256]:DEBUG:   Remove invalid tags
[2023-10-12 08:26:25,256]:DEBUG:     Available tags: 
[2023-10-12 08:26:25,256]:DEBUG:   Preprocess done
[2023-10-12 08:26:25,256]:DEBUG:   Preprocess benchmark xml tree
[2023-10-12 08:26:25,257]:DEBUG:   Parsing <parameterset name="systemParameter">
[2023-10-12 08:26:25,257]:DEBUG:   Parsing <parameterset name="applicationParameter">
[2023-10-12 08:26:25,257]:DEBUG:   Parsing <parameterset name="executeset">
[2023-10-12 08:26:25,257]:DEBUG:   Parsing <parameterset name="testcaseset">
[2023-10-12 08:26:25,257]:DEBUG:   Parsing <substituteset name="executesub">
[2023-10-12 08:26:25,258]:DEBUG:   Parsing <fileset name="jobfiles">
[2023-10-12 08:26:25,258]:DEBUG:   Parsing <patternset name="pattern_ph">
[2023-10-12 08:26:25,258]:DEBUG:   Parsing <step name="submit">
[2023-10-12 08:26:25,258]:DEBUG:   Parsing <analyser name="analyse">
[2023-10-12 08:26:25,258]:DEBUG: Parsing p-boost-special/000000/workpackages.xml
[2023-10-12 08:26:25,276]:DEBUG: Parsing p-boost-special/000000/analyse.xml
[2023-10-12 08:26:27,766]:DEBUG: Command: jube analyse p-boost-special --id 0
[2023-10-12 08:26:27,767]:DEBUG: Version: 2.5.1
[2023-10-12 08:26:27,767]:DEBUG: Parsing p-boost-special/000000/configuration.xml
[2023-10-12 08:26:27,768]:DEBUG:   --> Preprocess run 1 <--
[2023-10-12 08:26:27,768]:DEBUG:   Remove invalid tags
[2023-10-12 08:26:27,768]:DEBUG:     Available tags: 
[2023-10-12 08:26:27,769]:DEBUG:   Remove invalid tags
[2023-10-12 08:26:27,769]:DEBUG:     Available tags: 
[2023-10-12 08:26:27,769]:DEBUG:   Read $JUBE_INCLUDE_PATH
[2023-10-12 08:26:27,769]:DEBUG:   Preprocess xml tree
[2023-10-12 08:26:27,769]:DEBUG:     path: p-boost-special/000000
[2023-10-12 08:26:27,769]:DEBUG:   No preprocessing changes were detected, stop additional include-preprocess runs.
[2023-10-12 08:26:27,769]:DEBUG:   Remove invalid tags
[2023-10-12 08:26:27,769]:DEBUG:     Available tags: 
[2023-10-12 08:26:27,769]:DEBUG:   Preprocess done
[2023-10-12 08:26:27,769]:DEBUG:   Preprocess benchmark xml tree
[2023-10-12 08:26:27,770]:DEBUG:   Parsing <parameterset name="systemParameter">
[2023-10-12 08:26:27,770]:DEBUG:   Parsing <parameterset name="applicationParameter">
[2023-10-12 08:26:27,770]:DEBUG:   Parsing <parameterset name="executeset">
[2023-10-12 08:26:27,770]:DEBUG:   Parsing <parameterset name="testcaseset">
[2023-10-12 08:26:27,770]:DEBUG:   Parsing <substituteset name="executesub">
[2023-10-12 08:26:27,771]:DEBUG:   Parsing <fileset name="jobfiles">
[2023-10-12 08:26:27,771]:DEBUG:   Parsing <patternset name="pattern_ph">
[2023-10-12 08:26:27,771]:DEBUG:   Parsing <step name="submit">
[2023-10-12 08:26:27,771]:DEBUG:   Parsing <analyser name="analyse">
[2023-10-12 08:26:27,771]:DEBUG: Parsing p-boost-special/000000/workpackages.xml
[2023-10-12 08:26:31,690]:DEBUG: Command: jube result p-boost-special --id 0
[2023-10-12 08:26:31,690]:DEBUG: Version: 2.5.1
[2023-10-12 08:26:31,691]:DEBUG: Parsing p-boost-special/000000/configuration.xml
[2023-10-12 08:26:31,692]:DEBUG:   --> Preprocess run 1 <--
[2023-10-12 08:26:31,692]:DEBUG:   Remove invalid tags
[2023-10-12 08:26:31,692]:DEBUG:     Available tags: 
[2023-10-12 08:26:31,692]:DEBUG:   Remove invalid tags
[2023-10-12 08:26:31,692]:DEBUG:     Available tags: 
[2023-10-12 08:26:31,693]:DEBUG:   Read $JUBE_INCLUDE_PATH
[2023-10-12 08:26:31,693]:DEBUG:   Preprocess xml tree
[2023-10-12 08:26:31,693]:DEBUG:     path: p-boost-special/000000
[2023-10-12 08:26:31,693]:DEBUG:   No preprocessing changes were detected, stop additional include-preprocess runs.
[2023-10-12 08:26:31,693]:DEBUG:   Remove invalid tags
[2023-10-12 08:26:31,693]:DEBUG:     Available tags: 
[2023-10-12 08:26:31,693]:DEBUG:   Preprocess done
[2023-10-12 08:26:31,693]:DEBUG:   Preprocess benchmark xml tree
[2023-10-12 08:26:31,693]:DEBUG:   Parsing <parameterset name="systemParameter">
[2023-10-12 08:26:31,694]:DEBUG:   Parsing <parameterset name="applicationParameter">
[2023-10-12 08:26:31,694]:DEBUG:   Parsing <parameterset name="executeset">
[2023-10-12 08:26:31,694]:DEBUG:   Parsing <parameterset name="testcaseset">
[2023-10-12 08:26:31,694]:DEBUG:   Parsing <substituteset name="executesub">
[2023-10-12 08:26:31,694]:DEBUG:   Parsing <fileset name="jobfiles">
[2023-10-12 08:26:31,694]:DEBUG:   Parsing <patternset name="pattern_ph">
[2023-10-12 08:26:31,695]:DEBUG:   Parsing <step name="submit">
[2023-10-12 08:26:31,695]:DEBUG:   Parsing <analyser name="analyse">
[2023-10-12 08:26:31,695]:DEBUG: Parsing p-boost-special/000000/workpackages.xml
[2023-10-12 08:26:31,713]:DEBUG: Parsing p-boost-special/000000/analyse.xml
[2023-10-12 08:27:55,725]:DEBUG: Command: jube analyse p-boost-special --id 0
[2023-10-12 08:27:55,725]:DEBUG: Version: 2.5.1
[2023-10-12 08:27:55,725]:DEBUG: Parsing p-boost-special/000000/configuration.xml
[2023-10-12 08:27:55,727]:DEBUG:   --> Preprocess run 1 <--
[2023-10-12 08:27:55,727]:DEBUG:   Remove invalid tags
[2023-10-12 08:27:55,727]:DEBUG:     Available tags: 
[2023-10-12 08:27:55,727]:DEBUG:   Remove invalid tags
[2023-10-12 08:27:55,727]:DEBUG:     Available tags: 
[2023-10-12 08:27:55,727]:DEBUG:   Read $JUBE_INCLUDE_PATH
[2023-10-12 08:27:55,728]:DEBUG:   Preprocess xml tree
[2023-10-12 08:27:55,728]:DEBUG:     path: p-boost-special/000000
[2023-10-12 08:27:55,728]:DEBUG:   No preprocessing changes were detected, stop additional include-preprocess runs.
[2023-10-12 08:27:55,728]:DEBUG:   Remove invalid tags
[2023-10-12 08:27:55,728]:DEBUG:     Available tags: 
[2023-10-12 08:27:55,728]:DEBUG:   Preprocess done
[2023-10-12 08:27:55,728]:DEBUG:   Preprocess benchmark xml tree
[2023-10-12 08:27:55,728]:DEBUG:   Parsing <parameterset name="systemParameter">
[2023-10-12 08:27:55,729]:DEBUG:   Parsing <parameterset name="applicationParameter">
[2023-10-12 08:27:55,729]:DEBUG:   Parsing <parameterset name="executeset">
[2023-10-12 08:27:55,729]:DEBUG:   Parsing <parameterset name="testcaseset">
[2023-10-12 08:27:55,729]:DEBUG:   Parsing <substituteset name="executesub">
[2023-10-12 08:27:55,729]:DEBUG:   Parsing <fileset name="jobfiles">
[2023-10-12 08:27:55,729]:DEBUG:   Parsing <patternset name="pattern_ph">
[2023-10-12 08:27:55,729]:DEBUG:   Parsing <step name="submit">
[2023-10-12 08:27:55,729]:DEBUG:   Parsing <analyser name="analyse">
[2023-10-12 08:27:55,730]:DEBUG: Parsing p-boost-special/000000/workpackages.xml
[2023-10-12 08:27:58,546]:DEBUG: Command: jube result p-boost-special --id 0
[2023-10-12 08:27:58,546]:DEBUG: Version: 2.5.1
[2023-10-12 08:27:58,546]:DEBUG: Parsing p-boost-special/000000/configuration.xml
[2023-10-12 08:27:58,548]:DEBUG:   --> Preprocess run 1 <--
[2023-10-12 08:27:58,548]:DEBUG:   Remove invalid tags
[2023-10-12 08:27:58,548]:DEBUG:     Available tags: 
[2023-10-12 08:27:58,548]:DEBUG:   Remove invalid tags
[2023-10-12 08:27:58,548]:DEBUG:     Available tags: 
[2023-10-12 08:27:58,549]:DEBUG:   Read $JUBE_INCLUDE_PATH
[2023-10-12 08:27:58,549]:DEBUG:   Preprocess xml tree
[2023-10-12 08:27:58,549]:DEBUG:     path: p-boost-special/000000
[2023-10-12 08:27:58,549]:DEBUG:   No preprocessing changes were detected, stop additional include-preprocess runs.
[2023-10-12 08:27:58,549]:DEBUG:   Remove invalid tags
[2023-10-12 08:27:58,549]:DEBUG:     Available tags: 
[2023-10-12 08:27:58,549]:DEBUG:   Preprocess done
[2023-10-12 08:27:58,549]:DEBUG:   Preprocess benchmark xml tree
[2023-10-12 08:27:58,549]:DEBUG:   Parsing <parameterset name="systemParameter">
[2023-10-12 08:27:58,550]:DEBUG:   Parsing <parameterset name="applicationParameter">
[2023-10-12 08:27:58,550]:DEBUG:   Parsing <parameterset name="executeset">
[2023-10-12 08:27:58,550]:DEBUG:   Parsing <parameterset name="testcaseset">
[2023-10-12 08:27:58,550]:DEBUG:   Parsing <substituteset name="executesub">
[2023-10-12 08:27:58,550]:DEBUG:   Parsing <fileset name="jobfiles">
[2023-10-12 08:27:58,550]:DEBUG:   Parsing <patternset name="pattern_ph">
[2023-10-12 08:27:58,551]:DEBUG:   Parsing <step name="submit">
[2023-10-12 08:27:58,551]:DEBUG:   Parsing <analyser name="analyse">
[2023-10-12 08:27:58,551]:DEBUG: Parsing p-boost-special/000000/workpackages.xml
[2023-10-12 08:27:58,569]:DEBUG: Parsing p-boost-special/000000/analyse.xml
[2023-10-12 08:28:39,932]:DEBUG: Command: jube analyse p-boost-special --id 0
[2023-10-12 08:28:39,932]:DEBUG: Version: 2.5.1
[2023-10-12 08:28:39,932]:DEBUG: Parsing p-boost-special/000000/configuration.xml
[2023-10-12 08:28:39,935]:DEBUG:   --> Preprocess run 1 <--
[2023-10-12 08:28:39,935]:DEBUG:   Remove invalid tags
[2023-10-12 08:28:39,935]:DEBUG:     Available tags: 
[2023-10-12 08:28:39,935]:DEBUG:   Remove invalid tags
[2023-10-12 08:28:39,935]:DEBUG:     Available tags: 
[2023-10-12 08:28:39,935]:DEBUG:   Read $JUBE_INCLUDE_PATH
[2023-10-12 08:28:39,935]:DEBUG:   Preprocess xml tree
[2023-10-12 08:28:39,935]:DEBUG:     path: p-boost-special/000000
[2023-10-12 08:28:39,935]:DEBUG:   No preprocessing changes were detected, stop additional include-preprocess runs.
[2023-10-12 08:28:39,935]:DEBUG:   Remove invalid tags
[2023-10-12 08:28:39,935]:DEBUG:     Available tags: 
[2023-10-12 08:28:39,936]:DEBUG:   Preprocess done
[2023-10-12 08:28:39,936]:DEBUG:   Preprocess benchmark xml tree
[2023-10-12 08:28:39,936]:DEBUG:   Parsing <parameterset name="systemParameter">
[2023-10-12 08:28:39,936]:DEBUG:   Parsing <parameterset name="applicationParameter">
[2023-10-12 08:28:39,936]:DEBUG:   Parsing <parameterset name="executeset">
[2023-10-12 08:28:39,936]:DEBUG:   Parsing <parameterset name="testcaseset">
[2023-10-12 08:28:39,937]:DEBUG:   Parsing <substituteset name="executesub">
[2023-10-12 08:28:39,937]:DEBUG:   Parsing <fileset name="jobfiles">
[2023-10-12 08:28:39,937]:DEBUG:   Parsing <patternset name="pattern_ph">
[2023-10-12 08:28:39,937]:DEBUG:   Parsing <step name="submit">
[2023-10-12 08:28:39,937]:DEBUG:   Parsing <analyser name="analyse">
[2023-10-12 08:28:39,937]:DEBUG: Parsing p-boost-special/000000/workpackages.xml
[2023-10-12 08:28:42,712]:DEBUG: Command: jube result p-boost-special --id 0
[2023-10-12 08:28:42,712]:DEBUG: Version: 2.5.1
[2023-10-12 08:28:42,712]:DEBUG: Parsing p-boost-special/000000/configuration.xml
[2023-10-12 08:28:42,714]:DEBUG:   --> Preprocess run 1 <--
[2023-10-12 08:28:42,714]:DEBUG:   Remove invalid tags
[2023-10-12 08:28:42,714]:DEBUG:     Available tags: 
[2023-10-12 08:28:42,714]:DEBUG:   Remove invalid tags
[2023-10-12 08:28:42,714]:DEBUG:     Available tags: 
[2023-10-12 08:28:42,715]:DEBUG:   Read $JUBE_INCLUDE_PATH
[2023-10-12 08:28:42,715]:DEBUG:   Preprocess xml tree
[2023-10-12 08:28:42,715]:DEBUG:     path: p-boost-special/000000
[2023-10-12 08:28:42,715]:DEBUG:   No preprocessing changes were detected, stop additional include-preprocess runs.
[2023-10-12 08:28:42,715]:DEBUG:   Remove invalid tags
[2023-10-12 08:28:42,715]:DEBUG:     Available tags: 
[2023-10-12 08:28:42,715]:DEBUG:   Preprocess done
[2023-10-12 08:28:42,715]:DEBUG:   Preprocess benchmark xml tree
[2023-10-12 08:28:42,715]:DEBUG:   Parsing <parameterset name="systemParameter">
[2023-10-12 08:28:42,716]:DEBUG:   Parsing <parameterset name="applicationParameter">
[2023-10-12 08:28:42,716]:DEBUG:   Parsing <parameterset name="executeset">
[2023-10-12 08:28:42,716]:DEBUG:   Parsing <parameterset name="testcaseset">
[2023-10-12 08:28:42,716]:DEBUG:   Parsing <substituteset name="executesub">
[2023-10-12 08:28:42,716]:DEBUG:   Parsing <fileset name="jobfiles">
[2023-10-12 08:28:42,716]:DEBUG:   Parsing <patternset name="pattern_ph">
[2023-10-12 08:28:42,717]:DEBUG:   Parsing <step name="submit">
[2023-10-12 08:28:42,717]:DEBUG:   Parsing <analyser name="analyse">
[2023-10-12 08:28:42,717]:DEBUG: Parsing p-boost-special/000000/workpackages.xml
[2023-10-12 08:28:42,735]:DEBUG: Parsing p-boost-special/000000/analyse.xml
[2023-10-12 08:40:03,459]:DEBUG: Command: jube result p-boost-special/ --id 0
[2023-10-12 08:40:03,460]:DEBUG: Version: 2.5.1
[2023-10-12 08:40:03,460]:DEBUG: Parsing p-boost-special/000000/configuration.xml
[2023-10-12 08:40:03,462]:DEBUG:   --> Preprocess run 1 <--
[2023-10-12 08:40:03,462]:DEBUG:   Remove invalid tags
[2023-10-12 08:40:03,462]:DEBUG:     Available tags: 
[2023-10-12 08:40:03,462]:DEBUG:   Remove invalid tags
[2023-10-12 08:40:03,462]:DEBUG:     Available tags: 
[2023-10-12 08:40:03,462]:DEBUG:   Read $JUBE_INCLUDE_PATH
[2023-10-12 08:40:03,462]:DEBUG:   Preprocess xml tree
[2023-10-12 08:40:03,462]:DEBUG:     path: p-boost-special/000000
[2023-10-12 08:40:03,462]:DEBUG:   No preprocessing changes were detected, stop additional include-preprocess runs.
[2023-10-12 08:40:03,462]:DEBUG:   Remove invalid tags
[2023-10-12 08:40:03,462]:DEBUG:     Available tags: 
[2023-10-12 08:40:03,463]:DEBUG:   Preprocess done
[2023-10-12 08:40:03,463]:DEBUG:   Preprocess benchmark xml tree
[2023-10-12 08:40:03,463]:DEBUG:   Parsing <parameterset name="systemParameter">
[2023-10-12 08:40:03,463]:DEBUG:   Parsing <parameterset name="applicationParameter">
[2023-10-12 08:40:03,463]:DEBUG:   Parsing <parameterset name="executeset">
[2023-10-12 08:40:03,463]:DEBUG:   Parsing <parameterset name="testcaseset">
[2023-10-12 08:40:03,464]:DEBUG:   Parsing <substituteset name="executesub">
[2023-10-12 08:40:03,464]:DEBUG:   Parsing <fileset name="jobfiles">
[2023-10-12 08:40:03,464]:DEBUG:   Parsing <patternset name="pattern_ph">
[2023-10-12 08:40:03,464]:DEBUG:   Parsing <step name="submit">
[2023-10-12 08:40:03,464]:DEBUG:   Parsing <analyser name="analyse">
[2023-10-12 08:40:03,464]:DEBUG: Parsing p-boost-special/000000/workpackages.xml
[2023-10-12 08:40:03,536]:DEBUG: Parsing p-boost-special/000000/analyse.xml
[2023-10-12 08:44:06,836]:DEBUG: Command: jube analyse p-boost-special/ --id 0
[2023-10-12 08:44:06,836]:DEBUG: Version: 2.5.1
[2023-10-12 08:44:06,836]:DEBUG: Parsing p-boost-special/000000/configuration.xml
[2023-10-12 08:44:06,838]:DEBUG:   --> Preprocess run 1 <--
[2023-10-12 08:44:06,838]:DEBUG:   Remove invalid tags
[2023-10-12 08:44:06,838]:DEBUG:     Available tags: 
[2023-10-12 08:44:06,838]:DEBUG:   Remove invalid tags
[2023-10-12 08:44:06,838]:DEBUG:     Available tags: 
[2023-10-12 08:44:06,838]:DEBUG:   Read $JUBE_INCLUDE_PATH
[2023-10-12 08:44:06,838]:DEBUG:   Preprocess xml tree
[2023-10-12 08:44:06,838]:DEBUG:     path: p-boost-special/000000
[2023-10-12 08:44:06,838]:DEBUG:   No preprocessing changes were detected, stop additional include-preprocess runs.
[2023-10-12 08:44:06,839]:DEBUG:   Remove invalid tags
[2023-10-12 08:44:06,839]:DEBUG:     Available tags: 
[2023-10-12 08:44:06,839]:DEBUG:   Preprocess done
[2023-10-12 08:44:06,839]:DEBUG:   Preprocess benchmark xml tree
[2023-10-12 08:44:06,839]:DEBUG:   Parsing <parameterset name="systemParameter">
[2023-10-12 08:44:06,839]:DEBUG:   Parsing <parameterset name="applicationParameter">
[2023-10-12 08:44:06,839]:DEBUG:   Parsing <parameterset name="executeset">
[2023-10-12 08:44:06,840]:DEBUG:   Parsing <parameterset name="testcaseset">
[2023-10-12 08:44:06,840]:DEBUG:   Parsing <substituteset name="executesub">
[2023-10-12 08:44:06,840]:DEBUG:   Parsing <fileset name="jobfiles">
[2023-10-12 08:44:06,840]:DEBUG:   Parsing <patternset name="pattern_ph">
[2023-10-12 08:44:06,840]:DEBUG:   Parsing <step name="submit">
[2023-10-12 08:44:06,840]:DEBUG:   Parsing <analyser name="analyse">
[2023-10-12 08:44:06,840]:DEBUG: Parsing p-boost-special/000000/workpackages.xml
[2023-10-12 08:44:13,349]:DEBUG: Command: jube result p-boost-special/ --id 0
[2023-10-12 08:44:13,349]:DEBUG: Version: 2.5.1
[2023-10-12 08:44:13,349]:DEBUG: Parsing p-boost-special/000000/configuration.xml
[2023-10-12 08:44:13,350]:DEBUG:   --> Preprocess run 1 <--
[2023-10-12 08:44:13,351]:DEBUG:   Remove invalid tags
[2023-10-12 08:44:13,351]:DEBUG:     Available tags: 
[2023-10-12 08:44:13,351]:DEBUG:   Remove invalid tags
[2023-10-12 08:44:13,351]:DEBUG:     Available tags: 
[2023-10-12 08:44:13,351]:DEBUG:   Read $JUBE_INCLUDE_PATH
[2023-10-12 08:44:13,351]:DEBUG:   Preprocess xml tree
[2023-10-12 08:44:13,351]:DEBUG:     path: p-boost-special/000000
[2023-10-12 08:44:13,351]:DEBUG:   No preprocessing changes were detected, stop additional include-preprocess runs.
[2023-10-12 08:44:13,351]:DEBUG:   Remove invalid tags
[2023-10-12 08:44:13,351]:DEBUG:     Available tags: 
[2023-10-12 08:44:13,351]:DEBUG:   Preprocess done
[2023-10-12 08:44:13,351]:DEBUG:   Preprocess benchmark xml tree
[2023-10-12 08:44:13,352]:DEBUG:   Parsing <parameterset name="systemParameter">
[2023-10-12 08:44:13,352]:DEBUG:   Parsing <parameterset name="applicationParameter">
[2023-10-12 08:44:13,352]:DEBUG:   Parsing <parameterset name="executeset">
[2023-10-12 08:44:13,352]:DEBUG:   Parsing <parameterset name="testcaseset">
[2023-10-12 08:44:13,352]:DEBUG:   Parsing <substituteset name="executesub">
[2023-10-12 08:44:13,353]:DEBUG:   Parsing <fileset name="jobfiles">
[2023-10-12 08:44:13,353]:DEBUG:   Parsing <patternset name="pattern_ph">
[2023-10-12 08:44:13,353]:DEBUG:   Parsing <step name="submit">
[2023-10-12 08:44:13,353]:DEBUG:   Parsing <analyser name="analyse">
[2023-10-12 08:44:13,353]:DEBUG: Parsing p-boost-special/000000/workpackages.xml
[2023-10-12 08:44:13,371]:DEBUG: Parsing p-boost-special/000000/analyse.xml
[2023-11-06 10:31:02,849]:DEBUG: Command: jube result p-boost-special/ --id all
[2023-11-06 10:31:02,868]:DEBUG: Version: 2.5.1
[2023-11-06 10:31:02,868]:DEBUG: Parsing p-boost-special/000000/configuration.xml
[2023-11-06 10:31:02,877]:DEBUG:   --> Preprocess run 1 <--
[2023-11-06 10:31:02,877]:DEBUG:   Remove invalid tags
[2023-11-06 10:31:02,877]:DEBUG:     Available tags: 
[2023-11-06 10:31:02,877]:DEBUG:   Remove invalid tags
[2023-11-06 10:31:02,877]:DEBUG:     Available tags: 
[2023-11-06 10:31:02,877]:DEBUG:   Read $JUBE_INCLUDE_PATH
[2023-11-06 10:31:02,877]:DEBUG:   Preprocess xml tree
[2023-11-06 10:31:02,877]:DEBUG:     path: p-boost-special/000000
[2023-11-06 10:31:02,878]:DEBUG:   No preprocessing changes were detected, stop additional include-preprocess runs.
[2023-11-06 10:31:02,878]:DEBUG:   Remove invalid tags
[2023-11-06 10:31:02,878]:DEBUG:     Available tags: 
[2023-11-06 10:31:02,878]:DEBUG:   Preprocess done
[2023-11-06 10:31:02,878]:DEBUG:   Preprocess benchmark xml tree
[2023-11-06 10:31:02,878]:DEBUG:   Parsing <parameterset name="systemParameter">
[2023-11-06 10:31:02,878]:DEBUG:   Parsing <parameterset name="applicationParameter">
[2023-11-06 10:31:02,878]:DEBUG:   Parsing <parameterset name="executeset">
[2023-11-06 10:31:02,879]:DEBUG:   Parsing <parameterset name="testcaseset">
[2023-11-06 10:31:02,879]:DEBUG:   Parsing <substituteset name="executesub">
[2023-11-06 10:31:02,879]:DEBUG:   Parsing <fileset name="jobfiles">
[2023-11-06 10:31:02,879]:DEBUG:   Parsing <patternset name="pattern_ph">
[2023-11-06 10:31:02,879]:DEBUG:   Parsing <step name="submit">
[2023-11-06 10:31:02,879]:DEBUG:   Parsing <analyser name="analyse">
[2023-11-06 10:31:02,879]:DEBUG: Parsing p-boost-special/000000/workpackages.xml
[2023-11-06 10:31:02,915]:DEBUG: Parsing p-boost-special/000000/analyse.xml
[2023-11-06 13:51:45,169]:DEBUG: Command: jube result --id all
[2023-11-06 13:51:45,170]:DEBUG: Version: 2.5.1
[2023-11-06 13:51:45,170]:DEBUG: Parsing ./000000/configuration.xml
[2023-11-06 13:51:45,185]:DEBUG:   --> Preprocess run 1 <--
[2023-11-06 13:51:45,185]:DEBUG:   Remove invalid tags
[2023-11-06 13:51:45,185]:DEBUG:     Available tags: 
[2023-11-06 13:51:45,185]:DEBUG:   Remove invalid tags
[2023-11-06 13:51:45,185]:DEBUG:     Available tags: 
[2023-11-06 13:51:45,185]:DEBUG:   Read $JUBE_INCLUDE_PATH
[2023-11-06 13:51:45,185]:DEBUG:   Preprocess xml tree
[2023-11-06 13:51:45,185]:DEBUG:     path: ./000000
[2023-11-06 13:51:45,186]:DEBUG:   No preprocessing changes were detected, stop additional include-preprocess runs.
[2023-11-06 13:51:45,186]:DEBUG:   Remove invalid tags
[2023-11-06 13:51:45,186]:DEBUG:     Available tags: 
[2023-11-06 13:51:45,186]:DEBUG:   Preprocess done
[2023-11-06 13:51:45,186]:DEBUG:   Preprocess benchmark xml tree
[2023-11-06 13:51:45,186]:DEBUG:   Parsing <parameterset name="systemParameter">
[2023-11-06 13:51:45,186]:DEBUG:   Parsing <parameterset name="applicationParameter">
[2023-11-06 13:51:45,186]:DEBUG:   Parsing <parameterset name="executeset">
[2023-11-06 13:51:45,187]:DEBUG:   Parsing <parameterset name="testcaseset">
[2023-11-06 13:51:45,187]:DEBUG:   Parsing <substituteset name="executesub">
[2023-11-06 13:51:45,187]:DEBUG:   Parsing <fileset name="jobfiles">
[2023-11-06 13:51:45,187]:DEBUG:   Parsing <patternset name="pattern_ph">
[2023-11-06 13:51:45,187]:DEBUG:   Parsing <step name="submit">
[2023-11-06 13:51:45,187]:DEBUG:   Parsing <analyser name="analyse">
[2023-11-06 13:51:45,187]:DEBUG: Parsing ./000000/workpackages.xml
[2023-11-06 13:51:45,222]:DEBUG: Parsing ./000000/analyse.xml
[2023-11-06 13:52:38,028]:DEBUG: Command: jube result --id all
[2023-11-06 13:52:38,028]:DEBUG: Version: 2.5.1
[2023-11-06 13:52:38,028]:DEBUG: Parsing ./000000/configuration.xml
[2023-11-06 13:52:38,030]:DEBUG:   --> Preprocess run 1 <--
[2023-11-06 13:52:38,030]:DEBUG:   Remove invalid tags
[2023-11-06 13:52:38,030]:DEBUG:     Available tags: 
[2023-11-06 13:52:38,030]:DEBUG:   Remove invalid tags
[2023-11-06 13:52:38,030]:DEBUG:     Available tags: 
[2023-11-06 13:52:38,031]:DEBUG:   Read $JUBE_INCLUDE_PATH
[2023-11-06 13:52:38,031]:DEBUG:   Preprocess xml tree
[2023-11-06 13:52:38,031]:DEBUG:     path: ./000000
[2023-11-06 13:52:38,031]:DEBUG:   No preprocessing changes were detected, stop additional include-preprocess runs.
[2023-11-06 13:52:38,031]:DEBUG:   Remove invalid tags
[2023-11-06 13:52:38,031]:DEBUG:     Available tags: 
[2023-11-06 13:52:38,031]:DEBUG:   Preprocess done
[2023-11-06 13:52:38,031]:DEBUG:   Preprocess benchmark xml tree
[2023-11-06 13:52:38,031]:DEBUG:   Parsing <parameterset name="systemParameter">
[2023-11-06 13:52:38,031]:DEBUG:   Parsing <parameterset name="applicationParameter">
[2023-11-06 13:52:38,032]:DEBUG:   Parsing <parameterset name="executeset">
[2023-11-06 13:52:38,032]:DEBUG:   Parsing <parameterset name="testcaseset">
[2023-11-06 13:52:38,032]:DEBUG:   Parsing <substituteset name="executesub">
[2023-11-06 13:52:38,032]:DEBUG:   Parsing <fileset name="jobfiles">
[2023-11-06 13:52:38,032]:DEBUG:   Parsing <patternset name="pattern_ph">
[2023-11-06 13:52:38,032]:DEBUG:   Parsing <step name="submit">
[2023-11-06 13:52:38,032]:DEBUG:   Parsing <analyser name="analyse">
[2023-11-06 13:52:38,032]:DEBUG: Parsing ./000000/workpackages.xml
[2023-11-06 13:52:38,049]:DEBUG: Parsing ./000000/analyse.xml
[2023-11-06 13:56:03,970]:DEBUG: Command: jube result --id all
[2023-11-06 13:56:03,970]:DEBUG: Version: 2.5.1
[2023-11-06 13:56:03,971]:DEBUG: Parsing ./000000/configuration.xml
[2023-11-06 13:56:03,972]:DEBUG:   --> Preprocess run 1 <--
[2023-11-06 13:56:03,972]:DEBUG:   Remove invalid tags
[2023-11-06 13:56:03,972]:DEBUG:     Available tags: 
[2023-11-06 13:56:03,972]:DEBUG:   Remove invalid tags
[2023-11-06 13:56:03,972]:DEBUG:     Available tags: 
[2023-11-06 13:56:03,972]:DEBUG:   Read $JUBE_INCLUDE_PATH
[2023-11-06 13:56:03,973]:DEBUG:   Preprocess xml tree
[2023-11-06 13:56:03,973]:DEBUG:     path: ./000000
[2023-11-06 13:56:03,973]:DEBUG:   No preprocessing changes were detected, stop additional include-preprocess runs.
[2023-11-06 13:56:03,973]:DEBUG:   Remove invalid tags
[2023-11-06 13:56:03,973]:DEBUG:     Available tags: 
[2023-11-06 13:56:03,973]:DEBUG:   Preprocess done
[2023-11-06 13:56:03,973]:DEBUG:   Preprocess benchmark xml tree
[2023-11-06 13:56:03,973]:DEBUG:   Parsing <parameterset name="systemParameter">
[2023-11-06 13:56:03,973]:DEBUG:   Parsing <parameterset name="applicationParameter">
[2023-11-06 13:56:03,974]:DEBUG:   Parsing <parameterset name="executeset">
[2023-11-06 13:56:03,974]:DEBUG:   Parsing <parameterset name="testcaseset">
[2023-11-06 13:56:03,974]:DEBUG:   Parsing <substituteset name="executesub">
[2023-11-06 13:56:03,974]:DEBUG:   Parsing <fileset name="jobfiles">
[2023-11-06 13:56:03,974]:DEBUG:   Parsing <patternset name="pattern_ph">
[2023-11-06 13:56:03,974]:DEBUG:   Parsing <step name="submit">
[2023-11-06 13:56:03,974]:DEBUG:   Parsing <analyser name="analyse">
[2023-11-06 13:56:03,974]:DEBUG: Parsing ./000000/workpackages.xml
[2023-11-06 13:56:03,992]:DEBUG: Parsing ./000000/analyse.xml
[2023-11-06 13:56:12,762]:DEBUG: Command: jube result --id all
[2023-11-06 13:56:12,762]:DEBUG: Version: 2.5.1
[2023-11-06 13:56:12,762]:DEBUG: Parsing ./000000/configuration.xml
[2023-11-06 13:56:12,764]:DEBUG:   --> Preprocess run 1 <--
[2023-11-06 13:56:12,764]:DEBUG:   Remove invalid tags
[2023-11-06 13:56:12,764]:DEBUG:     Available tags: 
[2023-11-06 13:56:12,764]:DEBUG:   Remove invalid tags
[2023-11-06 13:56:12,764]:DEBUG:     Available tags: 
[2023-11-06 13:56:12,764]:DEBUG:   Read $JUBE_INCLUDE_PATH
[2023-11-06 13:56:12,764]:DEBUG:   Preprocess xml tree
[2023-11-06 13:56:12,764]:DEBUG:     path: ./000000
[2023-11-06 13:56:12,765]:DEBUG:   No preprocessing changes were detected, stop additional include-preprocess runs.
[2023-11-06 13:56:12,765]:DEBUG:   Remove invalid tags
[2023-11-06 13:56:12,765]:DEBUG:     Available tags: 
[2023-11-06 13:56:12,765]:DEBUG:   Preprocess done
[2023-11-06 13:56:12,765]:DEBUG:   Preprocess benchmark xml tree
[2023-11-06 13:56:12,765]:DEBUG:   Parsing <parameterset name="systemParameter">
[2023-11-06 13:56:12,765]:DEBUG:   Parsing <parameterset name="applicationParameter">
[2023-11-06 13:56:12,765]:DEBUG:   Parsing <parameterset name="executeset">
[2023-11-06 13:56:12,766]:DEBUG:   Parsing <parameterset name="testcaseset">
[2023-11-06 13:56:12,766]:DEBUG:   Parsing <substituteset name="executesub">
[2023-11-06 13:56:12,766]:DEBUG:   Parsing <fileset name="jobfiles">
[2023-11-06 13:56:12,766]:DEBUG:   Parsing <patternset name="pattern_ph">
[2023-11-06 13:56:12,766]:DEBUG:   Parsing <step name="submit">
[2023-11-06 13:56:12,766]:DEBUG:   Parsing <analyser name="analyse">
[2023-11-06 13:56:12,766]:DEBUG: Parsing ./000000/workpackages.xml
[2023-11-06 13:56:12,783]:DEBUG: Parsing ./000000/analyse.xml
[2023-11-06 14:01:44,885]:DEBUG: Command: jube result --id all
[2023-11-06 14:01:44,885]:DEBUG: Version: 2.5.1
[2023-11-06 14:01:44,885]:DEBUG: Parsing ./000000/configuration.xml
[2023-11-06 14:01:44,887]:DEBUG:   --> Preprocess run 1 <--
[2023-11-06 14:01:44,887]:DEBUG:   Remove invalid tags
[2023-11-06 14:01:44,887]:DEBUG:     Available tags: 
[2023-11-06 14:01:44,887]:DEBUG:   Remove invalid tags
[2023-11-06 14:01:44,887]:DEBUG:     Available tags: 
[2023-11-06 14:01:44,887]:DEBUG:   Read $JUBE_INCLUDE_PATH
[2023-11-06 14:01:44,887]:DEBUG:   Preprocess xml tree
[2023-11-06 14:01:44,887]:DEBUG:     path: ./000000
[2023-11-06 14:01:44,887]:DEBUG:   No preprocessing changes were detected, stop additional include-preprocess runs.
[2023-11-06 14:01:44,887]:DEBUG:   Remove invalid tags
[2023-11-06 14:01:44,887]:DEBUG:     Available tags: 
[2023-11-06 14:01:44,888]:DEBUG:   Preprocess done
[2023-11-06 14:01:44,888]:DEBUG:   Preprocess benchmark xml tree
[2023-11-06 14:01:44,888]:DEBUG:   Parsing <parameterset name="systemParameter">
[2023-11-06 14:01:44,888]:DEBUG:   Parsing <parameterset name="applicationParameter">
[2023-11-06 14:01:44,888]:DEBUG:   Parsing <parameterset name="executeset">
[2023-11-06 14:01:44,888]:DEBUG:   Parsing <parameterset name="testcaseset">
[2023-11-06 14:01:44,889]:DEBUG:   Parsing <substituteset name="executesub">
[2023-11-06 14:01:44,889]:DEBUG:   Parsing <fileset name="jobfiles">
[2023-11-06 14:01:44,889]:DEBUG:   Parsing <patternset name="pattern_ph">
[2023-11-06 14:01:44,889]:DEBUG:   Parsing <step name="submit">
[2023-11-06 14:01:44,889]:DEBUG:   Parsing <analyser name="analyse">
[2023-11-06 14:01:44,889]:DEBUG: Parsing ./000000/workpackages.xml
[2023-11-06 14:01:44,906]:DEBUG: Parsing ./000000/analyse.xml
[2023-11-06 14:02:55,972]:DEBUG: Command: jube result --id all
[2023-11-06 14:02:55,973]:DEBUG: Version: 2.5.1
[2023-11-06 14:02:55,973]:DEBUG: Parsing ./000000/configuration.xml
[2023-11-06 14:02:55,974]:DEBUG:   --> Preprocess run 1 <--
[2023-11-06 14:02:55,974]:DEBUG:   Remove invalid tags
[2023-11-06 14:02:55,974]:DEBUG:     Available tags: 
[2023-11-06 14:02:55,974]:DEBUG:   Remove invalid tags
[2023-11-06 14:02:55,974]:DEBUG:     Available tags: 
[2023-11-06 14:02:55,975]:DEBUG:   Read $JUBE_INCLUDE_PATH
[2023-11-06 14:02:55,975]:DEBUG:   Preprocess xml tree
[2023-11-06 14:02:55,975]:DEBUG:     path: ./000000
[2023-11-06 14:02:55,975]:DEBUG:   No preprocessing changes were detected, stop additional include-preprocess runs.
[2023-11-06 14:02:55,975]:DEBUG:   Remove invalid tags
[2023-11-06 14:02:55,975]:DEBUG:     Available tags: 
[2023-11-06 14:02:55,975]:DEBUG:   Preprocess done
[2023-11-06 14:02:55,975]:DEBUG:   Preprocess benchmark xml tree
[2023-11-06 14:02:55,975]:DEBUG:   Parsing <parameterset name="systemParameter">
[2023-11-06 14:02:55,975]:DEBUG:   Parsing <parameterset name="applicationParameter">
[2023-11-06 14:02:55,976]:DEBUG:   Parsing <parameterset name="executeset">
[2023-11-06 14:02:55,976]:DEBUG:   Parsing <parameterset name="testcaseset">
[2023-11-06 14:02:55,976]:DEBUG:   Parsing <substituteset name="executesub">
[2023-11-06 14:02:55,976]:DEBUG:   Parsing <fileset name="jobfiles">
[2023-11-06 14:02:55,976]:DEBUG:   Parsing <patternset name="pattern_ph">
[2023-11-06 14:02:55,976]:DEBUG:   Parsing <step name="submit">
[2023-11-06 14:02:55,976]:DEBUG:   Parsing <analyser name="analyse">
[2023-11-06 14:02:55,976]:DEBUG: Parsing ./000000/workpackages.xml
[2023-11-06 14:02:55,994]:DEBUG: Parsing ./000000/analyse.xml
[2023-11-06 14:04:09,628]:DEBUG: Command: jube result --id all
[2023-11-06 14:04:09,628]:DEBUG: Version: 2.5.1
[2023-11-06 14:04:09,628]:DEBUG: Parsing ./000000/configuration.xml
[2023-11-06 14:04:09,630]:DEBUG:   --> Preprocess run 1 <--
[2023-11-06 14:04:09,630]:DEBUG:   Remove invalid tags
[2023-11-06 14:04:09,630]:DEBUG:     Available tags: 
[2023-11-06 14:04:09,630]:DEBUG:   Remove invalid tags
[2023-11-06 14:04:09,630]:DEBUG:     Available tags: 
[2023-11-06 14:04:09,630]:DEBUG:   Read $JUBE_INCLUDE_PATH
[2023-11-06 14:04:09,630]:DEBUG:   Preprocess xml tree
[2023-11-06 14:04:09,630]:DEBUG:     path: ./000000
[2023-11-06 14:04:09,630]:DEBUG:   No preprocessing changes were detected, stop additional include-preprocess runs.
[2023-11-06 14:04:09,630]:DEBUG:   Remove invalid tags
[2023-11-06 14:04:09,630]:DEBUG:     Available tags: 
[2023-11-06 14:04:09,631]:DEBUG:   Preprocess done
[2023-11-06 14:04:09,631]:DEBUG:   Preprocess benchmark xml tree
[2023-11-06 14:04:09,631]:DEBUG:   Parsing <parameterset name="systemParameter">
[2023-11-06 14:04:09,631]:DEBUG:   Parsing <parameterset name="applicationParameter">
[2023-11-06 14:04:09,631]:DEBUG:   Parsing <parameterset name="executeset">
[2023-11-06 14:04:09,631]:DEBUG:   Parsing <parameterset name="testcaseset">
[2023-11-06 14:04:09,631]:DEBUG:   Parsing <substituteset name="executesub">
[2023-11-06 14:04:09,632]:DEBUG:   Parsing <fileset name="jobfiles">
[2023-11-06 14:04:09,632]:DEBUG:   Parsing <patternset name="pattern_ph">
[2023-11-06 14:04:09,632]:DEBUG:   Parsing <step name="submit">
[2023-11-06 14:04:09,632]:DEBUG:   Parsing <analyser name="analyse">
[2023-11-06 14:04:09,632]:DEBUG: Parsing ./000000/workpackages.xml
[2023-11-06 14:04:09,649]:DEBUG: Parsing ./000000/analyse.xml
