JobID        JobIDRaw        JobName  Partition  MaxVMSize  MaxVMSizeNode  MaxVMSizeTask  AveVMSize     MaxRSS MaxRSSNode MaxRSSTask     AveRSS MaxPages MaxPagesNode   MaxPagesTask   AvePages     MinCPU MinCPUNode MinCPUTask     AveCPU   NTasks  AllocCPUS    Elapsed      State ExitCode AveCPUFreq ReqCPUFreqMin ReqCPUFreqMax ReqCPUFreqGov     ReqMem ConsumedEnergy  MaxDiskRead MaxDiskReadNode MaxDiskReadTask    AveDiskRead MaxDiskWrite MaxDiskWriteNode MaxDiskWriteTask   AveDiskWrite    ReqTRES  AllocTRES TRESUsageInAve TRESUsageInMax TRESUsageInMaxNode TRESUsageInMaxTask TRESUsageInMin TRESUsageInMinNode TRESUsageInMinTask TRESUsageInTot TRESUsageOutMax TRESUsageOutMaxNode TRESUsageOutMaxTask TRESUsageOutAve TRESUsageOutTot 
------------ ------------ ---------- ---------- ---------- -------------- -------------- ---------- ---------- ---------- ---------- ---------- -------- ------------ -------------- ---------- ---------- ---------- ---------- ---------- -------- ---------- ---------- ---------- -------- ---------- ------------- ------------- ------------- ---------- -------------- ------------ --------------- --------------- -------------- ------------ ---------------- ---------------- -------------- ---------- ---------- -------------- -------------- ------------------ ------------------ -------------- ------------------ ------------------ -------------- --------------- ------------------- ------------------- --------------- --------------- 
4905764      4905764      submit.job standard-g                                                                                                                                                                                                             112   00:14:42    RUNNING      0:0                  Unknown       Unknown       Unknown       480G                                                                                                                                          billing=8+ billing=1+                                                                                                                                                                                                                                 
4905764.bat+ 4905764.bat+      batch                                                                                                                                                                                                               1        112   00:14:42    RUNNING      0:0          0             0             0             0                         0                                                                                                                                      cpu=112,g+                                                                                                                                                                                                                                 
4905764.0    4905764.0    select_gpu             47501360K      nid006878              0  45025600K  26375808K  nid006878          7 24806899.+    16200    nid006878              2      15318   00:14:16  nid006878          6   00:14:41        8        112   00:14:30  COMPLETED      0:0     20.03M       Unknown       Unknown       Unknown                   727.73K      131.27M       nid006878               0        129.02M        2.90M        nid006878                0          2.89M            cpu=112,g+ cpu=00:14:41,+ cpu=00:14:52,+ cpu=nid006878,ene+ cpu=7,fs/disk=0,m+ cpu=00:14:16,+ cpu=nid006878,ene+ cpu=6,fs/disk=4,m+ cpu=01:57:32,+ energy=1841,fs+ energy=nid006878,f+           fs/disk=0 energy=92,fs/d+ energy=742,fs/+ 
