JobId=7464823 JobName=submit.job
   UserId=lbellen1(33678) GroupId=interactive(25200) MCS_label=N/A
   Priority=139450 Nice=0 Account=cin_staff QOS=normal
   JobState=RUNNING Reason=None Dependency=(null)
   Requeue=0 Restarts=0 BatchFlag=1 Reboot=0 ExitCode=0:0
   DerivedExitCode=0:0
   RunTime=00:00:04 TimeLimit=04:00:00 TimeMin=N/A
   SubmitTime=2024-09-10T10:36:25 EligibleTime=2024-09-10T10:36:25
   AccrueTime=2024-09-10T10:36:25
   StartTime=2024-09-10T10:36:53 EndTime=2024-09-10T14:36:55 Deadline=N/A
   SuspendTime=None SecsPreSuspend=0 LastSchedEval=2024-09-10T10:36:53 Scheduler=Backfill
   Partition=dcgp_usr_prod AllocNode:Sid=slurm-controller:2737249
   ReqNodeList=(null) ExcNodeList=(null)
   NodeList=lrdn4872
   BatchHost=lrdn4872
   NumNodes=1 NumCPUs=112 NumTasks=16 CPUs/Task=7 ReqB:S:C:T=0:0:*:*
   TRES=cpu=112,mem=492800M,node=1,billing=112,gres/tmpfs=3298534883328
   Socks/Node=* NtasksPerN:B:S:C=16:0:*:* CoreSpec=*
   JOB_GRES=tmpfs:3298534883328
     Nodes=lrdn4872 CPU_IDs=0-111 Mem=492800 GRES=tmpfs(CNT:3298534883328)
   MinCPUsNode=112 MinMemoryCPU=4400M MinTmpDiskNode=0
   Features=(null) DelayBoot=00:00:00
   OverSubscribe=NO Contiguous=0 Licenses=(null) Network=(null)
   Command=/leonardo_scratch/fast/Max3_devel_2/WP3/qe/benchmarks/cri3/singlenode_1step/000002/000001_submit_N1np16omp7/work/submit.job
   WorkDir=/leonardo_scratch/fast/Max3_devel_2/WP3/qe/benchmarks/cri3/singlenode_1step/000002/000001_submit_N1np16omp7/work
   StdErr=/leonardo_scratch/fast/Max3_devel_2/WP3/qe/benchmarks/cri3/singlenode_1step/000002/000001_submit_N1np16omp7/work/slurm-7464823.out
   StdIn=/dev/null
   StdOut=/leonardo_scratch/fast/Max3_devel_2/WP3/qe/benchmarks/cri3/singlenode_1step/000002/000001_submit_N1np16omp7/work/slurm-7464823.out
   Power=
   TresPerNode=gres:tmpfs:10g
   

